time,screeningCoverage,vaccineResponseProb,screeningScenario,totalHospCounts_025,totalHospCounts_500,totalHospCounts_975,vacInducedHospCount_025,vacInducedHospCount_500,vacInducedHospCount_975,vacInducedHospPerc_025,vacInducedHospPerc_500,vacInducedHospPerc_975,advHosp_025,advHosp_500,advHosp_975,nVaccines_025,nVaccines_500,nVaccines_975,nVaccinesPerYear_025,nVaccinesPerYear_500,nVaccinesPerYear_975
0.99725275,0.50000000,0.40000000,no screening,11396.79147839,13544.43957964,16109.38994439,82.60570012,96.54405815,116.46641779,0.00669213,0.00729192,0.00754298,-0.00492377,-0.00112420,0.00265597,126144.28081373,126170.23090069,126194.00044680,126144.28081373,126170.23090069,126194.00044680
1.99725275,0.50000000,0.40000000,no screening,11521.19509873,13667.06968591,16301.06917437,213.96290561,249.98222331,299.03300333,0.01723280,0.01862618,0.01901719,-0.00897637,-0.00571775,-0.00161096,253571.73383013,253623.22397268,253675.08354315,127400.55322309,127449.38320440,127496.95066191
2.99725275,0.50000000,0.40000000,no screening,11650.02329575,13826.58322965,16512.27762470,331.86700062,386.95588729,464.34026368,0.02637193,0.02846489,0.02906890,-0.01222740,-0.00568339,-0.00293062,381926.23347776,382013.20086692,382101.27832772,128333.03584005,128387.19705874,128457.14015340
3.99725275,0.50000000,0.40000000,no screening,11754.99944855,13932.95869607,16737.01951979,436.08773552,508.26710646,610.88508589,0.03438896,0.03706783,0.03786032,-0.00834529,-0.00522320,-0.00177479,511297.49258959,511408.91987995,511555.30654666,129344.22879923,129396.85198087,129471.35080999
4.99725275,0.50000000,0.40000000,no screening,11854.04087678,14040.60784032,16841.49871397,529.50849700,619.56979555,740.83771544,0.04143412,0.04465742,0.04564319,-0.01007966,-0.00494789,-0.00145266,641719.75820027,641856.50321044,642030.57577769,130377.74175755,130448.14465885,130507.96382396
5.99725275,0.50000000,0.40000000,no screening,11954.53680124,14152.34488113,16998.96183785,613.30589154,714.68759073,859.63237981,0.04765311,0.05133823,0.05249696,-0.00611777,-0.00149197,0.00247588,773235.86627987,773384.88856164,773557.34070715,131471.48552625,131528.72425486,131582.75756412
6.99725275,0.50000000,0.40000000,no screening,12036.40372338,14237.76072603,17116.22990355,687.40575313,804.66127568,964.20446401,0.05315759,0.05723004,0.05856682,-0.00364080,0.00054109,0.00424441,905902.16986552,906040.38973770,906225.63471927,132603.87843563,132664.53627317,132740.48945817
7.99725275,0.50000000,0.40000000,no screening,12118.76183821,14333.71278388,17219.83927125,754.12014734,882.56559415,1058.92029902,0.05802567,0.06239500,0.06394215,-0.00220619,0.00392997,0.00829029,1039716.09030197,1039870.53135902,1040053.83021734,133750.70645260,133827.26092201,133902.22813015
8.99725275,0.50000000,0.40000000,no screening,12201.57683790,14432.23603316,17330.30755631,813.30700349,952.01793999,1145.62404315,0.06234260,0.06692612,0.06868829,0.00326133,0.00773450,0.01096930,1174767.99673889,1174941.34094938,1175154.72222659,135001.82921221,135075.46174495,135136.36873292
9.99725275,0.50000000,0.40000000,no screening,12291.08238970,14518.08324603,17410.94493943,867.08406858,1017.60975654,1220.92715801,0.06616891,0.07093154,0.07288839,0.00577102,0.01098954,0.01447745,1311095.01724539,1311292.26054443,1311532.21859057,136276.70758309,136354.82985067,136431.68239341
0.99725275,0.50000000,0.40000000,perfect screening,11315.28074848,13458.57640238,16002.46405474,0.00000000,0.00000000,0.00000000,0.00000000,0.00000000,0.00000000,0.00209460,0.00595778,0.00956633,73486.46232426,74402.11584536,74869.73677288,73486.46232426,74402.11584536,74869.73677288
1.99725275,0.50000000,0.40000000,perfect screening,11322.30966193,13440.96665750,16021.80321389,0.00000000,0.00000000,0.00000000,0.00000000,0.00000000,0.00000000,0.00823678,0.01220384,0.01563629,147760.04234965,149463.08222751,150403.92100344,74273.58002538,75067.17594063,75539.15841267
2.99725275,0.50000000,0.40000000,perfect screening,11344.11128259,13501.54897636,16098.67482395,0.00000000,0.00000000,0.00000000,0.00000000,0.00000000,0.00000000,0.01288750,0.02070511,0.02416166,222560.91974522,224991.35805029,226435.06763099,74805.25848129,75536.11684861,76049.40899908
3.99725275,0.50000000,0.40000000,perfect screening,11385.70932718,13491.69288694,16189.40283465,0.00000000,0.00000000,0.00000000,0.00000000,0.00000000,0.00000000,0.02510065,0.02814367,0.03053730,297870.90854957,301035.13059681,303018.61548698,75334.14993248,76030.18984512,76583.54785599
4.99725275,0.50000000,0.40000000,perfect screening,11420.13312493,13544.71858185,16180.47906626,0.00000000,0.00000000,0.00000000,0.00000000,0.00000000,0.00000000,0.02828451,0.03404095,0.03646037,373736.45632387,377553.03994475,380166.02078734,75829.33175833,76534.20567165,77147.57297128
5.99725275,0.50000000,0.40000000,perfect screening,11473.04294621,13592.24148457,16289.77803973,0.00000000,0.00000000,0.00000000,0.00000000,0.00000000,0.00000000,0.03581162,0.04101329,0.04382674,450148.20136547,454637.40421702,457920.06064008,76363.38587389,77091.34455025,77726.22930939
6.99725275,0.50000000,0.40000000,perfect screening,11525.89270740,13630.80339946,16333.65835455,0.00000000,0.00000000,0.00000000,0.00000000,0.00000000,0.00000000,0.04261266,0.04543418,0.04786558,527163.74030159,532407.10447376,536288.71086606,76982.90755650,77692.41838444,78364.80058037
7.99725275,0.50000000,0.40000000,perfect screening,11595.05763682,13717.63788361,16371.44386186,0.00000000,0.00000000,0.00000000,0.00000000,0.00000000,0.00000000,0.04523537,0.05083042,0.05343138,604734.92574218,610699.85946818,615312.58422254,77559.96716732,78330.66167780,79000.48074346
8.99725275,0.50000000,0.40000000,perfect screening,11663.61420313,13769.23761762,16484.58372028,0.00000000,0.00000000,0.00000000,0.00000000,0.00000000,0.00000000,0.04969313,0.05494125,0.05857763,682950.46067674,689674.59295776,695046.64975887,78204.90296054,79015.50015732,79701.33113616
9.99725275,0.50000000,0.40000000,perfect screening,11741.37677594,13859.42212073,16523.12636649,0.00000000,0.00000000,0.00000000,0.00000000,0.00000000,0.00000000,0.05423156,0.05860678,0.06190323,761848.32922979,769388.79467951,775494.32868317,78897.86855305,79722.45176328,80422.03029638
0.99725275,0.50000000,0.40000000,realistic screening,11337.78371716,13484.75017504,16024.33584476,0.00316937,0.05177898,0.29116351,0.00000021,0.00000367,0.00002011,0.00020574,0.00406353,0.00744549,46983.47510916,53101.57206197,57914.59978102,46983.47510916,53101.57206197,57914.59978102
1.99725275,0.50000000,0.40000000,realistic screening,11383.11743863,13502.57450210,16104.52072882,0.00825437,0.13176194,0.74453795,0.00000056,0.00000939,0.00005171,0.00330936,0.00711210,0.01074466,94477.84885869,106706.28845636,116330.33502760,47494.37374953,53583.28477230,58415.73524658
2.99725275,0.50000000,0.40000000,realistic screening,11437.67022559,13611.54768286,16210.70661462,0.01279120,0.20458419,1.14956279,0.00000086,0.00001444,0.00007956,0.00609648,0.01225015,0.01630045,142299.07590993,160614.84975695,175114.41031551,47821.22705124,53949.75828923,58784.07528791
3.99725275,0.50000000,0.40000000,realistic screening,11502.84598977,13639.91622069,16382.35913944,0.01683556,0.26733211,1.51785994,0.00000112,0.00001888,0.00010411,0.01346482,0.01696796,0.01994002,190473.57596941,214943.24437333,234279.61928574,48174.50005948,54328.39461638,59165.20897023
4.99725275,0.50000000,0.40000000,realistic screening,11573.54383347,13728.93954965,16398.88337679,0.02041992,0.32526269,1.83385639,0.00000135,0.00002281,0.00012577,0.01481875,0.02002276,0.02356484,238980.22826106,269618.33186409,293844.88297856,48506.65229165,54675.08749076,59565.26369282
5.99725275,0.50000000,0.40000000,realistic screening,11653.37391106,13806.38030231,16560.94232175,0.02369984,0.37736201,2.13157479,0.00000155,0.00002628,0.00014481,0.01941339,0.02457637,0.02920907,287829.23788580,324695.40001062,353845.96835217,48849.00962474,55077.06814654,60001.08537360
6.99725275,0.50000000,0.40000000,realistic screening,11737.18373301,13871.24177238,16641.77672931,0.02654947,0.42223514,2.38755821,0.00000173,0.00002933,0.00016152,0.02202732,0.02746194,0.03195411,337041.37793312,380178.02672459,414276.29234107,49212.14004732,55482.62671397,60430.32398890
7.99725275,0.50000000,0.40000000,realistic screening,11813.16520862,13988.49981982,16733.51061229,0.02917530,0.46534003,2.62323227,0.00000189,0.00003201,0.00017617,0.02465901,0.03016503,0.03498676,386602.49104711,436100.44108010,475185.96757358,49561.11311399,55922.41435550,60909.67523251
8.99725275,0.50000000,0.40000000,realistic screening,11911.74088723,14070.18744128,16883.10938967,0.03150342,0.50114933,2.83922074,0.00000203,0.00003436,0.00018896,0.02679332,0.03299066,0.03839858,436582.26299908,492482.24719817,536640.71889913,49979.77195196,56381.80611807,61454.75132554
9.99725275,0.50000000,0.40000000,realistic screening,12005.09303724,14179.63900958,16956.56969826,0.03361262,0.53545161,3.02603706,0.00000215,0.00003641,0.00020012,0.02808649,0.03552694,0.04163327,486942.38166187,549340.57765247,598634.72658516,50360.11866280,56858.33045431,61994.00768604
0.99725275,0.50000000,0.40000000,no vaccine,11377.19538723,13507.51070614,16055.14445861,NaN,NaN,NaN,NaN,NaN,NaN,NaN,NaN,NaN,NaN,NaN,NaN,NaN,NaN,NaN
1.99725275,0.50000000,0.40000000,no vaccine,11481.03555051,13601.85124713,16275.79625139,NaN,NaN,NaN,NaN,NaN,NaN,NaN,NaN,NaN,NaN,NaN,NaN,NaN,NaN,NaN
2.99725275,0.50000000,0.40000000,no vaccine,11585.48495971,13765.77095811,16303.21269510,NaN,NaN,NaN,NaN,NaN,NaN,NaN,NaN,NaN,NaN,NaN,NaN,NaN,NaN,NaN
3.99725275,0.50000000,0.40000000,no vaccine,11709.26994346,13872.35535768,16666.78420109,NaN,NaN,NaN,NaN,NaN,NaN,NaN,NaN,NaN,NaN,NaN,NaN,NaN,NaN,NaN
4.99725275,0.50000000,0.40000000,no vaccine,11828.89958465,14020.66064260,16680.89100394,NaN,NaN,NaN,NaN,NaN,NaN,NaN,NaN,NaN,NaN,NaN,NaN,NaN,NaN,NaN
5.99725275,0.50000000,0.40000000,no vaccine,11930.96505242,14168.54360412,16911.59536557,NaN,NaN,NaN,NaN,NaN,NaN,NaN,NaN,NaN,NaN,NaN,NaN,NaN,NaN,NaN
6.99725275,0.50000000,0.40000000,no vaccine,12061.45129719,14280.38235214,17104.58470213,NaN,NaN,NaN,NaN,NaN,NaN,NaN,NaN,NaN,NaN,NaN,NaN,NaN,NaN,NaN
7.99725275,0.50000000,0.40000000,no vaccine,12197.93515944,14445.53375849,17161.46772171,NaN,NaN,NaN,NaN,NaN,NaN,NaN,NaN,NaN,NaN,NaN,NaN,NaN,NaN,NaN
8.99725275,0.50000000,0.40000000,no vaccine,12314.30294504,14560.14560838,17440.98922127,NaN,NaN,NaN,NaN,NaN,NaN,NaN,NaN,NaN,NaN,NaN,NaN,NaN,NaN,NaN
9.99725275,0.50000000,0.40000000,no vaccine,12439.73835040,14715.75007345,17533.73897178,NaN,NaN,NaN,NaN,NaN,NaN,NaN,NaN,NaN,NaN,NaN,NaN,NaN,NaN,NaN
0.99725275,0.50000000,0.60000000,no screening,11407.21733661,13556.25390414,16127.26041469,123.92123815,144.83660626,174.71236871,0.01002942,0.01092620,0.01130206,-0.00628181,-0.00230244,0.00172776,126147.61386562,126171.91799729,126194.31916133,126147.61386562,126171.91799729,126194.31916133
1.99725275,0.50000000,0.60000000,no screening,11550.45164789,13691.01179232,16357.02536601,321.08245663,375.00933332,448.67649824,0.02579164,0.02787024,0.02844338,-0.01207277,-0.00795759,-0.00429516,253563.67045536,253616.29581947,253690.77795767,127402.93216126,127448.10384711,127503.78198039
2.99725275,0.50000000,0.60000000,no screening,11670.59139043,13852.51866178,16584.45394492,497.25703466,580.73595459,696.01753669,0.03945280,0.04257156,0.04343282,-0.01648281,-0.00847197,-0.00532242,381929.34827366,382003.56874812,382110.06724771,128338.53238851,128386.32590343,128462.65115479
3.99725275,0.50000000,0.60000000,no screening,11774.85217152,13957.70576132,16795.84113952,654.06624391,761.77323383,916.74166226,0.05145728,0.05544416,0.05658464,-0.01116847,-0.00798412,-0.00385802,511299.43362363,511404.65634196,511534.43247817,129338.23991216,129397.58434561,129461.69366260
4.99725275,0.50000000,0.60000000,no screening,11873.36670032,14054.42015172,16902.69235961,794.55607780,930.06941240,1110.68995666,0.06204158,0.06683684,0.06824802,-0.01371963,-0.00693091,-0.00244101,641720.38785003,641859.33153478,642009.18991106,130389.46911943,130450.69035136,130495.92742014
5.99725275,0.50000000,0.60000000,no screening,11949.70703781,14140.52113884,17032.02861783,919.41390637,1071.60621881,1290.23690510,0.07143082,0.07693425,0.07856583,-0.00982127,-0.00231105,0.00212924,773239.32057337,773382.94022393,773556.74795607,131458.45294848,131525.96627135,131583.28396749
6.99725275,0.50000000,0.60000000,no screening,12023.16877825,14213.82593255,17146.29173087,1031.10421648,1207.27550510,1446.36768762,0.07979141,0.08584604,0.08775125,-0.00453008,0.00090999,0.00633889,905885.67423006,906043.37657889,906265.21865098,132592.15690303,132661.09392408,132721.57152931
7.99725275,0.50000000,0.60000000,no screening,12084.69067177,14284.02722590,17200.85159472,1130.94220187,1324.43604887,1587.41527273,0.08723930,0.09379601,0.09595102,-0.00194464,0.00611531,0.01179424,1039664.72068446,1039871.08857097,1040102.01787553,133752.03947039,133827.84790271,133902.36292983
8.99725275,0.50000000,0.60000000,no screening,12143.85325166,14348.87990960,17293.81949065,1220.10060018,1427.95526371,1719.47962825,0.09390565,0.10075594,0.10324810,0.00560645,0.01141153,0.01553320,1174725.49756591,1174931.52055346,1175190.53892170,135003.22580313,135070.91081181,135125.48441751
9.99725275,0.50000000,0.60000000,no screening,12210.22659136,14415.85647461,17346.39280966,1300.33610280,1527.39181293,1830.50802596,0.09985694,0.10700511,0.10976523,0.00995397,0.01651072,0.02117217,1311048.25921393,1311294.16013701,1311573.86178861,136281.09717508,136361.25159329,136441.35935824
0.99725275,0.50000000,0.60000000,perfect screening,11286.04757857,13428.10196348,15973.52451928,0.00000000,0.00000000,0.00000000,0.00000000,0.00000000,0.00000000,0.00414011,0.00840749,0.01184640,73479.72347982,74399.45771701,74868.46094772,73479.72347982,74399.45771701,74868.46094772
1.99725275,0.50000000,0.60000000,perfect screening,11239.93324773,13359.98451215,15933.65786480,0.00000000,0.00000000,0.00000000,0.00000000,0.00000000,0.00000000,0.01479319,0.01866727,0.02201107,147738.07404486,149460.13361075,150415.05309402,74258.35056504,75062.18233090,75564.25384384
2.99725275,0.50000000,0.60000000,perfect screening,11218.84365252,13355.90011786,15946.47732069,0.00000000,0.00000000,0.00000000,0.00000000,0.00000000,0.00000000,0.02177923,0.03108616,0.03400590,222527.94009759,224995.52183938,226452.58810522,74797.56483645,75528.27371331,76044.14605307
3.99725275,0.50000000,0.60000000,perfect screening,11219.98064687,13317.44625063,15992.69269041,0.00000000,0.00000000,0.00000000,0.00000000,0.00000000,0.00000000,0.03738792,0.04220556,0.04433153,297853.28236642,301019.02944449,303041.64592910,75333.05551723,76017.94427320,76589.05782388
4.99725275,0.50000000,0.60000000,perfect screening,11225.25844963,13304.86848469,15918.96514975,0.00000000,0.00000000,0.00000000,0.00000000,0.00000000,0.00000000,0.04351970,0.05116430,0.05384132,373729.46609307,377561.76302777,380210.36956797,75852.36443152,76530.14885528,77151.07160404
5.99725275,0.50000000,0.60000000,perfect screening,11233.28812262,13305.77257090,15971.84725523,0.00000000,0.00000000,0.00000000,0.00000000,0.00000000,0.00000000,0.05393130,0.06114562,0.06405735,450143.39671206,454634.93063494,457954.59270227,76362.21054555,77091.02376945,77732.01409917
6.99725275,0.50000000,0.60000000,perfect screening,11267.04008985,13315.71811762,15966.25317984,0.00000000,0.00000000,0.00000000,0.00000000,0.00000000,0.00000000,0.06316513,0.06829926,0.07127193,527153.21420555,532359.78738558,536327.70266124,76963.56748323,77693.72469660,78364.48533265
7.99725275,0.50000000,0.60000000,perfect screening,11298.58946573,13343.11216802,15950.67454498,0.00000000,0.00000000,0.00000000,0.00000000,0.00000000,0.00000000,0.06914867,0.07597526,0.07977982,604713.09912868,610697.92075086,615370.77259937,77545.39528695,78322.78237098,79025.22419319
8.99725275,0.50000000,0.60000000,perfect screening,11335.09459499,13386.58562808,16025.96594550,0.00000000,0.00000000,0.00000000,0.00000000,0.00000000,0.00000000,0.07528983,0.08254836,0.08677574,682923.16145809,689653.90200220,695090.74021257,78210.06232941,79020.30402931,79682.60866650
9.99725275,0.50000000,0.60000000,perfect screening,11395.32611768,13429.67445205,16017.99842756,0.00000000,0.00000000,0.00000000,0.00000000,0.00000000,0.00000000,0.08235238,0.08811348,0.09245006,761833.88936723,769367.68087606,775544.34680942,78891.32266812,79723.69727519,80433.54524864
0.99725275,0.50000000,0.60000000,realistic screening,11318.81671014,13463.33311919,16008.87560008,0.00475330,0.07766773,0.43674397,0.00000032,0.00000551,0.00003021,0.00170691,0.00558515,0.00888801,46987.49274204,53099.47622573,57914.67216827,46987.49274204,53099.47622573,57914.67216827
1.99725275,0.50000000,0.60000000,realistic screening,11335.31276879,13453.93419094,16052.91240062,0.01238346,0.19762608,1.11696678,0.00000084,0.00001413,0.00007784,0.00674097,0.01084386,0.01403577,94461.44689160,106693.54054010,116341.96966084,47473.95414957,53583.39713296,58427.29749257
2.99725275,0.50000000,0.60000000,realistic screening,11360.54086920,13526.73961901,16134.81715552,0.01917391,0.30692017,1.72388430,0.00000129,0.00002178,0.00012003,0.01136616,0.01824742,0.02345776,142288.80081167,160607.61016622,175125.66028689,47827.35392007,53943.93099766,58783.69062604
3.99725275,0.50000000,0.60000000,realistic screening,11397.64650207,13517.71440682,16260.68278731,0.02526079,0.40100602,2.27922458,0.00000169,0.00002853,0.00015742,0.02069491,0.02514530,0.02909298,190462.62259737,214907.42594800,234283.79804552,48173.82178570,54303.73884757,59158.13775864
4.99725275,0.50000000,0.60000000,realistic screening,11447.20573841,13576.71068445,16252.99566801,0.03064118,0.48802370,2.74732763,0.00000205,0.00003455,0.00019051,0.02378846,0.03006098,0.03469098,238966.68452757,269593.28238845,293864.74032063,48504.06193020,54685.85644044,59580.94227511
5.99725275,0.50000000,0.60000000,realistic screening,11503.53753276,13627.36338728,16382.54801521,0.03552073,0.56579472,3.20088071,0.00000236,0.00003987,0.00021977,0.02948778,0.03631488,0.04242156,287816.64462823,324672.15482837,353849.72840632,48849.96010066,55078.87243992,59984.98808569
6.99725275,0.50000000,0.60000000,realistic screening,11568.04718107,13673.69786851,16434.00701958,0.03987077,0.63342557,3.58400573,0.00000264,0.00004457,0.00024554,0.03357341,0.04111453,0.04757892,337032.55481115,380146.13257019,414294.04601506,49215.91018292,55473.97774182,60444.31760874
7.99725275,0.50000000,0.60000000,realistic screening,11629.66327041,13753.67288554,16495.69617774,0.04369754,0.69761854,3.93221737,0.00000288,0.00004873,0.00026819,0.03804316,0.04478528,0.05227156,386606.89867535,436050.04952780,475227.28162808,49574.34386420,55903.91695762,60933.23561303
8.99725275,0.50000000,0.60000000,realistic screening,11708.23239094,13827.99380577,16619.84078614,0.04735065,0.75178344,4.26083453,0.00000309,0.00005237,0.00028805,0.04114009,0.04935244,0.05679207,436582.91457023,492432.38369432,536684.12412557,49976.01589488,56382.33416652,61456.84249749
9.99725275,0.50000000,0.60000000,realistic screening,11791.65460375,13912.31317222,16675.43749151,0.05039216,0.80345497,4.53568761,0.00000328,0.00005558,0.00030545,0.04412025,0.05305760,0.06145429,486974.97110258,549290.94778877,598693.02294525,50392.05653235,56858.56409445,62008.89881968
0.99725275,0.50000000,0.60000000,no vaccine,11377.19538723,13507.51070614,16055.14445861,NaN,NaN,NaN,NaN,NaN,NaN,NaN,NaN,NaN,NaN,NaN,NaN,NaN,NaN,NaN
1.99725275,0.50000000,0.60000000,no vaccine,11481.03555051,13601.85124713,16275.79625139,NaN,NaN,NaN,NaN,NaN,NaN,NaN,NaN,NaN,NaN,NaN,NaN,NaN,NaN,NaN
2.99725275,0.50000000,0.60000000,no vaccine,11585.48495971,13765.77095811,16303.21269510,NaN,NaN,NaN,NaN,NaN,NaN,NaN,NaN,NaN,NaN,NaN,NaN,NaN,NaN,NaN
3.99725275,0.50000000,0.60000000,no vaccine,11709.26994346,13872.35535768,16666.78420109,NaN,NaN,NaN,NaN,NaN,NaN,NaN,NaN,NaN,NaN,NaN,NaN,NaN,NaN,NaN
4.99725275,0.50000000,0.60000000,no vaccine,11828.89958465,14020.66064260,16680.89100394,NaN,NaN,NaN,NaN,NaN,NaN,NaN,NaN,NaN,NaN,NaN,NaN,NaN,NaN,NaN
5.99725275,0.50000000,0.60000000,no vaccine,11930.96505242,14168.54360412,16911.59536557,NaN,NaN,NaN,NaN,NaN,NaN,NaN,NaN,NaN,NaN,NaN,NaN,NaN,NaN,NaN
6.99725275,0.50000000,0.60000000,no vaccine,12061.45129719,14280.38235214,17104.58470213,NaN,NaN,NaN,NaN,NaN,NaN,NaN,NaN,NaN,NaN,NaN,NaN,NaN,NaN,NaN
7.99725275,0.50000000,0.60000000,no vaccine,12197.93515944,14445.53375849,17161.46772171,NaN,NaN,NaN,NaN,NaN,NaN,NaN,NaN,NaN,NaN,NaN,NaN,NaN,NaN,NaN
8.99725275,0.50000000,0.60000000,no vaccine,12314.30294504,14560.14560838,17440.98922127,NaN,NaN,NaN,NaN,NaN,NaN,NaN,NaN,NaN,NaN,NaN,NaN,NaN,NaN,NaN
9.99725275,0.50000000,0.60000000,no vaccine,12439.73835040,14715.75007345,17533.73897178,NaN,NaN,NaN,NaN,NaN,NaN,NaN,NaN,NaN,NaN,NaN,NaN,NaN,NaN,NaN
0.99725275,0.50000000,0.80000000,no screening,11415.22199477,13569.17382732,16148.46659111,165.30045166,193.13794663,232.94309933,0.01335943,0.01455177,0.01505203,-0.00769147,-0.00352408,0.00043420,126146.43072449,126173.75437122,126191.15158355,126146.43072449,126173.75437122,126191.15158355
1.99725275,0.50000000,0.80000000,no screening,11572.22509010,13714.30040428,16409.27566588,427.99173391,500.16240954,598.16721451,0.03431129,0.03705459,0.03781672,-0.01483118,-0.01070731,-0.00663038,253555.29150194,253618.02932962,253665.92999737,127395.07138107,127443.71837490,127491.87698742
2.99725275,0.50000000,0.80000000,no screening,11705.69617614,13884.52984995,16624.54419121,663.52184190,773.80253387,928.28081533,0.05246275,0.05659481,0.05768831,-0.02031519,-0.01127424,-0.00757104,381930.17917979,382004.00997520,382089.51288107,128334.23826810,128385.06894507,128453.66978215
3.99725275,0.50000000,0.80000000,no screening,11798.72435397,13976.57394747,16880.48544670,872.09558065,1016.49870672,1222.44137079,0.06843446,0.07374966,0.07516039,-0.01537043,-0.01076202,-0.00557099,511306.66726233,511403.06685027,511524.43218300,129338.30339923,129398.42486022,129455.41224000
4.99725275,0.50000000,0.80000000,no screening,11881.63609234,14068.57312936,16954.18964600,1058.80441954,1239.69395196,1480.75291316,0.08256468,0.08897396,0.09068884,-0.01737862,-0.00894094,-0.00273487,641723.73011020,641846.37404341,641973.59094396,130388.18799007,130446.72919991,130499.34194459
5.99725275,0.50000000,0.80000000,no screening,11954.34554221,14146.25166563,17073.56914204,1226.25454166,1429.37258490,1720.49779946,0.09518122,0.10249276,0.10450690,-0.01262591,-0.00356003,0.00243793,773233.24487163,773385.16157660,773525.45020404,131481.20490044,131531.57972237,131585.28847797
6.99725275,0.50000000,0.80000000,no screening,12006.16425401,14179.92885759,17171.51225300,1374.90965227,1608.80079235,1928.02439093,0.10647425,0.11457039,0.11687581,-0.00600567,0.00100324,0.00828634,905877.97500950,906040.10838900,906214.19019247,132600.05106257,132663.61841556,132726.68421560
7.99725275,0.50000000,0.80000000,no screening,12057.90143712,14252.99759376,17167.66311269,1508.19417597,1765.82826234,2118.36688750,0.11660741,0.12526440,0.12798936,-0.00221337,0.00798035,0.01462585,1039705.61538450,1039871.02871073,1040050.48714216,133748.94948573,133825.59140254,133904.32025207
8.99725275,0.50000000,0.80000000,no screening,12101.17869349,14271.80001726,17267.03207618,1627.76311964,1903.46804379,2290.17396545,0.12575105,0.13491125,0.13796099,0.00694736,0.01527374,0.02094301,1174735.73352089,1174938.46359025,1175171.53452986,135013.49218107,135075.06403044,135136.59707758
9.99725275,0.50000000,0.80000000,no screening,12129.18287132,14318.14402517,17266.73153414,1733.64886201,2035.60104269,2441.75149627,0.13397726,0.14344826,0.14694292,0.01405975,0.02197211,0.02814348,1311062.02494316,1311301.46274384,1311526.48555924,136291.53899576,136364.48648370,136440.07718088
0.99725275,0.50000000,0.80000000,perfect screening,11251.95680627,13397.72528238,15944.87596682,0.00000000,0.00000000,0.00000000,0.00000000,0.00000000,0.00000000,0.00625974,0.01073998,0.01389124,73495.74334008,74399.70554119,74866.48723502,73495.74334008,74399.70554119,74866.48723502
1.99725275,0.50000000,0.80000000,perfect screening,11166.99027946,13274.28084486,15842.83296148,0.00000000,0.00000000,0.00000000,0.00000000,0.00000000,0.00000000,0.02101231,0.02514675,0.02840536,147760.98704418,149457.70080362,150411.39330007,74265.24370411,75049.66170431,75551.96305552
2.99725275,0.50000000,0.80000000,perfect screening,11095.96417458,13216.25689345,15806.86992331,0.00000000,0.00000000,0.00000000,0.00000000,0.00000000,0.00000000,0.03031123,0.04157283,0.04435689,222546.67485457,225007.60940913,226448.66934817,74796.85938827,75534.04454770,76048.01963784
3.99725275,0.50000000,0.80000000,perfect screening,11054.01537829,13127.31187647,15780.37896680,0.00000000,0.00000000,0.00000000,0.00000000,0.00000000,0.00000000,0.04984440,0.05581853,0.05833008,297895.10095978,301041.77893500,303029.73589172,75328.20831594,76031.21533582,76581.06654355
4.99725275,0.50000000,0.80000000,perfect screening,11025.86249447,13060.20635246,15653.59231065,0.00000000,0.00000000,0.00000000,0.00000000,0.00000000,0.00000000,0.05968080,0.06853254,0.07179049,373766.70666226,377576.96474644,380202.07821207,75839.35034591,76530.31560138,77162.23984164
5.99725275,0.50000000,0.80000000,perfect screening,10997.97416647,13029.25629321,15662.96588196,0.00000000,0.00000000,0.00000000,0.00000000,0.00000000,0.00000000,0.07163103,0.08157143,0.08491075,450189.77102019,454642.03136402,457953.08657246,76382.32390067,77097.21353588,77740.15485754
6.99725275,0.50000000,0.80000000,perfect screening,10986.60192701,12991.90678643,15590.18318251,0.00000000,0.00000000,0.00000000,0.00000000,0.00000000,0.00000000,0.08357127,0.09138634,0.09427556,527188.80843392,532348.09062761,536299.83685707,76979.47261744,77684.46165385,78346.75028461
7.99725275,0.50000000,0.80000000,perfect screening,10998.12729439,12980.40869292,15540.72647801,0.00000000,0.00000000,0.00000000,0.00000000,0.00000000,0.00000000,0.09173265,0.10153766,0.10544634,604772.97449491,610703.26172096,615308.60682155,77577.12696772,78333.32104994,78997.08407075
8.99725275,0.50000000,0.80000000,perfect screening,11025.68659794,12982.43311057,15559.69143194,0.00000000,0.00000000,0.00000000,0.00000000,0.00000000,0.00000000,0.10005531,0.10998983,0.11495152,682990.93836107,689667.71937216,695035.04496018,78217.96386616,79010.37892421,79709.97386631
9.99725275,0.50000000,0.80000000,perfect screening,11031.76414565,12990.76606596,15505.11325897,0.00000000,0.00000000,0.00000000,0.00000000,0.00000000,0.00000000,0.11031243,0.11772648,0.12283232,761895.93735679,769420.95789437,775497.83867942,78904.99899572,79731.00810483,80430.75893445
0.99725275,0.50000000,0.80000000,realistic screening,11301.75469093,13447.05176746,15990.58809160,0.00633908,0.10355605,0.58227323,0.00000043,0.00000736,0.00004034,0.00278058,0.00703976,0.01024609,46978.50095017,53101.35498240,57911.65098731,46978.50095017,53101.35498240,57911.65098731
1.99725275,0.50000000,0.80000000,realistic screening,11281.00434566,13402.87076576,15987.61244754,0.01648843,0.26355871,1.49002383,0.00000112,0.00001891,0.00010416,0.00991597,0.01485775,0.01835516,94458.26453500,106696.37658991,116326.92060859,47479.76358483,53591.15515988,58415.26962128
2.99725275,0.50000000,0.80000000,realistic screening,11290.41960365,13416.48847308,16057.31916477,0.02559839,0.40923347,2.29685519,0.00000173,0.00002920,0.00016097,0.01676306,0.02424773,0.03054232,142280.21310010,160627.92983458,175121.94194914,47821.94856511,53953.63659211,58795.02134055
3.99725275,0.50000000,0.80000000,realistic screening,11296.48125101,13412.64928716,16136.81786878,0.03365152,0.53484353,3.03790516,0.00000227,0.00003834,0.00021154,0.02766586,0.03354340,0.03877652,190475.92316378,214937.44401573,234283.18466868,48195.71006368,54309.51418114,59161.24271955
4.99725275,0.50000000,0.80000000,realistic screening,11313.51868489,13419.67516851,16108.29349713,0.04085431,0.65068957,3.66641748,0.00000275,0.00004651,0.00025655,0.03184463,0.04026847,0.04637847,238983.84894607,269630.21633124,293847.72173422,48507.92578228,54692.77231551,59564.53706553
5.99725275,0.50000000,0.80000000,realistic screening,11362.14432329,13449.21554346,16196.75833080,0.04737520,0.75396817,4.26206563,0.00000318,0.00005377,0.00029648,0.03988676,0.04841600,0.05620164,287834.06835789,324722.47561221,353849.42575571,48850.21941182,55092.25928097,60001.70402150
6.99725275,0.50000000,0.80000000,realistic screening,11403.35598839,13472.40633181,16219.77417961,0.05310472,0.84528591,4.78524822,0.00000356,0.00006022,0.00033183,0.04442675,0.05464178,0.06252573,337048.64249208,380196.00253634,414277.84884884,49214.57413420,55473.52692414,60428.42309312
7.99725275,0.50000000,0.80000000,realistic screening,11441.78027346,13516.57912708,16266.13030593,0.05836494,0.92974767,5.23869943,0.00000390,0.00006594,0.00036300,0.05020570,0.05978994,0.06972959,386620.48049005,436083.10299394,475207.43079241,49571.83799797,55887.10045759,60929.58194357
8.99725275,0.50000000,0.80000000,realistic screening,11506.20016438,13583.58494658,16347.57146985,0.06302581,1.00273083,5.68092694,0.00000419,0.00007098,0.00039046,0.05516418,0.06606113,0.07549271,436575.70387904,492451.90158180,536672.16715638,49955.22338899,56368.79858787,61464.73636397
9.99725275,0.50000000,0.80000000,realistic screening,11575.35390528,13633.76035573,16376.77005735,0.06719688,1.07077320,6.05245397,0.00000445,0.00007542,0.00041454,0.05905300,0.07036321,0.08046941,486963.29685697,549281.85620187,598675.65925443,50387.59297793,56829.95462006,62003.49209805
0.99725275,0.50000000,0.80000000,no vaccine,11377.19538723,13507.51070614,16055.14445861,NaN,NaN,NaN,NaN,NaN,NaN,NaN,NaN,NaN,NaN,NaN,NaN,NaN,NaN,NaN
1.99725275,0.50000000,0.80000000,no vaccine,11481.03555051,13601.85124713,16275.79625139,NaN,NaN,NaN,NaN,NaN,NaN,NaN,NaN,NaN,NaN,NaN,NaN,NaN,NaN,NaN
2.99725275,0.50000000,0.80000000,no vaccine,11585.48495971,13765.77095811,16303.21269510,NaN,NaN,NaN,NaN,NaN,NaN,NaN,NaN,NaN,NaN,NaN,NaN,NaN,NaN,NaN
3.99725275,0.50000000,0.80000000,no vaccine,11709.26994346,13872.35535768,16666.78420109,NaN,NaN,NaN,NaN,NaN,NaN,NaN,NaN,NaN,NaN,NaN,NaN,NaN,NaN,NaN
4.99725275,0.50000000,0.80000000,no vaccine,11828.89958465,14020.66064260,16680.89100394,NaN,NaN,NaN,NaN,NaN,NaN,NaN,NaN,NaN,NaN,NaN,NaN,NaN,NaN,NaN
5.99725275,0.50000000,0.80000000,no vaccine,11930.96505242,14168.54360412,16911.59536557,NaN,NaN,NaN,NaN,NaN,NaN,NaN,NaN,NaN,NaN,NaN,NaN,NaN,NaN,NaN
6.99725275,0.50000000,0.80000000,no vaccine,12061.45129719,14280.38235214,17104.58470213,NaN,NaN,NaN,NaN,NaN,NaN,NaN,NaN,NaN,NaN,NaN,NaN,NaN,NaN,NaN
7.99725275,0.50000000,0.80000000,no vaccine,12197.93515944,14445.53375849,17161.46772171,NaN,NaN,NaN,NaN,NaN,NaN,NaN,NaN,NaN,NaN,NaN,NaN,NaN,NaN,NaN
8.99725275,0.50000000,0.80000000,no vaccine,12314.30294504,14560.14560838,17440.98922127,NaN,NaN,NaN,NaN,NaN,NaN,NaN,NaN,NaN,NaN,NaN,NaN,NaN,NaN,NaN
9.99725275,0.50000000,0.80000000,no vaccine,12439.73835040,14715.75007345,17533.73897178,NaN,NaN,NaN,NaN,NaN,NaN,NaN,NaN,NaN,NaN,NaN,NaN,NaN,NaN,NaN
0.99725275,0.70000000,0.40000000,no screening,11405.84443805,13554.62770593,16122.93679681,115.65018357,135.17241920,163.02969685,0.00936228,0.01019993,0.01055133,-0.00583615,-0.00227513,0.00181139,176610.07908592,176639.46491148,176666.23973578,176610.07908592,176639.46491148,176666.23973578
1.99725275,0.70000000,0.40000000,no screening,11545.61459122,13680.83996910,16356.29747709,299.75513139,350.00194275,418.84248295,0.02408413,0.02602445,0.02656201,-0.01184887,-0.00746648,-0.00360416,354978.89360598,355055.05437473,355138.47753055,178348.56166518,178418.41272809,178491.20874145
2.99725275,0.70000000,0.40000000,no screening,11665.37070468,13852.41487233,16547.95951313,464.35226691,541.49416548,650.17487819,0.03684247,0.03975609,0.04056416,-0.01548366,-0.00778572,-0.00406941,534707.67856016,534812.99771977,534923.82600604,179668.64508262,179748.00897234,179830.74223977
3.99725275,0.70000000,0.40000000,no screening,11774.41299085,13953.20276002,16800.65676633,610.71561534,711.67769715,855.19742118,0.04804535,0.05177765,0.05284503,-0.01091555,-0.00751791,-0.00367047,715840.49772304,715964.56351645,716104.15210164,181089.39274479,181157.60883217,181217.76043409
4.99725275,0.70000000,0.40000000,no screening,11867.67163397,14043.70031422,16891.96207441,741.38681534,867.07624200,1036.97168469,0.05791913,0.06241630,0.06373602,-0.01240551,-0.00649567,-0.00230360,898410.54194976,898579.16065493,898764.12073311,182540.91766115,182612.16754213,182692.47362963
5.99725275,0.70000000,0.40000000,no screening,11949.61825767,14151.92193977,17023.61697059,858.15259199,1001.27903442,1205.60583760,0.06668112,0.07182307,0.07336010,-0.00973033,-0.00238332,0.00233159,1082506.22745096,1082714.87020710,1082924.37713255,184056.54112880,184145.66737524,184251.53233551
6.99725275,0.70000000,0.40000000,no screening,12022.31516372,14213.81528171,17138.04677066,962.39011275,1125.74705235,1349.08596328,0.07446920,0.08011555,0.08191734,-0.00427611,0.00065666,0.00599557,1268247.53854520,1268469.17185781,1268723.83200183,185661.61597130,185742.97438941,185832.71136493
7.99725275,0.70000000,0.40000000,no screening,12103.15206686,14295.63523008,17197.30795876,1056.56166973,1235.80741243,1484.33243271,0.08139940,0.08750006,0.08955362,-0.00261248,0.00538166,0.01029508,1455616.81329595,1455868.37986395,1456151.59002562,187340.54928913,187408.98942488,187485.72412881
8.99725275,0.70000000,0.40000000,no screening,12162.05025342,14373.36666205,17301.85804387,1139.51254049,1332.99875623,1604.04738619,0.08758687,0.09397693,0.09633534,0.00420161,0.01027763,0.01428250,1644740.14504070,1644998.48895314,1645276.28452415,189035.40630588,189120.62467031,189206.06335597
9.99725275,0.70000000,0.40000000,no screening,12221.89578482,14424.79679558,17365.84709207,1213.27940832,1423.80801640,1708.63069019,0.09309359,0.09975852,0.10237634,0.00965059,0.01547997,0.01980115,1835615.58774747,1835919.77661518,1836204.83458838,190824.13274966,190904.60189404,191001.10515869
0.99725275,0.70000000,0.40000000,perfect screening,11288.28480142,13436.36329496,15981.47397302,0.00000000,0.00000000,0.00000000,0.00000000,0.00000000,0.00000000,0.00363519,0.00791238,0.01113134,102872.52279647,104157.68285992,104808.91000171,102872.52279647,104157.68285992,104808.91000171
1.99725275,0.70000000,0.40000000,perfect screening,11259.26195733,13369.75542604,15955.65596108,0.00000000,0.00000000,0.00000000,0.00000000,0.00000000,0.00000000,0.01385406,0.01728626,0.02027784,206840.21996612,209238.80420763,210559.25205002,103971.17864139,105076.85800269,105769.35474663
2.99725275,0.70000000,0.40000000,perfect screening,11246.43108260,13386.60090666,15973.74246398,0.00000000,0.00000000,0.00000000,0.00000000,0.00000000,0.00000000,0.02015961,0.02928386,0.03198780,311585.08964001,314988.43639077,317050.17461951,104731.47233725,105742.30419326,106490.92256949
3.99725275,0.70000000,0.40000000,perfect screening,11248.06541394,13359.90737334,16026.13366318,0.00000000,0.00000000,0.00000000,0.00000000,0.00000000,0.00000000,0.03530363,0.03892791,0.04164843,417046.93418818,421438.17050525,424271.87972005,105442.53809293,106441.13421944,107221.70510054
4.99725275,0.70000000,0.40000000,perfect screening,11260.08938720,13353.76707447,15982.96663782,0.00000000,0.00000000,0.00000000,0.00000000,0.00000000,0.00000000,0.04083481,0.04780558,0.05043906,523275.85997165,528585.79377622,532264.97378987,106186.98671045,107146.87437386,107993.09406982
5.99725275,0.70000000,0.40000000,perfect screening,11281.11581708,13369.55072020,16026.79449505,0.00000000,0.00000000,0.00000000,0.00000000,0.00000000,0.00000000,0.05044698,0.05702205,0.06002506,630280.90982994,636541.13578705,641091.74975518,106936.42954367,107945.05448636,108826.77596531
6.99725275,0.70000000,0.40000000,perfect screening,11312.85297671,13376.21160600,16040.11218519,0.00000000,0.00000000,0.00000000,0.00000000,0.00000000,0.00000000,0.05932659,0.06373167,0.06644307,738068.76727567,745337.86139733,750819.76914403,107739.36164545,108764.23948901,109710.62751883
7.99725275,0.70000000,0.40000000,perfect screening,11360.91243554,13420.51865535,16042.98287367,0.00000000,0.00000000,0.00000000,0.00000000,0.00000000,0.00000000,0.06374423,0.07087712,0.07398342,846659.30103277,854938.61973575,861461.89932067,108588.04505974,109656.94777707,110609.90648296
8.99725275,0.70000000,0.40000000,perfect screening,11402.20560114,13459.86033804,16104.58284606,0.00000000,0.00000000,0.00000000,0.00000000,0.00000000,0.00000000,0.07059762,0.07707430,0.08098047,956117.49927455,965524.32031146,973084.61675052,109458.19824178,110601.04835620,111612.99823893
9.99725275,0.70000000,0.40000000,perfect screening,11464.71300351,13513.57081254,16117.55124089,0.00000000,0.00000000,0.00000000,0.00000000,0.00000000,0.00000000,0.07735404,0.08194721,0.08594545,1066539.68090876,1077113.28067458,1085723.99249150,110422.18163421,111594.22096545,112626.85829240
0.99725275,0.70000000,0.40000000,realistic screening,11319.92323749,13469.36739482,16015.90979584,0.00443581,0.07249716,0.40763673,0.00000030,0.00000514,0.00002819,0.00116668,0.00511653,0.00866495,65772.55072933,74344.10759855,81080.09647242,65772.55072933,74344.10759855,81080.09647242
1.99725275,0.70000000,0.40000000,realistic screening,11344.80430375,13460.87680406,16064.85177339,0.01155122,0.18447541,1.04274439,0.00000078,0.00001318,0.00007260,0.00589089,0.01016225,0.01328121,132254.02380345,149366.67103577,162867.52698427,66481.47307413,75012.33984409,81787.43051185
2.99725275,0.70000000,0.40000000,realistic screening,11379.93986796,13537.65762215,16148.01057941,0.01790767,0.28633792,1.60957890,0.00000120,0.00002030,0.00011191,0.01059163,0.01694882,0.02154822,199199.07848992,224859.46890016,245169.36507048,66945.05468647,75535.35461586,82301.83808621
3.99725275,0.70000000,0.40000000,realistic screening,11413.18575815,13547.65914395,16282.98167910,0.02354893,0.37426289,2.12456741,0.00000158,0.00002659,0.00014668,0.01938158,0.02342378,0.02735765,266653.48120053,300898.77997565,328010.08426524,67454.40271061,76039.31107550,82840.71919476
4.99725275,0.70000000,0.40000000,realistic screening,11475.51484916,13596.36788551,16286.37243047,0.02861015,0.45567920,2.56775749,0.00000191,0.00003219,0.00017746,0.02167571,0.02798576,0.03338362,334556.74475349,377470.93217628,411406.29819764,67903.26355296,76572.15220062,83396.21393240
5.99725275,0.70000000,0.40000000,realistic screening,11536.77884409,13667.83537456,16415.20675366,0.03315630,0.52789187,2.98288287,0.00000220,0.00003713,0.00020462,0.02821030,0.03424687,0.04005757,402954.67267918,454580.27931733,495386.34378125,68397.92792569,77109.34714106,83980.04558361
6.99725275,0.70000000,0.40000000,realistic screening,11600.95614713,13708.68122242,16487.37896814,0.03718803,0.59156205,3.34666067,0.00000245,0.00004149,0.00022856,0.03067538,0.03823365,0.04377996,471875.99483043,532253.19420732,579983.86223321,68921.32215126,77672.91488999,84597.51845197
7.99725275,0.70000000,0.40000000,realistic screening,11675.70581986,13795.92612644,16536.75537213,0.04084944,0.65110446,3.67060548,0.00000268,0.00004535,0.00024957,0.03516937,0.04222654,0.04886913,541253.78901031,610502.50081962,665269.47615591,69377.79417988,78249.30661230,85285.61392269
8.99725275,0.70000000,0.40000000,realistic screening,11744.11459090,13874.81711893,16669.75166295,0.04411126,0.70186506,3.97598104,0.00000288,0.00004872,0.00026799,0.03833350,0.04614997,0.05301596,611231.96840183,689431.80648986,751309.42471394,69978.17939152,78929.30567024,86039.94855803
9.99725275,0.70000000,0.40000000,realistic screening,11832.94032884,13969.08681642,16737.44492126,0.04708339,0.74965953,4.23308923,0.00000305,0.00005170,0.00028408,0.04095201,0.04976550,0.05736599,681739.57911419,769031.47233903,838143.82684911,70507.61071236,79599.66584917,86834.40213517
0.99725275,0.70000000,0.40000000,no vaccine,11377.19538723,13507.51070614,16055.14445861,NaN,NaN,NaN,NaN,NaN,NaN,NaN,NaN,NaN,NaN,NaN,NaN,NaN,NaN,NaN
1.99725275,0.70000000,0.40000000,no vaccine,11481.03555051,13601.85124713,16275.79625139,NaN,NaN,NaN,NaN,NaN,NaN,NaN,NaN,NaN,NaN,NaN,NaN,NaN,NaN,NaN
2.99725275,0.70000000,0.40000000,no vaccine,11585.48495971,13765.77095811,16303.21269510,NaN,NaN,NaN,NaN,NaN,NaN,NaN,NaN,NaN,NaN,NaN,NaN,NaN,NaN,NaN
3.99725275,0.70000000,0.40000000,no vaccine,11709.26994346,13872.35535768,16666.78420109,NaN,NaN,NaN,NaN,NaN,NaN,NaN,NaN,NaN,NaN,NaN,NaN,NaN,NaN,NaN
4.99725275,0.70000000,0.40000000,no vaccine,11828.89958465,14020.66064260,16680.89100394,NaN,NaN,NaN,NaN,NaN,NaN,NaN,NaN,NaN,NaN,NaN,NaN,NaN,NaN,NaN
5.99725275,0.70000000,0.40000000,no vaccine,11930.96505242,14168.54360412,16911.59536557,NaN,NaN,NaN,NaN,NaN,NaN,NaN,NaN,NaN,NaN,NaN,NaN,NaN,NaN,NaN
6.99725275,0.70000000,0.40000000,no vaccine,12061.45129719,14280.38235214,17104.58470213,NaN,NaN,NaN,NaN,NaN,NaN,NaN,NaN,NaN,NaN,NaN,NaN,NaN,NaN,NaN
7.99725275,0.70000000,0.40000000,no vaccine,12197.93515944,14445.53375849,17161.46772171,NaN,NaN,NaN,NaN,NaN,NaN,NaN,NaN,NaN,NaN,NaN,NaN,NaN,NaN,NaN
8.99725275,0.70000000,0.40000000,no vaccine,12314.30294504,14560.14560838,17440.98922127,NaN,NaN,NaN,NaN,NaN,NaN,NaN,NaN,NaN,NaN,NaN,NaN,NaN,NaN,NaN
9.99725275,0.70000000,0.40000000,no vaccine,12439.73835040,14715.75007345,17533.73897178,NaN,NaN,NaN,NaN,NaN,NaN,NaN,NaN,NaN,NaN,NaN,NaN,NaN,NaN,NaN
0.99725275,0.70000000,0.60000000,no screening,11419.40501346,13570.36643366,16153.30781992,173.57603452,202.80377662,244.60961579,0.01402394,0.01527586,0.01580018,-0.00792113,-0.00380397,0.00040926,176607.74879754,176638.83470562,176683.91565640,176607.74879754,176638.83470562,176683.91565640
1.99725275,0.70000000,0.60000000,no screening,11574.97631549,13722.34641889,16421.20021777,449.43492512,524.98590004,628.09926905,0.03601268,0.03889105,0.03968856,-0.01524820,-0.01098212,-0.00686130,354983.87625226,355066.07360084,355157.01704226,178365.84573522,178429.75380836,178493.68742521
2.99725275,0.70000000,0.60000000,no screening,11712.58726504,13890.72374034,16640.92196264,696.72719152,812.45825232,974.49035682,0.05506954,0.05937587,0.06052204,-0.02108467,-0.01192053,-0.00773873,534709.51547705,534811.24765534,534931.36621807,179664.79675077,179743.31109660,179837.39610550
3.99725275,0.70000000,0.60000000,no screening,11800.22326243,13987.89789058,16888.89921736,915.47918313,1067.00474966,1283.17026246,0.07183124,0.07740042,0.07885420,-0.01613083,-0.01135303,-0.00549719,715804.35308072,715960.48503389,716147.22002137,181087.99838863,181148.99740832,181217.96706600
4.99725275,0.70000000,0.60000000,no screening,11889.67960628,14061.11001642,16972.83820571,1112.23912469,1301.75359939,1555.66924120,0.08668494,0.09338962,0.09515476,-0.01787629,-0.00938485,-0.00356522,898352.74746017,898575.08154371,898785.06576660,182533.38399198,182605.98618637,182698.58802705
5.99725275,0.70000000,0.60000000,no screening,11950.49344653,14152.06887654,17089.60152854,1287.04296828,1500.37409750,1806.68339798,0.09994892,0.10759437,0.10968008,-0.01321676,-0.00361085,0.00191119,1082479.40676049,1082711.75248937,1083001.86520928,184076.92659157,184152.50456333,184226.09884724
6.99725275,0.70000000,0.60000000,no screening,12005.21658725,14176.20390410,17158.34744551,1443.64669300,1689.27893063,2025.41425048,0.11183562,0.12031847,0.12269650,-0.00626045,0.00098247,0.00860565,1268179.14369508,1268453.40644549,1268747.79758089,185665.74419208,185734.56136544,185828.94576886
7.99725275,0.70000000,0.60000000,no screening,12043.08547798,14238.92708485,17197.17016104,1583.39749897,1853.62867613,2224.61777002,0.12252989,0.13159643,0.13440756,-0.00179810,0.00824442,0.01485151,1455569.12708580,1455854.33588413,1456154.60733357,187309.48828505,187398.08432492,187486.12431423
8.99725275,0.70000000,0.60000000,no screening,12087.01555392,14266.69644098,17239.44516767,1708.47761970,2000.24087785,2406.77851478,0.13216652,0.14176475,0.14493430,0.00694465,0.01560819,0.02203225,1644687.17549044,1645008.72960793,1645370.15532361,189042.61870822,189127.72035117,189240.07417613
9.99725275,0.70000000,0.60000000,no screening,12120.96885564,14294.90800954,17260.48865907,1820.85676405,2136.66300426,2563.58810771,0.14086276,0.15078618,0.15442331,0.01535369,0.02311598,0.02957071,1835599.30228483,1835900.33758040,1836312.91194474,190823.64087495,190906.21658556,191028.87013180
0.99725275,0.70000000,0.60000000,perfect screening,11245.85803398,13389.68351208,15938.92364870,0.00000000,0.00000000,0.00000000,0.00000000,0.00000000,0.00000000,0.00650749,0.01127913,0.01441605,102875.46950770,104166.39514730,104818.36527385,102875.46950770,104166.39514730,104818.36527385
1.99725275,0.70000000,0.60000000,perfect screening,11151.47236337,13256.97345311,15828.08121364,0.00000000,0.00000000,0.00000000,0.00000000,0.00000000,0.00000000,0.02228588,0.02634394,0.02941952,206854.15225668,209268.67054236,210592.94683828,103978.68274898,105071.26590963,105788.32387072
2.99725275,0.70000000,0.60000000,perfect screening,11075.90254155,13190.56022011,15767.16524211,0.00000000,0.00000000,0.00000000,0.00000000,0.00000000,0.00000000,0.03243471,0.04344479,0.04664226,311537.92954271,314999.84181830,317066.49546740,104719.55301438,105750.75586878,106473.54862912
3.99725275,0.70000000,0.60000000,perfect screening,11017.94421273,13074.90047621,15744.75268758,0.00000000,0.00000000,0.00000000,0.00000000,0.00000000,0.00000000,0.05212243,0.05866520,0.06139772,417010.52256951,421447.40537479,424245.42575129,105449.72999914,106433.49094300,107196.45129628
4.99725275,0.70000000,0.60000000,perfect screening,10978.83706087,13031.04124617,15611.52937748,0.00000000,0.00000000,0.00000000,0.00000000,0.00000000,0.00000000,0.06197053,0.07192598,0.07542166,523222.57614805,528600.80509047,532244.83683273,106169.43134447,107176.14140822,107994.58454527
5.99725275,0.70000000,0.60000000,perfect screening,10958.79242615,12965.14202803,15588.24792850,0.00000000,0.00000000,0.00000000,0.00000000,0.00000000,0.00000000,0.07563231,0.08548652,0.08866291,630236.04526551,636562.92009189,641086.30838089,106956.00235971,107947.18187254,108824.43918431
6.99725275,0.70000000,0.60000000,perfect screening,10931.80418724,12923.74207256,15513.33007815,0.00000000,0.00000000,0.00000000,0.00000000,0.00000000,0.00000000,0.08769842,0.09602722,0.09934576,738030.44876587,745368.87780794,750781.67254210,107738.64284584,108764.51888496,109695.36416121
7.99725275,0.70000000,0.60000000,perfect screening,10936.48784575,12913.60368663,15462.92499857,0.00000000,0.00000000,0.00000000,0.00000000,0.00000000,0.00000000,0.09612753,0.10684585,0.11129502,846626.50886064,854960.70032809,861418.25974658,108550.00245332,109661.09389049,110610.94835789
8.99725275,0.70000000,0.60000000,perfect screening,10955.82194894,12888.38776013,15461.07489185,0.00000000,0.00000000,0.00000000,0.00000000,0.00000000,0.00000000,0.10630002,0.11550392,0.12044570,956104.46372681,965506.77136585,973022.78384676,109477.95486617,110599.03723573,111596.88084975
9.99725275,0.70000000,0.60000000,perfect screening,10971.37265281,12911.07905858,15409.35409807,0.00000000,0.00000000,0.00000000,0.00000000,0.00000000,0.00000000,0.11552796,0.12350493,0.12864401,1066525.35013591,1077110.13897283,1085645.33715173,110420.88640909,111602.58641192,112589.83528565
0.99725275,0.70000000,0.60000000,realistic screening,11297.91846324,13444.13326733,15990.27326104,0.00665509,0.10873466,0.61155370,0.00000045,0.00000773,0.00004237,0.00315083,0.00719065,0.01060249,65768.47323226,74343.28148214,81077.41500572,65768.47323226,74343.28148214,81077.41500572
1.99725275,0.70000000,0.60000000,realistic screening,11271.42204280,13388.75891678,15992.37824442,0.01732143,0.27669473,1.56268041,0.00000118,0.00001987,0.00010944,0.01052900,0.01567898,0.01966303,132237.63612209,149387.82192736,162879.72272525,66469.16288983,75014.68449199,81802.30771954
2.99725275,0.70000000,0.60000000,realistic screening,11271.16547537,13413.17293359,16033.53363327,0.02687521,0.42965559,2.41518524,0.00000182,0.00003070,0.00016923,0.01800351,0.02567687,0.03148471,199209.47028320,224880.62870002,245173.53572574,66971.83416111,75556.49437150,82293.81300049
3.99725275,0.70000000,0.60000000,realistic screening,11277.35841587,13385.89412497,16121.82520984,0.03535995,0.56114517,3.18561491,0.00000239,0.00004032,0.00022245,0.02886105,0.03515361,0.04058810,266659.88019523,300941.24717706,328000.06581107,67450.40991203,76060.61847704,82826.53008533
4.99725275,0.70000000,0.60000000,realistic screening,11296.58189009,13385.46905159,16074.81879476,0.04285687,0.68381933,3.85079087,0.00000290,0.00004894,0.00026991,0.03421563,0.04228905,0.04884077,334568.15035599,377512.69734314,411387.86510985,67908.27016075,76571.45016609,83387.79929877
5.99725275,0.70000000,0.60000000,realistic screening,11332.30188564,13414.14825032,16172.00608510,0.04977993,0.79192189,4.47473534,0.00000335,0.00005660,0.00031201,0.04236190,0.05084219,0.05929106,402954.85926492,454646.42253687,495370.79709127,68386.70890893,77133.72519373,83982.93198143
6.99725275,0.70000000,0.60000000,realistic screening,11359.07391698,13436.47671409,16180.30341290,0.05575344,0.88710929,5.01934069,0.00000375,0.00006341,0.00034932,0.04750179,0.05745922,0.06540192,471865.58536609,532329.44194547,579970.00028104,68910.72610117,77683.01940860,84599.20318977
7.99725275,0.70000000,0.60000000,realistic screening,11415.92026812,13474.98081993,16212.61128755,0.06121704,0.97696979,5.50440985,0.00000410,0.00006946,0.00038228,0.05349124,0.06298230,0.07262964,541262.66970645,610605.67708907,665271.35164231,69397.08434037,78276.23514360,85301.35136128
8.99725275,0.70000000,0.60000000,realistic screening,11464.88827885,13531.80815402,16304.42505074,0.06627016,1.05239731,5.96303103,0.00000442,0.00007479,0.00041128,0.05763075,0.06869857,0.07939967,611195.18895406,689512.72343517,751318.10678727,69932.51924760,78907.04634609,86046.75514496
9.99725275,0.70000000,0.60000000,realistic screening,11526.22893289,13573.87247773,16314.89921374,0.07045566,1.12510464,6.34819145,0.00000469,0.00007950,0.00043678,0.06200322,0.07459274,0.08518101,681742.41014959,769105.24906492,838128.60676547,70547.22119553,79592.52562975,86810.49997820
0.99725275,0.70000000,0.60000000,no vaccine,11377.19538723,13507.51070614,16055.14445861,NaN,NaN,NaN,NaN,NaN,NaN,NaN,NaN,NaN,NaN,NaN,NaN,NaN,NaN,NaN
1.99725275,0.70000000,0.60000000,no vaccine,11481.03555051,13601.85124713,16275.79625139,NaN,NaN,NaN,NaN,NaN,NaN,NaN,NaN,NaN,NaN,NaN,NaN,NaN,NaN,NaN
2.99725275,0.70000000,0.60000000,no vaccine,11585.48495971,13765.77095811,16303.21269510,NaN,NaN,NaN,NaN,NaN,NaN,NaN,NaN,NaN,NaN,NaN,NaN,NaN,NaN,NaN
3.99725275,0.70000000,0.60000000,no vaccine,11709.26994346,13872.35535768,16666.78420109,NaN,NaN,NaN,NaN,NaN,NaN,NaN,NaN,NaN,NaN,NaN,NaN,NaN,NaN,NaN
4.99725275,0.70000000,0.60000000,no vaccine,11828.89958465,14020.66064260,16680.89100394,NaN,NaN,NaN,NaN,NaN,NaN,NaN,NaN,NaN,NaN,NaN,NaN,NaN,NaN,NaN
5.99725275,0.70000000,0.60000000,no vaccine,11930.96505242,14168.54360412,16911.59536557,NaN,NaN,NaN,NaN,NaN,NaN,NaN,NaN,NaN,NaN,NaN,NaN,NaN,NaN,NaN
6.99725275,0.70000000,0.60000000,no vaccine,12061.45129719,14280.38235214,17104.58470213,NaN,NaN,NaN,NaN,NaN,NaN,NaN,NaN,NaN,NaN,NaN,NaN,NaN,NaN,NaN
7.99725275,0.70000000,0.60000000,no vaccine,12197.93515944,14445.53375849,17161.46772171,NaN,NaN,NaN,NaN,NaN,NaN,NaN,NaN,NaN,NaN,NaN,NaN,NaN,NaN,NaN
8.99725275,0.70000000,0.60000000,no vaccine,12314.30294504,14560.14560838,17440.98922127,NaN,NaN,NaN,NaN,NaN,NaN,NaN,NaN,NaN,NaN,NaN,NaN,NaN,NaN,NaN
9.99725275,0.70000000,0.60000000,no vaccine,12439.73835040,14715.75007345,17533.73897178,NaN,NaN,NaN,NaN,NaN,NaN,NaN,NaN,NaN,NaN,NaN,NaN,NaN,NaN,NaN
0.99725275,0.70000000,0.80000000,no screening,11437.64431235,13587.97692244,16185.94618532,231.34361932,270.32479306,326.20129122,0.01867722,0.02033107,0.02103523,-0.00987148,-0.00533812,-0.00124449,176602.27371338,176635.90355481,176671.36360948,176602.27371338,176635.90355481,176671.36360948
1.99725275,0.70000000,0.80000000,no screening,11604.73439457,13757.62462250,16496.12676882,599.32571332,700.16597625,836.93929091,0.04786607,0.05168800,0.05270291,-0.01917616,-0.01429947,-0.00973801,354981.75211991,355052.15989402,355120.58864094,178362.71037448,178412.07619012,178467.03238587
2.99725275,0.70000000,0.80000000,no screening,11745.48511867,13942.71853301,16715.49065096,928.85062395,1083.67660738,1299.58359530,0.07313757,0.07890054,0.08025831,-0.02686711,-0.01606892,-0.01081790,534680.89816354,534796.05597516,534930.93252053,179665.48427019,179747.95883973,179841.47066100
3.99725275,0.70000000,0.80000000,no screening,11845.37286715,14013.58338031,16975.38298685,1221.99045038,1422.72362650,1711.22104338,0.09543673,0.10291288,0.10456193,-0.02266748,-0.01523515,-0.00800177,715790.94605448,715962.87058840,716126.19034520,181077.76013844,181157.34363118,181230.39123757
4.99725275,0.70000000,0.80000000,no screening,11902.11001175,14085.88594875,17038.62270245,1481.96828664,1734.63391199,2072.97669875,0.11527593,0.12426039,0.12627165,-0.02361809,-0.01221667,-0.00448055,898365.75241074,898565.83955963,898776.06792376,182543.06210557,182609.02627035,182713.69282729
5.99725275,0.70000000,0.80000000,no screening,11957.98212720,14166.51033357,17134.63537269,1716.79022271,2002.19284066,2409.58525505,0.13313221,0.14336022,0.14575485,-0.01751390,-0.00502167,0.00205803,1082492.51057628,1082709.86081939,1082958.53023637,184061.90033881,184142.70183008,184233.88642697
6.99725275,0.70000000,0.80000000,no screening,11983.46735962,14158.51936147,17194.79893001,1924.84157042,2251.95315866,2699.90322885,0.14927135,0.16054250,0.16334722,-0.00873475,0.00196129,0.01057417,1268205.99741204,1268451.06652900,1268739.82107637,185671.80749458,185743.08131923,185817.29163459
7.99725275,0.70000000,0.80000000,no screening,12000.44042246,14195.26477952,17165.85572746,2111.88030839,2470.72168503,2965.02073811,0.16392148,0.17611067,0.17933584,-0.00201630,0.01093460,0.01966660,1455584.72498378,1455866.82693087,1456185.52308091,187330.22161732,187402.16397383,187484.26767471
8.99725275,0.70000000,0.80000000,no screening,12003.98885123,14184.24530614,17186.00438457,2278.35981338,2666.91093049,3209.27981614,0.17727417,0.19005710,0.19384860,0.00877809,0.02136168,0.02930016,1644672.46968980,1644989.93377569,1645300.20392009,189050.48835500,189129.00073467,189234.80086056
9.99725275,0.70000000,0.80000000,no screening,12015.58456284,14179.89194762,17158.46829066,2427.77490984,2848.89036919,3418.80958972,0.18945864,0.20276750,0.20708225,0.01956758,0.03116600,0.03978278,1835607.98896995,1835893.86065724,1836272.59768750,190835.00624545,190907.33870533,191000.01129752
0.99725275,0.70000000,0.80000000,perfect screening,11208.08657241,13347.74692663,15891.93148761,0.00000000,0.00000000,0.00000000,0.00000000,0.00000000,0.00000000,0.00966911,0.01454809,0.01743536,102861.63455185,104165.33687656,104809.28608471,102861.63455185,104165.33687656,104809.28608471
1.99725275,0.70000000,0.80000000,perfect screening,11038.50127079,13142.94825248,15709.52342021,0.00000000,0.00000000,0.00000000,0.00000000,0.00000000,0.00000000,0.03013504,0.03503027,0.03878476,206850.29370219,209264.95784164,210563.00314842,103988.65915033,105086.43545072,105759.82788387
2.99725275,0.70000000,0.80000000,perfect screening,10897.74456796,12997.71095100,15560.51849557,0.00000000,0.00000000,0.00000000,0.00000000,0.00000000,0.00000000,0.04497688,0.05834159,0.06190858,311556.54240713,314993.39376278,317055.14366040,104726.33496730,105739.96237607,106493.27568652
3.99725275,0.70000000,0.80000000,perfect screening,10794.33799594,12821.60973469,15459.81350490,0.00000000,0.00000000,0.00000000,0.00000000,0.00000000,0.00000000,0.06861975,0.07809455,0.08148845,417030.18301948,421441.44977288,424292.88985680,105461.20821363,106446.82980189,107237.82799672
4.99725275,0.70000000,0.80000000,perfect screening,10695.20304095,12684.39278495,15239.75552260,0.00000000,0.00000000,0.00000000,0.00000000,0.00000000,0.00000000,0.08401893,0.09640157,0.09977058,523291.44782311,528554.61943269,532294.60725489,106192.52613979,107153.72383162,108001.71739809
5.99725275,0.70000000,0.80000000,perfect screening,10616.00703842,12570.98860679,15146.50456761,0.00000000,0.00000000,0.00000000,0.00000000,0.00000000,0.00000000,0.10053121,0.11396837,0.11773777,630304.29324885,636526.64862482,641151.44877815,106937.39480170,107944.40485515,108832.79134596
6.99725275,0.70000000,0.80000000,perfect screening,10564.91329362,12465.50914036,14999.65860091,0.00000000,0.00000000,0.00000000,0.00000000,0.00000000,0.00000000,0.11592282,0.12808408,0.13232779,738076.78561866,745345.61904075,750874.27312542,107728.39334589,108766.99132819,109708.11997649
7.99725275,0.70000000,0.80000000,perfect screening,10524.65952383,12387.88669918,14872.54229315,0.00000000,0.00000000,0.00000000,0.00000000,0.00000000,0.00000000,0.12858842,0.14244147,0.14677479,846669.89866507,854980.91892559,861537.94688062,108593.11304641,109653.50976952,110630.12544932
8.99725275,0.70000000,0.80000000,perfect screening,10495.72879276,12320.89089053,14813.04801450,0.00000000,0.00000000,0.00000000,0.00000000,0.00000000,0.00000000,0.14094503,0.15402278,0.16039099,956169.90325469,965537.94742478,973160.80470952,109500.00458962,110619.33888739,111593.52365250
9.99725275,0.70000000,0.80000000,perfect screening,10488.27070245,12288.65360459,14709.05628021,0.00000000,0.00000000,0.00000000,0.00000000,0.00000000,0.00000000,0.15407113,0.16494843,0.17152040,1066656.33123063,1077102.35395929,1085808.37862671,110463.98644537,111571.21000239,112602.84673637
0.99725275,0.70000000,0.80000000,realistic screening,11272.64680114,13416.14846595,15966.75413882,0.00887270,0.14495903,0.81528564,0.00000060,0.00001033,0.00005659,0.00497500,0.00924515,0.01233755,65776.82896987,74345.80705202,81075.81864407,65776.82896987,74345.80705202,81075.81864407
1.99725275,0.70000000,0.80000000,realistic screening,11206.09491965,13318.79722248,15910.80872386,0.02309835,0.36907714,2.08509449,0.00000157,0.00002662,0.00014667,0.01514923,0.02080042,0.02569878,132258.25008647,149385.70183184,162863.73033033,66481.42111660,75024.88098108,81787.91168625
2.99725275,0.70000000,0.80000000,realistic screening,11163.19502180,13287.32226408,15928.10008592,0.03582728,0.57268204,3.21665069,0.00000244,0.00004125,0.00022751,0.02517313,0.03401802,0.04086645,199229.45958064,224859.81948007,245150.96709297,66971.20949417,75527.21836046,82287.23676264
3.99725275,0.70000000,0.80000000,realistic screening,11133.11187361,13210.86565871,15951.47918626,0.04715135,0.74852109,4.25285530,0.00000322,0.00005435,0.00030002,0.03823909,0.04701939,0.05392402,266669.81402668,300909.47323233,327977.41468018,67440.35444604,76049.65375226,82826.44758721
4.99725275,0.70000000,0.80000000,realistic screening,11123.91528989,13176.77431954,15868.41106239,0.05717645,0.91191448,5.13285193,0.00000392,0.00006616,0.00036505,0.04591112,0.05664048,0.06537237,334571.42090806,377476.55100344,411390.55775188,67901.60688138,76567.07777111,83413.14307170
5.99725275,0.70000000,0.80000000,realistic screening,11115.86727753,13174.12930564,15916.90992911,0.06634747,1.05571328,5.97021913,0.00000454,0.00007673,0.00042312,0.05619899,0.06766237,0.07849826,402968.97213508,454567.50861359,495360.51988825,68397.55122702,77090.95761015,83969.96213638
6.99725275,0.70000000,0.80000000,realistic screening,11136.17106435,13142.19458134,15880.39366517,0.07435877,1.18290936,6.69488252,0.00000510,0.00008618,0.00047487,0.06419633,0.07636207,0.08712793,471854.75612456,532214.03491380,579986.54858362,68885.78398948,77646.52630020,84626.02869537
7.99725275,0.70000000,0.80000000,realistic screening,11167.03870848,13157.93620825,15888.71605468,0.08164333,1.30204724,7.33613081,0.00000559,0.00009461,0.00052081,0.07117995,0.08413999,0.09691270,541249.14351421,610453.99473533,665285.50597586,69394.38738965,78239.95982153,85298.95739224
8.99725275,0.70000000,0.80000000,realistic screening,11188.52727609,13172.65457649,15923.67760474,0.08828650,1.40457753,7.95870599,0.00000603,0.00010210,0.00056148,0.07681031,0.09187481,0.10578634,611224.28683097,689384.26931811,751340.93906657,69975.14331676,78930.27458278,86055.43309070
9.99725275,0.70000000,0.80000000,realistic screening,11241.98305823,13193.23980528,15919.55132352,0.09408764,1.49906511,8.46737640,0.00000642,0.00010873,0.00059739,0.08227946,0.09843658,0.11303505,681773.79165101,768968.58917889,838170.82705585,70549.50482004,79584.31986078,86829.88798928
0.99725275,0.70000000,0.80000000,no vaccine,11377.19538723,13507.51070614,16055.14445861,NaN,NaN,NaN,NaN,NaN,NaN,NaN,NaN,NaN,NaN,NaN,NaN,NaN,NaN,NaN
1.99725275,0.70000000,0.80000000,no vaccine,11481.03555051,13601.85124713,16275.79625139,NaN,NaN,NaN,NaN,NaN,NaN,NaN,NaN,NaN,NaN,NaN,NaN,NaN,NaN,NaN
2.99725275,0.70000000,0.80000000,no vaccine,11585.48495971,13765.77095811,16303.21269510,NaN,NaN,NaN,NaN,NaN,NaN,NaN,NaN,NaN,NaN,NaN,NaN,NaN,NaN,NaN
3.99725275,0.70000000,0.80000000,no vaccine,11709.26994346,13872.35535768,16666.78420109,NaN,NaN,NaN,NaN,NaN,NaN,NaN,NaN,NaN,NaN,NaN,NaN,NaN,NaN,NaN
4.99725275,0.70000000,0.80000000,no vaccine,11828.89958465,14020.66064260,16680.89100394,NaN,NaN,NaN,NaN,NaN,NaN,NaN,NaN,NaN,NaN,NaN,NaN,NaN,NaN,NaN
5.99725275,0.70000000,0.80000000,no vaccine,11930.96505242,14168.54360412,16911.59536557,NaN,NaN,NaN,NaN,NaN,NaN,NaN,NaN,NaN,NaN,NaN,NaN,NaN,NaN,NaN
6.99725275,0.70000000,0.80000000,no vaccine,12061.45129719,14280.38235214,17104.58470213,NaN,NaN,NaN,NaN,NaN,NaN,NaN,NaN,NaN,NaN,NaN,NaN,NaN,NaN,NaN
7.99725275,0.70000000,0.80000000,no vaccine,12197.93515944,14445.53375849,17161.46772171,NaN,NaN,NaN,NaN,NaN,NaN,NaN,NaN,NaN,NaN,NaN,NaN,NaN,NaN,NaN
8.99725275,0.70000000,0.80000000,no vaccine,12314.30294504,14560.14560838,17440.98922127,NaN,NaN,NaN,NaN,NaN,NaN,NaN,NaN,NaN,NaN,NaN,NaN,NaN,NaN,NaN
9.99725275,0.70000000,0.80000000,no vaccine,12439.73835040,14715.75007345,17533.73897178,NaN,NaN,NaN,NaN,NaN,NaN,NaN,NaN,NaN,NaN,NaN,NaN,NaN,NaN,NaN
0.99725275,0.90000000,0.40000000,no screening,11416.20966675,13568.87464355,16142.21868642,148.71187264,173.81163562,209.69340963,0.01202790,0.01309923,0.01355268,-0.00713747,-0.00308955,0.00101228,227072.96581072,227110.51877032,227162.57524983,227072.96581072,227110.51877032,227162.57524983
1.99725275,0.90000000,0.40000000,no screening,11557.36909756,13696.92849224,16398.64980377,385.18212905,449.91095251,538.37453249,0.03090995,0.03339154,0.03407350,-0.01382868,-0.00957824,-0.00539189,456429.42792452,456519.83862698,456618.21559023,229336.62252699,229413.73906260,229481.73401524
2.99725275,0.90000000,0.40000000,no screening,11691.24930303,13884.22104243,16597.59607562,596.94749740,696.60600939,835.84872793,0.04727152,0.05099792,0.05199923,-0.01894098,-0.01045797,-0.00662010,687507.32739271,687647.94697459,687780.53743334,231052.62489421,231126.24471612,231220.83375202
3.99725275,0.90000000,0.40000000,no screening,11788.78786481,13962.52915734,16856.41041657,784.85203717,915.07051203,1099.88278928,0.06166023,0.06643940,0.06774537,-0.01380103,-0.00976345,-0.00488205,920423.52231315,920572.52395221,920713.43623704,232844.33594029,232921.72623774,232997.81341790
4.99725275,0.90000000,0.40000000,no screening,11878.02178920,14062.50127916,16928.57713833,953.09212392,1115.12683117,1332.37503507,0.07436529,0.08012748,0.08173117,-0.01575135,-0.00816876,-0.00279899,1155166.82057795,1155352.32363152,1155541.76217800,234689.16086470,234771.94766764,234845.55982703
5.99725275,0.90000000,0.40000000,no screening,11955.64015185,14142.97970799,17058.02424030,1103.43461228,1286.85573840,1549.71229011,0.08569012,0.09227432,0.09414172,-0.01191867,-0.00310900,0.00256682,1391872.22602457,1392098.74445107,1392289.52576234,236651.94486748,236742.81894730,236806.33229249
6.99725275,0.90000000,0.40000000,no screening,12006.03761764,14196.97455207,17167.16299603,1236.83344355,1447.87325448,1734.60414960,0.09580334,0.10308043,0.10521977,-0.00574165,0.00120669,0.00766025,1630608.26797175,1630879.05533777,1631103.49282332,238696.97251386,238778.64692423,238860.48299760
7.99725275,0.90000000,0.40000000,no screening,12067.93701260,14262.44737150,17180.52438470,1357.61833194,1589.00175010,1907.13255361,0.10485910,0.11266743,0.11517869,-0.00203102,0.00698220,0.01336073,1871496.96176822,1871823.54353146,1872028.95104436,240840.87607135,240923.57587167,240986.16208201
8.99725275,0.90000000,0.40000000,no screening,12120.63147715,14300.96915315,17285.54155558,1464.56896859,1714.57834704,2062.70456383,0.11299249,0.12123558,0.12406122,0.00496865,0.01353655,0.01870005,2114607.10441987,2114976.46625125,2115210.91020513,243078.04021500,243158.55739086,243228.14452234
9.99725275,0.90000000,0.40000000,no screening,12163.17045861,14353.33846836,17296.26198398,1560.71966045,1831.33651369,2198.34671460,0.12028655,0.12882172,0.13204401,0.01174115,0.01992856,0.02572824,2360052.67123797,2360438.07084060,2360739.45389659,245394.27072827,245473.72252989,245558.39169990
0.99725275,0.90000000,0.40000000,perfect screening,11263.66125307,13410.08203123,15952.33339986,0.00000000,0.00000000,0.00000000,0.00000000,0.00000000,0.00000000,0.00556968,0.00975656,0.01297031,132254.91943334,133928.18059867,134765.62098928,132254.91943334,133928.18059867,134765.62098928
1.99725275,0.90000000,0.40000000,perfect screening,11199.26529402,13304.32751274,15889.22105888,0.00000000,0.00000000,0.00000000,0.00000000,0.00000000,0.00000000,0.01866535,0.02261884,0.02547298,265967.56218068,269028.76991019,270759.06114018,133713.97843088,135099.49223976,136018.71263976
2.99725275,0.90000000,0.40000000,perfect screening,11151.35607401,13282.12963680,15855.86173467,0.00000000,0.00000000,0.00000000,0.00000000,0.00000000,0.00000000,0.02666380,0.03732525,0.04034692,400632.21510873,404984.37871874,407676.84728645,134664.65292805,135957.46791513,136917.78614627
3.99725275,0.90000000,0.40000000,perfect screening,11116.34841189,13200.13621603,15868.54372957,0.00000000,0.00000000,0.00000000,0.00000000,0.00000000,0.00000000,0.04484599,0.05034016,0.05243113,536260.44293277,541829.90051304,545554.41690556,135596.29537353,136865.91693813,137877.56961911
4.99725275,0.90000000,0.40000000,perfect screening,11095.31618361,13162.01899392,15767.50045667,0.00000000,0.00000000,0.00000000,0.00000000,0.00000000,0.00000000,0.05227075,0.06158277,0.06471509,672825.74272494,679598.79509150,684404.92811526,136545.20370261,137784.01665470,138850.51120970
5.99725275,0.90000000,0.40000000,perfect screening,11097.02593807,13144.64063643,15775.51453339,0.00000000,0.00000000,0.00000000,0.00000000,0.00000000,0.00000000,0.06519826,0.07331671,0.07621538,810396.80931435,818407.83324381,824308.09073679,137475.15703596,138785.23241573,139903.16262152
6.99725275,0.90000000,0.40000000,perfect screening,11097.31188443,13118.95808664,15743.39038286,0.00000000,0.00000000,0.00000000,0.00000000,0.00000000,0.00000000,0.07536677,0.08193394,0.08550774,948985.74007849,958359.17811027,965337.44316679,138543.69983535,139870.52256298,141029.35243001
7.99725275,0.90000000,0.40000000,perfect screening,11114.51552143,13131.45480404,15710.61318461,0.00000000,0.00000000,0.00000000,0.00000000,0.00000000,0.00000000,0.08294096,0.09123514,0.09459513,1088700.56269950,1099359.12210588,1107607.42222036,139647.52624591,141040.50369611,142232.64042827
8.99725275,0.90000000,0.40000000,perfect screening,11149.51936203,13140.58163605,15735.84189992,0.00000000,0.00000000,0.00000000,0.00000000,0.00000000,0.00000000,0.09060782,0.09903526,0.10354578,1229470.47257495,1241594.57730242,1251088.82750665,140769.90987545,142222.08853879,143468.85090081
9.99725275,0.90000000,0.40000000,perfect screening,11183.75372985,13170.48585378,15713.34194146,0.00000000,0.00000000,0.00000000,0.00000000,0.00000000,0.00000000,0.09872522,0.10565312,0.11021654,1371441.59028070,1385101.89061511,1395920.62668605,141971.11770576,143502.03588060,144819.25967063
0.99725275,0.90000000,0.40000000,realistic screening,11305.37146174,13453.74841998,16000.53299631,0.00570439,0.09319689,0.52393757,0.00000039,0.00000662,0.00003628,0.00223583,0.00647636,0.00958957,84570.34840176,95584.30584405,104251.09584978,84570.34840176,95584.30584405,104251.09584978
1.99725275,0.90000000,0.40000000,realistic screening,11306.53965984,13425.34803112,16022.45704851,0.01485265,0.23732215,1.34143327,0.00000101,0.00001700,0.00009361,0.00852388,0.01330372,0.01698922,170060.64105034,192032.12107369,209402.24136289,85490.29264858,96419.50360361,105151.14551311
2.99725275,0.90000000,0.40000000,realistic screening,11320.99009780,13471.17489201,16086.98860360,0.02302260,0.36810088,2.06707427,0.00000155,0.00002622,0.00014453,0.01484783,0.02167104,0.02725969,256166.85605388,289095.70105021,315205.08904734,86106.21500355,97128.28946307,105802.84768444
3.99725275,0.90000000,0.40000000,realistic screening,11336.10460464,13441.25623693,16181.05352455,0.03029452,0.48135574,2.73463241,0.00000204,0.00003440,0.00018981,0.02447201,0.03060759,0.03454211,342876.75615256,386875.38302270,421707.00701184,86709.90009868,97779.68197249,106501.91796450
4.99725275,0.90000000,0.40000000,realistic screening,11364.10792413,13492.25624240,16171.18832924,0.03676344,0.58571276,3.29888145,0.00000247,0.00004171,0.00022997,0.02875182,0.03602637,0.04244259,430186.40871598,485311.33750935,528934.58606900,87309.65256342,98435.95448665,107227.57905716
5.99725275,0.90000000,0.40000000,realistic screening,11424.75252079,13514.53039368,16270.95256900,0.04261905,0.67868537,3.83661492,0.00000285,0.00004818,0.00026557,0.03652133,0.04370451,0.05091282,518130.42118686,584431.78363150,636924.10544318,87944.01247087,99120.44612214,107989.51937419
6.99725275,0.90000000,0.40000000,realistic screening,11465.76436659,13558.85670120,16305.88344545,0.04783852,0.76075368,4.30550897,0.00000319,0.00005392,0.00029704,0.03954600,0.04920070,0.05616134,606705.21112011,684343.00979693,745732.79903132,88574.78993325,99911.22616543,108808.69358814
7.99725275,0.90000000,0.40000000,realistic screening,11522.63851108,13625.06931046,16366.77438223,0.05247199,0.83691734,4.71112727,0.00000349,0.00005900,0.00032474,0.04542088,0.05403445,0.06279429,695929.19046735,784968.19091149,855409.23851624,89223.97934724,100625.18111456,109676.43948492
8.99725275,0.90000000,0.40000000,realistic screening,11588.54919903,13665.06624119,16438.95453993,0.05674501,0.90294447,5.12026431,0.00000375,0.00006347,0.00034911,0.04935550,0.05904611,0.06780830,785898.22991153,886442.06466190,966069.05563931,89969.03944418,101473.87375041,110659.81712308
9.99725275,0.90000000,0.40000000,realistic screening,11656.86181254,13752.51220865,16514.49384124,0.06053889,0.96352469,5.44108014,0.00000398,0.00006741,0.00037042,0.05296444,0.06366332,0.07316395,876603.64235611,988786.13810000,1077687.99307368,90705.41244458,102344.07343810,111618.93743437
0.99725275,0.90000000,0.40000000,no vaccine,11377.19538723,13507.51070614,16055.14445861,NaN,NaN,NaN,NaN,NaN,NaN,NaN,NaN,NaN,NaN,NaN,NaN,NaN,NaN,NaN
1.99725275,0.90000000,0.40000000,no vaccine,11481.03555051,13601.85124713,16275.79625139,NaN,NaN,NaN,NaN,NaN,NaN,NaN,NaN,NaN,NaN,NaN,NaN,NaN,NaN,NaN
2.99725275,0.90000000,0.40000000,no vaccine,11585.48495971,13765.77095811,16303.21269510,NaN,NaN,NaN,NaN,NaN,NaN,NaN,NaN,NaN,NaN,NaN,NaN,NaN,NaN,NaN
3.99725275,0.90000000,0.40000000,no vaccine,11709.26994346,13872.35535768,16666.78420109,NaN,NaN,NaN,NaN,NaN,NaN,NaN,NaN,NaN,NaN,NaN,NaN,NaN,NaN,NaN
4.99725275,0.90000000,0.40000000,no vaccine,11828.89958465,14020.66064260,16680.89100394,NaN,NaN,NaN,NaN,NaN,NaN,NaN,NaN,NaN,NaN,NaN,NaN,NaN,NaN,NaN
5.99725275,0.90000000,0.40000000,no vaccine,11930.96505242,14168.54360412,16911.59536557,NaN,NaN,NaN,NaN,NaN,NaN,NaN,NaN,NaN,NaN,NaN,NaN,NaN,NaN,NaN
6.99725275,0.90000000,0.40000000,no vaccine,12061.45129719,14280.38235214,17104.58470213,NaN,NaN,NaN,NaN,NaN,NaN,NaN,NaN,NaN,NaN,NaN,NaN,NaN,NaN,NaN
7.99725275,0.90000000,0.40000000,no vaccine,12197.93515944,14445.53375849,17161.46772171,NaN,NaN,NaN,NaN,NaN,NaN,NaN,NaN,NaN,NaN,NaN,NaN,NaN,NaN,NaN
8.99725275,0.90000000,0.40000000,no vaccine,12314.30294504,14560.14560838,17440.98922127,NaN,NaN,NaN,NaN,NaN,NaN,NaN,NaN,NaN,NaN,NaN,NaN,NaN,NaN,NaN
9.99725275,0.90000000,0.40000000,no vaccine,12439.73835040,14715.75007345,17533.73897178,NaN,NaN,NaN,NaN,NaN,NaN,NaN,NaN,NaN,NaN,NaN,NaN,NaN,NaN,NaN
0.99725275,0.90000000,0.60000000,no screening,11433.80752447,13586.35882131,16178.69410350,223.07656773,260.66865223,314.50360699,0.01801310,0.01960896,0.02028832,-0.00951674,-0.00517610,-0.00101537,227067.17403250,227111.90984607,227157.91780167,227067.17403250,227111.90984607,227157.91780167
1.99725275,0.90000000,0.60000000,no screening,11606.67271799,13750.06196985,16487.63653841,578.16317479,675.35171495,807.25419372,0.04617545,0.04987588,0.05085899,-0.01899371,-0.01406619,-0.00952639,456436.05390098,456520.85573030,456616.29536510,229337.48024685,229417.27300026,229493.93803741
2.99725275,0.90000000,0.60000000,no screening,11740.54356027,13941.57498360,16709.29653795,895.53460476,1044.19898314,1254.01977744,0.07056492,0.07613022,0.07747026,-0.02622299,-0.01543403,-0.01026502,687520.26070059,687642.65312234,687800.27619406,231042.02242160,231126.24100317,231221.07743620
3.99725275,0.90000000,0.60000000,no screening,11829.63288634,14003.30426623,16959.01780997,1177.20774423,1372.42109702,1650.13173006,0.09207235,0.09927312,0.10091179,-0.02152649,-0.01475544,-0.00809203,920394.94971105,920554.46937524,920761.79244969,232832.82422993,232908.61827343,233016.63175388
4.99725275,0.90000000,0.60000000,no screening,11899.62562428,14089.13497427,17028.96540174,1429.08537708,1673.06810913,1998.50593359,0.11119141,0.11986540,0.12184507,-0.02292688,-0.01183874,-0.00398266,1155147.04187142,1155328.97422392,1155583.39416433,234695.69942921,234781.45646269,234860.39874997
5.99725275,0.90000000,0.60000000,no screening,11959.11037631,14168.47073297,17119.16003073,1655.74397697,1930.22127108,2324.88638864,0.12838394,0.13824455,0.14062028,-0.01699374,-0.00471918,0.00200717,1391853.18681675,1392073.92262852,1392347.97546479,236665.89144171,236736.19314873,236801.11423938
6.99725275,0.90000000,0.60000000,no screening,11982.99823783,14148.01272872,17189.41898034,1855.73968844,2172.65542375,2600.59359090,0.14390120,0.15478770,0.15755077,-0.00845883,0.00183660,0.01077248,1630615.62761951,1630854.96077271,1631179.04569917,238715.98784838,238785.72852530,238848.97168962
7.99725275,0.90000000,0.60000000,no screening,12004.35065044,14209.68749732,17160.25385532,2036.14361679,2381.74972775,2862.64799310,0.15797396,0.16973104,0.17292295,-0.00224480,0.01079871,0.01918293,1871499.94446779,1871775.33316269,1872164.71272983,240848.94961749,240931.20922571,241010.22574628
8.99725275,0.90000000,0.60000000,no screening,12022.28904420,14195.19417145,17200.31005993,2196.65723526,2572.74493901,3092.66953703,0.17079365,0.18312464,0.18682116,0.00819364,0.02041449,0.02807952,2114621.20425592,2114928.64155342,2115342.00874819,243081.94113154,243155.20485205,243238.72216186
9.99725275,0.90000000,0.60000000,no screening,12030.93741287,14190.99054467,17170.43292957,2341.07846750,2746.85666297,3296.33601419,0.18245907,0.19529266,0.19951979,0.01871944,0.02987580,0.03858942,2360071.20499923,2360387.35295787,2360855.90017491,245402.76721517,245468.06323879,245553.52343923
0.99725275,0.90000000,0.60000000,perfect screening,11210.19827357,13353.40168963,15897.87903103,0.00000000,0.00000000,0.00000000,0.00000000,0.00000000,0.00000000,0.00931299,0.01405465,0.01684589,132254.93833828,133930.65551123,134757.89685777,132254.93833828,133930.65551123,134757.89685777
1.99725275,0.90000000,0.60000000,perfect screening,11056.70601523,13159.93849289,15728.15379546,0.00000000,0.00000000,0.00000000,0.00000000,0.00000000,0.00000000,0.02921271,0.03392450,0.03773844,265926.51651359,269037.95449683,270725.57672460,133676.41905599,135101.22844703,135985.62588428
2.99725275,0.90000000,0.60000000,perfect screening,10930.61838871,13021.58633580,15586.31122456,0.00000000,0.00000000,0.00000000,0.00000000,0.00000000,0.00000000,0.04302099,0.05642551,0.05935480,400555.44869037,404992.34566736,407637.95543287,134652.61248438,135959.52534012,136912.37870827
3.99725275,0.90000000,0.60000000,perfect screening,10819.66838132,12857.49500824,15502.83092843,0.00000000,0.00000000,0.00000000,0.00000000,0.00000000,0.00000000,0.06660428,0.07544218,0.07836903,536153.12547461,541827.35782751,545474.85140972,135571.14022175,136868.83993807,137836.89597685
4.99725275,0.90000000,0.60000000,perfect screening,10739.14817611,12731.44899325,15284.46101897,0.00000000,0.00000000,0.00000000,0.00000000,0.00000000,0.00000000,0.08077505,0.09287539,0.09608163,672789.27602330,679632.47519061,684311.34661724,136580.11195537,137776.19036296,138836.49520752
5.99725275,0.90000000,0.60000000,perfect screening,10666.34045183,12622.12329531,15219.48806568,0.00000000,0.00000000,0.00000000,0.00000000,0.00000000,0.00000000,0.09607045,0.10996146,0.11363686,810323.62560392,818356.50010779,824204.31310941,137439.43378370,138786.76258685,139892.96649217
6.99725275,0.90000000,0.60000000,perfect screening,10617.42449977,12531.12991339,15067.12277603,0.00000000,0.00000000,0.00000000,0.00000000,0.00000000,0.00000000,0.11261421,0.12354489,0.12724527,948909.90795945,958345.55843340,965298.81564355,138515.42608767,139862.07783949,141031.66309706
7.99725275,0.90000000,0.60000000,perfect screening,10585.37471369,12463.35976024,14959.90064440,0.00000000,0.00000000,0.00000000,0.00000000,0.00000000,0.00000000,0.12339474,0.13720084,0.14202834,1088586.00666899,1099328.09914437,1107571.29679786,139676.09870954,141004.80291265,142224.77439921
8.99725275,0.90000000,0.60000000,perfect screening,10557.84971830,12403.03024369,14906.69564688,0.00000000,0.00000000,0.00000000,0.00000000,0.00000000,0.00000000,0.13539777,0.14844145,0.15485693,1229354.64746115,1241556.63565186,1251088.60050754,140768.64079217,142230.88405130,143467.61747376
9.99725275,0.90000000,0.60000000,perfect screening,10555.61635150,12384.28206310,14787.14011449,0.00000000,0.00000000,0.00000000,0.00000000,0.00000000,0.00000000,0.14911363,0.15889841,0.16610919,1371366.20031469,1385068.06214831,1395916.35106852,142011.55285354,143474.01863717,144785.34086940
0.99725275,0.90000000,0.60000000,realistic screening,11272.84387898,13421.06838505,15971.05711283,0.00855890,0.13979494,0.78615618,0.00000058,0.00000995,0.00005456,0.00474337,0.00918443,0.01223226,84575.36661103,95589.54996395,104240.66562968,84575.36661103,95589.54996395,104240.66562968
1.99725275,0.90000000,0.60000000,realistic screening,11218.36958132,13327.59482992,15924.52320836,0.02227454,0.35599967,2.01170649,0.00000152,0.00002565,0.00014137,0.01427697,0.02016918,0.02470736,170056.43905382,192064.93221191,209377.77779636,85481.07244280,96458.12049103,105137.11216667
2.99725275,0.90000000,0.60000000,realistic screening,11173.86308615,13302.37740373,15937.87717316,0.03453589,0.55193009,3.10118658,0.00000235,0.00003973,0.00021912,0.02440683,0.03266092,0.04000107,256150.28385042,289149.08176182,315196.55765217,86093.84479659,97142.22974321,105818.77985581
3.99725275,0.90000000,0.60000000,realistic screening,11155.74673324,13237.45297702,15979.63874419,0.04547579,0.72199195,4.10063488,0.00000310,0.00005232,0.00028884,0.03700456,0.04533642,0.05181429,342872.30837978,386918.72059677,421700.90701190,86722.02452937,97769.63883495,106504.34935974
4.99725275,0.90000000,0.60000000,realistic screening,11154.44488315,13207.82815410,15890.37723133,0.05508040,0.87857991,4.95163354,0.00000377,0.00006367,0.00035125,0.04443732,0.05450094,0.06319907,430185.26720155,485360.98284496,528947.61468142,87312.95882177,98442.26224818,107246.70766952
5.99725275,0.90000000,0.60000000,realistic screening,11141.34529498,13214.05672964,15952.39756236,0.06405216,1.01724542,5.75338513,0.00000437,0.00007381,0.00040698,0.05388693,0.06523391,0.07556402,518139.24859848,584497.77328627,636920.73604504,87953.98139693,99136.79044132,107973.12136362
6.99725275,0.90000000,0.60000000,realistic screening,11167.03453069,13180.06897399,15913.26928640,0.07163702,1.14137337,6.45593989,0.00000490,0.00008287,0.00045660,0.06144883,0.07390842,0.08399817,606720.04473776,684381.78794454,745741.02454077,88580.79613928,99884.01465827,108820.28849573
7.99725275,0.90000000,0.60000000,realistic screening,11201.16334921,13210.14757211,15942.99124271,0.07875962,1.25473647,7.07742834,0.00000538,0.00009095,0.00050063,0.06798112,0.08116292,0.09359179,695964.17460122,785019.87087375,855423.63935858,89244.12986346,100638.08292921,109682.61481781
8.99725275,0.90000000,0.60000000,realistic screening,11231.60840313,13218.45256235,15983.37164240,0.08518907,1.35450895,7.66618640,0.00000580,0.00009811,0.00053956,0.07443947,0.08844441,0.10198240,785882.79659286,886482.99698822,966061.98814533,89918.62199164,101463.12611446,110638.34878674
9.99725275,0.90000000,0.60000000,realistic screening,11279.14013489,13258.15053332,15964.61061080,0.09059935,1.44494675,8.16522427,0.00000617,0.00010445,0.00057388,0.07960848,0.09550993,0.10961437,876568.57998401,988811.05734160,1077670.64252563,90685.78339115,102328.06035338,111608.65438030
0.99725275,0.90000000,0.60000000,no vaccine,11377.19538723,13507.51070614,16055.14445861,NaN,NaN,NaN,NaN,NaN,NaN,NaN,NaN,NaN,NaN,NaN,NaN,NaN,NaN,NaN
1.99725275,0.90000000,0.60000000,no vaccine,11481.03555051,13601.85124713,16275.79625139,NaN,NaN,NaN,NaN,NaN,NaN,NaN,NaN,NaN,NaN,NaN,NaN,NaN,NaN,NaN
2.99725275,0.90000000,0.60000000,no vaccine,11585.48495971,13765.77095811,16303.21269510,NaN,NaN,NaN,NaN,NaN,NaN,NaN,NaN,NaN,NaN,NaN,NaN,NaN,NaN,NaN
3.99725275,0.90000000,0.60000000,no vaccine,11709.26994346,13872.35535768,16666.78420109,NaN,NaN,NaN,NaN,NaN,NaN,NaN,NaN,NaN,NaN,NaN,NaN,NaN,NaN,NaN
4.99725275,0.90000000,0.60000000,no vaccine,11828.89958465,14020.66064260,16680.89100394,NaN,NaN,NaN,NaN,NaN,NaN,NaN,NaN,NaN,NaN,NaN,NaN,NaN,NaN,NaN
5.99725275,0.90000000,0.60000000,no vaccine,11930.96505242,14168.54360412,16911.59536557,NaN,NaN,NaN,NaN,NaN,NaN,NaN,NaN,NaN,NaN,NaN,NaN,NaN,NaN,NaN
6.99725275,0.90000000,0.60000000,no vaccine,12061.45129719,14280.38235214,17104.58470213,NaN,NaN,NaN,NaN,NaN,NaN,NaN,NaN,NaN,NaN,NaN,NaN,NaN,NaN,NaN
7.99725275,0.90000000,0.60000000,no vaccine,12197.93515944,14445.53375849,17161.46772171,NaN,NaN,NaN,NaN,NaN,NaN,NaN,NaN,NaN,NaN,NaN,NaN,NaN,NaN,NaN
8.99725275,0.90000000,0.60000000,no vaccine,12314.30294504,14560.14560838,17440.98922127,NaN,NaN,NaN,NaN,NaN,NaN,NaN,NaN,NaN,NaN,NaN,NaN,NaN,NaN,NaN
9.99725275,0.90000000,0.60000000,no vaccine,12439.73835040,14715.75007345,17533.73897178,NaN,NaN,NaN,NaN,NaN,NaN,NaN,NaN,NaN,NaN,NaN,NaN,NaN,NaN,NaN
0.99725275,0.90000000,0.80000000,no screening,11454.36720028,13608.30941801,16215.28306190,297.55502829,347.52885234,419.26569874,0.02397855,0.02609275,0.02699884,-0.01214802,-0.00725977,-0.00302430,227059.52559553,227108.40677479,227151.61980232,227059.52559553,227108.40677479,227151.61980232
1.99725275,0.90000000,0.80000000,no screening,11642.27931526,13799.66005720,16583.86986383,770.63579102,900.05848362,1076.90186199,0.06133771,0.06623105,0.06744973,-0.02427788,-0.01858414,-0.01329863,456414.72380996,456517.55094696,456612.85203046,229323.14617505,229413.40468460,229491.57686773
2.99725275,0.90000000,0.80000000,no screening,11786.09714465,13992.57381641,16806.02808288,1193.81335744,1393.54380523,1671.26151511,0.09366095,0.10101663,0.10257335,-0.03368008,-0.02078958,-0.01410941,687509.81786088,687644.63462383,687815.08193738,231063.49637616,231133.62377794,231223.97349268
3.99725275,0.90000000,0.80000000,no screening,11883.62804745,14070.83584482,17075.20000086,1571.23825264,1830.00874913,2200.26975502,0.12225357,0.13186996,0.13361522,-0.02863149,-0.01993077,-0.01082182,920394.79732551,920567.93984317,920746.19438339,232846.90737625,232912.04636145,232990.59307802
4.99725275,0.90000000,0.80000000,no screening,11929.05161107,14136.82406670,17122.26207149,1905.96598903,2230.46397628,2667.16054511,0.14782437,0.15935020,0.16147158,-0.03009451,-0.01540428,-0.00587869,1155163.55639477,1155348.11561598,1155566.53725239,234712.13825293,234775.04196460,234867.38310372
5.99725275,0.90000000,0.80000000,no screening,11960.85114256,14173.31011990,17193.08972566,2207.49776356,2573.99410246,3096.35528976,0.17100260,0.18417674,0.18664078,-0.02204513,-0.00678565,0.00316844,1391879.37451290,1392080.11321351,1392338.16708275,236679.48595819,236734.94120986,236806.02506529
6.99725275,0.90000000,0.80000000,no screening,11957.48248444,14147.95922537,17212.04647722,2474.45771790,2895.79843198,3471.45253912,0.19216962,0.20666767,0.20959938,-0.01150041,0.00316499,0.01433715,1630662.04744254,1630877.85551356,1631163.80200254,238713.32621650,238786.43107522,238855.24688166
7.99725275,0.90000000,0.80000000,no screening,11942.48879428,14142.89301765,17146.98234604,2714.10113215,3177.74633671,3814.75413391,0.21158449,0.22721996,0.23069475,-0.00228571,0.01413766,0.02520363,1871556.99504103,1871804.65328870,1872109.72381639,240867.95401721,240929.72769379,241002.79944388
8.99725275,0.90000000,0.80000000,no screening,11922.85502132,14090.97400111,17128.95395565,2928.70445073,3427.40351417,4123.29325319,0.22950983,0.24602513,0.25007358,0.01055065,0.02724489,0.03730404,2114651.76445681,2114953.05227075,2115297.63171105,243082.16535495,243154.76132017,243237.24440701
9.99725275,0.90000000,0.80000000,no screening,11891.42059645,14037.80364696,17026.23048244,3121.75996989,3663.65908676,4396.31420112,0.24606185,0.26316922,0.26797942,0.02543751,0.04030748,0.05151469,2360095.07320086,2360420.12925657,2360769.51448967,245380.67155332,245469.90806845,245561.89807947
0.99725275,0.90000000,0.80000000,perfect screening,11155.44612602,13298.08081215,15845.34474629,0.00000000,0.00000000,0.00000000,0.00000000,0.00000000,0.00000000,0.01292428,0.01836349,0.02117267,132259.39429444,133927.76350598,134754.78876200,132259.39429444,133927.76350598,134754.78876200
1.99725275,0.90000000,0.80000000,perfect screening,10918.83621253,13007.46669868,15560.50306299,0.00000000,0.00000000,0.00000000,0.00000000,0.00000000,0.00000000,0.03883463,0.04539015,0.04967707,265966.57288077,269046.99374344,270709.20831530,133707.17858633,135097.83784042,135968.07627652
2.99725275,0.90000000,0.80000000,perfect screening,10707.27451180,12771.15398622,15329.76473149,0.00000000,0.00000000,0.00000000,0.00000000,0.00000000,0.00000000,0.05846856,0.07504715,0.07845757,400578.84128022,405015.84360198,407625.29390933,134654.67784608,135968.07714218,136921.37495236
3.99725275,0.90000000,0.80000000,perfect screening,10525.03356839,12509.15762798,15120.93922465,0.00000000,0.00000000,0.00000000,0.00000000,0.00000000,0.00000000,0.08791196,0.10049259,0.10427015,536130.96074360,541835.25427088,545466.80719869,135589.16471541,136867.85484714,137841.51328936
4.99725275,0.90000000,0.80000000,perfect screening,10372.37187705,12303.88414185,14825.03867140,0.00000000,0.00000000,0.00000000,0.00000000,0.00000000,0.00000000,0.10788876,0.12403327,0.12831641,672703.01838446,679599.34271690,684282.20845429,136545.77278388,137782.84190507,138815.40125560
5.99725275,0.90000000,0.80000000,perfect screening,10240.55524893,12097.94872587,14645.40376321,0.00000000,0.00000000,0.00000000,0.00000000,0.00000000,0.00000000,0.12800535,0.14653063,0.15015429,810307.15261803,818420.86092348,824209.60818744,137508.15868871,138797.92819788,139927.39973315
6.99725275,0.90000000,0.80000000,perfect screening,10136.91633718,11937.34191628,14400.53135241,0.00000000,0.00000000,0.00000000,0.00000000,0.00000000,0.00000000,0.14931572,0.16492502,0.16929806,948910.21987438,958413.79173794,965268.84123944,138550.54138568,139872.95934950,141034.07658616
7.99725275,0.90000000,0.80000000,perfect screening,10051.26933043,11803.44103063,14214.05943985,0.00000000,0.00000000,0.00000000,0.00000000,0.00000000,0.00000000,0.16485842,0.18280327,0.18860692,1088595.88567163,1099339.67184512,1107515.20745741,139626.65397214,140998.91856952,142216.63251805
8.99725275,0.90000000,0.80000000,perfect screening,9969.70990279,11663.08167269,14061.82316494,0.00000000,0.00000000,0.00000000,0.00000000,0.00000000,0.00000000,0.18122412,0.19775662,0.20621130,1229384.05528706,1241530.03056221,1251011.56472294,140788.16961543,142230.40944122,143475.89322115
9.99725275,0.90000000,0.80000000,perfect screening,9929.77954689,11587.85663422,13895.57507061,0.00000000,0.00000000,0.00000000,0.00000000,0.00000000,0.00000000,0.19785427,0.21191491,0.22021514,1371360.64979204,1385054.43934230,1395845.42153018,141976.59450498,143475.92014691,144795.75139861
0.99725275,0.90000000,0.80000000,realistic screening,11237.76563192,13387.94983379,15931.33258553,0.01140902,0.18643090,1.04803686,0.00000078,0.00001330,0.00007292,0.00728629,0.01168991,0.01474404,84576.07587950,95584.68977002,104254.43474670,84576.07587950,95584.68977002,104254.43474670
1.99725275,0.90000000,0.80000000,realistic screening,11131.16193079,13227.45679585,15842.05225271,0.02971557,0.47423312,2.68065918,0.00000204,0.00003441,0.00018967,0.02006698,0.02705975,0.03276193,170024.92255599,192065.69477504,209401.74126690,85448.84667649,96447.53059807,105147.30652020
2.99725275,0.90000000,0.80000000,realistic screening,11041.62350534,13146.55448273,15784.68197922,0.04603899,0.73647134,4.13543750,0.00000317,0.00005352,0.00029527,0.03373286,0.04423487,0.05241741,256113.42841305,289106.80923027,315230.07980217,86088.50585706,97109.56717175,105828.33853526
3.99725275,0.90000000,0.80000000,realistic screening,10969.24309813,13017.05269048,15757.82950639,0.06060542,0.96241002,5.46696549,0.00000419,0.00007076,0.00039078,0.04949596,0.06007708,0.06906932,342844.48779907,386884.64349061,421759.13337925,86731.05938602,97777.83426034,106529.05357708
4.99725275,0.90000000,0.80000000,realistic screening,10928.02625469,12952.50909695,15646.42002762,0.07357033,1.17057786,6.59998331,0.00000512,0.00008643,0.00047700,0.05970767,0.07285393,0.08438898,430177.08302327,485332.21915824,528979.70590116,87332.59522420,98447.57566763,107220.57252191
5.99725275,0.90000000,0.80000000,realistic screening,10895.02032835,12875.35867655,15602.77360182,0.08522588,1.35890095,7.66785958,0.00000595,0.00010056,0.00055467,0.07300838,0.08681044,0.09995070,518088.54999318,584502.57033794,636939.67140591,87911.46696991,99170.35117970,107959.96550475
6.99725275,0.90000000,0.80000000,realistic screening,10883.45799433,12820.49803071,15562.55872728,0.09565033,1.51987002,8.61154981,0.00000670,0.00011329,0.00062432,0.08256084,0.09838966,0.11200225,606662.05583485,684386.90558848,745731.89393853,88573.50584167,99884.33525054,108792.22253262
7.99725275,0.90000000,0.80000000,realistic screening,10889.08577690,12789.56283837,15500.40564703,0.10499784,1.67476369,9.43011890,0.00000737,0.00012473,0.00068658,0.09200812,0.10800463,0.12324154,695905.08266831,785005.20975777,855411.04138236,89243.02683346,100618.30416929,109679.14744382
8.99725275,0.90000000,0.80000000,realistic screening,10890.78908776,12767.18660832,15490.15881890,0.11344034,1.80515205,10.23481755,0.00000797,0.00013493,0.00074207,0.09903366,0.11781353,0.13571014,785857.83359599,886448.31599689,966048.34176979,89952.75092769,101443.10623913,110637.30038743
9.99725275,0.90000000,0.80000000,realistic screening,10922.07780238,12769.93813398,15466.37458027,0.12111943,1.92722540,10.88355476,0.00000851,0.00014403,0.00079124,0.10616373,0.12670982,0.14454984,876549.92744372,988788.42410621,1077665.57358724,90692.09384773,102340.10810932,111617.23181746
0.99725275,0.90000000,0.80000000,no vaccine,11377.19538723,13507.51070614,16055.14445861,NaN,NaN,NaN,NaN,NaN,NaN,NaN,NaN,NaN,NaN,NaN,NaN,NaN,NaN,NaN
1.99725275,0.90000000,0.80000000,no vaccine,11481.03555051,13601.85124713,16275.79625139,NaN,NaN,NaN,NaN,NaN,NaN,NaN,NaN,NaN,NaN,NaN,NaN,NaN,NaN,NaN
2.99725275,0.90000000,0.80000000,no vaccine,11585.48495971,13765.77095811,16303.21269510,NaN,NaN,NaN,NaN,NaN,NaN,NaN,NaN,NaN,NaN,NaN,NaN,NaN,NaN,NaN
3.99725275,0.90000000,0.80000000,no vaccine,11709.26994346,13872.35535768,16666.78420109,NaN,NaN,NaN,NaN,NaN,NaN,NaN,NaN,NaN,NaN,NaN,NaN,NaN,NaN,NaN
4.99725275,0.90000000,0.80000000,no vaccine,11828.89958465,14020.66064260,16680.89100394,NaN,NaN,NaN,NaN,NaN,NaN,NaN,NaN,NaN,NaN,NaN,NaN,NaN,NaN,NaN
5.99725275,0.90000000,0.80000000,no vaccine,11930.96505242,14168.54360412,16911.59536557,NaN,NaN,NaN,NaN,NaN,NaN,NaN,NaN,NaN,NaN,NaN,NaN,NaN,NaN,NaN
6.99725275,0.90000000,0.80000000,no vaccine,12061.45129719,14280.38235214,17104.58470213,NaN,NaN,NaN,NaN,NaN,NaN,NaN,NaN,NaN,NaN,NaN,NaN,NaN,NaN,NaN
7.99725275,0.90000000,0.80000000,no vaccine,12197.93515944,14445.53375849,17161.46772171,NaN,NaN,NaN,NaN,NaN,NaN,NaN,NaN,NaN,NaN,NaN,NaN,NaN,NaN,NaN
8.99725275,0.90000000,0.80000000,no vaccine,12314.30294504,14560.14560838,17440.98922127,NaN,NaN,NaN,NaN,NaN,NaN,NaN,NaN,NaN,NaN,NaN,NaN,NaN,NaN,NaN
9.99725275,0.90000000,0.80000000,no vaccine,12439.73835040,14715.75007345,17533.73897178,NaN,NaN,NaN,NaN,NaN,NaN,NaN,NaN,NaN,NaN,NaN,NaN,NaN,NaN,NaN
