time,screeningCoverage,vaccineResponseProb,screeningScenario,totalHospCounts_025,totalHospCounts_500,totalHospCounts_975,vacInducedHospCount_025,vacInducedHospCount_500,vacInducedHospCount_975,vacInducedHospPerc_025,vacInducedHospPerc_500,vacInducedHospPerc_975,advHosp_025,advHosp_500,advHosp_975,nVaccines_025,nVaccines_500,nVaccines_975,nVaccinesPerYear_025,nVaccinesPerYear_500,nVaccinesPerYear_975
0.99725275,0.50000000,0.40000000,no screening,11603.19482411,13478.82741457,16597.82539863,85.01941004,101.85222731,129.23197654,0.00714730,0.00759812,0.00820122,0.02944428,0.03534743,0.04272353,136838.57370820,136848.14657052,136867.78308143,136838.57370820,136848.14657052,136867.78308143
1.99725275,0.50000000,0.40000000,no screening,11283.05087246,13182.93203464,17019.33493226,186.72614581,224.49802649,303.30402508,0.01627346,0.01713538,0.01830096,0.03648954,0.05939904,0.07785653,247062.55982438,247080.27237778,247108.91544106,110223.19399552,110232.38496395,110243.39729896
2.99725275,0.50000000,0.40000000,no screening,11756.58450866,13793.42760749,17899.78189100,281.69817803,338.71392714,457.33950970,0.02348016,0.02470601,0.02599447,-0.00512011,0.02928551,0.04723830,352919.61968949,352947.91073351,352989.84413936,105853.24324319,105868.98033892,105885.76826959
3.99725275,0.50000000,0.40000000,no screening,11644.60701688,13419.97839151,17027.76164576,352.46092863,416.37505630,539.79516099,0.02965840,0.03122351,0.03259720,0.05002800,0.06191832,0.06842831,458631.01403627,458674.56091144,458730.07553206,105709.50826100,105726.62862141,105744.93507285
4.99725275,0.50000000,0.40000000,no screening,11698.67224058,13605.55040885,17977.32748583,422.04857293,503.12398044,677.19237395,0.03518523,0.03712720,0.03851108,0.02678532,0.05892636,0.07043447,564996.94854111,565056.03668568,565116.98139931,106354.18525301,106377.57662722,106401.20762753
5.99725275,0.50000000,0.40000000,no screening,11915.22386423,13812.94238270,18001.31335911,490.68046198,582.49135257,764.83323007,0.04006028,0.04232751,0.04363216,0.02768195,0.05384696,0.06161394,672181.37687636,672263.88656700,672342.97503862,107189.12444089,107207.42347266,107233.88769116
6.99725275,0.50000000,0.40000000,no screening,11898.34164214,13652.14796322,17601.73455223,543.33842537,640.72163826,826.32597575,0.04446544,0.04700449,0.04828759,0.06036950,0.07181156,0.07666149,780289.37286861,780373.61672531,780462.25479199,108089.01557951,108111.49675916,108135.54618627
7.99725275,0.50000000,0.40000000,no screening,12045.56562758,13950.50712686,18372.48017500,599.13201898,711.79178809,942.60333447,0.04840209,0.05120372,0.05259593,0.03080304,0.06424006,0.07112733,889329.51521119,889432.20326779,889534.98498748,109032.95259102,109054.53571435,109081.27058615
8.99725275,0.50000000,0.40000000,no screening,12165.48545111,13968.91253707,18052.71844534,649.59862128,768.29118172,983.59059441,0.05190178,0.05488799,0.05647299,0.05716148,0.06918184,0.07303828,999374.29199112,999477.30645294,999601.97712115,110015.31379439,110046.59514171,110069.61193857
9.99725275,0.50000000,0.40000000,no screening,12237.93665560,14014.91998969,18214.55272183,691.28728520,816.86134454,1050.85790784,0.05508470,0.05822774,0.05998970,0.06208029,0.07487297,0.07854331,1110436.42545157,1110545.10957601,1110690.46481262,111050.56202239,111074.46611864,111099.28726649
0.99725275,0.50000000,0.40000000,perfect screening,11523.71125051,13373.68840051,16483.83923722,0.00000000,0.00000000,0.00000000,0.00000000,0.00000000,0.00000000,0.03672907,0.04275533,0.04995917,83437.22601505,86800.40587624,87458.42233591,83437.22601505,86800.40587624,87458.42233591
1.99725275,0.50000000,0.40000000,perfect screening,11136.56050846,13002.30650187,16775.64416375,0.00000000,0.00000000,0.00000000,0.00000000,0.00000000,0.00000000,0.04998646,0.07312504,0.08981184,150553.84050478,156284.10608388,157460.49784880,67116.61448973,69493.86012720,70002.07551288
2.99725275,0.50000000,0.40000000,perfect screening,11586.71029235,13540.56778406,17530.38516059,0.00000000,0.00000000,0.00000000,0.00000000,0.00000000,0.00000000,0.01713310,0.04803458,0.06135882,215135.36811363,222643.21421625,224271.04257771,64581.52760884,66356.34814313,66810.54472891
3.99725275,0.50000000,0.40000000,perfect screening,11437.88815470,13136.04345682,16655.20980948,0.00000000,0.00000000,0.00000000,0.00000000,0.00000000,0.00000000,0.07185392,0.08122725,0.08730796,279669.48511298,288666.35855384,290757.05833997,64534.11699936,66020.62196405,66486.01576226
4.99725275,0.50000000,0.40000000,perfect screening,11504.70621293,13323.36450691,17523.48009256,0.00000000,0.00000000,0.00000000,0.00000000,0.00000000,0.00000000,0.05310376,0.07996727,0.08544690,344292.66383293,354652.54966151,357315.46468986,64623.17871994,66010.15321443,66545.23715322
5.99725275,0.50000000,0.40000000,perfect screening,11716.30480593,13490.38920897,17471.27845637,0.00000000,0.00000000,0.00000000,0.00000000,0.00000000,0.00000000,0.05780451,0.07653850,0.07992192,409491.22473380,420908.90184727,424166.88395350,65198.56090087,66281.45985804,66842.36863350
6.99725275,0.50000000,0.40000000,perfect screening,11693.55336545,13326.34044211,17155.23810313,0.00000000,0.00000000,0.00000000,0.00000000,0.00000000,0.00000000,0.08331297,0.09302452,0.09740917,475023.47011935,487512.25939514,491427.90211358,65531.08293158,66608.72735465,67205.63028777
7.99725275,0.50000000,0.40000000,perfect screening,11862.56040469,13638.47791625,17833.85759172,0.00000000,0.00000000,0.00000000,0.00000000,0.00000000,0.00000000,0.06260010,0.08478109,0.08878341,540932.97937861,554467.12393995,559102.11460379,65907.01609602,66956.74417606,67670.48502191
8.99725275,0.50000000,0.40000000,perfect screening,11961.09853492,13636.14332320,17516.65274637,0.00000000,0.00000000,0.00000000,0.00000000,0.00000000,0.00000000,0.08194605,0.09070486,0.09521694,607435.66755061,621945.34390106,627253.03844261,66499.25029512,67466.41638393,68213.20829130
9.99725275,0.50000000,0.40000000,perfect screening,12052.51376607,13730.62676705,17766.30618273,0.00000000,0.00000000,0.00000000,0.00000000,0.00000000,0.00000000,0.08510131,0.09416212,0.10001927,674286.65118843,689956.78282726,695953.39258790,66845.49575162,67971.70563410,68821.90119130
0.99725275,0.50000000,0.40000000,realistic screening,11712.96425209,13593.95567576,16669.92709160,0.00435529,0.05706940,0.43558859,0.00000029,0.00000403,0.00003230,0.01927210,0.02757538,0.03789577,57264.87344456,65816.10742333,72216.31544353,57264.87344456,65816.10742333,72216.31544353
1.99725275,0.50000000,0.40000000,realistic screening,11419.57274938,13303.75825155,17038.33983971,0.01113774,0.14184408,1.09780636,0.00000076,0.00001023,0.00008212,0.03217729,0.05060328,0.06590341,106352.73980055,121264.94612258,132101.33338002,49053.53547817,55408.76215261,59885.01793650
2.99725275,0.50000000,0.40000000,realistic screening,11762.28740635,13735.40129678,17683.98670685,0.01746370,0.22472767,1.71848652,0.00000116,0.00001575,0.00012646,0.01060841,0.03548983,0.04666327,153758.32262330,174558.74859326,189467.23451761,47405.58282275,53220.11123237,57365.90113758
3.99725275,0.50000000,0.40000000,realistic screening,11721.17106167,13467.46453941,16986.72442629,0.02269079,0.29018270,2.23576533,0.00000153,0.00002061,0.00016558,0.04446011,0.05586820,0.06550628,200991.94932258,227570.88339072,246522.06592491,47233.62669928,52939.63570388,57054.83140730
4.99725275,0.50000000,0.40000000,realistic screening,11782.97137112,13631.17907920,17835.94180524,0.02779967,0.35546817,2.73010558,0.00000185,0.00002499,0.00020075,0.03418454,0.05620783,0.06545761,248291.20793969,280620.90861419,303641.66779289,47299.25861710,52985.88512550,57119.60186798
5.99725275,0.50000000,0.40000000,realistic screening,11969.55253305,13777.50495792,17754.18201221,0.03235226,0.41578872,3.18203924,0.00000214,0.00002886,0.00023176,0.04134907,0.05473126,0.06203234,295874.37304809,333823.25792689,361009.67170044,47607.67265572,53202.34931270,57368.00390755
6.99725275,0.50000000,0.40000000,realistic screening,12002.84533362,13713.11968417,17567.50655583,0.03624767,0.46418034,3.55913643,0.00000239,0.00003231,0.00025911,0.05342613,0.06545660,0.07490093,343687.73571610,387305.60256364,418708.48798162,47878.75726408,53463.82273496,57698.81628118
7.99725275,0.50000000,0.40000000,realistic screening,12150.45330002,13970.74591956,18250.01065339,0.04019209,0.51627412,3.94810592,0.00000262,0.00003538,0.00028328,0.04146731,0.05989497,0.06769875,391776.47831946,441093.96934189,476777.08121938,48165.29101428,53735.58702537,58068.59323776
8.99725275,0.50000000,0.40000000,realistic screening,12269.09357638,14009.16853337,17902.69057804,0.04344629,0.55869662,4.26985665,0.00000282,0.00003805,0.00030427,0.05571746,0.06497207,0.07441053,440220.20110760,495253.43685200,535299.75543206,48548.28936446,54125.56737908,58522.67421268
9.99725275,0.50000000,0.40000000,realistic screening,12371.13248959,14139.17491417,18225.51403748,0.04652425,0.59733756,4.57229446,0.00000299,0.00004040,0.00032259,0.05620544,0.06660261,0.07641203,488965.11415931,549729.32046928,594317.82441083,48870.80544675,54509.63148382,59018.06897877
0.99725275,0.50000000,0.40000000,no vaccine,12086.69619868,13968.18196082,17270.77905175,NaN,NaN,NaN,NaN,NaN,NaN,NaN,NaN,NaN,NaN,NaN,NaN,NaN,NaN,NaN
1.99725275,0.50000000,0.40000000,no vaccine,12194.94258935,14040.96278142,17756.33209098,NaN,NaN,NaN,NaN,NaN,NaN,NaN,NaN,NaN,NaN,NaN,NaN,NaN,NaN,NaN
2.99725275,0.50000000,0.40000000,no vaccine,12319.64051793,14228.98100039,18079.26274582,NaN,NaN,NaN,NaN,NaN,NaN,NaN,NaN,NaN,NaN,NaN,NaN,NaN,NaN,NaN
3.99725275,0.50000000,0.40000000,no vaccine,12431.74968178,14318.59740907,18072.72882832,NaN,NaN,NaN,NaN,NaN,NaN,NaN,NaN,NaN,NaN,NaN,NaN,NaN,NaN,NaN
4.99725275,0.50000000,0.40000000,no vaccine,12556.77283159,14471.57355153,18596.51999583,NaN,NaN,NaN,NaN,NaN,NaN,NaN,NaN,NaN,NaN,NaN,NaN,NaN,NaN,NaN
5.99725275,0.50000000,0.40000000,no vaccine,12694.67681430,14616.17534997,18624.42100374,NaN,NaN,NaN,NaN,NaN,NaN,NaN,NaN,NaN,NaN,NaN,NaN,NaN,NaN,NaN
6.99725275,0.50000000,0.40000000,no vaccine,12815.66397565,14734.18713791,18865.80428173,NaN,NaN,NaN,NaN,NaN,NaN,NaN,NaN,NaN,NaN,NaN,NaN,NaN,NaN,NaN
7.99725275,0.50000000,0.40000000,no vaccine,12942.83658037,14904.93719408,19191.05404331,NaN,NaN,NaN,NaN,NaN,NaN,NaN,NaN,NaN,NaN,NaN,NaN,NaN,NaN,NaN
8.99725275,0.50000000,0.40000000,no vaccine,13079.41685236,15034.58037567,19222.36829020,NaN,NaN,NaN,NaN,NaN,NaN,NaN,NaN,NaN,NaN,NaN,NaN,NaN,NaN,NaN
9.99725275,0.50000000,0.40000000,no vaccine,13208.05591272,15186.84420485,19565.63518650,NaN,NaN,NaN,NaN,NaN,NaN,NaN,NaN,NaN,NaN,NaN,NaN,NaN,NaN,NaN
0.99725275,0.50000000,0.60000000,no screening,11363.17139699,13220.72230370,16374.76712553,124.15340285,149.04274272,190.36298010,0.01065489,0.01133186,0.01223150,0.04536268,0.05366273,0.06126233,136841.42937612,136850.76030518,136869.03803255,136841.42937612,136850.76030518,136869.03803255
1.99725275,0.50000000,0.60000000,no screening,10805.75287819,12728.63203903,16620.68821515,268.48063146,325.67530509,444.30969472,0.02443982,0.02573082,0.02740857,0.05872127,0.08952021,0.11733299,247071.61230813,247086.89478855,247112.85642782,110226.88049091,110235.34400209,110246.40514003
2.99725275,0.50000000,0.60000000,no screening,11456.57311645,13554.95291902,17806.05285320,414.76013636,501.65119446,683.24975532,0.03535453,0.03721478,0.03897596,-0.00193665,0.04356162,0.07285214,352928.67313529,352956.27487196,352994.10236983,105856.63751858,105869.71575831,105886.93262444
3.99725275,0.50000000,0.60000000,no screening,11279.93294516,13000.99186232,16623.05602265,516.59985486,608.49885476,791.80952794,0.04464740,0.04711369,0.04890674,0.07366552,0.09059974,0.09848004,458653.24420013,458685.94368745,458738.69328358,105712.52517089,105729.77737213,105746.16639889
4.99725275,0.50000000,0.60000000,no screening,11260.47890798,13124.28598995,17559.97589914,617.79060477,736.85261287,996.35784288,0.05318098,0.05625018,0.05797614,0.04589907,0.09042309,0.10548099,565007.02302372,565064.25896782,565127.82469635,106348.08744745,106381.50430852,106399.98205479
5.99725275,0.50000000,0.60000000,no screening,11550.06333031,13452.17969313,17743.30434610,725.82230799,862.88573866,1139.64858755,0.06072618,0.06444980,0.06586394,0.03692975,0.07714300,0.09073130,672206.51180772,672276.89902799,672348.40228413,107192.06778323,107209.11608738,107230.31077731
6.99725275,0.50000000,0.60000000,no screening,11471.05919222,13119.91532826,17024.54977256,802.61822727,941.61205913,1210.27337921,0.06759708,0.07187543,0.07331219,0.08974961,0.10509923,0.11220421,780317.85698277,780390.94235491,780477.82892134,108094.85486978,108115.69681453,108133.57915935
7.99725275,0.50000000,0.60000000,no screening,11602.17225326,13444.29481255,17916.06232388,888.89039391,1054.75828899,1396.94132746,0.07394938,0.07868643,0.08023952,0.05379977,0.09712801,0.10542584,889372.28938012,889446.40729947,889548.80333184,109039.05603486,109056.59563535,109077.45555925
8.99725275,0.50000000,0.60000000,no screening,11749.03178598,13529.89517232,17691.05374914,968.32210398,1145.40651529,1466.75903590,0.07962171,0.08464606,0.08636258,0.07590147,0.10022776,0.10411220,999403.03890462,999495.49423008,999607.27868735,110022.09373511,110044.36988685,110076.67798564
9.99725275,0.50000000,0.60000000,no screening,11777.51413270,13438.90197797,17487.42434936,1031.00328110,1213.29986647,1544.94788140,0.08485164,0.09003131,0.09206253,0.09605411,0.11131390,0.11566865,1110471.84536106,1110569.76863832,1110694.89946237,111050.89879340,111077.57915149,111105.84940284
0.99725275,0.50000000,0.60000000,perfect screening,11243.95203710,13074.04934821,16204.28087631,0.00000000,0.00000000,0.00000000,0.00000000,0.00000000,0.00000000,0.05548383,0.06397827,0.07125969,83417.93004749,86771.94124425,87429.38767173,83417.93004749,86771.94124425,87429.38767173
1.99725275,0.50000000,0.60000000,perfect screening,10594.18066192,12456.20338080,16263.29980792,0.00000000,0.00000000,0.00000000,0.00000000,0.00000000,0.00000000,0.07921636,0.11021466,0.13432061,150390.74742119,156059.68952845,157208.38386244,66972.81737370,69293.27242078,69778.99619071
2.99725275,0.50000000,0.60000000,perfect screening,11208.20316745,13182.02484257,17252.78977842,0.00000000,0.00000000,0.00000000,0.00000000,0.00000000,0.00000000,0.03136319,0.07156141,0.09277730,214737.23794889,222087.89057035,223605.92004995,64346.49052771,66009.89075053,66418.84901293
3.99725275,0.50000000,0.60000000,perfect screening,10956.11608881,12570.98758160,16033.45376821,0.00000000,0.00000000,0.00000000,0.00000000,0.00000000,0.00000000,0.10725803,0.11843205,0.12565097,278989.36790272,287663.65568231,289590.55361309,64252.12995383,65593.58328423,66004.18937600
4.99725275,0.50000000,0.60000000,perfect screening,10968.03154454,12705.55132034,16884.56716207,0.00000000,0.00000000,0.00000000,0.00000000,0.00000000,0.00000000,0.08675425,0.12163655,0.12828764,343171.91444876,353059.63444494,355500.47594638,64181.52454550,65411.27212207,65909.92233329
5.99725275,0.50000000,0.60000000,perfect screening,11242.28456737,12961.38682171,16962.51307553,0.00000000,0.00000000,0.00000000,0.00000000,0.00000000,0.00000000,0.08279535,0.11262577,0.11654387,407859.82564824,418624.53262639,421591.20353735,64687.91119948,65581.57769385,66090.72759097
6.99725275,0.50000000,0.60000000,perfect screening,11155.05389909,12652.65478494,16302.73355992,0.00000000,0.00000000,0.00000000,0.00000000,0.00000000,0.00000000,0.12482312,0.13782162,0.14355648,472809.57101925,484440.70747686,488035.12996241,64947.28888394,65815.88501283,66395.87300062
7.99725275,0.50000000,0.60000000,perfect screening,11314.38620387,12978.98786476,17117.25441028,0.00000000,0.00000000,0.00000000,0.00000000,0.00000000,0.00000000,0.10063973,0.12741892,0.13294896,537981.76759362,550468.47893469,554859.42842782,65167.39240747,66061.47822805,66795.90394757
8.99725275,0.50000000,0.60000000,perfect screening,11444.63611623,13020.27289857,16837.00183707,0.00000000,0.00000000,0.00000000,0.00000000,0.00000000,0.00000000,0.11863803,0.13213611,0.13845559,603724.58914084,617001.58582570,622151.31094089,65738.66312880,66533.70691197,67309.31111140
9.99725275,0.50000000,0.60000000,perfect screening,11488.94479901,12996.52291455,16791.10909395,0.00000000,0.00000000,0.00000000,0.00000000,0.00000000,0.00000000,0.12659796,0.14156847,0.14922759,669750.70800904,683983.75488615,689883.81759652,66020.07465513,66993.88210256,67901.88331731
0.99725275,0.50000000,0.60000000,realistic screening,11515.51253990,13385.97751891,16477.81133701,0.00644128,0.08427978,0.64417295,0.00000044,0.00000603,0.00004839,0.03076869,0.04174125,0.05116850,57255.16980056,65802.21173514,72197.15101711,57255.16980056,65802.21173514,72197.15101711
1.99725275,0.50000000,0.60000000,realistic screening,11024.61247223,12911.77106126,16664.16857060,0.01639956,0.20833232,1.61557851,0.00000114,0.00001544,0.00012391,0.05023350,0.07597044,0.09979295,106267.45589120,121148.38117271,131937.76046751,48978.66607546,55299.01913365,59740.60945039
2.99725275,0.50000000,0.60000000,realistic screening,11469.55403588,13464.83444125,17490.49064483,0.02601396,0.33456993,2.56131446,0.00000176,0.00002387,0.00019174,0.02093599,0.05286469,0.07024575,153543.28118575,174238.53452854,189031.66214226,47275.82529455,53020.02863842,57093.90167476
3.99725275,0.50000000,0.60000000,realistic screening,11368.96558436,13057.84589700,16531.55206129,0.03357106,0.42874021,3.30514288,0.00000232,0.00003136,0.00025193,0.06803538,0.08282527,0.09492391,200611.82198340,227049.77259849,245750.63812310,47068.54079765,52681.01984760,56718.97598084
4.99725275,0.50000000,0.60000000,realistic screening,11394.86410649,13180.86529874,17373.23828276,0.04121777,0.52641335,4.04495983,0.00000282,0.00003818,0.00030678,0.05639851,0.08499258,0.09850357,247664.20535004,279669.12494572,302418.43513246,47058.69151223,52619.35234722,56667.79700935
5.99725275,0.50000000,0.60000000,realistic screening,11615.52867330,13381.05318939,17365.58721261,0.04829932,0.62101024,4.74693802,0.00000327,0.00004426,0.00035550,0.06032157,0.07971662,0.09169239,294955.79816115,332435.76344593,359252.57598101,47326.31048692,52766.63850022,56834.14084855
6.99725275,0.50000000,0.60000000,realistic screening,11615.32806784,13240.98818694,16953.96760401,0.05387241,0.69030841,5.28865730,0.00000368,0.00004972,0.00039870,0.08050357,0.09669639,0.11170880,342427.49835734,385434.95779116,416365.78625887,47546.12069874,52994.13931006,57113.21027786
7.99725275,0.50000000,0.60000000,realistic screening,11747.98729788,13485.82713218,17749.00313058,0.06011423,0.77186552,5.89797455,0.00000404,0.00005463,0.00043724,0.06625608,0.08984126,0.10108748,390111.55693065,438677.56135369,473792.40166736,47767.80558065,53188.67850979,57426.61540849
8.99725275,0.50000000,0.60000000,realistic screening,11882.00540027,13562.33793653,17346.38876889,0.06505888,0.83813775,6.39530912,0.00000435,0.00005891,0.00047083,0.08370722,0.09528974,0.10794629,438122.36003350,492290.29838126,531645.83577082,48143.81746957,53545.57479199,57853.43410346
9.99725275,0.50000000,0.60000000,realistic screening,11959.11674129,13628.30447254,17504.51488029,0.06965588,0.89436760,6.84382191,0.00000464,0.00006272,0.00050025,0.08553645,0.10049128,0.11475216,486453.19089036,546211.21741269,589969.49295864,48411.70481547,53894.56586443,58323.65718782
0.99725275,0.50000000,0.60000000,no vaccine,12086.69619868,13968.18196082,17270.77905175,NaN,NaN,NaN,NaN,NaN,NaN,NaN,NaN,NaN,NaN,NaN,NaN,NaN,NaN,NaN
1.99725275,0.50000000,0.60000000,no vaccine,12194.94258935,14040.96278142,17756.33209098,NaN,NaN,NaN,NaN,NaN,NaN,NaN,NaN,NaN,NaN,NaN,NaN,NaN,NaN,NaN
2.99725275,0.50000000,0.60000000,no vaccine,12319.64051793,14228.98100039,18079.26274582,NaN,NaN,NaN,NaN,NaN,NaN,NaN,NaN,NaN,NaN,NaN,NaN,NaN,NaN,NaN
3.99725275,0.50000000,0.60000000,no vaccine,12431.74968178,14318.59740907,18072.72882832,NaN,NaN,NaN,NaN,NaN,NaN,NaN,NaN,NaN,NaN,NaN,NaN,NaN,NaN,NaN
4.99725275,0.50000000,0.60000000,no vaccine,12556.77283159,14471.57355153,18596.51999583,NaN,NaN,NaN,NaN,NaN,NaN,NaN,NaN,NaN,NaN,NaN,NaN,NaN,NaN,NaN
5.99725275,0.50000000,0.60000000,no vaccine,12694.67681430,14616.17534997,18624.42100374,NaN,NaN,NaN,NaN,NaN,NaN,NaN,NaN,NaN,NaN,NaN,NaN,NaN,NaN,NaN
6.99725275,0.50000000,0.60000000,no vaccine,12815.66397565,14734.18713791,18865.80428173,NaN,NaN,NaN,NaN,NaN,NaN,NaN,NaN,NaN,NaN,NaN,NaN,NaN,NaN,NaN
7.99725275,0.50000000,0.60000000,no vaccine,12942.83658037,14904.93719408,19191.05404331,NaN,NaN,NaN,NaN,NaN,NaN,NaN,NaN,NaN,NaN,NaN,NaN,NaN,NaN,NaN
8.99725275,0.50000000,0.60000000,no vaccine,13079.41685236,15034.58037567,19222.36829020,NaN,NaN,NaN,NaN,NaN,NaN,NaN,NaN,NaN,NaN,NaN,NaN,NaN,NaN,NaN
9.99725275,0.50000000,0.60000000,no vaccine,13208.05591272,15186.84420485,19565.63518650,NaN,NaN,NaN,NaN,NaN,NaN,NaN,NaN,NaN,NaN,NaN,NaN,NaN,NaN,NaN
0.99725275,0.50000000,0.80000000,no screening,11126.84916866,12972.24170662,16151.66614172,161.10908634,193.75463396,249.27741758,0.01411559,0.01501756,0.01621294,0.05815340,0.07037744,0.08078748,136843.41139663,136853.63513592,136871.65977562,136843.41139663,136853.63513592,136871.65977562
1.99725275,0.50000000,0.80000000,no screening,10322.08357758,12293.50355474,16221.78254901,342.61088448,420.44731141,578.31492396,0.03261943,0.03433811,0.03648760,0.07912995,0.12026908,0.15657914,247076.64606847,247094.58782130,247118.99823071,110230.51100398,110238.75225016,110248.35789616
2.99725275,0.50000000,0.80000000,no screening,11147.07027511,13327.15679511,17687.28174751,540.95126854,659.24335274,907.63902020,0.04723680,0.04979928,0.05194558,0.00180771,0.05852844,0.09922518,352941.15804654,352966.27240152,352998.41029604,105856.52337201,105871.99755421,105886.26847984
3.99725275,0.50000000,0.80000000,no screening,10942.00123532,12608.59379811,16253.29582749,673.85466018,792.70911700,1033.89192224,0.05972790,0.06311407,0.06521753,0.09445359,0.11767447,0.12736755,458656.38047927,458698.22042135,458738.39634707,105717.44898601,105730.75830142,105749.92359625
4.99725275,0.50000000,0.80000000,no screening,10809.02175964,12625.76956784,17101.96190015,802.10984185,954.40181209,1298.54478543,0.07141619,0.07574098,0.07756180,0.06828686,0.12303052,0.14055762,565029.47645280,565083.40447409,565125.58304279,106362.38013561,106383.06145312,106400.36167606
5.99725275,0.50000000,0.80000000,no screening,11176.96361330,13097.18064334,17549.41490939,953.03328846,1136.99337649,1510.91322559,0.08178636,0.08711661,0.08878298,0.04454645,0.10042518,0.12044890,672226.89229918,672297.94069509,672351.15895828,107188.88182194,107211.81944929,107236.96333137
6.99725275,0.50000000,0.80000000,no screening,11074.45726057,12652.53846994,16466.15190327,1055.88930421,1231.95588477,1575.23035898,0.09138930,0.09750256,0.09924049,0.11707136,0.13598069,0.14489505,780330.18648408,780412.07159189,780479.16208857,108094.36364659,108118.65019815,108138.83638650
7.99725275,0.50000000,0.80000000,no screening,11168.90838064,12924.31184501,17434.68115884,1168.63331889,1383.14884492,1832.42456474,0.10038808,0.10716600,0.10876706,0.08009404,0.13095195,0.13889598,889380.33471734,889468.87311563,889552.01665086,109039.37226590,109062.43428836,109081.76883027
8.99725275,0.50000000,0.80000000,no screening,11350.60825872,13100.61477082,17414.62745710,1280.93880771,1516.94147957,1948.62744785,0.10846923,0.11585855,0.11753286,0.09038700,0.12765237,0.13309390,999421.31944851,999520.93687272,999617.35414260,110025.94478749,110048.87968894,110075.49303430
9.99725275,0.50000000,0.80000000,no screening,11349.51248848,12907.26359840,16813.56026361,1364.32871965,1598.98850469,2015.66822392,0.11598035,0.12362414,0.12565308,0.12919667,0.14670051,0.15146071,1110494.68945664,1110595.34536979,1110714.71726350,111052.84444230,111078.65714838,111106.66329555
0.99725275,0.50000000,0.80000000,perfect screening,10969.89740345,12782.73750019,15939.44181506,0.00000000,0.00000000,0.00000000,0.00000000,0.00000000,0.00000000,0.07167259,0.08399195,0.09404088,83398.72511233,86743.63649248,87399.99119129,83398.72511233,86743.63649248,87399.99119129
1.99725275,0.50000000,0.80000000,perfect screening,10057.10365789,11926.81632750,15737.75766506,0.00000000,0.00000000,0.00000000,0.00000000,0.00000000,0.00000000,0.10846687,0.14679880,0.17854995,150228.56841237,155838.92289161,156957.19916001,66829.84330003,69094.39066483,69557.20796872
2.99725275,0.50000000,0.80000000,perfect screening,10805.38546910,12823.07779115,16991.13579868,0.00000000,0.00000000,0.00000000,0.00000000,0.00000000,0.00000000,0.04536087,0.09545616,0.12584720,214333.28521495,221508.98567482,222930.64406786,64104.71680259,65671.75619634,66071.61418577
3.99725275,0.50000000,0.80000000,perfect screening,10512.37843052,12043.45604788,15487.40742807,0.00000000,0.00000000,0.00000000,0.00000000,0.00000000,0.00000000,0.13777493,0.15430698,0.16271699,278304.88868395,286641.76249326,288440.60903063,63971.60346900,65167.72601178,65575.62150105
4.99725275,0.50000000,0.80000000,perfect screening,10438.71519432,12084.22208449,16212.55545054,0.00000000,0.00000000,0.00000000,0.00000000,0.00000000,0.00000000,0.12044133,0.16350771,0.17148198,342051.83211279,351420.19566752,353675.68445713,63745.38662161,64830.18435254,65263.12155038
5.99725275,0.50000000,0.80000000,perfect screening,10767.22287074,12469.97630182,16486.20117635,0.00000000,0.00000000,0.00000000,0.00000000,0.00000000,0.00000000,0.10715636,0.14705371,0.15302018,406206.37135148,416251.02921594,418970.65802789,64154.53923869,64888.46853335,65312.55468985
6.99725275,0.50000000,0.80000000,perfect screening,10637.36399389,11998.98734777,15521.55884377,0.00000000,0.00000000,0.00000000,0.00000000,0.00000000,0.00000000,0.16273140,0.18132021,0.18779600,470564.70199472,481266.37615863,484566.55880369,64355.76290746,65028.21634813,65562.85850998
7.99725275,0.50000000,0.80000000,perfect screening,10771.87377854,12338.22392144,16368.56195701,0.00000000,0.00000000,0.00000000,0.00000000,0.00000000,0.00000000,0.13984691,0.17072340,0.17755471,535012.10424527,546489.09074314,550485.76412101,64442.17338849,65157.62514967,65904.25067300
8.99725275,0.50000000,0.80000000,perfect screening,10916.07085012,12412.53727464,16202.16284831,0.00000000,0.00000000,0.00000000,0.00000000,0.00000000,0.00000000,0.15629036,0.17159237,0.17902122,599977.08608663,612059.50693804,616882.79584339,64959.93543706,65574.14760773,66375.87105978
9.99725275,0.50000000,0.80000000,perfect screening,10928.29029430,12279.92432130,15831.99225627,0.00000000,0.00000000,0.00000000,0.00000000,0.00000000,0.00000000,0.16636366,0.18844762,0.19822513,665165.30408009,677996.19083272,683712.31659328,65181.84288245,65995.19252584,66956.21742330
0.99725275,0.50000000,0.80000000,realistic screening,11322.93721799,13183.55593619,16290.48902230,0.00846860,0.11067903,0.84650991,0.00000059,0.00000803,0.00006442,0.04240019,0.05517781,0.06712216,57245.86752090,65787.10556522,72178.47261100,57245.86752090,65787.10556522,72178.47261100
1.99725275,0.50000000,0.80000000,realistic screening,10626.14075245,12548.18129329,16289.78797428,0.02145164,0.27171793,2.11292976,0.00000153,0.00002071,0.00016619,0.06888880,0.10138227,0.13182388,106180.92618748,121030.42266021,131778.78749299,48902.16582421,55188.71203572,59600.31488199
2.99725275,0.50000000,0.80000000,realistic screening,11163.01955064,13192.85262408,17286.09806453,0.03444403,0.44260135,3.39157123,0.00000237,0.00003218,0.00025846,0.03186244,0.07053260,0.09594173,153320.12792714,173911.31146342,188603.27606870,47139.20173966,52808.02568947,56824.48857570
3.99725275,0.50000000,0.80000000,realistic screening,11041.21871299,12671.78518325,16117.68603966,0.04413563,0.56275770,4.34197073,0.00000313,0.00004241,0.00034076,0.09010718,0.10980185,0.12370443,200220.03923446,226440.99366518,244977.61299515,46899.91130732,52412.09823675,56385.81160572
4.99725275,0.50000000,0.80000000,realistic screening,11015.87619845,12733.46411877,16877.28746594,0.05427900,0.69310590,5.33003101,0.00000383,0.00005188,0.00041679,0.07814099,0.11399983,0.13205880,247028.09623240,278694.65042288,301199.27509491,46818.20467077,52253.65675770,56221.66209977
5.99725275,0.50000000,0.80000000,realistic screening,11250.40380748,12996.11596185,17005.09549144,0.06405567,0.82365353,6.29245841,0.00000446,0.00006033,0.00048479,0.07959578,0.10582256,0.12076582,294024.89498697,331027.74123088,357496.38516907,47033.65638160,52333.09080800,56297.11007416
6.99725275,0.50000000,0.80000000,realistic screening,11226.34676438,12784.91668123,16361.63983759,0.07118599,0.91163798,6.97908490,0.00000502,0.00006801,0.00054548,0.10724346,0.12847949,0.14626297,341152.41489215,383542.30430276,414022.42572837,47215.48853537,52514.56307188,56526.04055931
7.99725275,0.50000000,0.80000000,realistic screening,11343.53432420,13022.20314891,17186.93952493,0.07980842,1.02606620,7.83285741,0.00000553,0.00007500,0.00060007,0.09166692,0.12021600,0.13463795,388427.55395238,436239.48733980,470800.53758769,47388.20609938,52638.28633546,56778.11185931
8.99725275,0.50000000,0.80000000,realistic screening,11484.26797781,13134.42315850,16859.52900432,0.08662684,1.11648315,8.51039213,0.00000598,0.00008112,0.00064782,0.10904266,0.12456757,0.14052931,436008.03795198,489269.29519216,527965.72777335,47736.23156513,52960.49005831,57165.19018566
9.99725275,0.50000000,0.80000000,realistic screening,11545.14377539,13134.28274549,16799.17117965,0.09268608,1.19132527,9.08671675,0.00000639,0.00008658,0.00068983,0.11387728,0.13338041,0.15145442,483944.30977301,542661.56306354,585589.69740056,47951.66579113,53273.32284581,57623.96962721
0.99725275,0.50000000,0.80000000,no vaccine,12086.69619868,13968.18196082,17270.77905175,NaN,NaN,NaN,NaN,NaN,NaN,NaN,NaN,NaN,NaN,NaN,NaN,NaN,NaN,NaN
1.99725275,0.50000000,0.80000000,no vaccine,12194.94258935,14040.96278142,17756.33209098,NaN,NaN,NaN,NaN,NaN,NaN,NaN,NaN,NaN,NaN,NaN,NaN,NaN,NaN,NaN
2.99725275,0.50000000,0.80000000,no vaccine,12319.64051793,14228.98100039,18079.26274582,NaN,NaN,NaN,NaN,NaN,NaN,NaN,NaN,NaN,NaN,NaN,NaN,NaN,NaN,NaN
3.99725275,0.50000000,0.80000000,no vaccine,12431.74968178,14318.59740907,18072.72882832,NaN,NaN,NaN,NaN,NaN,NaN,NaN,NaN,NaN,NaN,NaN,NaN,NaN,NaN,NaN
4.99725275,0.50000000,0.80000000,no vaccine,12556.77283159,14471.57355153,18596.51999583,NaN,NaN,NaN,NaN,NaN,NaN,NaN,NaN,NaN,NaN,NaN,NaN,NaN,NaN,NaN
5.99725275,0.50000000,0.80000000,no vaccine,12694.67681430,14616.17534997,18624.42100374,NaN,NaN,NaN,NaN,NaN,NaN,NaN,NaN,NaN,NaN,NaN,NaN,NaN,NaN,NaN
6.99725275,0.50000000,0.80000000,no vaccine,12815.66397565,14734.18713791,18865.80428173,NaN,NaN,NaN,NaN,NaN,NaN,NaN,NaN,NaN,NaN,NaN,NaN,NaN,NaN,NaN
7.99725275,0.50000000,0.80000000,no vaccine,12942.83658037,14904.93719408,19191.05404331,NaN,NaN,NaN,NaN,NaN,NaN,NaN,NaN,NaN,NaN,NaN,NaN,NaN,NaN,NaN
8.99725275,0.50000000,0.80000000,no vaccine,13079.41685236,15034.58037567,19222.36829020,NaN,NaN,NaN,NaN,NaN,NaN,NaN,NaN,NaN,NaN,NaN,NaN,NaN,NaN,NaN
9.99725275,0.50000000,0.80000000,no vaccine,13208.05591272,15186.84420485,19565.63518650,NaN,NaN,NaN,NaN,NaN,NaN,NaN,NaN,NaN,NaN,NaN,NaN,NaN,NaN,NaN
0.99725275,0.70000000,0.40000000,no screening,11335.46809881,13187.61579935,16344.70088094,126.36175734,151.81070801,193.98833264,0.01087858,0.01156712,0.01247600,0.04718031,0.05558727,0.06377476,203461.37681759,203475.87317269,203501.85828216,203461.37681759,203475.87317269,203501.85828216
1.99725275,0.70000000,0.40000000,no screening,10916.46358114,12863.62781762,16764.00971615,260.98797024,316.32054313,430.33356120,0.02349183,0.02472028,0.02631994,0.05030286,0.07945037,0.10779839,349656.80277241,349683.22799683,349716.06398804,146188.83785052,146204.43014704,146221.72506798
2.99725275,0.70000000,0.40000000,no screening,11618.66233236,13687.38657578,17893.97635996,393.61353902,473.85237011,642.70763578,0.03309692,0.03483804,0.03648895,-0.00697944,0.03526658,0.06004816,490321.94259354,490376.79270805,490428.52127735,140667.18546979,140694.07298959,140717.61754440
3.99725275,0.70000000,0.40000000,no screening,11357.48293471,13063.94171150,16679.52133182,480.78040921,566.36140037,735.35542415,0.04132692,0.04359787,0.04528335,0.07066081,0.08553071,0.09337494,631354.85501792,631421.88073323,631495.69851326,141015.58983153,141045.13646438,141078.98797776
4.99725275,0.70000000,0.40000000,no screening,11409.33138653,13308.65960102,17752.49028467,574.47221470,685.63184724,925.20684938,0.04887249,0.05164778,0.05330487,0.03749957,0.07683168,0.09395495,773400.91709463,773501.14764920,773566.69545296,142027.13881783,142072.13341130,142105.50214604
5.99725275,0.70000000,0.40000000,no screening,11692.22625947,13581.41926109,17834.42136936,670.33280081,796.82487945,1047.30841083,0.05552035,0.05884892,0.06024373,0.03320422,0.06934955,0.07978844,916601.86840360,916723.94367889,916803.71084133,143178.18902845,143225.46275003,143267.41208643
6.99725275,0.70000000,0.40000000,no screening,11598.19550900,13277.81736592,17178.34503626,737.23091675,866.50554895,1112.38466864,0.06153557,0.06537763,0.06676994,0.08219406,0.09588763,0.10220051,1061022.97631352,1061162.42577098,1061274.11965348,144397.80199411,144442.68698247,144486.32089023
7.99725275,0.70000000,0.40000000,no screening,11767.53213581,13645.55288734,18124.14422331,815.47016409,969.38491633,1283.52908518,0.06707286,0.07128419,0.07282570,0.04315411,0.08409530,0.09261031,1206727.81889414,1206880.61056645,1207003.76583967,145662.35073684,145713.88116433,145751.71825374
8.99725275,0.70000000,0.40000000,no screening,11888.36127918,13648.64554967,17779.27933010,884.81877706,1045.29134206,1334.51384269,0.07200464,0.07645892,0.07821256,0.07175260,0.09021786,0.09498327,1353743.47671566,1353918.53520171,1354060.25436084,146996.08290786,147038.95740451,147080.82962656
9.99725275,0.70000000,0.40000000,no screening,11925.27900759,13645.24074833,17746.46048617,939.58609008,1108.39908533,1414.72572692,0.07654357,0.08111878,0.08307677,0.08507149,0.09945657,0.10348774,1502128.95014263,1502332.26297177,1502486.70988482,148375.46081916,148422.48329859,148452.55531237
0.99725275,0.70000000,0.40000000,perfect screening,11212.66466866,13040.80043842,16175.98826235,0.00000000,0.00000000,0.00000000,0.00000000,0.00000000,0.00000000,0.05774543,0.06620890,0.07394587,124004.24688575,128978.60884648,129952.70116345,124004.24688575,128978.60884648,129952.70116345
1.99725275,0.70000000,0.40000000,perfect screening,10717.34180206,12594.77389351,16400.50728207,0.00000000,0.00000000,0.00000000,0.00000000,0.00000000,0.00000000,0.07054316,0.09999656,0.12451770,212786.23453553,220765.85968834,222377.16538162,88781.98764978,91785.58977152,92424.46421817
2.99725275,0.70000000,0.40000000,perfect screening,11364.42357102,13343.58038329,17387.44754873,0.00000000,0.00000000,0.00000000,0.00000000,0.00000000,0.00000000,0.02462629,0.06185736,0.07975912,298391.03935027,308525.22603688,310620.87508986,85604.80481474,87736.90604675,88269.92705404
3.99725275,0.70000000,0.40000000,perfect screening,11043.49834296,12660.88702196,16134.28556536,0.00000000,0.00000000,0.00000000,0.00000000,0.00000000,0.00000000,0.10206899,0.11228909,0.11875874,384196.58863001,396064.91029382,398733.87840306,85805.54927974,87546.29748507,88114.16620159
4.99725275,0.70000000,0.40000000,perfect screening,11135.49043950,12917.30374305,17113.57893399,0.00000000,0.00000000,0.00000000,0.00000000,0.00000000,0.00000000,0.07340343,0.10692937,0.11511398,469978.37255021,483473.79727095,486871.43782701,85779.89130952,87435.94367083,88133.05908665
5.99725275,0.70000000,0.40000000,perfect screening,11394.28870163,13111.84437738,17121.82457282,0.00000000,0.00000000,0.00000000,0.00000000,0.00000000,0.00000000,0.07705444,0.10221944,0.10603641,556573.72748306,571281.58939993,575366.03468361,86595.35493286,87810.83975780,88494.59685660
6.99725275,0.70000000,0.40000000,perfect screening,11290.07366755,12823.38189189,16505.63134983,0.00000000,0.00000000,0.00000000,0.00000000,0.00000000,0.00000000,0.11274887,0.12675207,0.13156127,643488.66551364,659411.42935590,664387.09536648,86912.64072148,88158.14405087,88970.64753739
7.99725275,0.70000000,0.40000000,perfect screening,11478.23205358,13205.44978663,17393.48398256,0.00000000,0.00000000,0.00000000,0.00000000,0.00000000,0.00000000,0.08585292,0.11317376,0.11743421,730796.38904530,747970.84493334,753950.44872714,87302.07341835,88542.06466909,89534.81244903
8.99725275,0.70000000,0.40000000,perfect screening,11596.47379062,13189.87883199,17001.31872205,0.00000000,0.00000000,0.00000000,0.00000000,0.00000000,0.00000000,0.10903581,0.12138107,0.12781022,818936.34673267,837205.14585383,844171.29918496,88134.36868471,89229.66753228,90259.82474313
9.99725275,0.70000000,0.40000000,perfect screening,11662.53406908,13226.16012791,17074.02901723,0.00000000,0.00000000,0.00000000,0.00000000,0.00000000,0.00000000,0.11407542,0.12737131,0.13426076,907427.69335476,927049.25647556,935046.92386912,88480.92422161,89854.32960682,91083.00929917
0.99725275,0.70000000,0.40000000,realistic screening,11472.21615544,13339.37303408,16433.52274960,0.00743315,0.09726826,0.74310751,0.00000051,0.00000698,0.00005599,0.03387300,0.04512158,0.05443745,89037.68770881,101164.22142701,109999.68450212,89037.68770881,101164.22142701,109999.68450212
1.99725275,0.70000000,0.40000000,realistic screening,11039.01626994,12948.11673381,16698.50796934,0.01900964,0.24141597,1.87099762,0.00000132,0.00001790,0.00014350,0.05076366,0.07513967,0.09783142,158660.79606035,178289.59754281,192113.62168300,69623.10835154,77060.45211892,82113.93718088
2.99725275,0.70000000,0.40000000,realistic screening,11537.69480671,13533.01293689,17543.71183652,0.03021263,0.38905638,2.97323395,0.00000204,0.00002765,0.00022184,0.01799380,0.04970817,0.06550319,225461.17743680,251920.98209606,270399.30149275,66800.38137645,73607.59032775,78285.67980975
3.99725275,0.70000000,0.40000000,realistic screening,11397.25330805,13063.22989606,16540.11193066,0.03882895,0.49587130,3.81826442,0.00000268,0.00003630,0.00029129,0.06876878,0.08289149,0.09311315,292052.31157200,325198.71023218,348426.53402271,66591.13413519,73324.23937869,78027.23252996
4.99725275,0.70000000,0.40000000,realistic screening,11433.78771078,13252.40856550,17463.97052330,0.04787567,0.61203913,4.69144073,0.00000327,0.00004419,0.00035461,0.05312422,0.08108004,0.09352563,358668.23029671,398760.01127217,426494.50071704,66619.66872943,73320.34293470,78067.96669434
5.99725275,0.70000000,0.40000000,realistic screening,11664.75926254,13430.09186377,17416.44625911,0.05596636,0.71963182,5.49752416,0.00000379,0.00005116,0.00041063,0.05943138,0.07743138,0.08648573,425673.94960805,472402.59701858,504866.99399198,67091.79178767,73596.82701812,78372.49327493
6.99725275,0.70000000,0.40000000,realistic screening,11665.84084298,13268.14872443,17008.00249480,0.06242531,0.79934512,6.11168036,0.00000425,0.00005746,0.00046038,0.07949535,0.09496998,0.10620076,492932.12426784,546349.28381336,583670.52756001,67387.41903954,73920.28228141,78803.53356804
7.99725275,0.70000000,0.40000000,realistic screening,11804.53917967,13562.60181264,17833.13305762,0.06970177,0.89687748,6.84385100,0.00000467,0.00006310,0.00050467,0.06352303,0.08590130,0.09470208,560527.23673839,620669.26859062,662934.96685854,67776.34850059,74218.18901232,79264.43929853
8.99725275,0.70000000,0.40000000,realistic screening,11934.77819663,13602.77123331,17406.35760038,0.07536545,0.96920683,7.39063355,0.00000503,0.00006801,0.00054319,0.08104390,0.09261005,0.10434811,628614.30027489,695541.78787094,742821.05631689,68321.29942874,74757.00476209,79886.08945834
9.99725275,0.70000000,0.40000000,realistic screening,12022.55679854,13675.43376587,17626.62783944,0.08067722,1.03722123,7.91016125,0.00000535,0.00007238,0.00057700,0.08244328,0.09649183,0.10789141,697108.02612998,770859.60790415,823385.62745184,68686.17309353,75266.39888200,80564.57113495
0.99725275,0.70000000,0.40000000,no vaccine,12086.69619868,13968.18196082,17270.77905175,NaN,NaN,NaN,NaN,NaN,NaN,NaN,NaN,NaN,NaN,NaN,NaN,NaN,NaN,NaN
1.99725275,0.70000000,0.40000000,no vaccine,12194.94258935,14040.96278142,17756.33209098,NaN,NaN,NaN,NaN,NaN,NaN,NaN,NaN,NaN,NaN,NaN,NaN,NaN,NaN,NaN
2.99725275,0.70000000,0.40000000,no vaccine,12319.64051793,14228.98100039,18079.26274582,NaN,NaN,NaN,NaN,NaN,NaN,NaN,NaN,NaN,NaN,NaN,NaN,NaN,NaN,NaN
3.99725275,0.70000000,0.40000000,no vaccine,12431.74968178,14318.59740907,18072.72882832,NaN,NaN,NaN,NaN,NaN,NaN,NaN,NaN,NaN,NaN,NaN,NaN,NaN,NaN,NaN
4.99725275,0.70000000,0.40000000,no vaccine,12556.77283159,14471.57355153,18596.51999583,NaN,NaN,NaN,NaN,NaN,NaN,NaN,NaN,NaN,NaN,NaN,NaN,NaN,NaN,NaN
5.99725275,0.70000000,0.40000000,no vaccine,12694.67681430,14616.17534997,18624.42100374,NaN,NaN,NaN,NaN,NaN,NaN,NaN,NaN,NaN,NaN,NaN,NaN,NaN,NaN,NaN
6.99725275,0.70000000,0.40000000,no vaccine,12815.66397565,14734.18713791,18865.80428173,NaN,NaN,NaN,NaN,NaN,NaN,NaN,NaN,NaN,NaN,NaN,NaN,NaN,NaN,NaN
7.99725275,0.70000000,0.40000000,no vaccine,12942.83658037,14904.93719408,19191.05404331,NaN,NaN,NaN,NaN,NaN,NaN,NaN,NaN,NaN,NaN,NaN,NaN,NaN,NaN,NaN
8.99725275,0.70000000,0.40000000,no vaccine,13079.41685236,15034.58037567,19222.36829020,NaN,NaN,NaN,NaN,NaN,NaN,NaN,NaN,NaN,NaN,NaN,NaN,NaN,NaN,NaN
9.99725275,0.70000000,0.40000000,no vaccine,13208.05591272,15186.84420485,19565.63518650,NaN,NaN,NaN,NaN,NaN,NaN,NaN,NaN,NaN,NaN,NaN,NaN,NaN,NaN,NaN
0.99725275,0.70000000,0.60000000,no screening,10963.78678173,12796.43515551,16001.15696905,181.83000971,219.02637546,282.86787877,0.01616408,0.01719235,0.01855354,0.06747362,0.08204310,0.09428826,203468.17215554,203482.10474198,203504.69590445,203468.17215554,203482.10474198,203504.69590445
1.99725275,0.70000000,0.60000000,no screening,10250.96478898,12271.11390999,16217.32820681,368.04332153,453.91088512,625.47249058,0.03530405,0.03714795,0.03940328,0.07817356,0.12140973,0.16229763,349667.39023376,349691.17756171,349725.09388864,146192.74389119,146209.35370264,146225.06417055
2.99725275,0.70000000,0.60000000,no screening,11227.48060239,13427.02414400,17800.38997824,575.66269087,700.43526974,961.08094901,0.04978623,0.05251878,0.05469355,-0.00440781,0.05202591,0.09267292,490339.13068788,490384.11727868,490431.06671736,140669.02380753,140691.57951496,140719.84276168
3.99725275,0.70000000,0.60000000,no screening,10869.23150041,12502.72531599,16140.16605996,699.89712001,821.06989026,1070.04313416,0.06226394,0.06583120,0.06792872,0.10103722,0.12312884,0.13287297,631387.14570740,631437.10951859,631516.27622869,141026.66890120,141056.08483436,141089.34919671
4.99725275,0.70000000,0.60000000,no screening,10812.59583130,12663.71454828,17166.21815377,831.67924668,993.07346030,1350.46623763,0.07402721,0.07855670,0.08033021,0.06376668,0.12023335,0.14091216,773445.96557274,773517.92792008,773612.57340671,142039.65293416,142080.99914962,142115.35166016
5.99725275,0.70000000,0.60000000,no screening,11213.36383961,13134.48703862,17585.99271975,986.64314234,1176.71435974,1561.28536751,0.08438960,0.08991912,0.09162828,0.04271243,0.09811919,0.11829730,916649.17322764,916747.06733357,916846.76688191,143188.30573269,143227.75348829,143266.70718767
6.99725275,0.70000000,0.60000000,no screening,11043.10695123,12604.41925615,16397.30133519,1085.00641578,1262.43082490,1612.84558671,0.09404320,0.10035342,0.10211929,0.12067866,0.13928707,0.14821923,1061082.52703587,1061198.45736770,1061331.15666597,144405.20639144,144449.38306165,144491.25950884
7.99725275,0.70000000,0.60000000,no screening,11181.54643380,12960.87752817,17533.63154106,1200.04864897,1425.08459535,1888.95373830,0.10308203,0.11006607,0.11167303,0.07540374,0.12750904,0.13832362,1206771.31786867,1206913.24950824,1207065.62156806,145684.05443585,145715.58641251,145750.68686021
8.99725275,0.70000000,0.60000000,no screening,11361.72148692,13109.97506281,17401.11966296,1315.96460339,1557.11688017,1995.47354163,0.11115462,0.11875281,0.12042539,0.09053552,0.12728320,0.13230744,1353804.12134776,1353948.83034456,1354127.57502574,147005.70296102,147040.86783982,147075.99781475
9.99725275,0.70000000,0.60000000,no screening,11349.81952224,12899.06133522,16785.73943320,1398.17876802,1635.49630158,2059.37025742,0.11869256,0.12654800,0.12857260,0.13005586,0.14783798,0.15276979,1502210.74669948,1502369.43853975,1502574.68571508,148378.02155203,148421.53867980,148462.37071171
0.99725275,0.70000000,0.60000000,perfect screening,10787.03659312,12586.63090650,15751.70312565,0.00000000,0.00000000,0.00000000,0.00000000,0.00000000,0.00000000,0.08237411,0.09740554,0.10916345,123954.71022414,128906.36980683,129877.91317679,123954.71022414,128906.36980683,129877.91317679
1.99725275,0.70000000,0.60000000,perfect screening,9963.41112158,11872.73943959,15703.45889709,0.00000000,0.00000000,0.00000000,0.00000000,0.00000000,0.00000000,0.11017849,0.15065466,0.18613050,212422.48952130,220261.70953756,221809.92147958,88467.77929716,91341.24278236,91932.00830279
2.99725275,0.70000000,0.60000000,perfect screening,10856.53439253,12869.11481837,17048.56170197,0.00000000,0.00000000,0.00000000,0.00000000,0.00000000,0.00000000,0.04136814,0.09194793,0.12167756,297567.54779958,307312.86408062,309240.42287920,85145.05827828,87072.82229836,87606.62575784
3.99725275,0.70000000,0.60000000,perfect screening,10416.17668522,11915.15572625,15323.77777245,0.00000000,0.00000000,0.00000000,0.00000000,0.00000000,0.00000000,0.14635060,0.16185568,0.17224105,382820.46865615,394016.13584535,396469.30558061,85252.92085657,86762.62553010,87295.11721483
4.99725275,0.70000000,0.60000000,perfect screening,10407.19296630,12072.36780405,16246.04866084,0.00000000,0.00000000,0.00000000,0.00000000,0.00000000,0.00000000,0.11944074,0.16306433,0.17393594,467754.58824618,480233.45928291,483325.56610873,84930.78885613,86320.04371158,86906.77307352
5.99725275,0.70000000,0.60000000,perfect screening,10770.48175669,12460.93312958,16446.59467320,0.00000000,0.00000000,0.00000000,0.00000000,0.00000000,0.00000000,0.10785161,0.14803771,0.15336636,553388.17012963,566690.71839166,570372.88797848,85632.34575686,86519.63444599,87073.13486278
6.99725275,0.70000000,0.60000000,perfect screening,10585.29037931,11919.39593985,15407.79438939,0.00000000,0.00000000,0.00000000,0.00000000,0.00000000,0.00000000,0.16616309,0.18641129,0.19378139,639208.48589703,653410.21554406,657861.04224773,85815.19806297,86690.05127947,87443.59752453
7.99725275,0.70000000,0.60000000,perfect screening,10744.38441090,12333.85744493,16405.57060356,0.00000000,0.00000000,0.00000000,0.00000000,0.00000000,0.00000000,0.13786435,0.17128947,0.17714890,725141.77426418,740370.08949826,745800.97698225,85929.54274455,86872.23572103,87912.44691485
8.99725275,0.70000000,0.60000000,perfect screening,10902.82269144,12376.03045689,16126.50983969,0.00000000,0.00000000,0.00000000,0.00000000,0.00000000,0.00000000,0.15761953,0.17439238,0.18301792,811885.56106659,827822.97609161,834407.74407234,86737.55126509,87505.08526727,88580.06036139
9.99725275,0.70000000,0.60000000,perfect screening,10902.63022848,12240.42836416,15793.61191646,0.00000000,0.00000000,0.00000000,0.00000000,0.00000000,0.00000000,0.16865424,0.19101650,0.20078290,898845.96558395,915798.49451800,923581.34215802,86942.96661686,88066.18037098,89384.55811523
0.99725275,0.70000000,0.60000000,realistic screening,11159.41062267,13007.51326214,16131.15945671,0.01089593,0.14222515,1.08881846,0.00000076,0.00001045,0.00008377,0.05273004,0.06662177,0.07989087,89011.37272172,101129.20766273,109950.57838520,89011.37272172,101129.20766273,109950.57838520
1.99725275,0.70000000,0.60000000,realistic screening,10452.95339519,12390.95250906,16149.49053070,0.02771252,0.35077258,2.72800464,0.00000200,0.00002710,0.00021725,0.07856776,0.11256671,0.14626784,158452.72015824,178009.45780572,191733.43035313,69441.34743652,76803.82886051,81782.85196793
2.99725275,0.70000000,0.60000000,realistic screening,11127.56108514,13151.38500835,17253.83286367,0.04492208,0.57731806,4.42065884,0.00000311,0.00004216,0.00033832,0.03228411,0.07371985,0.09962649,224952.88722060,251199.98206506,269444.90202303,66500.16706236,73152.31283514,77719.44213053
3.99725275,0.70000000,0.60000000,realistic screening,10911.17143275,12489.71955655,15908.43872917,0.05705160,0.72776257,5.60097986,0.00000410,0.00005562,0.00044639,0.10195392,0.12184861,0.13530991,291187.79300283,324092.69204047,346789.01870701,66234.90578223,72769.40873282,77354.49175738
4.99725275,0.70000000,0.60000000,realistic screening,10891.41102596,12606.10851702,16760.30040721,0.07052339,0.89987397,6.91856892,0.00000503,0.00006817,0.00054696,0.08647904,0.12302836,0.14031122,357278.29246139,396736.67983681,423941.26297859,66103.30253935,72582.56175755,77152.24427158
5.99725275,0.70000000,0.60000000,realistic screening,11155.90534933,12875.36471445,16927.43360768,0.08344342,1.07299934,8.18843878,0.00000586,0.00007935,0.00063682,0.08382089,0.11478646,0.12728618,423663.09717736,469449.65403020,501240.87276589,66536.23367357,72752.54530643,77299.60978730
6.99725275,0.70000000,0.60000000,realistic screening,11109.40587747,12608.83460210,16116.84608663,0.09231770,1.18302964,9.03471425,0.00000661,0.00008948,0.00071718,0.11970766,0.14076165,0.15717386,490217.02122618,542417.52011508,578893.09590618,66761.27753528,72982.44021197,77652.22314029
7.99725275,0.70000000,0.60000000,realistic screening,11241.31979926,12881.73365927,17082.85151666,0.10401250,1.33735712,10.20086751,0.00000729,0.00009878,0.00078980,0.09960295,0.12927334,0.14277559,556966.22658001,615642.78122590,656899.93994517,66994.32204045,73124.25287687,78006.84403899
8.99725275,0.70000000,0.60000000,realistic screening,11372.48943896,12974.16348966,16700.59132689,0.11290376,1.45516769,11.06753980,0.00000789,0.00010692,0.00085319,0.11959120,0.13426729,0.15017322,624165.65364460,689354.61778881,735471.60744533,67439.92158232,73594.23895868,78571.66750017
9.99725275,0.70000000,0.60000000,realistic screening,11424.30143016,12947.63008654,16564.50590787,0.12051005,1.55124882,11.80515544,0.00000843,0.00011421,0.00090914,0.12394899,0.14528352,0.16294133,691821.59935450,763580.86432038,814703.83431792,67721.12787020,74028.87637831,79232.22687259
0.99725275,0.70000000,0.60000000,no vaccine,12086.69619868,13968.18196082,17270.77905175,NaN,NaN,NaN,NaN,NaN,NaN,NaN,NaN,NaN,NaN,NaN,NaN,NaN,NaN,NaN
1.99725275,0.70000000,0.60000000,no vaccine,12194.94258935,14040.96278142,17756.33209098,NaN,NaN,NaN,NaN,NaN,NaN,NaN,NaN,NaN,NaN,NaN,NaN,NaN,NaN,NaN
2.99725275,0.70000000,0.60000000,no vaccine,12319.64051793,14228.98100039,18079.26274582,NaN,NaN,NaN,NaN,NaN,NaN,NaN,NaN,NaN,NaN,NaN,NaN,NaN,NaN,NaN
3.99725275,0.70000000,0.60000000,no vaccine,12431.74968178,14318.59740907,18072.72882832,NaN,NaN,NaN,NaN,NaN,NaN,NaN,NaN,NaN,NaN,NaN,NaN,NaN,NaN,NaN
4.99725275,0.70000000,0.60000000,no vaccine,12556.77283159,14471.57355153,18596.51999583,NaN,NaN,NaN,NaN,NaN,NaN,NaN,NaN,NaN,NaN,NaN,NaN,NaN,NaN,NaN
5.99725275,0.70000000,0.60000000,no vaccine,12694.67681430,14616.17534997,18624.42100374,NaN,NaN,NaN,NaN,NaN,NaN,NaN,NaN,NaN,NaN,NaN,NaN,NaN,NaN,NaN
6.99725275,0.70000000,0.60000000,no vaccine,12815.66397565,14734.18713791,18865.80428173,NaN,NaN,NaN,NaN,NaN,NaN,NaN,NaN,NaN,NaN,NaN,NaN,NaN,NaN,NaN
7.99725275,0.70000000,0.60000000,no vaccine,12942.83658037,14904.93719408,19191.05404331,NaN,NaN,NaN,NaN,NaN,NaN,NaN,NaN,NaN,NaN,NaN,NaN,NaN,NaN,NaN
8.99725275,0.70000000,0.60000000,no vaccine,13079.41685236,15034.58037567,19222.36829020,NaN,NaN,NaN,NaN,NaN,NaN,NaN,NaN,NaN,NaN,NaN,NaN,NaN,NaN,NaN
9.99725275,0.70000000,0.60000000,no vaccine,13208.05591272,15186.84420485,19565.63518650,NaN,NaN,NaN,NaN,NaN,NaN,NaN,NaN,NaN,NaN,NaN,NaN,NaN,NaN,NaN
0.99725275,0.70000000,0.80000000,no screening,10605.25386843,12419.70580768,15669.02538870,232.45892704,280.97575496,366.67444974,0.02134165,0.02270757,0.02452207,0.08789864,0.10870294,0.12412568,203474.19737094,203487.75038024,203508.00592656,203474.19737094,203487.75038024,203508.00592656
1.99725275,0.70000000,0.80000000,no screening,9567.97675504,11645.61688255,15637.03343730,460.41972587,575.53775050,805.67783536,0.04714598,0.04957869,0.05242667,0.10569385,0.16484166,0.21821520,349683.91409218,349701.61063935,349731.08789789,146199.32645864,146213.87155508,146232.30445252
2.99725275,0.70000000,0.80000000,no screening,10798.16810575,13169.78052425,17711.12039927,745.02835674,918.76920983,1278.52242378,0.06656697,0.07033866,0.07286774,-0.00313912,0.07003267,0.12850960,490356.96232395,490393.59867620,490438.53668939,140667.25222689,140690.98070817,140717.40823311
3.99725275,0.70000000,0.80000000,no screening,10452.46339912,11997.05600534,15628.38557764,907.64784204,1058.04229300,1383.09255166,0.08335102,0.08837146,0.09069664,0.12773891,0.15703099,0.16885880,631387.23225091,631450.52958511,631526.04176581,141023.86886413,141056.25999206,141084.79555037
4.99725275,0.70000000,0.80000000,no screening,10214.77991847,11979.47182962,16522.64770270,1063.48783896,1267.34423267,1740.38959167,0.09957776,0.10605960,0.10811528,0.09457676,0.16679269,0.18835085,773461.95512130,773528.50079168,773618.17020620,142047.55232233,142077.85745089,142119.09352242
5.99725275,0.70000000,0.80000000,no screening,10716.05320200,12716.93807751,17405.29347714,1284.12686053,1548.60735904,2073.50926337,0.11406057,0.12195112,0.12421374,0.04836396,0.12402292,0.15775496,916661.15102303,916757.15108162,916877.78883609,143189.96096393,143225.67738291,143263.83179236
6.99725275,0.70000000,0.80000000,no screening,10570.19017757,12003.26264171,15734.84908295,1421.14445268,1635.35425393,2080.20807880,0.12753798,0.13656818,0.13893133,0.15837927,0.17895504,0.18929495,1061086.55510177,1061208.57204531,1061350.95796417,144406.21127903,144454.96673176,144493.75192049
7.99725275,0.70000000,0.80000000,no screening,10600.34429633,12259.30907823,16857.85581030,1562.23370222,1847.10386049,2447.42563149,0.14049181,0.15044708,0.15287342,0.11221144,0.17505887,0.18365691,1206805.09870521,1206920.36444240,1207081.77446716,145680.15629189,145719.34453137,145751.17919329
8.99725275,0.70000000,0.80000000,no screening,10856.27610232,12644.01581240,17087.05746850,1732.86154964,2061.96493397,2662.09137457,0.15212163,0.16297469,0.16554383,0.10355452,0.15784938,0.17124907,1353837.47878636,1353968.54239663,1354125.71535768,146997.28902063,147043.54798465,147081.56517894
9.99725275,0.70000000,0.80000000,no screening,10827.31581326,12220.52380259,15991.98566503,1846.97311635,2133.91540230,2661.01354130,0.16303313,0.17462648,0.17709570,0.17232062,0.18962413,0.19656550,1502254.75545488,1502394.07449545,1502570.13688876,148379.31805575,148426.80661279,148463.74387154
0.99725275,0.70000000,0.80000000,perfect screening,10378.83204340,12152.92279613,15345.92145212,0.00000000,0.00000000,0.00000000,0.00000000,0.00000000,0.00000000,0.10727192,0.12828035,0.14307365,123902.71482853,128837.13488369,129805.03833206,123902.71482853,128837.13488369,129805.03833206
1.99725275,0.70000000,0.80000000,perfect screening,9214.34255387,11145.85583825,14979.55354129,0.00000000,0.00000000,0.00000000,0.00000000,0.00000000,0.00000000,0.14928559,0.20183837,0.24792958,212053.31571128,219763.74439056,221246.52306101,88150.60088275,90896.94530233,91450.60419544
2.99725275,0.70000000,0.80000000,perfect screening,10333.77872879,12439.45009402,16703.42287391,0.00000000,0.00000000,0.00000000,0.00000000,0.00000000,0.00000000,0.05907464,0.12269121,0.16501172,296712.50619785,306056.54910678,307899.16490370,84659.19048657,86362.53925622,86941.19120062
3.99725275,0.70000000,0.80000000,perfect screening,9836.47888870,11236.84612314,14576.21773652,0.00000000,0.00000000,0.00000000,0.00000000,0.00000000,0.00000000,0.18766288,0.20849799,0.22090373,381420.38237557,391947.18792832,394361.09048121,84707.87617772,85932.99705725,86507.35217366
4.99725275,0.70000000,0.80000000,perfect screening,9704.41773767,11214.49940494,15310.46956869,0.00000000,0.00000000,0.00000000,0.00000000,0.00000000,0.00000000,0.16705548,0.22096671,0.23269367,465490.74961875,477103.55623638,479983.65294207,84065.32878957,85185.55588839,85695.72732432
5.99725275,0.70000000,0.80000000,perfect screening,10134.77318034,11826.14249290,15853.80474711,0.00000000,0.00000000,0.00000000,0.00000000,0.00000000,0.00000000,0.13608401,0.19118218,0.20342553,550123.07520405,562226.34820046,565637.06591230,84579.50866987,85191.13387571,85691.94971630
6.99725275,0.70000000,0.80000000,perfect screening,9877.78666507,11097.67441659,14381.76625787,0.00000000,0.00000000,0.00000000,0.00000000,0.00000000,0.00000000,0.21442410,0.24217322,0.25116461,634884.21887959,647497.60287719,651474.20549996,84738.07870163,85291.45984678,85902.69336884
7.99725275,0.70000000,0.80000000,perfect screening,10011.99740949,11424.26868996,15340.84020700,0.00000000,0.00000000,0.00000000,0.00000000,0.00000000,0.00000000,0.19192235,0.22928082,0.23861443,719432.12527373,732654.11691944,737448.30089151,84549.05110968,85223.16348965,86257.28982983
8.99725275,0.70000000,0.80000000,perfect screening,10204.52193328,11615.61657514,15331.62240893,0.00000000,0.00000000,0.00000000,0.00000000,0.00000000,0.00000000,0.19933423,0.22319839,0.23250533,804713.95322631,818282.54007890,824298.15357016,85201.52463940,85723.17562977,86857.78165176
9.99725275,0.70000000,0.80000000,perfect screening,10155.78114413,11331.73353818,14552.14700860,0.00000000,0.00000000,0.00000000,0.00000000,0.00000000,0.00000000,0.22173836,0.25218390,0.26451883,890154.50800837,904607.29207802,911889.29975425,85390.91484264,86238.33149127,87629.35490834
0.99725275,0.70000000,0.80000000,realistic screening,10861.54451166,12679.00764200,15837.70317423,0.01419525,0.18481803,1.41763377,0.00000101,0.00001390,0.00011142,0.06978724,0.08763992,0.10509608,88984.33887699,101092.95108396,109902.98299161,88984.33887699,101092.95108396,109902.98299161
1.99725275,0.70000000,0.80000000,realistic screening,9874.19980125,11878.08511424,15594.13947259,0.03584274,0.45201314,3.53033867,0.00000269,0.00003647,0.00029234,0.10666673,0.14951933,0.19446701,158246.03469132,177727.63277429,191362.81301685,69261.69581433,76540.68333737,81459.83002524
2.99725275,0.70000000,0.80000000,realistic screening,10687.60418107,12794.31970113,16969.68683858,0.05934060,0.76148816,5.83972828,0.00000421,0.00005716,0.00045871,0.04638756,0.09756429,0.13531924,224454.48565682,250468.22630971,268490.40010714,66208.45096551,72750.67831466,77179.05677596
3.99725275,0.70000000,0.80000000,realistic screening,10463.41103130,11969.27703318,15327.64031196,0.07450812,0.94869881,7.30493423,0.00000557,0.00007578,0.00060822,0.13384611,0.15815983,0.17542494,290330.19101029,322868.10295402,345127.17995421,65875.70535347,72293.35559072,76707.02958574
4.99725275,0.70000000,0.80000000,realistic screening,10335.56889129,11972.06053590,16042.49943386,0.09215583,1.17444834,9.03840237,0.00000688,0.00009350,0.00075005,0.11930593,0.16585020,0.18811126,355876.58892983,394679.91425965,421367.35916096,65573.49590200,71852.45567626,76240.17920675
5.99725275,0.70000000,0.80000000,realistic screening,10652.83306707,12344.97913722,16459.40226040,0.11053248,1.42130422,10.84697942,0.00000806,0.00010946,0.00087835,0.10856438,0.15019044,0.16638677,421623.65631112,466486.93430592,497569.55312252,65974.16570565,71879.97104473,76202.19396156
6.99725275,0.70000000,0.80000000,realistic screening,10584.96418229,11968.83543228,15309.26253530,0.12145219,1.55746831,11.86585075,0.00000913,0.00012392,0.00099373,0.15753712,0.18392201,0.20599914,487460.97986888,538469.46214327,574032.14621644,66108.36324429,72029.03039145,76462.59309391
7.99725275,0.70000000,0.80000000,realistic screening,10660.31362608,12215.01520632,16258.58079611,0.13748512,1.76942428,13.48358307,0.00001013,0.00013754,0.00109933,0.13788103,0.17338003,0.19100344,553351.95075142,610574.69212708,650744.88291359,66156.01864755,72031.31636270,76712.73669716
8.99725275,0.70000000,0.80000000,realistic screening,10818.59512624,12376.42368209,16084.94295785,0.15056086,1.94134407,14.74920389,0.00001101,0.00014951,0.00119220,0.15262278,0.17498186,0.19387017,619724.69673854,683113.84824579,727964.53393935,66553.11647908,72420.19450152,77219.65102575
9.99725275,0.70000000,0.80000000,realistic screening,10859.47647758,12204.64076970,15593.77987771,0.15984143,2.06402411,15.64717457,0.00001180,0.00016029,0.00127429,0.16407552,0.19202904,0.21493491,686501.01021335,756133.41409197,805825.93374782,66768.29808461,72799.07777998,77861.39980848
0.99725275,0.70000000,0.80000000,no vaccine,12086.69619868,13968.18196082,17270.77905175,NaN,NaN,NaN,NaN,NaN,NaN,NaN,NaN,NaN,NaN,NaN,NaN,NaN,NaN,NaN
1.99725275,0.70000000,0.80000000,no vaccine,12194.94258935,14040.96278142,17756.33209098,NaN,NaN,NaN,NaN,NaN,NaN,NaN,NaN,NaN,NaN,NaN,NaN,NaN,NaN,NaN
2.99725275,0.70000000,0.80000000,no vaccine,12319.64051793,14228.98100039,18079.26274582,NaN,NaN,NaN,NaN,NaN,NaN,NaN,NaN,NaN,NaN,NaN,NaN,NaN,NaN,NaN
3.99725275,0.70000000,0.80000000,no vaccine,12431.74968178,14318.59740907,18072.72882832,NaN,NaN,NaN,NaN,NaN,NaN,NaN,NaN,NaN,NaN,NaN,NaN,NaN,NaN,NaN
4.99725275,0.70000000,0.80000000,no vaccine,12556.77283159,14471.57355153,18596.51999583,NaN,NaN,NaN,NaN,NaN,NaN,NaN,NaN,NaN,NaN,NaN,NaN,NaN,NaN,NaN
5.99725275,0.70000000,0.80000000,no vaccine,12694.67681430,14616.17534997,18624.42100374,NaN,NaN,NaN,NaN,NaN,NaN,NaN,NaN,NaN,NaN,NaN,NaN,NaN,NaN,NaN
6.99725275,0.70000000,0.80000000,no vaccine,12815.66397565,14734.18713791,18865.80428173,NaN,NaN,NaN,NaN,NaN,NaN,NaN,NaN,NaN,NaN,NaN,NaN,NaN,NaN,NaN
7.99725275,0.70000000,0.80000000,no vaccine,12942.83658037,14904.93719408,19191.05404331,NaN,NaN,NaN,NaN,NaN,NaN,NaN,NaN,NaN,NaN,NaN,NaN,NaN,NaN,NaN
8.99725275,0.70000000,0.80000000,no vaccine,13079.41685236,15034.58037567,19222.36829020,NaN,NaN,NaN,NaN,NaN,NaN,NaN,NaN,NaN,NaN,NaN,NaN,NaN,NaN,NaN
9.99725275,0.70000000,0.80000000,no vaccine,13208.05591272,15186.84420485,19565.63518650,NaN,NaN,NaN,NaN,NaN,NaN,NaN,NaN,NaN,NaN,NaN,NaN,NaN,NaN,NaN
0.99725275,0.90000000,0.40000000,no screening,10918.40247536,12752.35079579,15954.43681404,182.19056407,219.56675290,284.15654816,0.01628755,0.01730083,0.01862491,0.06997364,0.08533035,0.09779131,292276.93106706,292295.83883883,292320.67511698,292276.93106706,292295.83883883,292320.67511698
1.99725275,0.90000000,0.40000000,no screening,10547.11709474,12604.87484387,16567.08759854,349.87099313,430.91699578,589.13634339,0.03262705,0.03431929,0.03638514,0.06007840,0.09717075,0.13885713,474033.27228587,474070.33995232,474114.12663886,181746.45853145,181773.45104592,181808.59358789
2.99725275,0.90000000,0.40000000,no screening,11503.75364593,13606.50326485,17935.10634625,529.35686120,637.36308212,867.68898976,0.04468937,0.04710819,0.04911845,-0.01090109,0.04027825,0.06884198,652908.26423310,652977.00210440,653067.87853773,178851.77232564,178904.79906047,178957.25514302
3.99725275,0.90000000,0.40000000,no screening,10988.56912791,12635.04202088,16229.07722244,626.01743301,734.59750653,954.92126798,0.05528668,0.05836202,0.06037046,0.09664268,0.11436711,0.12396359,833022.48842663,833110.14056542,833239.01341123,180087.22660417,180140.73855449,180194.07405164
4.99725275,0.90000000,0.40000000,no screening,11093.28239586,13047.74457309,17582.83532701,748.23411977,898.73479695,1216.85947780,0.06517538,0.06906855,0.07080959,0.04344053,0.09452880,0.11959537,1014549.19433562,1014661.37835535,1014832.73201443,181490.59344149,181547.65800245,181617.77424042
5.99725275,0.90000000,0.40000000,no screening,11452.68580871,13333.15602947,17685.45371479,879.62143828,1043.57512553,1375.19942610,0.07376040,0.07851859,0.08000649,0.04026678,0.08634124,0.09783561,1197534.38492058,1197709.60462872,1197915.37341592,182971.00292971,183049.69146852,183132.61362475
6.99725275,0.90000000,0.40000000,no screening,11263.76051959,12861.97887063,16679.67605713,958.13559110,1119.88256739,1430.42745486,0.08182798,0.08720132,0.08874508,0.10490108,0.12306738,0.13020396,1382127.05114593,1382338.38630371,1382539.48182025,184552.38485542,184615.14208487,184688.14655603
7.99725275,0.90000000,0.40000000,no screening,11456.59131941,13328.36338636,17933.23869115,1062.31139257,1266.21369833,1678.17263041,0.08925615,0.09514764,0.09678212,0.05341529,0.10353426,0.11654369,1568370.20696479,1568588.70612306,1568807.27889084,186180.84967103,186249.00385482,186302.78094359
8.99725275,0.90000000,0.40000000,no screening,11598.94972474,13328.05412688,17512.11394555,1155.25005482,1362.00920380,1737.91514335,0.09585418,0.10219882,0.10383247,0.08548928,0.11197090,0.11671784,1756317.37241942,1756545.89837456,1756777.42950553,187871.74898393,187957.96701828,188021.11505558
9.99725275,0.90000000,0.40000000,no screening,11611.67062482,13225.01942432,17201.26857668,1223.64782568,1438.55675570,1821.43013055,0.10203110,0.10847227,0.11055982,0.10948223,0.12608734,0.13030968,1946000.17682919,1946264.04151601,1946531.58947210,189659.66859463,189721.03542868,189766.21363961
0.99725275,0.90000000,0.40000000,perfect screening,10740.94731129,12541.21249100,15712.48591748,0.00000000,0.00000000,0.00000000,0.00000000,0.00000000,0.00000000,0.08499750,0.10052452,0.11302397,177994.18909663,185067.90351394,186456.50533237,177994.18909663,185067.90351394,186456.50533237
1.99725275,0.90000000,0.40000000,perfect screening,10270.86266200,12227.54141698,16062.41079094,0.00000000,0.00000000,0.00000000,0.00000000,0.00000000,0.00000000,0.08811840,0.12462711,0.16138182,287891.49309130,298439.73252520,300491.90578190,109897.30399468,113334.95377542,114035.40044953
2.99725275,0.90000000,0.40000000,perfect screening,11146.12103737,13120.19490591,17240.98306158,0.00000000,0.00000000,0.00000000,0.00000000,0.00000000,0.00000000,0.03158798,0.07668039,0.09737267,396438.17590909,409324.60628797,411900.81456209,108546.68281779,110952.92356969,111635.36992933
3.99725275,0.90000000,0.40000000,perfect screening,10577.44170230,12092.68854522,15512.11557573,0.00000000,0.00000000,0.00000000,0.00000000,0.00000000,0.00000000,0.13616248,0.14970748,0.15941384,505429.39070385,520268.69136336,523558.72188828,108991.21479475,110981.24370135,111676.61288161
4.99725275,0.90000000,0.40000000,perfect screening,10729.82365729,12485.32067920,16717.96226300,0.00000000,0.00000000,0.00000000,0.00000000,0.00000000,0.00000000,0.09256872,0.13381058,0.14763610,614212.95212703,630777.63185032,634948.73516489,108780.39960542,110611.60837994,111433.25423617
5.99725275,0.90000000,0.40000000,perfect screening,11033.27783176,12698.86092545,16682.73634960,0.00000000,0.00000000,0.00000000,0.00000000,0.00000000,0.00000000,0.09841835,0.13073013,0.13523662,724152.05381111,741918.57007927,746860.22406310,109939.10168408,111150.85301811,111917.15446150
6.99725275,0.90000000,0.40000000,perfect screening,10847.42768354,12256.67003189,15815.53971114,0.00000000,0.00000000,0.00000000,0.00000000,0.00000000,0.00000000,0.14632455,0.16408977,0.17082747,834207.86765533,853317.68556805,859403.00474370,110049.21367680,111403.10550195,112467.28184005
7.99725275,0.90000000,0.40000000,perfect screening,11069.89901988,12751.92062014,16897.25987423,0.00000000,0.00000000,0.00000000,0.00000000,0.00000000,0.00000000,0.11057477,0.14455540,0.14847620,944704.10545962,965137.50814290,972585.84602385,110498.01744424,111811.17487563,113148.69173917
8.99725275,0.90000000,0.40000000,perfect screening,11184.24245623,12660.29446595,16429.96066270,0.00000000,0.00000000,0.00000000,0.00000000,0.00000000,0.00000000,0.13825841,0.15522316,0.16424909,1056262.86340569,1077775.21059092,1086695.30956669,111551.42724834,112728.01987666,114091.79834112
9.99725275,0.90000000,0.40000000,perfect screening,11210.74692990,12654.76972409,16333.90133164,0.00000000,0.00000000,0.00000000,0.00000000,0.00000000,0.00000000,0.14760645,0.16398461,0.17285787,1168053.66164140,1191199.27765988,1201506.50133095,111779.50718238,113433.26968008,115132.32516586
0.99725275,0.90000000,0.40000000,realistic screening,11074.18505618,12910.89363244,16045.26132694,0.01377790,0.17970992,1.37540146,0.00000097,0.00001331,0.00010661,0.05950116,0.07319478,0.08699845,137956.86203109,153528.83344409,164431.46499274,137956.86203109,153528.83344409,164431.46499274
1.99725275,0.90000000,0.40000000,realistic screening,10550.47272731,12518.91702214,16279.64148908,0.03556080,0.45102999,3.50018039,0.00000255,0.00003462,0.00027701,0.07528212,0.10510362,0.13919209,232279.88100914,254912.95549364,270440.11763107,94323.01897805,101441.24491324,106008.65263833
2.99725275,0.90000000,0.40000000,realistic screening,11287.09368691,13275.94511626,17368.28961191,0.05763713,0.74112088,5.65874488,0.00000396,0.00005372,0.00043008,0.02586803,0.06556276,0.08553560,323408.58684923,352976.37902931,373017.06707679,91128.70584009,98014.14848723,102576.94944572
3.99725275,0.90000000,0.40000000,realistic screening,10966.84589999,12511.10875952,15939.65211043,0.07264789,0.92611315,7.11171886,0.00000522,0.00007079,0.00056663,0.10079291,0.11984722,0.13155763,414514.05554449,450835.20795476,475677.47475126,91105.46869527,98124.04467953,102660.40767448
4.99725275,0.90000000,0.40000000,realistic screening,11005.95087629,12783.14958840,16997.20543981,0.09058441,1.15775965,8.87201017,0.00000640,0.00008670,0.00069360,0.07745693,0.11289519,0.12835808,505511.64011844,548543.79016289,578227.14188982,90997.58457394,97946.49769062,102549.66713855
5.99725275,0.90000000,0.40000000,realistic screening,11288.25418007,12987.25018306,17017.44295041,0.10657701,1.37057589,10.42316547,0.00000744,0.00010076,0.00080631,0.07915885,0.10765107,0.11551898,597056.66316200,646707.59946544,681167.17776148,91773.21643948,98374.65693322,102940.03587166
6.99725275,0.90000000,0.40000000,realistic screening,11193.48436216,12692.21529926,16275.90413220,0.11789304,1.50923596,11.50492214,0.00000839,0.00011341,0.00090717,0.11582884,0.13428665,0.14565458,688837.18431825,745551.54539111,784646.68082905,92033.53901370,98586.21474996,103479.50306757
7.99725275,0.90000000,0.40000000,realistic screening,11369.68574245,13061.28782282,17305.22502782,0.13319694,1.71339270,13.04289142,0.00000924,0.00012506,0.00099803,0.09149764,0.11819712,0.12901976,780969.15401901,844780.67973049,888653.74090001,92431.35169216,98895.03823483,104007.06007097
8.99725275,0.90000000,0.40000000,realistic screening,11497.19606132,13067.50604793,16809.56393758,0.14391302,1.85240584,14.03687412,0.00001000,0.00013519,0.00107708,0.11382683,0.12811051,0.14102060,873798.28430405,944817.02440912,993512.13173456,93127.25349356,99587.07400847,104858.39083455
9.99725275,0.90000000,0.40000000,realistic screening,11546.28465528,13083.57923876,16820.51297331,0.15385082,1.97976970,15.04634741,0.00001067,0.00014429,0.00114688,0.11810557,0.13437959,0.14756005,967036.83781834,1044897.18410989,1099249.43918760,93527.83461364,100162.02005882,105737.30745304
0.99725275,0.90000000,0.40000000,no vaccine,12086.69619868,13968.18196082,17270.77905175,NaN,NaN,NaN,NaN,NaN,NaN,NaN,NaN,NaN,NaN,NaN,NaN,NaN,NaN,NaN
1.99725275,0.90000000,0.40000000,no vaccine,12194.94258935,14040.96278142,17756.33209098,NaN,NaN,NaN,NaN,NaN,NaN,NaN,NaN,NaN,NaN,NaN,NaN,NaN,NaN,NaN
2.99725275,0.90000000,0.40000000,no vaccine,12319.64051793,14228.98100039,18079.26274582,NaN,NaN,NaN,NaN,NaN,NaN,NaN,NaN,NaN,NaN,NaN,NaN,NaN,NaN,NaN
3.99725275,0.90000000,0.40000000,no vaccine,12431.74968178,14318.59740907,18072.72882832,NaN,NaN,NaN,NaN,NaN,NaN,NaN,NaN,NaN,NaN,NaN,NaN,NaN,NaN,NaN
4.99725275,0.90000000,0.40000000,no vaccine,12556.77283159,14471.57355153,18596.51999583,NaN,NaN,NaN,NaN,NaN,NaN,NaN,NaN,NaN,NaN,NaN,NaN,NaN,NaN,NaN
5.99725275,0.90000000,0.40000000,no vaccine,12694.67681430,14616.17534997,18624.42100374,NaN,NaN,NaN,NaN,NaN,NaN,NaN,NaN,NaN,NaN,NaN,NaN,NaN,NaN,NaN
6.99725275,0.90000000,0.40000000,no vaccine,12815.66397565,14734.18713791,18865.80428173,NaN,NaN,NaN,NaN,NaN,NaN,NaN,NaN,NaN,NaN,NaN,NaN,NaN,NaN,NaN
7.99725275,0.90000000,0.40000000,no vaccine,12942.83658037,14904.93719408,19191.05404331,NaN,NaN,NaN,NaN,NaN,NaN,NaN,NaN,NaN,NaN,NaN,NaN,NaN,NaN,NaN
8.99725275,0.90000000,0.40000000,no vaccine,13079.41685236,15034.58037567,19222.36829020,NaN,NaN,NaN,NaN,NaN,NaN,NaN,NaN,NaN,NaN,NaN,NaN,NaN,NaN,NaN
9.99725275,0.90000000,0.40000000,no vaccine,13208.05591272,15186.84420485,19565.63518650,NaN,NaN,NaN,NaN,NaN,NaN,NaN,NaN,NaN,NaN,NaN,NaN,NaN,NaN,NaN
0.99725275,0.90000000,0.60000000,no screening,10368.65670894,12165.67005493,15439.64569016,256.15852458,310.45148484,408.21677553,0.02410196,0.02559588,0.02758677,0.10074521,0.12637775,0.14400502,292286.48866875,292304.99722719,292328.24653094,292286.48866875,292304.99722719,292328.24653094
1.99725275,0.90000000,0.60000000,no screening,9637.13655597,11815.04669371,15854.36361576,483.43294487,607.40828012,847.68693663,0.04909286,0.05162085,0.05444920,0.09404451,0.15236565,0.21322780,474045.94509981,474083.48837824,474125.57618999,181749.42901964,181779.42230160,181808.99226001
2.99725275,0.90000000,0.60000000,no screening,11063.33514223,13372.98058572,17898.01674852,772.29960346,944.30554229,1301.85245283,0.06726883,0.07106928,0.07357225,-0.01298458,0.05564180,0.10632992,652917.83594027,652981.38789875,653064.95131010,178859.69469577,178899.73706702,178954.31649593
3.99725275,0.90000000,0.60000000,no screening,10376.78224095,11882.24570602,15474.44591732,902.75362692,1047.87820518,1369.29968294,0.08335043,0.08833914,0.09061412,0.13501530,0.16381440,0.17661445,833044.45371531,833126.49362267,833249.38760227,180091.91353539,180147.10028847,180198.42655710
4.99725275,0.90000000,0.60000000,no screening,10311.01831814,12202.27382568,16797.84053289,1068.23193923,1280.68876840,1756.95807853,0.09890550,0.10535894,0.10736162,0.07943544,0.15108594,0.18003229,1014567.16712459,1014680.18236383,1014798.55854825,181491.10253965,181545.13395454,181616.42714279
5.99725275,0.90000000,0.60000000,no screening,10882.73115757,12845.82136373,17502.38516151,1287.52991796,1545.27356132,2058.85490933,0.11260334,0.12039602,0.12259654,0.04574656,0.11527824,0.14526201,1197573.25734487,1197733.12253083,1197881.60648216,182965.63927805,183046.22735899,183117.60060617
6.99725275,0.90000000,0.60000000,no screening,10595.84174530,11998.94211866,15706.99310293,1401.58635675,1606.75119285,2044.46843799,0.12549202,0.13431891,0.13655198,0.15550152,0.17930365,0.18941224,1382170.55845830,1382362.41900844,1382525.63043586,184551.45481935,184619.96233344,184690.04740513
7.99725275,0.90000000,0.60000000,no screening,10713.18953107,12456.57957156,17132.98153769,1547.88774000,1840.15737153,2444.39475208,0.13780676,0.14749077,0.14981346,0.09597327,0.16058143,0.17401983,1568406.55799547,1568611.93907174,1568766.07764487,186182.29458649,186256.01703143,186317.82408509
8.99725275,0.90000000,0.60000000,no screening,10991.64387732,12759.21568032,17156.79493937,1711.55796989,2032.16777989,2614.27889059,0.14874109,0.15927322,0.16173568,0.10021427,0.15079091,0.16122616,1756336.37808980,1756570.23631029,1756746.98298110,187900.56135363,187955.78556286,188008.75057682
9.99725275,0.90000000,0.60000000,no screening,10903.33729838,12296.53371732,16061.29824454,1811.08741892,2094.40281606,2611.80930462,0.15910659,0.17028553,0.17264969,0.16516829,0.18556966,0.19216245,1946045.69836563,1946292.51958580,1946467.01856461,189670.05438124,189725.49848110,189783.64191037
0.99725275,0.90000000,0.60000000,perfect screening,10117.30081235,11873.20705234,15084.14653714,0.00000000,0.00000000,0.00000000,0.00000000,0.00000000,0.00000000,0.12187156,0.14815370,0.16481659,177858.05959149,184881.66871117,186260.61609278,177858.05959149,184881.66871117,186260.61609278
1.99725275,0.90000000,0.60000000,perfect screening,9262.07787320,11278.34717472,15146.07257980,0.00000000,0.00000000,0.00000000,0.00000000,0.00000000,0.00000000,0.13852809,0.19186249,0.24454653,287096.36166860,297345.32567323,299262.07009027,109238.30207711,112432.46656462,113097.93000935
2.99725275,0.90000000,0.60000000,perfect screening,10540.01707570,12606.48355979,16867.26412474,0.00000000,0.00000000,0.00000000,0.00000000,0.00000000,0.00000000,0.05049418,0.11058849,0.14791252,394846.00496533,406937.93474222,409424.01037243,107749.64329673,109733.34995797,110473.52052958
3.99725275,0.90000000,0.60000000,perfect screening,9743.93601766,11114.83254941,14449.57583623,0.00000000,0.00000000,0.00000000,0.00000000,0.00000000,0.00000000,0.19490625,0.21666831,0.22868404,502875.47020142,516454.28728423,519692.65449794,108029.46523609,109554.33969224,110298.07746225
4.99725275,0.90000000,0.60000000,perfect screening,9778.36277288,11387.59322052,15552.47575666,0.00000000,0.00000000,0.00000000,0.00000000,0.00000000,0.00000000,0.15368670,0.20826680,0.22399826,610131.08693454,625071.71962090,628860.31385558,107246.79758044,108627.47695228,109297.08690263
5.99725275,0.90000000,0.60000000,perfect screening,10265.24885891,11918.80060076,15928.62613990,0.00000000,0.00000000,0.00000000,0.00000000,0.00000000,0.00000000,0.13371278,0.18522424,0.19367423,718444.57705515,733957.28883505,738446.09880416,108223.37602658,108972.49795667,109610.63149290
6.99725275,0.90000000,0.60000000,perfect screening,9902.56170654,11107.03225273,14411.23757382,0.00000000,0.00000000,0.00000000,0.00000000,0.00000000,0.00000000,0.21126243,0.24143448,0.25005589,826702.90436604,842890.15975747,848128.01859543,108211.99264608,108962.60932009,109864.91234466
7.99725275,0.90000000,0.60000000,perfect screening,10124.88221906,11618.96440396,15604.12516943,0.00000000,0.00000000,0.00000000,0.00000000,0.00000000,0.00000000,0.17834779,0.21918623,0.22655404,934828.59232704,951845.78893943,958114.95550628,108120.48445584,108991.56227053,110376.87127255
8.99725275,0.90000000,0.60000000,perfect screening,10298.58254071,11679.00111915,15387.62969955,0.00000000,0.00000000,0.00000000,0.00000000,0.00000000,0.00000000,0.19632649,0.21894947,0.22984149,1044053.09180517,1061571.87160789,1069380.68686606,109117.97447434,109836.91819333,111232.16265951
9.99725275,0.90000000,0.60000000,perfect screening,10240.90324291,11419.28105411,14686.46566131,0.00000000,0.00000000,0.00000000,0.00000000,0.00000000,0.00000000,0.21563942,0.24624044,0.25843122,1153311.86826377,1171992.85089561,1181576.96220733,109178.69233670,110417.28378874,112283.75686432
0.99725275,0.90000000,0.60000000,realistic screening,10582.04662599,12381.78192825,15559.50034093,0.01987508,0.25843656,1.98276894,0.00000145,0.00001989,0.00015918,0.08621240,0.10857553,0.12787639,137885.03234275,153434.02333750,164302.71805040,137885.03234275,153434.02333750,164302.71805040
1.99725275,0.90000000,0.60000000,realistic screening,9701.81649281,11742.07172248,15500.73372774,0.05106649,0.64355970,5.02735569,0.00000388,0.00005270,0.00042168,0.11436870,0.15955865,0.20974800,231781.86449878,254253.73315988,269564.38561678,93896.83215602,100867.70937430,105261.66756638
2.99725275,0.90000000,0.60000000,realistic screening,10743.78816928,12828.29702150,17019.87014440,0.08571433,1.09975131,8.41355364,0.00000607,0.00008262,0.00066146,0.04367651,0.09724700,0.13025327,322279.49450184,351425.06758308,371000.97020722,90497.63000306,97126.73704754,101508.64830822
3.99725275,0.90000000,0.60000000,realistic screening,10314.17695943,11736.37704385,15052.12770491,0.10548802,1.34302886,10.31867283,0.00000805,0.00010959,0.00087712,0.14859532,0.17326985,0.19014706,412654.21919118,448370.61601046,472370.04016578,90373.82834149,97014.21864338,101391.89821758
4.99725275,0.90000000,0.60000000,realistic screening,10226.21418316,11869.12437766,16006.44531786,0.13215464,1.68350024,12.92862732,0.00000996,0.00013553,0.00108384,0.12427979,0.17275035,0.19399359,502537.30155644,544728.78462087,573182.01128781,89967.50352686,96530.19752107,100811.97112203
5.99725275,0.90000000,0.60000000,realistic screening,10608.74853436,12275.30371655,16355.97254568,0.15895011,2.04627649,15.54867583,0.00001167,0.00015878,0.00127002,0.11130832,0.15652507,0.16922737,592842.01235654,641744.97662566,674131.89332865,90612.44034396,96698.88651402,100949.88204085
6.99725275,0.90000000,0.60000000,realistic screening,10440.44421508,11784.31686407,15080.96105150,0.17288593,2.21891082,16.85010051,0.00001325,0.00017981,0.00143782,0.17174223,0.19590476,0.21597461,683216.68164603,738908.82640559,775515.13321172,90683.26246122,96829.85279920,101383.23988306
7.99725275,0.90000000,0.60000000,realistic screening,10595.49032644,12120.07603609,16222.54902329,0.19790134,2.54394838,19.34527353,0.00001471,0.00019950,0.00159222,0.14506712,0.17979466,0.19458858,773638.50191404,836004.00485704,877215.30981907,90714.52386033,96818.35195400,101700.17660735
8.99725275,0.90000000,0.60000000,realistic screening,10750.70555399,12233.42455527,15940.15515316,0.21610719,2.79005739,21.11608146,0.00001600,0.00021692,0.00172746,0.16298733,0.18348766,0.20020872,864703.35126159,933557.12296323,979688.06896062,91344.09067274,97460.33467795,102472.75914156
9.99725275,0.90000000,0.60000000,realistic screening,10731.85092772,12059.57098222,15412.02969627,0.22873056,2.95229984,22.32598411,0.00001717,0.00023268,0.00184720,0.17636721,0.20273597,0.22257452,956052.41757852,1031368.11033353,1083050.22161842,91626.28959762,97884.57497361,103362.15265779
0.99725275,0.90000000,0.60000000,no vaccine,12086.69619868,13968.18196082,17270.77905175,NaN,NaN,NaN,NaN,NaN,NaN,NaN,NaN,NaN,NaN,NaN,NaN,NaN,NaN,NaN
1.99725275,0.90000000,0.60000000,no vaccine,12194.94258935,14040.96278142,17756.33209098,NaN,NaN,NaN,NaN,NaN,NaN,NaN,NaN,NaN,NaN,NaN,NaN,NaN,NaN,NaN
2.99725275,0.90000000,0.60000000,no vaccine,12319.64051793,14228.98100039,18079.26274582,NaN,NaN,NaN,NaN,NaN,NaN,NaN,NaN,NaN,NaN,NaN,NaN,NaN,NaN,NaN
3.99725275,0.90000000,0.60000000,no vaccine,12431.74968178,14318.59740907,18072.72882832,NaN,NaN,NaN,NaN,NaN,NaN,NaN,NaN,NaN,NaN,NaN,NaN,NaN,NaN,NaN
4.99725275,0.90000000,0.60000000,no vaccine,12556.77283159,14471.57355153,18596.51999583,NaN,NaN,NaN,NaN,NaN,NaN,NaN,NaN,NaN,NaN,NaN,NaN,NaN,NaN,NaN
5.99725275,0.90000000,0.60000000,no vaccine,12694.67681430,14616.17534997,18624.42100374,NaN,NaN,NaN,NaN,NaN,NaN,NaN,NaN,NaN,NaN,NaN,NaN,NaN,NaN,NaN
6.99725275,0.90000000,0.60000000,no vaccine,12815.66397565,14734.18713791,18865.80428173,NaN,NaN,NaN,NaN,NaN,NaN,NaN,NaN,NaN,NaN,NaN,NaN,NaN,NaN,NaN
7.99725275,0.90000000,0.60000000,no vaccine,12942.83658037,14904.93719408,19191.05404331,NaN,NaN,NaN,NaN,NaN,NaN,NaN,NaN,NaN,NaN,NaN,NaN,NaN,NaN,NaN
8.99725275,0.90000000,0.60000000,no vaccine,13079.41685236,15034.58037567,19222.36829020,NaN,NaN,NaN,NaN,NaN,NaN,NaN,NaN,NaN,NaN,NaN,NaN,NaN,NaN,NaN
9.99725275,0.90000000,0.60000000,no vaccine,13208.05591272,15186.84420485,19565.63518650,NaN,NaN,NaN,NaN,NaN,NaN,NaN,NaN,NaN,NaN,NaN,NaN,NaN,NaN,NaN
0.99725275,0.90000000,0.80000000,no screening,9842.42119033,11609.53829682,14938.88674463,319.92547182,389.70194434,521.08021497,0.03168465,0.03365333,0.03630555,0.12771750,0.16562199,0.18748025,292292.69005370,292314.49397470,292332.26050359,292292.69005370,292314.49397470,292332.26050359
1.99725275,0.90000000,0.80000000,no screening,8745.22894580,10992.31338116,15092.88398078,588.62225634,756.89648312,1077.50564657,0.06561907,0.06892281,0.07240290,0.13042483,0.21241419,0.28836683,474064.02345401,474099.63751945,474135.95510824,181752.66575883,181785.10714661,181817.26976052
2.99725275,0.90000000,0.80000000,no screening,10546.58959422,13132.67152206,17882.62322994,994.56263581,1240.22715954,1739.66833979,0.08994586,0.09533373,0.09825727,-0.01599228,0.07181157,0.14873491,652938.81663390,652998.19438488,653082.72264985,178853.94188534,178899.91769458,178960.46854421
3.99725275,0.90000000,0.80000000,no screening,9843.25153388,11251.56547775,14842.17360483,1163.89088888,1333.38365721,1747.77605615,0.11157559,0.11862020,0.12194380,0.16990806,0.20502733,0.22100793,833062.34173772,833147.47386338,833259.25530582,180098.85951375,180148.60794750,180199.69188437
4.99725275,0.90000000,0.80000000,no screening,9541.88048372,11270.44259316,15945.32132573,1341.13706298,1600.17373522,2226.87082540,0.13336101,0.14245891,0.14545462,0.12364761,0.21645853,0.24241074,1014586.08567453,1014697.36276859,1014845.41478945,181483.82761242,181552.40488302,181624.76755374
5.99725275,0.90000000,0.80000000,no screening,10253.46366571,12452.17543451,17390.67566744,1659.55893126,2032.83986194,2750.27570322,0.15254129,0.16374936,0.16758817,0.04511116,0.14147320,0.19480548,1197596.96928206,1197736.36767836,1197950.06357911,182976.63709234,183042.91145747,183144.15792742
6.99725275,0.90000000,0.80000000,no screening,10033.51528317,11328.97901568,14941.22176099,1820.25348750,2067.28465038,2606.50014066,0.17032704,0.18296513,0.18739599,0.19815179,0.22433464,0.23631485,1382217.47725533,1382375.63538717,1382599.49972737,184570.01106923,184628.96685231,184700.44310572
7.99725275,0.90000000,0.80000000,no screening,10019.67402609,11518.34866345,16125.50424451,1990.84452435,2337.97780359,3104.00777259,0.18784965,0.20236178,0.20620051,0.14675372,0.22326295,0.23298696,1568425.55996521,1568638.96669695,1568851.37516625,186182.18325657,186259.13193946,186314.09040107
8.99725275,0.90000000,0.80000000,no screening,10345.66452752,12224.90016644,16950.81864703,2233.61433634,2691.67919802,3512.97345697,0.20347862,0.21949925,0.22366355,0.10660606,0.18164494,0.21097926,1756348.77424148,1756582.22642195,1756837.15051156,187891.93215751,187956.45689610,188003.90973833
9.99725275,0.90000000,0.80000000,no screening,10329.62390117,11595.21791572,15159.01092407,2391.06096677,2726.89234772,3347.30308426,0.21821769,0.23550130,0.23932300,0.21052846,0.23267615,0.24108795,1946061.97923873,1946315.72970632,1946593.55671343,189666.74968004,189725.10827024,189798.26772411
0.99725275,0.90000000,0.80000000,perfect screening,9530.63905198,11233.27286679,14484.28938677,0.00000000,0.00000000,0.00000000,0.00000000,0.00000000,0.00000000,0.15550054,0.19276859,0.21383179,177731.45660420,184704.32269420,186076.57178769,177731.45660420,184704.32269420,186076.57178769
1.99725275,0.90000000,0.80000000,perfect screening,8266.75540888,10316.37675345,14191.06872943,0.00000000,0.00000000,0.00000000,0.00000000,0.00000000,0.00000000,0.18914034,0.26158360,0.32732018,286318.93788262,296222.10483856,298086.01183882,108587.48127842,111549.75850651,112217.24987886
2.99725275,0.90000000,0.80000000,perfect screening,9876.94832653,12114.81994710,16506.38055193,0.00000000,0.00000000,0.00000000,0.00000000,0.00000000,0.00000000,0.06879506,0.14556079,0.20313329,393235.65186936,404506.47814514,407165.88314016,106916.71398674,108542.96552295,109281.71698775
3.99725275,0.90000000,0.80000000,perfect screening,9040.24476718,10282.60038015,13467.58194223,0.00000000,0.00000000,0.00000000,0.00000000,0.00000000,0.00000000,0.24330723,0.27502767,0.28961832,500345.95581377,512734.55373721,516104.14675830,107094.19226431,108194.69127465,108965.96199148
4.99725275,0.90000000,0.80000000,perfect screening,8855.34597479,10256.15248181,14295.29823262,0.00000000,0.00000000,0.00000000,0.00000000,0.00000000,0.00000000,0.21758008,0.28556200,0.29980909,606038.87940216,619267.88122183,623226.79196803,105667.16276848,106584.62448778,107221.78265122
5.99725275,0.90000000,0.80000000,perfect screening,9459.75667008,11156.90600040,15273.27726361,0.00000000,0.00000000,0.00000000,0.00000000,0.00000000,0.00000000,0.16488658,0.23539221,0.25771985,712667.81226618,725692.92868536,730493.31596468,105814.29492730,106587.03588863,107395.17579039
6.99725275,0.90000000,0.80000000,perfect screening,9067.96759029,10107.09308266,13130.16720604,0.00000000,0.00000000,0.00000000,0.00000000,0.00000000,0.00000000,0.27016647,0.31007453,0.32191059,819095.31447847,832208.79945184,837600.60801792,105982.00606174,106607.85784762,107261.65165459
7.99725275,0.90000000,0.80000000,perfect screening,9180.22325774,10410.83642152,14214.97418328,0.00000000,0.00000000,0.00000000,0.00000000,0.00000000,0.00000000,0.25095227,0.29418586,0.30661727,924780.66609862,938271.43855582,944137.81753423,105473.14599812,106095.67775996,107498.11121462
8.99725275,0.90000000,0.80000000,perfect screening,9433.98202803,10799.31789621,14512.83581252,0.00000000,0.00000000,0.00000000,0.00000000,0.00000000,0.00000000,0.23951382,0.27868011,0.28576246,1031557.06739019,1045086.63163577,1051964.44301305,106280.76223022,106890.01930583,108285.87625984
9.99725275,0.90000000,0.80000000,perfect screening,9301.86518109,10306.52368151,13181.30679014,0.00000000,0.00000000,0.00000000,0.00000000,0.00000000,0.00000000,0.28071779,0.32197016,0.33728800,1138327.98506037,1152539.14911253,1160995.80923605,106551.79623692,107384.89662245,109283.59320488
0.99725275,0.90000000,0.80000000,realistic screening,10137.30956213,11927.83825361,15093.90583705,0.02549386,0.32999932,2.54093274,0.00000192,0.00002639,0.00021120,0.11199251,0.14284637,0.16657906,137814.39252055,153336.68092436,164174.00023248,137814.39252055,153336.68092436,164174.00023248
1.99725275,0.90000000,0.80000000,realistic screening,8892.21572437,10981.50496143,14703.07507526,0.06484822,0.81306272,6.38886605,0.00000525,0.00007131,0.00057044,0.15410603,0.21473668,0.27972870,231279.37097102,253606.08349115,268708.02190196,93464.97845047,100305.36008369,104534.02166948
2.99725275,0.90000000,0.80000000,realistic screening,10149.33529988,12358.39080550,16667.90131583,0.11310732,1.44767101,11.11424362,0.00000828,0.00011300,0.00090474,0.06115198,0.12872995,0.17840256,321141.09941965,349872.12900091,368963.95608155,89861.72844863,96174.06770744,100384.05755540
3.99725275,0.90000000,0.80000000,realistic screening,9721.71424407,11037.77087469,14236.96863647,0.13647592,1.73559506,13.31452846,0.00001105,0.00015087,0.00120758,0.19013866,0.22228259,0.24241314,410795.89265811,445937.27002872,468996.77977641,89713.67901200,95867.01578656,100168.02846063
4.99725275,0.90000000,0.80000000,realistic screening,9449.20386795,10982.15335909,14967.81546431,0.17019941,2.16388032,16.66495691,0.00001380,0.00018841,0.00150609,0.17336504,0.23386402,0.26020115,499564.52720443,541021.52060558,568083.27845399,88969.38158718,95015.60923996,99086.49867758
5.99725275,0.90000000,0.80000000,realistic screening,9914.34952571,11594.59646502,15762.34673894,0.21080004,2.71067356,20.61554335,0.00001630,0.00022265,0.00177995,0.14218697,0.20238274,0.22439899,588561.75358644,636257.84448751,666937.60491600,89320.05564355,94903.22845938,98935.33608626
6.99725275,0.90000000,0.80000000,realistic screening,9731.96449640,10892.10126733,13966.90252205,0.22601153,2.90450253,21.97063496,0.00001862,0.00025376,0.00202767,0.22358458,0.25474252,0.27868316,677518.36252182,731393.74630017,766121.67406585,89265.60950867,95088.12136622,99184.06914984
7.99725275,0.90000000,0.80000000,realistic screening,9795.86318588,11150.81634871,15067.08802937,0.25939604,3.34016388,25.34831286,0.00002083,0.00028320,0.00226029,0.19970256,0.24192148,0.26212617,766191.24444428,826421.18713651,865465.51430547,88961.35806664,94689.78735901,99343.84023962
8.99725275,0.90000000,0.80000000,realistic screening,10023.37927114,11431.53764453,15211.88826095,0.28909425,3.73556687,28.23344542,0.00002280,0.00030989,0.00246620,0.20229345,0.23457846,0.25311264,855718.37698163,922012.30598052,965452.40216351,89453.30748482,95231.56487287,99986.88785804
9.99725275,0.90000000,0.80000000,realistic screening,9962.06014985,11111.01425951,14075.58909519,0.30255410,3.91616743,29.47544987,0.00002459,0.00033403,0.00264866,0.23122884,0.26545872,0.29187595,945791.41578095,1017642.41719494,1066322.77307478,89757.28213937,95591.59426700,100870.37091128
0.99725275,0.90000000,0.80000000,no vaccine,12086.69619868,13968.18196082,17270.77905175,NaN,NaN,NaN,NaN,NaN,NaN,NaN,NaN,NaN,NaN,NaN,NaN,NaN,NaN,NaN
1.99725275,0.90000000,0.80000000,no vaccine,12194.94258935,14040.96278142,17756.33209098,NaN,NaN,NaN,NaN,NaN,NaN,NaN,NaN,NaN,NaN,NaN,NaN,NaN,NaN,NaN
2.99725275,0.90000000,0.80000000,no vaccine,12319.64051793,14228.98100039,18079.26274582,NaN,NaN,NaN,NaN,NaN,NaN,NaN,NaN,NaN,NaN,NaN,NaN,NaN,NaN,NaN
3.99725275,0.90000000,0.80000000,no vaccine,12431.74968178,14318.59740907,18072.72882832,NaN,NaN,NaN,NaN,NaN,NaN,NaN,NaN,NaN,NaN,NaN,NaN,NaN,NaN,NaN
4.99725275,0.90000000,0.80000000,no vaccine,12556.77283159,14471.57355153,18596.51999583,NaN,NaN,NaN,NaN,NaN,NaN,NaN,NaN,NaN,NaN,NaN,NaN,NaN,NaN,NaN
5.99725275,0.90000000,0.80000000,no vaccine,12694.67681430,14616.17534997,18624.42100374,NaN,NaN,NaN,NaN,NaN,NaN,NaN,NaN,NaN,NaN,NaN,NaN,NaN,NaN,NaN
6.99725275,0.90000000,0.80000000,no vaccine,12815.66397565,14734.18713791,18865.80428173,NaN,NaN,NaN,NaN,NaN,NaN,NaN,NaN,NaN,NaN,NaN,NaN,NaN,NaN,NaN
7.99725275,0.90000000,0.80000000,no vaccine,12942.83658037,14904.93719408,19191.05404331,NaN,NaN,NaN,NaN,NaN,NaN,NaN,NaN,NaN,NaN,NaN,NaN,NaN,NaN,NaN
8.99725275,0.90000000,0.80000000,no vaccine,13079.41685236,15034.58037567,19222.36829020,NaN,NaN,NaN,NaN,NaN,NaN,NaN,NaN,NaN,NaN,NaN,NaN,NaN,NaN,NaN
9.99725275,0.90000000,0.80000000,no vaccine,13208.05591272,15186.84420485,19565.63518650,NaN,NaN,NaN,NaN,NaN,NaN,NaN,NaN,NaN,NaN,NaN,NaN,NaN,NaN,NaN
