time,screeningCoverage,vaccineResponseProb,screeningScenario,totalHospCounts_025,totalHospCounts_500,totalHospCounts_975,vacInducedHospCount_025,vacInducedHospCount_500,vacInducedHospCount_975,vacInducedHospPerc_025,vacInducedHospPerc_500,vacInducedHospPerc_975,advHosp_025,advHosp_500,advHosp_975,nVaccines_025,nVaccines_500,nVaccines_975,nVaccinesPerYear_025,nVaccinesPerYear_500,nVaccinesPerYear_975
0.99725275,0.50000000,0.40000000,no screening,12835.94686707,13869.64903452,16935.27159712,96.99549195,105.82520714,135.10120038,0.00752861,0.00765876,0.00799994,-0.02079329,0.00072921,0.00455678,136837.26325742,136842.93313381,136854.36923836,136837.26325742,136842.93313381,136854.36923836
1.99725275,0.50000000,0.40000000,no screening,12940.77764154,13944.71397557,16954.78181563,219.65844363,237.47133859,297.71320093,0.01682962,0.01702024,0.01761959,-0.00537451,-0.00085605,0.00698395,247056.56531278,247069.68498082,247084.92690310,110215.97654781,110225.56900037,110230.55766474
2.99725275,0.50000000,0.40000000,no screening,13098.33032997,14176.74113491,17386.86526625,319.06413777,345.29986755,434.78042757,0.02406479,0.02438147,0.02511495,-0.01279578,-0.00550681,-0.00008034,352914.11838606,352934.25364517,352955.53670689,105857.36835991,105864.87150920,105876.25096618
3.99725275,0.50000000,0.40000000,no screening,13191.32010042,14217.50088044,17650.85047781,404.89075946,437.18597280,550.95526728,0.03024144,0.03071469,0.03142684,-0.01257138,-0.00012687,0.00305168,458633.36161499,458657.91341864,458684.67436199,105715.31049444,105723.92274047,105732.25353870
4.99725275,0.50000000,0.40000000,no screening,13286.97966245,14347.31008970,17705.49442760,481.56469431,520.44942553,650.38912379,0.03565267,0.03628260,0.03698043,-0.00431065,0.00072133,0.00301701,564998.65941782,565020.94747769,565077.52971130,106354.15355185,106367.69661210,106393.34637928
5.99725275,0.50000000,0.40000000,no screening,13405.61661171,14463.93727263,18114.40715677,551.16669554,595.65468393,750.38689244,0.04040525,0.04117079,0.04192456,-0.01222148,0.00136751,0.00452702,672193.25314357,672234.81586433,672298.52643818,107186.30071797,107213.59466080,107222.46732967
6.99725275,0.50000000,0.40000000,no screening,13485.95670485,14542.16799103,18126.52106309,612.09956362,661.24802501,826.43810747,0.04459335,0.04546110,0.04631753,0.00176306,0.00522178,0.01071064,780288.87155301,780335.20811714,780416.31443567,108094.58383654,108102.72803651,108120.20796268
7.99725275,0.50000000,0.40000000,no screening,13596.69391620,14664.23132370,18318.55314017,668.09915553,721.63704646,902.83338066,0.04829308,0.04920660,0.05019868,0.00206920,0.00612842,0.01114607,889340.43594124,889373.14617729,889470.14510491,109031.10416088,109044.10108467,109057.52583314
8.99725275,0.50000000,0.40000000,no screening,13681.84837671,14755.73922612,18545.57043821,717.14504785,775.13807620,972.15815609,0.05155226,0.05248251,0.05360912,0.00049223,0.01005887,0.01371538,999372.66456175,999404.18978707,999500.63101006,110026.57799595,110034.34403859,110046.81727447
9.99725275,0.50000000,0.40000000,no screening,13786.67684153,14856.02508558,18538.37144542,762.22285670,823.30156230,1025.33059571,0.05443117,0.05537020,0.05661935,0.00992187,0.01435478,0.01524336,1110433.89528021,1110481.57460208,1110575.74539950,111055.65069954,111066.57871007,111089.63889250
0.99725275,0.50000000,0.40000000,perfect screening,12738.40696492,13765.29015414,16815.54784793,0.00000000,0.00000000,0.00000000,0.00000000,0.00000000,0.00000000,-0.01357625,0.00840426,0.01202419,84200.37218622,86511.53610104,87220.68243073,84200.37218622,86511.53610104,87220.68243073
1.99725275,0.50000000,0.40000000,perfect screening,12732.78568064,13711.35265471,16682.14612009,0.00000000,0.00000000,0.00000000,0.00000000,0.00000000,0.00000000,0.01106973,0.01565077,0.02245634,152280.63392377,156124.77662458,157425.98783023,68080.26173755,69613.24052354,70206.01303348
2.99725275,0.50000000,0.40000000,perfect screening,12794.12752652,13858.92668126,17007.66747853,0.00000000,0.00000000,0.00000000,0.00000000,0.00000000,0.00000000,0.00972471,0.01773772,0.02294382,217742.64823556,222923.06240473,224809.07654333,65462.01431179,66798.28578015,67383.08871310
3.99725275,0.50000000,0.40000000,perfect screening,12808.64817102,13802.84075895,17175.21808747,0.00000000,0.00000000,0.00000000,0.00000000,0.00000000,0.00000000,0.01508559,0.02744118,0.03180225,283225.64962650,289573.63074880,292041.42667395,65483.00139095,66650.56834408,67232.35013063
4.99725275,0.50000000,0.40000000,perfect screening,12872.98963622,13887.31735384,17145.91024812,0.00000000,0.00000000,0.00000000,0.00000000,0.00000000,0.00000000,0.02963292,0.03258643,0.03447614,349132.75669325,356526.14339068,359634.81048233,65907.10706675,66952.51264188,67593.38380837
5.99725275,0.50000000,0.40000000,perfect screening,12934.06744169,13959.07565935,17466.23517693,0.00000000,0.00000000,0.00000000,0.00000000,0.00000000,0.00000000,0.02395221,0.03681668,0.03944951,415546.00210650,423952.21808704,427717.85382530,66413.24541325,67426.07469636,68083.04334297
6.99725275,0.50000000,0.40000000,perfect screening,12993.13013387,14000.64208447,17465.81646559,0.00000000,0.00000000,0.00000000,0.00000000,0.00000000,0.00000000,0.03795065,0.04301990,0.04675119,482558.96449152,491867.82239746,496333.42536180,67012.96238502,67915.60431042,68615.57153650
7.99725275,0.50000000,0.40000000,perfect screening,13095.00222139,14116.26329792,17621.18411056,0.00000000,0.00000000,0.00000000,0.00000000,0.00000000,0.00000000,0.03917208,0.04419801,0.04795070,550122.14731399,560315.82086498,565519.20362289,67563.18282247,68447.99846753,69185.77826109
8.99725275,0.50000000,0.40000000,perfect screening,13155.83087528,14163.05348594,17785.59407386,0.00000000,0.00000000,0.00000000,0.00000000,0.00000000,0.00000000,0.04183879,0.04959893,0.05291591,618290.60227644,629339.39815803,635300.95378649,68168.45496245,69023.57729304,69781.75016360
9.99725275,0.50000000,0.40000000,perfect screening,13258.15888377,14286.49972106,17808.49990234,0.00000000,0.00000000,0.00000000,0.00000000,0.00000000,0.00000000,0.05148232,0.05254490,0.05645733,687063.99050409,698943.50949290,705712.26820737,68773.38822765,69604.11133487,70411.31442089
0.99725275,0.50000000,0.40000000,realistic screening,12768.22799208,13791.56209135,16840.90853607,0.00687755,0.10848820,0.34477431,0.00000051,0.00000758,0.00002552,-0.01509785,0.00597488,0.00965447,61823.52165987,64037.49219634,69023.01248426,61823.52165987,64037.49219634,69023.01248426
1.99725275,0.50000000,0.40000000,realistic screening,12800.29099114,13774.30941194,16728.04573879,0.01749830,0.27378105,0.86987598,0.00000129,0.00001918,0.00006408,0.00620032,0.01116889,0.01894827,114610.73037961,118195.95246254,126891.07695933,52787.20871974,54173.73058406,57868.06447508
2.99725275,0.50000000,0.40000000,realistic screening,12895.10630690,13936.68067063,17098.49231891,0.02713658,0.42543746,1.34135114,0.00000198,0.00002942,0.00009802,0.00465980,0.01047965,0.01524929,165644.62467190,170428.12279915,182606.76415739,51033.89429229,52232.17033661,55715.68719806
3.99725275,0.50000000,0.40000000,realistic screening,12937.14168942,13923.08744832,17259.93099153,0.03543039,0.55489799,1.75144023,0.00000258,0.00003845,0.00012802,0.00922905,0.01986427,0.02342709,216664.28409595,222494.02198686,238164.11135582,51019.65942405,52065.89918771,55557.34719843
4.99725275,0.50000000,0.40000000,realistic screening,13022.74992002,14032.17679035,17288.56806486,0.04315871,0.67570206,2.13480078,0.00000312,0.00004646,0.00015453,0.01967370,0.02248189,0.02662374,267998.69038612,274773.04208017,293960.46648487,51334.40629017,52279.02009330,55796.35512905
5.99725275,0.50000000,0.40000000,realistic screening,13109.45235213,14117.89846023,17629.29910500,0.04993957,0.78338900,2.46419540,0.00000359,0.00005351,0.00017781,0.01487044,0.02450494,0.02784514,319733.35791264,327399.15870450,350134.20752856,51734.66752652,52626.11662434,56173.74104368
6.99725275,0.50000000,0.40000000,realistic screening,13194.54998949,14177.74459028,17624.18635454,0.05596539,0.87680620,2.76906383,0.00000400,0.00005971,0.00019831,0.02521225,0.03073706,0.03621456,371926.32695073,380394.83454519,406716.28624557,52192.96903808,53001.63107684,56582.07871701
7.99725275,0.50000000,0.40000000,realistic screening,13301.97984606,14310.76897718,17823.87009311,0.06161792,0.96597224,3.03918575,0.00000436,0.00006516,0.00021624,0.02749465,0.03010934,0.03541673,424546.15951833,433798.06668003,463731.89860037,52619.83256761,53414.80836634,57015.61235480
8.99725275,0.50000000,0.40000000,realistic screening,13381.01277842,14399.13627691,18019.64978081,0.06628915,1.04225075,3.27936499,0.00000468,0.00006992,0.00023190,0.02777950,0.03467872,0.03861923,477648.20067203,487642.31349730,521224.11842415,53102.04115370,53871.12100721,57492.21982378
9.99725275,0.50000000,0.40000000,realistic screening,13497.56200751,14511.28631113,18046.41924205,0.07086278,1.11128210,3.50126151,0.00000495,0.00007407,0.00024554,0.03410168,0.03634128,0.04315352,531227.53229365,541942.95232909,579205.03836986,53579.33162162,54335.42119187,57980.91994571
0.99725275,0.50000000,0.40000000,no vaccine,12825.55682716,13894.37584119,16587.18744539,NaN,NaN,NaN,NaN,NaN,NaN,NaN,NaN,NaN,NaN,NaN,NaN,NaN,NaN,NaN
1.99725275,0.50000000,0.40000000,no vaccine,12932.16505675,13918.28385953,16993.62775513,NaN,NaN,NaN,NaN,NaN,NaN,NaN,NaN,NaN,NaN,NaN,NaN,NaN,NaN,NaN
2.99725275,0.50000000,0.40000000,no vaccine,13037.58823382,14121.69410706,17211.50637931,NaN,NaN,NaN,NaN,NaN,NaN,NaN,NaN,NaN,NaN,NaN,NaN,NaN,NaN,NaN
3.99725275,0.50000000,0.40000000,no vaccine,13208.18535329,14192.29302441,17438.98325959,NaN,NaN,NaN,NaN,NaN,NaN,NaN,NaN,NaN,NaN,NaN,NaN,NaN,NaN,NaN
4.99725275,0.50000000,0.40000000,no vaccine,13296.24214321,14357.22895951,17757.21301284,NaN,NaN,NaN,NaN,NaN,NaN,NaN,NaN,NaN,NaN,NaN,NaN,NaN,NaN,NaN
5.99725275,0.50000000,0.40000000,no vaccine,13424.76608089,14489.51779695,17893.27872167,NaN,NaN,NaN,NaN,NaN,NaN,NaN,NaN,NaN,NaN,NaN,NaN,NaN,NaN,NaN
6.99725275,0.50000000,0.40000000,no vaccine,13603.93388185,14622.85183131,18186.71925610,NaN,NaN,NaN,NaN,NaN,NaN,NaN,NaN,NaN,NaN,NaN,NaN,NaN,NaN,NaN
7.99725275,0.50000000,0.40000000,no vaccine,13693.11789738,14773.55640461,18369.29845748,NaN,NaN,NaN,NaN,NaN,NaN,NaN,NaN,NaN,NaN,NaN,NaN,NaN,NaN,NaN
8.99725275,0.50000000,0.40000000,no vaccine,13862.07830625,14924.25631709,18558.82475646,NaN,NaN,NaN,NaN,NaN,NaN,NaN,NaN,NaN,NaN,NaN,NaN,NaN,NaN,NaN
9.99725275,0.50000000,0.40000000,no vaccine,13988.96560326,15070.97580424,18807.57551944,NaN,NaN,NaN,NaN,NaN,NaN,NaN,NaN,NaN,NaN,NaN,NaN,NaN,NaN,NaN
0.99725275,0.50000000,0.60000000,no screening,12843.64978118,13884.10773909,16965.38648478,145.47009206,158.76492111,202.73730975,0.01128454,0.01147656,0.01198376,-0.02258733,-0.00032594,0.00373181,136837.37975208,136843.51076089,136856.13917406,136837.37975208,136843.51076089,136856.13917406
1.99725275,0.50000000,0.60000000,no screening,12965.60537321,13960.24428207,16990.10934368,329.72655037,356.11192533,446.20928760,0.02520734,0.02549533,0.02635872,-0.00678615,-0.00238681,0.00444855,247057.42213585,247072.53808225,247091.76114500,110219.14823943,110227.53316115,110236.10634727
2.99725275,0.50000000,0.60000000,no screening,13106.07823566,14202.30779971,17456.46264228,478.33335738,517.94529550,652.71210142,0.03604408,0.03652288,0.03755840,-0.01533883,-0.00680442,-0.00107497,352918.62195048,352940.81488154,352962.99010345,105861.15190104,105867.00039694,105876.66882098
3.99725275,0.50000000,0.60000000,no screening,13197.25146983,14230.33412151,17701.01854621,607.30392815,655.89553094,826.44996598,0.04529081,0.04603600,0.04699857,-0.01537206,-0.00077945,0.00189074,458647.47292417,458656.31747742,458685.66959768,105712.22759303,105721.37160587,105729.37968947
4.99725275,0.50000000,0.60000000,no screening,13287.78437628,14358.51178724,17760.39445191,722.63060369,780.88324287,976.11729600,0.05343457,0.05442804,0.05540015,-0.00470229,-0.00036483,0.00392249,565011.41380422,565024.43278303,565073.14570311,106356.83840152,106370.53679755,106389.11641877
5.99725275,0.50000000,0.60000000,no screening,13380.71479746,14446.35367005,18136.53709658,826.39842564,893.62796678,1124.92016425,0.06062023,0.06182644,0.06289222,-0.01344993,0.00294359,0.00608985,672214.57686521,672230.72344950,672289.43742722,107189.55952000,107209.73956219,107225.32879993
6.99725275,0.50000000,0.60000000,no screening,13455.55921556,14494.48401158,18127.24079906,918.60224806,991.16920709,1239.65022819,0.06698723,0.06837396,0.06958403,0.00151907,0.00786943,0.01276003,780313.44707686,780333.65580401,780392.93835184,108089.82743593,108106.13336073,108116.74174167
7.99725275,0.50000000,0.60000000,no screening,13530.27106524,14620.04339679,18310.06755312,1001.42752247,1082.86438361,1354.09418541,0.07265224,0.07412324,0.07551846,0.00324997,0.01015956,0.01531858,889360.60881993,889379.50844452,889440.20276513,109029.15603232,109047.48344113,109057.66502058
8.99725275,0.50000000,0.60000000,no screening,13613.04590508,14677.66592576,18507.27072732,1076.47691424,1162.99471556,1458.87510209,0.07767554,0.07909688,0.08077912,0.00282083,0.01562052,0.01860983,999395.37666310,999422.03846753,999486.92403867,110022.75724539,110042.80244869,110053.41423211
9.99725275,0.50000000,0.60000000,no screening,13689.33585601,14750.16167715,18474.06585290,1143.52037197,1235.30208263,1538.39595382,0.08214630,0.08358415,0.08544686,0.01623114,0.02078024,0.02290557,1110446.29667496,1110490.67797643,1110559.41369907,111050.36659168,111069.09528712,111079.79463125
0.99725275,0.50000000,0.60000000,perfect screening,12698.64727305,13731.27251077,16778.93089288,0.00000000,0.00000000,0.00000000,0.00000000,0.00000000,0.00000000,-0.01135575,0.01116634,0.01492801,84200.05166460,86511.39485942,87221.07072873,84200.05166460,86511.39485942,87221.07072873
1.99725275,0.50000000,0.60000000,perfect screening,12646.54408498,13618.45432620,16594.36922504,0.00000000,0.00000000,0.00000000,0.00000000,0.00000000,0.00000000,0.01740610,0.02215445,0.02779439,152276.63113196,156127.36755142,157424.25595863,68076.57946736,69615.97269200,70204.33324247
2.99725275,0.50000000,0.60000000,perfect screening,12664.62955258,13712.94364250,16857.15227468,0.00000000,0.00000000,0.00000000,0.00000000,0.00000000,0.00000000,0.01899525,0.02749234,0.03303835,217731.51672534,222927.89801715,224802.21142738,65454.88559338,66800.53046573,67377.95546875
3.99725275,0.50000000,0.60000000,perfect screening,12627.42563842,13630.30194926,16986.57141948,0.00000000,0.00000000,0.00000000,0.00000000,0.00000000,0.00000000,0.02623718,0.03976266,0.04518127,283204.59574222,289578.75107716,292032.19839589,65473.07901688,66650.85306001,67229.98696851
4.99725275,0.50000000,0.60000000,perfect screening,12660.58345210,13658.13390579,16915.89384109,0.00000000,0.00000000,0.00000000,0.00000000,0.00000000,0.00000000,0.04504797,0.04796892,0.05015032,349109.07999024,356534.03113708,359628.40665911,65904.48424802,66955.28005992,67596.20826322
5.99725275,0.50000000,0.60000000,perfect screening,12685.12145570,13682.44305603,17190.40724920,0.00000000,0.00000000,0.00000000,0.00000000,0.00000000,0.00000000,0.03940389,0.05562636,0.05804760,415528.22916453,423955.20326116,427706.89675232,66419.14917429,67421.17212408,68078.49009321
6.99725275,0.50000000,0.60000000,perfect screening,12712.08262518,13709.01151107,17131.45625165,0.00000000,0.00000000,0.00000000,0.00000000,0.00000000,0.00000000,0.05678899,0.06336885,0.06710213,482539.46181709,491861.46262667,496321.67986123,67011.23265256,67906.25936551,68614.78310891
7.99725275,0.50000000,0.60000000,perfect screening,12775.49498019,13759.54852213,17238.96906351,0.00000000,0.00000000,0.00000000,0.00000000,0.00000000,0.00000000,0.05967540,0.06787433,0.07110998,550097.92671220,560300.08662538,565518.78649230,67558.46489512,68438.62399871,69197.10663107
8.99725275,0.50000000,0.60000000,perfect screening,12811.51257007,13816.99124670,17405.04557282,0.00000000,0.00000000,0.00000000,0.00000000,0.00000000,0.00000000,0.06223303,0.07362769,0.07805266,618273.13508737,629315.05800442,635311.36719411,68175.20837517,69014.97137904,69792.58070181
9.99725275,0.50000000,0.60000000,perfect screening,12888.40076542,13872.67363181,17334.04445050,0.00000000,0.00000000,0.00000000,0.00000000,0.00000000,0.00000000,0.07824288,0.07897050,0.08367571,687055.02935438,698910.85598173,705729.47671611,68781.89426700,69595.79797731,70418.10952199
0.99725275,0.50000000,0.60000000,realistic screening,12748.40512332,13768.29511845,16815.94216000,0.01031591,0.16275092,0.51712349,0.00000076,0.00001139,0.00003835,-0.01358883,0.00771981,0.01147469,61823.40476904,64037.10755029,69023.44259284,61823.40476904,64037.10755029,69023.44259284
1.99725275,0.50000000,0.60000000,realistic screening,12739.02630064,13715.77353350,16676.93684402,0.02624681,0.41069580,1.30479041,0.00000194,0.00002889,0.00009655,0.01054331,0.01576031,0.02273243,114613.08902223,118196.13237004,126892.57760461,52789.51217587,54174.01020899,57869.13501177
2.99725275,0.50000000,0.60000000,realistic screening,12806.65509353,13834.86771968,16987.00938900,0.04068115,0.63800405,2.01213406,0.00000299,0.00004444,0.00014804,0.01150409,0.01747033,0.02206706,165648.45682858,170428.35449768,182608.19725815,51035.36780634,52232.22212764,55715.61965354
3.99725275,0.50000000,0.60000000,realistic screening,12823.65920014,13800.83004233,17141.23796483,0.05316132,0.83245060,2.62689944,0.00000391,0.00005821,0.00019376,0.01652506,0.02869934,0.03271985,216667.61843202,222492.22277504,238170.78515488,51019.16160345,52063.86827735,55562.58789674
4.99725275,0.50000000,0.60000000,realistic screening,12881.34388651,13871.63320543,17109.97299450,0.06474619,1.01364226,3.20036835,0.00000473,0.00007049,0.00023437,0.03003712,0.03301734,0.03720682,268005.37371586,274770.61437906,293970.86578231,51337.75528384,52278.39160402,55800.08062743
5.99725275,0.50000000,0.60000000,realistic screening,12941.73443701,13934.33096452,17436.87217456,0.07487993,1.17505797,3.70173097,0.00000545,0.00008134,0.00027020,0.02566613,0.03763313,0.04156167,319742.36300554,327397.37995484,350145.05952872,51736.98928968,52626.76557578,56174.19374641
6.99725275,0.50000000,0.60000000,realistic screening,13008.87482972,13981.17708173,17389.29915849,0.08394590,1.31477361,4.14670026,0.00000609,0.00009094,0.00030186,0.04046557,0.04454524,0.05175296,371938.80707990,380394.13156428,406728.86045412,52196.44407436,53003.18637383,56583.80092540
7.99725275,0.50000000,0.60000000,realistic screening,13090.38018644,14080.15915369,17548.66163653,0.09239700,1.44865928,4.56360667,0.00000665,0.00009940,0.00032969,0.04303206,0.04595264,0.05186042,424561.27938368,433797.90015309,463745.78301215,52622.47230378,53418.11765551,57016.92255803
8.99725275,0.50000000,0.60000000,realistic screening,13160.59225604,14154.62162800,17719.39675780,0.09942386,1.56293057,4.91953287,0.00000714,0.00010681,0.00035404,0.04400165,0.05188878,0.05728759,477654.68216437,487643.62632885,521243.15922709,53093.40278069,53871.16784345,57497.37621494
9.99725275,0.50000000,0.60000000,realistic screening,13250.84974315,14251.46215156,17703.19229448,0.10630118,1.66822280,5.25148049,0.00000757,0.00011331,0.00037535,0.05110606,0.05404263,0.06345175,531230.15152053,541945.49259069,579219.60305165,53575.46935616,54340.21484088,57976.44382456
0.99725275,0.50000000,0.60000000,no vaccine,12825.55682716,13894.37584119,16587.18744539,NaN,NaN,NaN,NaN,NaN,NaN,NaN,NaN,NaN,NaN,NaN,NaN,NaN,NaN,NaN
1.99725275,0.50000000,0.60000000,no vaccine,12932.16505675,13918.28385953,16993.62775513,NaN,NaN,NaN,NaN,NaN,NaN,NaN,NaN,NaN,NaN,NaN,NaN,NaN,NaN,NaN
2.99725275,0.50000000,0.60000000,no vaccine,13037.58823382,14121.69410706,17211.50637931,NaN,NaN,NaN,NaN,NaN,NaN,NaN,NaN,NaN,NaN,NaN,NaN,NaN,NaN,NaN
3.99725275,0.50000000,0.60000000,no vaccine,13208.18535329,14192.29302441,17438.98325959,NaN,NaN,NaN,NaN,NaN,NaN,NaN,NaN,NaN,NaN,NaN,NaN,NaN,NaN,NaN
4.99725275,0.50000000,0.60000000,no vaccine,13296.24214321,14357.22895951,17757.21301284,NaN,NaN,NaN,NaN,NaN,NaN,NaN,NaN,NaN,NaN,NaN,NaN,NaN,NaN,NaN
5.99725275,0.50000000,0.60000000,no vaccine,13424.76608089,14489.51779695,17893.27872167,NaN,NaN,NaN,NaN,NaN,NaN,NaN,NaN,NaN,NaN,NaN,NaN,NaN,NaN,NaN
6.99725275,0.50000000,0.60000000,no vaccine,13603.93388185,14622.85183131,18186.71925610,NaN,NaN,NaN,NaN,NaN,NaN,NaN,NaN,NaN,NaN,NaN,NaN,NaN,NaN,NaN
7.99725275,0.50000000,0.60000000,no vaccine,13693.11789738,14773.55640461,18369.29845748,NaN,NaN,NaN,NaN,NaN,NaN,NaN,NaN,NaN,NaN,NaN,NaN,NaN,NaN,NaN
8.99725275,0.50000000,0.60000000,no vaccine,13862.07830625,14924.25631709,18558.82475646,NaN,NaN,NaN,NaN,NaN,NaN,NaN,NaN,NaN,NaN,NaN,NaN,NaN,NaN,NaN
9.99725275,0.50000000,0.60000000,no vaccine,13988.96560326,15070.97580424,18807.57551944,NaN,NaN,NaN,NaN,NaN,NaN,NaN,NaN,NaN,NaN,NaN,NaN,NaN,NaN,NaN
0.99725275,0.50000000,0.80000000,no screening,12853.81601916,13894.00087745,16987.41300639,193.96949277,211.66150636,270.27434211,0.01503544,0.01528744,0.01595502,-0.02391512,-0.00098107,0.00298110,136835.43850967,136843.06623408,136854.72752297,136835.43850967,136843.06623408,136854.72752297
1.99725275,0.50000000,0.80000000,no screening,12978.96832846,13979.41756606,17036.19732970,439.53642892,474.85955672,594.98232722,0.03355903,0.03395030,0.03505114,-0.00797786,-0.00440941,0.00281176,247051.76520293,247067.73706824,247087.68651783,110216.32669326,110224.67083416,110233.45273487
2.99725275,0.50000000,0.80000000,no screening,13120.98648035,14226.64746085,17506.66312318,637.76902982,690.74615246,870.09992837,0.04796400,0.04863427,0.04992247,-0.01740075,-0.00809018,-0.00204391,352905.28320921,352929.72450906,352957.73347894,105852.22148623,105864.12348968,105878.14465566
3.99725275,0.50000000,0.80000000,no screening,13205.63686713,14240.46901894,17760.58278059,809.74108468,874.54212274,1102.01600993,0.06029182,0.06133022,0.06247627,-0.01827057,-0.00228191,0.00091075,458616.16574821,458646.96220920,458678.09950787,105709.65716136,105717.45317812,105724.04953412
4.99725275,0.50000000,0.80000000,no screening,13271.87597501,14345.51523822,17806.97764756,962.58279054,1041.01750114,1301.33940409,0.07118624,0.07256987,0.07377070,-0.00568484,0.00005240,0.00353378,564981.61381849,565010.73464574,565065.62676648,106343.34272426,106366.20965797,106387.52725861
5.99725275,0.50000000,0.80000000,no screening,13364.14642073,14448.76028495,18165.88494996,1102.06915537,1191.73130616,1500.35817674,0.08084115,0.08253331,0.08387968,-0.01500533,0.00272058,0.00726821,672170.62151576,672226.07342843,672283.70500143,107182.53319830,107201.38395671,107225.14430355
6.99725275,0.50000000,0.80000000,no screening,13416.53935908,14460.79922662,18137.44770656,1224.58263905,1321.90409815,1652.34895322,0.08944957,0.09136589,0.09291199,0.00136403,0.00995741,0.01461607,780259.44880035,780337.76172443,780397.83214026,108088.72613575,108110.84923940,108126.11653314
7.99725275,0.50000000,0.80000000,no screening,13476.48021473,14560.60469529,18319.93325653,1335.54938880,1444.42269342,1808.17837014,0.09715173,0.09909123,0.10099587,0.00276829,0.01377935,0.02022043,889307.98911572,889390.58424060,889457.02246739,109039.75905897,109051.75995389,109070.73529362
8.99725275,0.50000000,0.80000000,no screening,13530.10698587,14589.89075776,18427.39509030,1434.76247008,1549.96867224,1941.04745519,0.10402964,0.10605251,0.10818902,0.00665757,0.02115571,0.02543637,999349.02220206,999426.93749811,999504.78349566,110031.68562879,110041.72681666,110049.10180159
9.99725275,0.50000000,0.80000000,no screening,13590.45875592,14643.62676318,18432.89497495,1524.84412178,1646.40941602,2054.33645922,0.11020154,0.11224777,0.11462683,0.01907934,0.02819198,0.02963200,1110408.58303910,1110493.65125021,1110575.38529622,111052.82625493,111069.11220264,111080.08285665
0.99725275,0.50000000,0.80000000,perfect screening,12660.10145003,13686.88486892,16737.77309827,0.00000000,0.00000000,0.00000000,0.00000000,0.00000000,0.00000000,-0.00887585,0.01417468,0.01757731,84199.98205234,86510.60941715,87222.02905727,84199.98205234,86510.60941715,87222.02905727
1.99725275,0.50000000,0.80000000,perfect screening,12556.46636006,13520.75506638,16508.42262448,0.00000000,0.00000000,0.00000000,0.00000000,0.00000000,0.00000000,0.02432399,0.02913181,0.03403157,152274.79280204,156122.76487453,157423.89484227,68074.81074970,69612.15545738,70203.75042613
2.99725275,0.50000000,0.80000000,perfect screening,12519.11108858,13562.16724491,16729.73252302,0.00000000,0.00000000,0.00000000,0.00000000,0.00000000,0.00000000,0.02728728,0.03846705,0.04381818,217731.70077423,222921.95633249,224801.08827403,65456.90797219,66799.19145796,67377.19343175
3.99725275,0.50000000,0.80000000,perfect screening,12463.11322495,13435.33247390,16804.20911177,0.00000000,0.00000000,0.00000000,0.00000000,0.00000000,0.00000000,0.03672525,0.05381486,0.05749694,283214.38298966,289573.41449815,292032.22214414,65482.68221543,66651.45816566,67231.13387011
4.99725275,0.50000000,0.80000000,perfect screening,12452.29785760,13424.59199073,16671.80432794,0.00000000,0.00000000,0.00000000,0.00000000,0.00000000,0.00000000,0.06042372,0.06373520,0.06623042,349123.58131598,356532.68689295,359631.03860331,65909.19832632,66959.27239480,67598.81645917
5.99725275,0.50000000,0.80000000,perfect screening,12433.73061868,13423.75617848,16913.87762153,0.00000000,0.00000000,0.00000000,0.00000000,0.00000000,0.00000000,0.05492890,0.07392604,0.07607296,415543.32650994,423961.68473591,427711.92863411,66419.74519396,67428.99784296,68080.89003080
6.99725275,0.50000000,0.80000000,perfect screening,12429.09975623,13381.65224749,16814.31688930,0.00000000,0.00000000,0.00000000,0.00000000,0.00000000,0.00000000,0.07480706,0.08471375,0.08718064,482557.95143060,491876.28336452,496327.42733748,67014.62492066,67914.59862861,68615.49870337
7.99725275,0.50000000,0.80000000,perfect screening,12459.75186678,13428.29795000,16856.63386890,0.00000000,0.00000000,0.00000000,0.00000000,0.00000000,0.00000000,0.08178819,0.09082377,0.09440390,550118.41201138,560319.59670872,565519.08461094,67560.46058078,68443.31334420,69191.65727345
8.99725275,0.50000000,0.80000000,perfect screening,12475.24283512,13448.42743718,16993.79768372,0.00000000,0.00000000,0.00000000,0.00000000,0.00000000,0.00000000,0.08462564,0.09858756,0.10297277,618283.47940829,629328.35054900,635317.07066072,68165.06739691,69008.75384028,69797.98604979
9.99725275,0.50000000,0.80000000,perfect screening,12520.99113757,13475.00043982,16889.06839263,0.00000000,0.00000000,0.00000000,0.00000000,0.00000000,0.00000000,0.10188721,0.10522617,0.11074301,687066.79295268,698926.86588455,705742.20744398,68783.31354439,69598.51533555,70425.13678325
0.99725275,0.50000000,0.80000000,realistic screening,12724.81982521,13742.11973462,16792.68025483,0.01375559,0.21699988,0.68919012,0.00000102,0.00001522,0.00005122,-0.01219112,0.00927902,0.01367259,61823.67629888,64037.15059587,69023.83099436,61823.67629888,64037.15059587,69023.83099436
1.99725275,0.50000000,0.80000000,realistic screening,12684.58642545,13649.35277047,16603.81711347,0.03499101,0.54765917,1.74055630,0.00000260,0.00003870,0.00012932,0.01463063,0.02025665,0.02793823,114610.35431923,118195.03495951,126892.05252040,52786.67802035,54173.37550632,57868.22152604
2.99725275,0.50000000,0.80000000,realistic screening,12717.71150632,13739.44546055,16904.86227293,0.05425697,0.85104553,2.68402988,0.00000401,0.00005967,0.00019874,0.01661158,0.02380998,0.02970164,165644.91787338,170429.60319608,182607.42755421,51034.56355415,52234.56823657,55715.37503381
3.99725275,0.50000000,0.80000000,realistic screening,12703.37688447,13671.33432803,16990.23724199,0.07084749,1.10941952,3.50014203,0.00000526,0.00007834,0.00026070,0.02508684,0.03809205,0.04221233,216663.93542043,222498.49677421,238166.19090700,51019.01754705,52068.89357813,55558.76335279
4.99725275,0.50000000,0.80000000,realistic screening,12745.82755468,13718.62747120,16951.17057664,0.08637803,1.35184278,4.27160679,0.00000638,0.00009508,0.00031602,0.04043152,0.04432035,0.04849514,267996.43364832,274774.69760823,293965.21213202,51332.49822789,52276.20083402,55799.02122502
5.99725275,0.50000000,0.80000000,realistic screening,12771.01334066,13752.75450812,17218.85881219,0.09979743,1.56665791,4.93122648,0.00000737,0.00010993,0.00036501,0.03785398,0.04925607,0.05630120,319729.18990673,327400.27636623,350140.51118870,51732.75625841,52625.57875801,56175.29905668
6.99725275,0.50000000,0.80000000,realistic screening,12825.32763317,13771.80417050,17152.22426168,0.11196380,1.75224283,5.53174643,0.00000824,0.00012313,0.00040853,0.05401737,0.05879344,0.06647593,371920.36130050,380393.46707584,406723.69743740,52191.17139377,52998.39072305,56583.18624871
7.99725275,0.50000000,0.80000000,realistic screening,12878.05636955,13854.83896616,17280.08360765,0.12316229,1.93342986,6.08497131,0.00000901,0.00013482,0.00044689,0.05835854,0.06158974,0.06955331,424542.83457293,433792.93479262,463741.15417562,52622.47327243,53414.28611864,57017.45673822
8.99725275,0.50000000,0.80000000,realistic screening,12937.27354294,13898.85648735,17417.68950513,0.13269668,2.08137176,6.55199137,0.00000969,0.00014508,0.00048061,0.06013446,0.06878031,0.07543854,477640.17413263,487636.13442244,521234.64262148,53097.33955970,53867.27874150,57493.48844586
9.99725275,0.50000000,0.80000000,realistic screening,13016.71171495,13982.23954964,17385.65217658,0.14168826,2.22463912,7.00736125,0.00001029,0.00015414,0.00051023,0.06819389,0.07373247,0.08137040,531218.24652714,541933.36967261,579219.01720759,53578.07239451,54336.28473657,57984.37458611
0.99725275,0.50000000,0.80000000,no vaccine,12825.55682716,13894.37584119,16587.18744539,NaN,NaN,NaN,NaN,NaN,NaN,NaN,NaN,NaN,NaN,NaN,NaN,NaN,NaN,NaN
1.99725275,0.50000000,0.80000000,no vaccine,12932.16505675,13918.28385953,16993.62775513,NaN,NaN,NaN,NaN,NaN,NaN,NaN,NaN,NaN,NaN,NaN,NaN,NaN,NaN,NaN
2.99725275,0.50000000,0.80000000,no vaccine,13037.58823382,14121.69410706,17211.50637931,NaN,NaN,NaN,NaN,NaN,NaN,NaN,NaN,NaN,NaN,NaN,NaN,NaN,NaN,NaN
3.99725275,0.50000000,0.80000000,no vaccine,13208.18535329,14192.29302441,17438.98325959,NaN,NaN,NaN,NaN,NaN,NaN,NaN,NaN,NaN,NaN,NaN,NaN,NaN,NaN,NaN
4.99725275,0.50000000,0.80000000,no vaccine,13296.24214321,14357.22895951,17757.21301284,NaN,NaN,NaN,NaN,NaN,NaN,NaN,NaN,NaN,NaN,NaN,NaN,NaN,NaN,NaN
5.99725275,0.50000000,0.80000000,no vaccine,13424.76608089,14489.51779695,17893.27872167,NaN,NaN,NaN,NaN,NaN,NaN,NaN,NaN,NaN,NaN,NaN,NaN,NaN,NaN,NaN
6.99725275,0.50000000,0.80000000,no vaccine,13603.93388185,14622.85183131,18186.71925610,NaN,NaN,NaN,NaN,NaN,NaN,NaN,NaN,NaN,NaN,NaN,NaN,NaN,NaN,NaN
7.99725275,0.50000000,0.80000000,no vaccine,13693.11789738,14773.55640461,18369.29845748,NaN,NaN,NaN,NaN,NaN,NaN,NaN,NaN,NaN,NaN,NaN,NaN,NaN,NaN,NaN
8.99725275,0.50000000,0.80000000,no vaccine,13862.07830625,14924.25631709,18558.82475646,NaN,NaN,NaN,NaN,NaN,NaN,NaN,NaN,NaN,NaN,NaN,NaN,NaN,NaN,NaN
9.99725275,0.50000000,0.80000000,no vaccine,13988.96560326,15070.97580424,18807.57551944,NaN,NaN,NaN,NaN,NaN,NaN,NaN,NaN,NaN,NaN,NaN,NaN,NaN,NaN,NaN
0.99725275,0.70000000,0.40000000,no screening,12845.88536936,13882.78028728,16965.33952043,148.63675250,162.04965328,206.83313519,0.01153208,0.01171147,0.01222556,-0.02258733,-0.00032542,0.00352174,203456.12266251,203467.06900270,203478.55766333,203456.12266251,203467.06900270,203478.55766333
1.99725275,0.70000000,0.40000000,no screening,12959.03015514,13968.02766834,16985.29797304,316.56851669,342.23988235,428.38306552,0.02419919,0.02447879,0.02531073,-0.00620865,-0.00289227,0.00451391,349642.15707196,349662.41931413,349681.30829327,146180.26345439,146198.07483118,146206.96202133
2.99725275,0.70000000,0.40000000,no screening,13106.50058897,14191.59517747,17457.98725189,448.19440901,485.30064434,611.59256982,0.03376525,0.03421792,0.03518778,-0.01496118,-0.00631055,-0.00131109,490321.71434801,490359.98180727,490397.42176900,140677.85957963,140695.82480494,140716.97082740
3.99725275,0.70000000,0.40000000,no screening,13196.69509822,14228.69219412,17699.46891840,562.61998971,607.60911197,765.70930937,0.04196050,0.04265104,0.04354912,-0.01515561,-0.00127810,0.00159385,631352.89035586,631379.06866259,631459.38360675,141006.35582396,141035.37728854,141061.96183775
4.99725275,0.70000000,0.40000000,no screening,13297.39743334,14352.69466426,17733.02360873,665.59780025,719.24170866,897.20154258,0.04918217,0.05009453,0.05100028,-0.00512076,0.00031552,0.00223271,773393.52417058,773444.99525680,773527.82291424,142034.34364073,142054.27621905,142087.72633992
5.99725275,0.70000000,0.40000000,no screening,13380.35124713,14462.69172461,18163.51778960,757.19098273,819.50759432,1033.33082751,0.05555106,0.05665441,0.05764007,-0.01488603,0.00164381,0.00510352,916577.96525798,916661.38712905,916737.84572316,143180.28073453,143206.16544704,143234.20261581
6.99725275,0.70000000,0.40000000,no screening,13475.75701592,14517.79627973,18122.61426525,840.22410514,906.74776361,1131.79582156,0.06118760,0.06244731,0.06356286,0.00209692,0.00619219,0.01093937,1060984.57131329,1061084.01886261,1061167.37982968,144403.12835416,144428.39051216,144452.79824451
7.99725275,0.70000000,0.40000000,no screening,13559.91751335,14636.25197157,18328.56875083,914.20467817,988.38458376,1235.51257056,0.06618859,0.06752251,0.06880578,0.00181577,0.00859785,0.01321780,1206668.66565649,1206783.61908840,1206893.73121686,145667.14909788,145698.03448127,145731.05004411
8.99725275,0.70000000,0.40000000,no screening,13628.69753078,14698.80947320,18548.28599876,979.60816601,1058.68395421,1329.93850208,0.07061302,0.07190342,0.07344323,0.00013982,0.01399422,0.01756850,1353686.22102365,1353829.70147094,1353933.20772458,146992.22655652,147035.29006976,147080.40029499
9.99725275,0.70000000,0.40000000,no screening,13739.55556507,14794.50758796,18496.40486264,1041.44613152,1123.92097715,1397.85307159,0.07454944,0.07584108,0.07754696,0.01375802,0.01744578,0.01941191,1502106.43457860,1502240.55781472,1502397.35527518,148383.44876235,148415.64946146,148464.14755060
0.99725275,0.70000000,0.40000000,perfect screening,12700.36098916,13727.95322525,16779.22213389,0.00000000,0.00000000,0.00000000,0.00000000,0.00000000,0.00000000,-0.01137870,0.01115691,0.01513912,125182.76466674,128614.02644088,129665.80487196,125182.76466674,128614.02644088,129665.80487196
1.99725275,0.70000000,0.40000000,perfect screening,12653.33033964,13632.04319391,16597.90095186,0.00000000,0.00000000,0.00000000,0.00000000,0.00000000,0.00000000,0.01646276,0.02188368,0.02773861,215499.62393832,220921.89868458,222762.00416475,90316.85927158,92307.87224369,93099.02374764
2.99725275,0.70000000,0.40000000,perfect screening,12681.17670171,13748.68876794,16908.23085680,0.00000000,0.00000000,0.00000000,0.00000000,0.00000000,0.00000000,0.01577359,0.02586063,0.03101304,302497.72877117,309672.20437268,312288.57507050,86998.10483285,88750.30568811,89526.57090575
3.99725275,0.70000000,0.40000000,perfect screening,12681.85049954,13662.90369566,17016.05755577,0.00000000,0.00000000,0.00000000,0.00000000,0.00000000,0.00000000,0.02430444,0.03730122,0.04125254,389852.10520475,398557.34297711,401961.27758048,87354.37643358,88885.13860442,89672.70250997
4.99725275,0.70000000,0.40000000,perfect screening,12715.48607277,13718.77151194,16981.47214561,0.00000000,0.00000000,0.00000000,0.00000000,0.00000000,0.00000000,0.04138106,0.04422353,0.04643317,477849.62353735,487951.29251326,492221.20432821,87997.51833260,89393.94953616,90259.92674774
5.99725275,0.70000000,0.40000000,perfect screening,12749.38667590,13767.93926866,17269.98675097,0.00000000,0.00000000,0.00000000,0.00000000,0.00000000,0.00000000,0.03494778,0.05018946,0.05349289,566578.95430183,578008.36352634,583180.83158641,88729.33076448,90057.07101307,90959.62725820
6.99725275,0.70000000,0.40000000,perfect screening,12800.38986983,13776.70029970,17214.75944688,0.00000000,0.00000000,0.00000000,0.00000000,0.00000000,0.00000000,0.05206626,0.05816104,0.06103378,656104.79637483,668728.93371770,674860.67590497,89525.84207300,90720.57019136,91679.84431856
7.99725275,0.70000000,0.40000000,perfect screening,12851.38724561,13864.51619884,17369.75719066,0.00000000,0.00000000,0.00000000,0.00000000,0.00000000,0.00000000,0.05372181,0.06144285,0.06438817,746355.36273230,760157.45554209,767293.72541944,90250.56635747,91428.52182439,92433.04951447
8.99725275,0.70000000,0.40000000,perfect screening,12920.83516566,13912.58335443,17491.04102951,0.00000000,0.00000000,0.00000000,0.00000000,0.00000000,0.00000000,0.05774230,0.06744153,0.07054359,837420.83019625,852358.16126055,860505.80722491,91065.46746395,92200.70571846,93212.08180547
9.99725275,0.70000000,0.40000000,perfect screening,12997.90896503,13985.09592524,17489.35284412,0.00000000,0.00000000,0.00000000,0.00000000,0.00000000,0.00000000,0.06948155,0.07163806,0.07577849,929299.19522085,945335.47684475,954576.27186843,91878.36502460,92977.31558420,94070.46464352
0.99725275,0.70000000,0.40000000,realistic screening,12740.26572619,13763.41864759,16810.58949317,0.01194374,0.18844103,0.59854168,0.00000088,0.00001320,0.00004440,-0.01326886,0.00815960,0.01190580,95531.86865726,98673.68371659,105637.14830942,95531.86865726,98673.68371659,105637.14830942
1.99725275,0.70000000,0.40000000,realistic screening,12739.56447799,13705.24203208,16669.78549154,0.03039458,0.47559683,1.50957638,0.00000225,0.00003346,0.00011174,0.01079475,0.01607544,0.02299902,169780.16202070,174617.58216478,185759.46993360,74248.29336344,75943.89844819,80122.32162418
2.99725275,0.70000000,0.40000000,realistic screening,12802.82674626,13840.14007312,17005.11143942,0.04713518,0.73873763,2.32918481,0.00000346,0.00005144,0.00017126,0.01068943,0.01712812,0.02262545,241139.96119804,247477.63533959,262589.59470773,71359.79917734,72860.05317480,76830.12477413
3.99725275,0.70000000,0.40000000,realistic screening,12820.49355784,13815.27486831,17137.70649388,0.06151084,0.96321551,3.03765823,0.00000453,0.00006736,0.00022403,0.01655024,0.02858243,0.03244300,312606.80583902,320251.00165275,339400.79152626,71466.84464098,72773.36631317,76811.19681853
4.99725275,0.70000000,0.40000000,realistic screening,12899.20960490,13867.62847030,17126.09343888,0.07502770,1.17339987,3.70428673,0.00000548,0.00008154,0.00027091,0.02910570,0.03278339,0.03665580,384566.34803061,393391.70043791,416631.74305155,71959.54219160,73140.69878516,77230.95152529
5.99725275,0.70000000,0.40000000,realistic screening,12939.85586486,13958.64471897,17458.14839959,0.08671059,1.36116959,4.27651116,0.00000631,0.00009406,0.00031222,0.02445595,0.03635299,0.03900412,457105.05530892,467054.30882562,494410.28801257,72538.70727830,73662.60838771,77778.54496102
6.99725275,0.70000000,0.40000000,realistic screening,13016.39538961,13986.48396198,17404.54341194,0.09712793,1.52116027,4.80191699,0.00000705,0.00010513,0.00034872,0.03846294,0.04460800,0.05000143,530290.98355407,541241.34276799,572759.44074592,73185.92824515,74187.03394238,78349.15273335
7.99725275,0.70000000,0.40000000,realistic screening,13101.76071371,14097.79296470,17588.83642811,0.10706830,1.67798361,5.27528603,0.00000769,0.00011489,0.00038075,0.04203161,0.04386730,0.05047991,604074.49796289,615997.53794276,651701.02341603,73783.51440882,74756.19517477,78941.58267010
8.99725275,0.70000000,0.40000000,realistic screening,13176.64430595,14172.96753864,17749.31615312,0.11515301,1.80840659,5.68881885,0.00000826,0.00012342,0.00040881,0.04253643,0.05072533,0.05477640,678540.61849358,691382.00567976,731321.70941686,74466.12053069,75384.46773700,79620.68600084
9.99725275,0.70000000,0.40000000,realistic screening,13271.87283287,14256.97867553,17753.96134250,0.12305374,1.93015733,6.07747837,0.00000875,0.00013092,0.00043331,0.05076881,0.05359086,0.06049503,753679.40160546,767408.68349692,811624.08768779,75138.78311188,76026.67781716,80302.37827092
0.99725275,0.70000000,0.40000000,no vaccine,12825.55682716,13894.37584119,16587.18744539,NaN,NaN,NaN,NaN,NaN,NaN,NaN,NaN,NaN,NaN,NaN,NaN,NaN,NaN,NaN
1.99725275,0.70000000,0.40000000,no vaccine,12932.16505675,13918.28385953,16993.62775513,NaN,NaN,NaN,NaN,NaN,NaN,NaN,NaN,NaN,NaN,NaN,NaN,NaN,NaN,NaN
2.99725275,0.70000000,0.40000000,no vaccine,13037.58823382,14121.69410706,17211.50637931,NaN,NaN,NaN,NaN,NaN,NaN,NaN,NaN,NaN,NaN,NaN,NaN,NaN,NaN,NaN
3.99725275,0.70000000,0.40000000,no vaccine,13208.18535329,14192.29302441,17438.98325959,NaN,NaN,NaN,NaN,NaN,NaN,NaN,NaN,NaN,NaN,NaN,NaN,NaN,NaN,NaN
4.99725275,0.70000000,0.40000000,no vaccine,13296.24214321,14357.22895951,17757.21301284,NaN,NaN,NaN,NaN,NaN,NaN,NaN,NaN,NaN,NaN,NaN,NaN,NaN,NaN,NaN
5.99725275,0.70000000,0.40000000,no vaccine,13424.76608089,14489.51779695,17893.27872167,NaN,NaN,NaN,NaN,NaN,NaN,NaN,NaN,NaN,NaN,NaN,NaN,NaN,NaN,NaN
6.99725275,0.70000000,0.40000000,no vaccine,13603.93388185,14622.85183131,18186.71925610,NaN,NaN,NaN,NaN,NaN,NaN,NaN,NaN,NaN,NaN,NaN,NaN,NaN,NaN,NaN
7.99725275,0.70000000,0.40000000,no vaccine,13693.11789738,14773.55640461,18369.29845748,NaN,NaN,NaN,NaN,NaN,NaN,NaN,NaN,NaN,NaN,NaN,NaN,NaN,NaN,NaN
8.99725275,0.70000000,0.40000000,no vaccine,13862.07830625,14924.25631709,18558.82475646,NaN,NaN,NaN,NaN,NaN,NaN,NaN,NaN,NaN,NaN,NaN,NaN,NaN,NaN,NaN
9.99725275,0.70000000,0.40000000,no vaccine,13988.96560326,15070.97580424,18807.57551944,NaN,NaN,NaN,NaN,NaN,NaN,NaN,NaN,NaN,NaN,NaN,NaN,NaN,NaN,NaN
0.99725275,0.70000000,0.60000000,no screening,12857.70294206,13900.56110262,16997.25564913,222.89421104,243.05182135,310.13223087,0.01727769,0.01754025,0.01829764,-0.02450815,-0.00166682,0.00224386,203457.24347119,203466.27788276,203479.77236340,203457.24347119,203466.27788276,203479.77236340
1.99725275,0.70000000,0.60000000,no screening,12987.11122800,13993.05054378,17066.25612706,475.02051381,513.23349760,643.06456565,0.03621913,0.03664441,0.03782062,-0.00870566,-0.00575592,0.00170213,349645.90752402,349661.65590602,349684.49582433,146186.37557937,146196.92123563,146207.29535868
2.99725275,0.70000000,0.60000000,no screening,13136.86254342,14229.85537303,17515.12032240,672.74357833,727.93971020,916.13683670,0.05050222,0.05122963,0.05254199,-0.01763956,-0.00910459,-0.00285358,490333.15891318,490359.26253945,490373.19464652,140682.62651402,140693.96286821,140709.55125693
3.99725275,0.70000000,0.60000000,no screening,13203.05156918,14246.82017166,17778.95797075,843.53009972,911.53312510,1148.62921396,0.06279434,0.06389551,0.06504269,-0.01923779,-0.00285139,0.00068510,631369.56818370,631402.17057540,631430.47887998,141034.13679559,141039.02214525,141065.98338751
4.99725275,0.70000000,0.60000000,no screening,13295.88964874,14367.06711064,17823.39130602,998.54144034,1079.02733281,1347.23223108,0.07367482,0.07513239,0.07635734,-0.00581794,-0.00100202,0.00216280,773416.27481994,773483.80378802,773499.30296948,142030.45130965,142065.06784800,142095.17828835
5.99725275,0.70000000,0.60000000,no screening,13366.85113832,14443.46380069,18176.88732186,1136.63053557,1228.72268055,1547.12095143,0.08333069,0.08509413,0.08646660,-0.01561223,0.00278057,0.00665584,916619.90680077,916693.19147448,916713.82524538,143187.58807925,143209.71111113,143226.82732216
6.99725275,0.70000000,0.60000000,no screening,13425.09609226,14477.66442348,18168.28029009,1259.98810775,1360.59056450,1699.98775773,0.09194167,0.09388951,0.09551269,-0.00006571,0.00887525,0.01350440,1061052.05040333,1061120.90804546,1061157.61298613,144419.14266521,144430.13220958,144460.93287304
7.99725275,0.70000000,0.60000000,no screening,13496.05648160,14566.06695530,18316.85766576,1372.33826526,1482.27121212,1853.57640407,0.09964093,0.10166658,0.10358544,0.00295322,0.01306856,0.01873201,1206765.94185447,1206816.22607455,1206881.70939732,145678.80185918,145702.68396182,145733.96926420
8.99725275,0.70000000,0.60000000,no screening,13536.81808870,14595.37502039,18469.89807471,1470.45800760,1588.20233054,1991.58960415,0.10652790,0.10863437,0.11079129,0.00494604,0.01924494,0.02469308,1353777.51866244,1353839.27442900,1353925.04341959,146976.77057628,147034.96246444,147059.34118000
9.99725275,0.70000000,0.60000000,no screening,13598.06624848,14652.90794617,18417.54477874,1560.89980878,1685.33653547,2098.14429823,0.11269566,0.11483121,0.11723458,0.01986794,0.02666873,0.02897214,1502180.28089910,1502241.19607386,1502326.88891066,148383.24543247,148401.68093597,148415.18065342
0.99725275,0.70000000,0.60000000,perfect screening,12639.44911556,13666.07689903,16720.24800779,0.00000000,0.00000000,0.00000000,0.00000000,0.00000000,0.00000000,-0.00781034,0.01559889,0.01956108,125183.06043129,128613.59978481,129666.57403911,125183.06043129,128613.59978481,129666.57403911
1.99725275,0.70000000,0.60000000,perfect screening,12528.45792785,13494.69744575,16478.99350938,0.00000000,0.00000000,0.00000000,0.00000000,0.00000000,0.00000000,0.02600714,0.03101106,0.03550442,215499.70340693,220918.98402811,222759.74675193,90316.64297565,92305.38424331,93097.28013217
2.99725275,0.70000000,0.60000000,perfect screening,12490.17672712,13553.27336386,16704.85839314,0.00000000,0.00000000,0.00000000,0.00000000,0.00000000,0.00000000,0.02890251,0.03989026,0.04571158,302499.99322392,309666.78062708,312285.94358641,87000.28981699,88747.79659897,89526.19683448
3.99725275,0.70000000,0.60000000,perfect screening,12442.38124256,13403.73169647,16780.40576636,0.00000000,0.00000000,0.00000000,0.00000000,0.00000000,0.00000000,0.03806928,0.05556270,0.05948311,389865.65742968,398554.50411569,401973.53323043,87365.66420576,88887.72348861,89687.58964403
4.99725275,0.70000000,0.60000000,perfect screening,12414.95662436,13410.56245394,16649.16971664,0.00000000,0.00000000,0.00000000,0.00000000,0.00000000,0.00000000,0.06224584,0.06565378,0.06850737,477886.67804334,487946.43461332,492231.01886054,88021.02061366,89391.93049763,90257.48563010
5.99725275,0.70000000,0.60000000,perfect screening,12402.06002769,13394.48267254,16897.68574616,0.00000000,0.00000000,0.00000000,0.00000000,0.00000000,0.00000000,0.05581372,0.07608044,0.07795608,566604.19801101,578000.85684239,583156.36895015,88717.51996767,90054.42222907,90925.35008961
6.99725275,0.70000000,0.60000000,perfect screening,12401.46995878,13357.59558786,16761.62190706,0.00000000,0.00000000,0.00000000,0.00000000,0.00000000,0.00000000,0.07788677,0.08629495,0.08901099,656123.66060198,668718.37463613,674812.15016147,89519.46259097,90717.51779374,91655.78121132
7.99725275,0.70000000,0.60000000,perfect screening,12434.69850091,13409.33188564,16859.48959285,0.00000000,0.00000000,0.00000000,0.00000000,0.00000000,0.00000000,0.08227986,0.09239452,0.09662059,746370.71535781,760148.58170284,767229.45495189,90247.05475583,91430.20706671,92417.30479042
8.99725275,0.70000000,0.60000000,perfect screening,12445.93688886,13406.38292887,16954.28521311,0.00000000,0.00000000,0.00000000,0.00000000,0.00000000,0.00000000,0.08668364,0.10125573,0.10515818,837439.60622287,852351.17090596,860463.29548575,91068.89086506,92202.58920312,93233.84053386
9.99725275,0.70000000,0.60000000,perfect screening,12493.99179564,13456.17998353,16860.72764558,0.00000000,0.00000000,0.00000000,0.00000000,0.00000000,0.00000000,0.10346853,0.10687348,0.11175640,929316.42547413,945334.73816310,954550.47517242,91876.81925126,92983.56725714,94087.17968667
0.99725275,0.70000000,0.60000000,realistic screening,12705.38855258,13720.39266035,16770.83909535,0.01791628,0.28263837,0.89775386,0.00000133,0.00001985,0.00006679,-0.01086593,0.01069456,0.01483805,95531.41091489,98673.86740613,105636.00728140,95531.41091489,98673.86740613,105636.00728140
1.99725275,0.70000000,0.60000000,realistic screening,12650.88040721,13609.99864930,16576.78167489,0.04560365,0.71354296,2.26464629,0.00000340,0.00005054,0.00016876,0.01762295,0.02263227,0.02918027,169776.15722895,174617.29178946,185754.54719488,74244.74631406,75943.42438333,80118.53991348
2.99725275,0.70000000,0.60000000,realistic screening,12674.12457403,13690.70662866,16855.84081098,0.07068428,1.10711073,3.49147207,0.00000524,0.00007797,0.00025952,0.02040277,0.02816875,0.03243006,241135.62338137,247475.77171283,262585.41302249,71359.46615242,72858.47992337,76830.86582761
3.99725275,0.70000000,0.60000000,realistic screening,12652.60076477,13615.40779002,16945.00544619,0.09231243,1.44623172,4.55837640,0.00000688,0.00010245,0.00034062,0.02808450,0.04084580,0.04517562,312608.81792308,320249.05967966,339397.43831839,71473.19454171,72773.28796683,76812.02529590
4.99725275,0.70000000,0.60000000,realistic screening,12669.53360747,13653.64954582,16891.96707040,0.11240844,1.76051703,5.55653670,0.00000835,0.00012440,0.00041311,0.04559202,0.04840559,0.05357161,384574.51489933,393388.08931789,416612.81837460,71965.69697624,73139.02963823,77215.38005621
5.99725275,0.70000000,0.60000000,realistic screening,12716.43306047,13675.25533640,17150.91331643,0.13021500,2.03989709,6.41476352,0.00000965,0.00014392,0.00047743,0.04166841,0.05476364,0.05896096,457121.13488493,467039.71933209,494391.46455874,72546.61998561,73651.63001421,77778.64618414
6.99725275,0.70000000,0.60000000,realistic screening,12734.49154410,13686.93371096,17074.56761523,0.14571074,2.28292446,7.20046799,0.00001080,0.00016128,0.00053461,0.05864613,0.06481986,0.07079240,530315.49059906,541218.72187115,572749.35012076,73194.35571413,74179.00253905,78357.88556202
7.99725275,0.70000000,0.60000000,realistic screening,12800.13826520,13771.79292153,17194.83501039,0.16051795,2.51701728,7.91230993,0.00001182,0.00017668,0.00058509,0.06359023,0.06758168,0.07470661,604103.28058215,615978.06880937,651698.63675082,73787.78998309,74759.34693822,78949.28663007
8.99725275,0.70000000,0.60000000,realistic screening,12847.59122875,13803.97097630,17314.68389777,0.17286687,2.71287448,8.53200719,0.00001271,0.00019022,0.00062951,0.06571723,0.07514842,0.08037652,678572.08516900,691365.15429637,731321.61618926,74468.80458685,75387.08548699,79622.97943843
9.99725275,0.70000000,0.60000000,realistic screening,12905.32166441,13882.21809006,17306.65914094,0.18450223,2.89610560,9.11240665,0.00001350,0.00020217,0.00066853,0.07550298,0.07890728,0.08822213,753716.24052415,767396.67949522,811624.90117264,75144.15535515,76031.52519885,80303.28498338
0.99725275,0.70000000,0.60000000,no vaccine,12825.55682716,13894.37584119,16587.18744539,NaN,NaN,NaN,NaN,NaN,NaN,NaN,NaN,NaN,NaN,NaN,NaN,NaN,NaN,NaN
1.99725275,0.70000000,0.60000000,no vaccine,12932.16505675,13918.28385953,16993.62775513,NaN,NaN,NaN,NaN,NaN,NaN,NaN,NaN,NaN,NaN,NaN,NaN,NaN,NaN,NaN
2.99725275,0.70000000,0.60000000,no vaccine,13037.58823382,14121.69410706,17211.50637931,NaN,NaN,NaN,NaN,NaN,NaN,NaN,NaN,NaN,NaN,NaN,NaN,NaN,NaN,NaN
3.99725275,0.70000000,0.60000000,no vaccine,13208.18535329,14192.29302441,17438.98325959,NaN,NaN,NaN,NaN,NaN,NaN,NaN,NaN,NaN,NaN,NaN,NaN,NaN,NaN,NaN
4.99725275,0.70000000,0.60000000,no vaccine,13296.24214321,14357.22895951,17757.21301284,NaN,NaN,NaN,NaN,NaN,NaN,NaN,NaN,NaN,NaN,NaN,NaN,NaN,NaN,NaN
5.99725275,0.70000000,0.60000000,no vaccine,13424.76608089,14489.51779695,17893.27872167,NaN,NaN,NaN,NaN,NaN,NaN,NaN,NaN,NaN,NaN,NaN,NaN,NaN,NaN,NaN
6.99725275,0.70000000,0.60000000,no vaccine,13603.93388185,14622.85183131,18186.71925610,NaN,NaN,NaN,NaN,NaN,NaN,NaN,NaN,NaN,NaN,NaN,NaN,NaN,NaN,NaN
7.99725275,0.70000000,0.60000000,no vaccine,13693.11789738,14773.55640461,18369.29845748,NaN,NaN,NaN,NaN,NaN,NaN,NaN,NaN,NaN,NaN,NaN,NaN,NaN,NaN,NaN
8.99725275,0.70000000,0.60000000,no vaccine,13862.07830625,14924.25631709,18558.82475646,NaN,NaN,NaN,NaN,NaN,NaN,NaN,NaN,NaN,NaN,NaN,NaN,NaN,NaN,NaN
9.99725275,0.70000000,0.60000000,no vaccine,13988.96560326,15070.97580424,18807.57551944,NaN,NaN,NaN,NaN,NaN,NaN,NaN,NaN,NaN,NaN,NaN,NaN,NaN,NaN,NaN
0.99725275,0.70000000,0.80000000,no screening,12874.27102045,13922.35575854,17035.23199470,297.23199329,324.11821023,413.54244497,0.02301068,0.02335225,0.02434416,-0.02678877,-0.00324724,0.00099551,203458.71060743,203466.23157273,203480.66616061,203458.71060743,203466.23157273,203480.66616061
1.99725275,0.70000000,0.80000000,no screening,13010.53243675,14018.51961602,17129.27936814,633.30308856,684.19705548,857.23633757,0.04818582,0.04876177,0.05023104,-0.01042312,-0.00839777,-0.00063340,349649.37482291,349662.39083231,349678.86969144,146187.51164346,146194.87473178,146200.21727478
2.99725275,0.70000000,0.80000000,no screening,13154.28685473,14259.18323445,17601.69502355,896.64191171,970.95546446,1221.91741531,0.06714495,0.06816969,0.06974569,-0.02264079,-0.01030051,-0.00512545,490339.13046862,490354.62154371,490363.54980696,140680.12592516,140690.35229311,140698.29905264
3.99725275,0.70000000,0.80000000,no screening,13216.81844450,14260.84771755,17854.42458237,1124.75985090,1214.96754343,1531.01207134,0.08352397,0.08507897,0.08647177,-0.02345549,-0.00499196,-0.00040637,631363.91837441,631394.00111736,631417.48198971,141021.60113850,141039.71901472,141067.03666993
4.99725275,0.70000000,0.80000000,no screening,13298.66191642,14365.85738686,17889.86980792,1331.99997845,1438.57552478,1797.41414869,0.09809789,0.10016205,0.10165026,-0.00993295,-0.00113782,0.00243859,773404.53651725,773452.60170263,773528.33568370,142028.88719218,142068.35706297,142110.85369400
5.99725275,0.70000000,0.80000000,no screening,13341.51641238,14442.02853946,18227.29548494,1515.23913624,1639.35904231,2062.54436218,0.11111319,0.11354685,0.11530105,-0.01838383,0.00287947,0.00844843,916602.24814300,916667.44597626,916792.38701405,143191.95415240,143210.82368370,143264.05133035
6.99725275,0.70000000,0.80000000,no screening,13383.61658594,14417.87984630,18186.00236761,1680.70183900,1812.69360732,2267.13520890,0.12279849,0.12534904,0.12757331,-0.00124679,0.01301169,0.01655839,1061051.59013234,1061103.94486301,1061247.00662508,144410.88640744,144439.10405655,144465.92147135
7.99725275,0.70000000,0.80000000,no screening,13408.69983916,14523.86765826,18307.91974834,1827.79603951,1978.71131045,2471.66316440,0.13334851,0.13620895,0.13862533,0.00350155,0.01652020,0.02413919,1206749.93071327,1206818.03464838,1206970.63595610,145684.22539686,145712.71045517,145730.12749937
8.99725275,0.70000000,0.80000000,no screening,13449.27627566,14484.67089159,18418.45586327,1962.65523167,2116.93532909,2655.16832694,0.14286038,0.14590824,0.14857644,0.00783028,0.02764924,0.03131491,1353785.50977858,1353860.57939776,1354020.36652110,147010.51931859,147047.51233469,147084.27892405
9.99725275,0.70000000,0.80000000,no screening,13458.60219097,14535.17550800,18327.08099457,2079.71402973,2249.11327059,2797.95599906,0.15140402,0.15456465,0.15755788,0.02456966,0.03421808,0.03883061,1502207.09677169,1502267.04954534,1502450.85361028,148388.12521642,148419.78933212,148433.14580357
0.99725275,0.70000000,0.80000000,perfect screening,12582.92303669,13604.39415499,16665.22168333,0.00000000,0.00000000,0.00000000,0.00000000,0.00000000,0.00000000,-0.00449152,0.01992687,0.02361050,125184.39771314,128612.09674789,129667.36290312,125184.39771314,128612.09674789,129667.36290312
1.99725275,0.70000000,0.80000000,perfect screening,12391.63386571,13360.69362785,16351.34565598,0.00000000,0.00000000,0.00000000,0.00000000,0.00000000,0.00000000,0.03580138,0.04052319,0.04444934,215497.44569294,220915.00215201,222763.52771997,90313.04797980,92302.90540412,93099.33959032
2.99725275,0.70000000,0.80000000,perfect screening,12317.11583791,13341.83050836,16517.68162087,0.00000000,0.00000000,0.00000000,0.00000000,0.00000000,0.00000000,0.04032539,0.05386421,0.05975207,302494.42205640,309666.49076594,312292.39075955,86996.97636346,88751.48861393,89528.86303958
3.99725275,0.70000000,0.80000000,perfect screening,12174.50894625,13150.10124740,16507.59563560,0.00000000,0.00000000,0.00000000,0.00000000,0.00000000,0.00000000,0.05374225,0.07352744,0.07912886,389848.76383835,398562.70434445,401964.01183606,87354.34178195,88896.21357851,89671.62107651
4.99725275,0.70000000,0.80000000,perfect screening,12127.64007555,13084.85911348,16336.52872123,0.00000000,0.00000000,0.00000000,0.00000000,0.00000000,0.00000000,0.08005701,0.08738263,0.09051809,477851.94578005,487947.29887674,492219.96037958,88003.18194171,89384.59453229,90255.94854353
5.99725275,0.70000000,0.80000000,perfect screening,12067.89819640,13029.27310042,16520.15094709,0.00000000,0.00000000,0.00000000,0.00000000,0.00000000,0.00000000,0.07698535,0.10156242,0.10365443,566597.85561207,577991.67300484,583163.71572572,88745.90983202,90044.37412810,90943.75534614
6.99725275,0.70000000,0.80000000,perfect screening,12013.63904661,12941.80275194,16321.95972546,0.00000000,0.00000000,0.00000000,0.00000000,0.00000000,0.00000000,0.10218273,0.11459457,0.11745865,656124.88247445,668701.25960675,674808.30577739,89527.02686238,90709.58660191,91644.59005167
7.99725275,0.70000000,0.80000000,perfect screening,12006.33685679,12930.08467422,16340.57852086,0.00000000,0.00000000,0.00000000,0.00000000,0.00000000,0.00000000,0.11047855,0.12447243,0.12703846,746346.00487647,760123.01049315,767195.89998539,90221.12240202,91421.75088640,92387.59420800
8.99725275,0.70000000,0.80000000,perfect screening,11990.00136947,12914.85384933,16396.87015578,0.00000000,0.00000000,0.00000000,0.00000000,0.00000000,0.00000000,0.11682229,0.13438857,0.13855547,837394.08603838,852321.07504562,860432.95245390,91048.08116192,92198.06455247,93237.05246851
9.99725275,0.70000000,0.80000000,perfect screening,11984.27461082,12918.46958894,16244.93697311,0.00000000,0.00000000,0.00000000,0.00000000,0.00000000,0.00000000,0.13636693,0.14312113,0.14761081,929259.68729347,945305.88991833,954506.69475984,91865.60125509,92984.81487271,94073.74230593
0.99725275,0.70000000,0.80000000,realistic screening,12665.48300811,13677.41904339,16731.77995951,0.02388488,0.37682275,1.19693926,0.00000177,0.00002655,0.00008932,-0.00850078,0.01364217,0.01778964,95531.37179024,98673.82317162,105633.96001432,95531.37179024,98673.82317162,105633.96001432
1.99725275,0.70000000,0.80000000,realistic screening,12569.16134582,13517.16239079,16483.85658813,0.06080683,0.95131021,3.01981617,0.00000456,0.00006786,0.00022655,0.02415821,0.02910458,0.03567716,169777.06027572,174617.20784491,185753.76347036,74245.68848548,75943.38467329,80119.80345604
2.99725275,0.70000000,0.80000000,realistic screening,12535.84012770,13544.51587021,16702.83625019,0.09422837,1.47657519,4.65583314,0.00000706,0.00010506,0.00034962,0.02935349,0.03815745,0.04360585,241133.69566707,247472.24963259,262587.63257920,71356.63539135,72855.04178768,76833.86910885
3.99725275,0.70000000,0.80000000,realistic screening,12478.19923328,13430.91043384,16757.90203236,0.12304036,1.92772390,6.07965347,0.00000930,0.00013852,0.00046039,0.03867889,0.05450083,0.05897041,312600.09697933,320247.61079897,339399.48699423,71466.40131226,72775.36116638,76811.85441503
4.99725275,0.70000000,0.80000000,realistic screening,12464.97691952,13425.32951550,16639.71569260,0.14992852,2.34683215,7.39886381,0.00001132,0.00016874,0.00056008,0.06115099,0.06378336,0.06942989,384567.13728953,393382.05578400,416622.32398039,71967.04031020,73134.44498503,77222.83698616
5.99725275,0.70000000,0.80000000,realistic screening,12467.05683002,13417.32847707,16861.02998150,0.17349077,2.72001092,8.55674639,0.00001312,0.00019581,0.00064923,0.05794838,0.07311369,0.08085933,457113.01558492,467021.96234254,494387.52149149,72545.87829539,73639.90655855,77765.19751109
6.99725275,0.70000000,0.80000000,realistic screening,12459.07356922,13388.17153676,16727.08962734,0.19431878,3.04414329,9.59019980,0.00001472,0.00022004,0.00072888,0.07797134,0.08558111,0.09235825,530310.24486930,541193.97220297,572719.11925582,73197.22928438,74172.00986043,78331.59776434
7.99725275,0.70000000,0.80000000,realistic screening,12495.18442675,13436.12238735,16813.83296215,0.21406670,3.35312239,10.55509814,0.00001615,0.00024167,0.00079970,0.08435459,0.09045608,0.09954583,604101.97656014,615946.72100152,651666.73739193,73791.73169084,74752.74879855,78947.61813610
8.99725275,0.70000000,0.80000000,realistic screening,12518.24828155,13443.42804655,16874.04853556,0.23041933,3.61865269,11.37794680,0.00001741,0.00026081,0.00086231,0.08924521,0.09886627,0.10842462,678567.39159061,691331.81308760,731281.67136931,74465.41503046,75385.09208608,79614.93397739
9.99725275,0.70000000,0.80000000,realistic screening,12548.23804387,13484.14953486,16826.45457649,0.24608576,3.86060301,12.14270368,0.00001853,0.00027777,0.00091761,0.10097740,0.10552766,0.11587850,753706.49000221,767354.09764409,811582.49893943,75139.09841160,76022.28455650,80300.82757011
0.99725275,0.70000000,0.80000000,no vaccine,12825.55682716,13894.37584119,16587.18744539,NaN,NaN,NaN,NaN,NaN,NaN,NaN,NaN,NaN,NaN,NaN,NaN,NaN,NaN,NaN
1.99725275,0.70000000,0.80000000,no vaccine,12932.16505675,13918.28385953,16993.62775513,NaN,NaN,NaN,NaN,NaN,NaN,NaN,NaN,NaN,NaN,NaN,NaN,NaN,NaN,NaN
2.99725275,0.70000000,0.80000000,no vaccine,13037.58823382,14121.69410706,17211.50637931,NaN,NaN,NaN,NaN,NaN,NaN,NaN,NaN,NaN,NaN,NaN,NaN,NaN,NaN,NaN
3.99725275,0.70000000,0.80000000,no vaccine,13208.18535329,14192.29302441,17438.98325959,NaN,NaN,NaN,NaN,NaN,NaN,NaN,NaN,NaN,NaN,NaN,NaN,NaN,NaN,NaN
4.99725275,0.70000000,0.80000000,no vaccine,13296.24214321,14357.22895951,17757.21301284,NaN,NaN,NaN,NaN,NaN,NaN,NaN,NaN,NaN,NaN,NaN,NaN,NaN,NaN,NaN
5.99725275,0.70000000,0.80000000,no vaccine,13424.76608089,14489.51779695,17893.27872167,NaN,NaN,NaN,NaN,NaN,NaN,NaN,NaN,NaN,NaN,NaN,NaN,NaN,NaN,NaN
6.99725275,0.70000000,0.80000000,no vaccine,13603.93388185,14622.85183131,18186.71925610,NaN,NaN,NaN,NaN,NaN,NaN,NaN,NaN,NaN,NaN,NaN,NaN,NaN,NaN,NaN
7.99725275,0.70000000,0.80000000,no vaccine,13693.11789738,14773.55640461,18369.29845748,NaN,NaN,NaN,NaN,NaN,NaN,NaN,NaN,NaN,NaN,NaN,NaN,NaN,NaN,NaN
8.99725275,0.70000000,0.80000000,no vaccine,13862.07830625,14924.25631709,18558.82475646,NaN,NaN,NaN,NaN,NaN,NaN,NaN,NaN,NaN,NaN,NaN,NaN,NaN,NaN,NaN
9.99725275,0.70000000,0.80000000,no vaccine,13988.96560326,15070.97580424,18807.57551944,NaN,NaN,NaN,NaN,NaN,NaN,NaN,NaN,NaN,NaN,NaN,NaN,NaN,NaN,NaN
0.99725275,0.90000000,0.40000000,no screening,12863.45801958,13906.20063581,17001.13232258,224.34365021,244.15814817,311.37214680,0.01738739,0.01760822,0.01836687,-0.02474021,-0.00183182,0.00231983,292261.75400495,292277.13108419,292293.05579168,292261.75400495,292277.13108419,292293.05579168
1.99725275,0.90000000,0.40000000,no screening,12978.87346182,13984.40776732,17047.13311638,438.24698727,473.44564459,592.83716222,0.03341951,0.03380956,0.03490685,-0.00829789,-0.00487172,0.00245937,474002.53426537,474043.43736853,474064.41783881,181735.23124307,181763.54583671,181777.90264959
2.99725275,0.90000000,0.40000000,no screening,13135.14669223,14231.43438918,17508.07743093,605.02959544,654.63477064,823.89927237,0.04542230,0.04607624,0.04726844,-0.01771560,-0.00878984,-0.00272548,652890.38363889,652945.52795651,652995.60937869,178870.87168789,178906.28252634,178948.05481264
3.99725275,0.90000000,0.40000000,no screening,13206.84724473,14248.99802575,17761.47638565,750.28964775,810.69082727,1020.81232014,0.05584510,0.05681618,0.05786893,-0.01818177,-0.00339373,0.00086050,833043.47291528,833063.39656309,833141.70286304,180091.20084519,180132.13785849,180176.25468357
4.99725275,0.90000000,0.40000000,no screening,13309.97705175,14374.50818607,17797.44591288,882.71298326,953.88028578,1189.37978214,0.06507341,0.06635166,0.06745436,-0.00655601,-0.00162748,0.00143792,1014581.07244275,1014624.20706169,1014655.91597672,181494.71643826,181552.11322756,181594.68044041
5.99725275,0.90000000,0.40000000,no screening,13394.34024523,14463.41019207,18192.42646800,1000.75827148,1081.56714730,1361.63414562,0.07324421,0.07477203,0.07601143,-0.01652873,0.00140323,0.00596844,1197626.56453313,1197684.92971047,1197772.78925623,183004.76220170,183057.56932108,183131.90340617
6.99725275,0.90000000,0.40000000,no screening,13445.33962166,14513.11153294,18190.74473970,1104.48432556,1194.10027820,1491.89718289,0.08050279,0.08224204,0.08363873,-0.00147509,0.00708268,0.01227342,1382220.82055909,1382310.90127003,1382427.04888858,184567.45742716,184619.13259202,184692.77447869
7.99725275,0.90000000,0.40000000,no screening,13543.41768528,14618.29048979,18332.41804186,1201.61447213,1297.76942654,1620.17802924,0.08697927,0.08872133,0.09043438,0.00202586,0.00958909,0.01510903,1568427.56730511,1568580.03914684,1568684.13828683,186200.01025153,186258.09400643,186288.52376935
8.99725275,0.90000000,0.40000000,no screening,13588.50551751,14668.43245928,18533.84541556,1284.44265590,1389.18627796,1742.27158443,0.09273654,0.09454532,0.09645933,0.00107079,0.01580750,0.02015806,1756366.40344768,1756527.85678553,1756643.19350686,187934.25660759,187957.81933484,188008.61089341
9.99725275,0.90000000,0.40000000,no screening,13669.79625983,14727.33354238,18484.04554992,1362.27782750,1470.53534747,1830.57173709,0.09788264,0.09970160,0.10182895,0.01639905,0.02222105,0.02417813,1946041.30852578,1946268.27593833,1946392.36490917,189646.35705022,189701.48191410,189767.07061934
0.99725275,0.90000000,0.40000000,perfect screening,12639.98746531,13665.11158539,16716.59585435,0.00000000,0.00000000,0.00000000,0.00000000,0.00000000,0.00000000,-0.00759600,0.01573622,0.01927303,179823.38183666,184729.30088241,186231.93620067,179823.38183666,184729.30088241,186231.93620067
1.99725275,0.90000000,0.40000000,perfect screening,12556.86991724,13523.00881285,16516.00605149,0.00000000,0.00000000,0.00000000,0.00000000,0.00000000,0.00000000,0.02411920,0.02862602,0.03350257,292143.98854484,299439.98583899,301935.84144381,112320.60670818,114710.68495659,115708.37624487
2.99725275,0.90000000,0.40000000,perfect screening,12561.47241096,13611.16977436,16767.60795540,0.00000000,0.00000000,0.00000000,0.00000000,0.00000000,0.00000000,0.02465127,0.03521572,0.04051846,402760.14064904,412249.67337145,415764.23882992,110616.15210420,112809.68753246,113828.39738611
3.99725275,0.90000000,0.40000000,perfect screening,12511.57438749,13500.36749237,16868.61945182,0.00000000,0.00000000,0.00000000,0.00000000,0.00000000,0.00000000,0.03301158,0.04941096,0.05371872,514330.15572374,525730.00795986,530249.34582211,111570.01507470,113480.33458841,114485.10699219
4.99725275,0.90000000,0.40000000,perfect screening,12531.96754714,13523.41138217,16781.01276945,0.00000000,0.00000000,0.00000000,0.00000000,0.00000000,0.00000000,0.05493710,0.05688102,0.06053550,626798.57730397,639949.30530013,645539.89302835,112468.42158023,114219.29734027,115290.54720624
5.99725275,0.90000000,0.40000000,perfect screening,12528.24912195,13541.91086919,17043.89280160,0.00000000,0.00000000,0.00000000,0.00000000,0.00000000,0.00000000,0.04765823,0.06623729,0.06723988,740203.22640914,755017.83371088,761756.21036933,113404.64910517,115068.52841075,116216.31734099
6.99725275,0.90000000,0.40000000,perfect screening,12557.37177545,13519.00352124,16948.05102850,0.00000000,0.00000000,0.00000000,0.00000000,0.00000000,0.00000000,0.06750771,0.07548785,0.07763388,854604.67095850,870911.27625528,878863.35556133,114401.44454936,115893.44254441,117107.14519200
7.99725275,0.90000000,0.40000000,perfect screening,12598.03618065,13589.20637159,17062.11943033,0.00000000,0.00000000,0.00000000,0.00000000,0.00000000,0.00000000,0.07116256,0.08057628,0.08398112,969916.60429094,987723.63781056,996955.21633295,115311.93333244,116812.36155528,118091.86077163
8.99725275,0.90000000,0.40000000,perfect screening,12627.88828475,13618.59452677,17162.27228439,0.00000000,0.00000000,0.00000000,0.00000000,0.00000000,0.00000000,0.07549380,0.08745302,0.09054014,1086288.05405127,1105537.92659456,1116087.09405827,116371.44976033,117814.28878399,119131.87772531
9.99725275,0.90000000,0.40000000,perfect screening,12686.78618610,13656.85261923,17134.59976783,0.00000000,0.00000000,0.00000000,0.00000000,0.00000000,0.00000000,0.08902908,0.09303697,0.09629079,1203686.52219201,1224349.47054767,1236341.25360368,117398.46814074,118811.54395312,120254.15954541
0.99725275,0.90000000,0.40000000,realistic screening,12695.83926026,13713.80983849,16763.25917502,0.02284395,0.36032352,1.14361994,0.00000169,0.00002532,0.00008514,-0.01040707,0.01151694,0.01541474,146346.08189164,150652.25089718,159140.63952404,146346.08189164,150652.25089718,159140.63952404
1.99725275,0.90000000,0.40000000,realistic screening,12644.12945910,13610.77403297,16580.27703319,0.05812435,0.90901813,2.88239831,0.00000433,0.00006441,0.00021485,0.01776736,0.02294215,0.02902507,245492.23726524,251867.85407019,263941.67084704,99146.15537360,101215.60317301,104801.03132300
2.99725275,0.90000000,0.40000000,realistic screening,12682.45689673,13710.05634368,16870.26659435,0.09015922,1.41171200,4.44632980,0.00000668,0.00009928,0.00032996,0.01927169,0.02676338,0.03170574,341771.04340387,350056.12601642,365892.71122502,96278.80613863,98188.27194623,101951.04037797
3.99725275,0.90000000,0.40000000,realistic screening,12659.26603618,13633.91431555,16983.10685575,0.11761219,1.84250387,5.79323695,0.00000876,0.00013032,0.00043261,0.02601563,0.03942042,0.04355394,438654.60635746,448588.47664510,468344.28758358,96883.56295360,98532.35062868,102451.57635856
4.99725275,0.90000000,0.40000000,realistic screening,12702.29659273,13672.55642018,16921.60052652,0.14345415,2.24210776,7.06914813,0.00001062,0.00015813,0.00052429,0.04283451,0.04676163,0.05037879,536276.79504281,547705.93266926,571397.01826444,97622.18868535,99117.45602416,103052.73068086
5.99725275,0.90000000,0.40000000,realistic screening,12738.28782815,13718.97837056,17219.12557297,0.16590006,2.60116823,8.15929485,0.00001227,0.00018282,0.00060543,0.03785689,0.05184337,0.05536369,634713.72065914,647551.36666877,675222.36267837,98436.92561633,99845.43399951,103825.34441393
6.99725275,0.90000000,0.40000000,realistic screening,12763.71938120,13723.38117220,17130.71734815,0.18574234,2.90634938,9.14472006,0.00001373,0.00020473,0.00067752,0.05615429,0.06225777,0.06627292,734019.04829575,748105.95250829,779838.52371890,99305.32763661,100554.58583952,104616.16104052
7.99725275,0.90000000,0.40000000,realistic screening,12843.24427940,13812.79351775,17284.09269108,0.20471607,3.20805847,10.08122460,0.00001502,0.00022416,0.00074108,0.05906883,0.06374657,0.06845391,834143.41760511,849480.65732703,885265.56610291,100124.36930937,101374.70481874,105427.04238402
8.99725275,0.90000000,0.40000000,realistic screening,12889.76367362,13856.29982725,17403.34975776,0.22035266,3.45573948,10.83417467,0.00001615,0.00024121,0.00079685,0.06134256,0.07141090,0.07506474,935197.24722780,951722.66105169,991588.75487523,101053.82962268,102242.00372466,106323.18877232
9.99725275,0.90000000,0.40000000,realistic screening,12966.75649464,13930.06924463,17382.38055841,0.23533401,3.68997425,11.59803408,0.00001714,0.00025623,0.00084593,0.07209904,0.07527352,0.08141629,1037147.45030178,1054837.78478881,1098794.70183657,101950.20307398,103142.96088215,107205.94696134
0.99725275,0.90000000,0.40000000,no vaccine,12825.55682716,13894.37584119,16587.18744539,NaN,NaN,NaN,NaN,NaN,NaN,NaN,NaN,NaN,NaN,NaN,NaN,NaN,NaN,NaN
1.99725275,0.90000000,0.40000000,no vaccine,12932.16505675,13918.28385953,16993.62775513,NaN,NaN,NaN,NaN,NaN,NaN,NaN,NaN,NaN,NaN,NaN,NaN,NaN,NaN,NaN
2.99725275,0.90000000,0.40000000,no vaccine,13037.58823382,14121.69410706,17211.50637931,NaN,NaN,NaN,NaN,NaN,NaN,NaN,NaN,NaN,NaN,NaN,NaN,NaN,NaN,NaN
3.99725275,0.90000000,0.40000000,no vaccine,13208.18535329,14192.29302441,17438.98325959,NaN,NaN,NaN,NaN,NaN,NaN,NaN,NaN,NaN,NaN,NaN,NaN,NaN,NaN,NaN
4.99725275,0.90000000,0.40000000,no vaccine,13296.24214321,14357.22895951,17757.21301284,NaN,NaN,NaN,NaN,NaN,NaN,NaN,NaN,NaN,NaN,NaN,NaN,NaN,NaN,NaN
5.99725275,0.90000000,0.40000000,no vaccine,13424.76608089,14489.51779695,17893.27872167,NaN,NaN,NaN,NaN,NaN,NaN,NaN,NaN,NaN,NaN,NaN,NaN,NaN,NaN,NaN
6.99725275,0.90000000,0.40000000,no vaccine,13603.93388185,14622.85183131,18186.71925610,NaN,NaN,NaN,NaN,NaN,NaN,NaN,NaN,NaN,NaN,NaN,NaN,NaN,NaN,NaN
7.99725275,0.90000000,0.40000000,no vaccine,13693.11789738,14773.55640461,18369.29845748,NaN,NaN,NaN,NaN,NaN,NaN,NaN,NaN,NaN,NaN,NaN,NaN,NaN,NaN,NaN
8.99725275,0.90000000,0.40000000,no vaccine,13862.07830625,14924.25631709,18558.82475646,NaN,NaN,NaN,NaN,NaN,NaN,NaN,NaN,NaN,NaN,NaN,NaN,NaN,NaN,NaN
9.99725275,0.90000000,0.40000000,no vaccine,13988.96560326,15070.97580424,18807.57551944,NaN,NaN,NaN,NaN,NaN,NaN,NaN,NaN,NaN,NaN,NaN,NaN,NaN,NaN,NaN
0.99725275,0.90000000,0.60000000,no screening,12883.86377521,13933.71504887,17059.00731086,336.44263837,366.20857284,467.08302483,0.02603329,0.02635055,0.02745857,-0.02821676,-0.00394898,-0.00001123,292262.87511703,292274.79521407,292295.90130776,292262.87511703,292274.79521407,292295.90130776
1.99725275,0.90000000,0.60000000,no screening,13017.32993640,14023.42504631,17147.53089399,657.54603289,710.14251841,889.62763964,0.04996634,0.05057126,0.05207848,-0.01117001,-0.00924853,-0.00133169,474013.01666843,474034.26059700,474079.18592087,181740.90109485,181763.50569224,181783.28461311
2.99725275,0.90000000,0.60000000,no screening,13167.21039487,14284.46495233,17608.14272376,907.44718365,982.59033508,1235.07028759,0.06785743,0.06891566,0.07046235,-0.02302166,-0.01199246,-0.00517923,652912.89194189,652944.41375811,652971.48702806,178883.65931129,178903.66216402,178929.16329616
3.99725275,0.90000000,0.60000000,no screening,13228.39428066,14262.59898250,17874.35675416,1125.49950508,1214.90044107,1531.45142450,0.08348449,0.08504855,0.08642981,-0.02459763,-0.00530347,-0.00096136,833003.49068466,833081.92047414,833149.87544207,180086.75216610,180131.65882775,180186.36725269
4.99725275,0.90000000,0.60000000,no screening,13309.63743565,14394.51223551,17910.35084453,1323.91435679,1430.95539164,1785.55969138,0.09740792,0.09946419,0.10094303,-0.00983583,-0.00298309,0.00145894,1014499.26594327,1014652.52124932,1014732.07875334,181495.77525861,181564.99522432,181586.57747288
5.99725275,0.90000000,0.60000000,no screening,13369.77397637,14452.05477466,18243.24129020,1501.21318089,1621.53844100,2040.38362817,0.10983283,0.11221917,0.11396793,-0.01930923,0.00218724,0.00710955,1197491.55788950,1197671.72208126,1197746.55347899,182990.78734603,183014.46630476,183048.80250184
6.99725275,0.90000000,0.60000000,no screening,13391.34028549,14450.58574688,18214.51893943,1656.85393982,1789.96842553,2236.26635442,0.12097357,0.12348784,0.12567751,-0.00256777,0.01080420,0.01564184,1382084.14206166,1382260.17588163,1382359.99393565,184539.88848965,184596.32827354,184654.87009870
7.99725275,0.90000000,0.60000000,no screening,13451.30223261,14544.46064260,18342.63742552,1801.94540434,1946.78370673,2433.81837848,0.13102635,0.13382567,0.13621268,0.00159704,0.01512428,0.02156260,1568307.82102808,1568494.40913991,1568630.45850130,186221.06471752,186231.00697394,186286.34920665
8.99725275,0.90000000,0.60000000,no screening,13468.51855633,14527.59530988,18460.42698720,1927.21385187,2081.98026763,2608.44917763,0.14007142,0.14307589,0.14567115,0.00567424,0.02512299,0.02905131,1756259.75224526,1756457.73527949,1756585.08993114,187907.21626653,187943.05511097,187995.54746588
9.99725275,0.90000000,0.60000000,no screening,13499.71631806,14572.88918200,18385.16201941,2042.05508187,2206.80606920,2747.41759682,0.14818717,0.15129369,0.15420944,0.02145811,0.03189230,0.03717775,1945979.96949547,1946149.66378994,1946271.79279131,189666.34103009,189704.60234795,189748.89104831
0.99725275,0.90000000,0.60000000,perfect screening,12549.06272909,13579.63422494,16640.57062517,0.00000000,0.00000000,0.00000000,0.00000000,0.00000000,0.00000000,-0.00300013,0.02194599,0.02568038,179828.54845619,184731.66019121,186236.41606276,179828.54845619,184731.66019121,186236.41606276
1.99725275,0.90000000,0.60000000,perfect screening,12388.73131707,13339.43777284,16332.79380425,0.00000000,0.00000000,0.00000000,0.00000000,0.00000000,0.00000000,0.03696226,0.04186692,0.04572758,292155.90683285,299454.47077804,301954.66752740,112327.35837666,114722.81058682,115722.49236785
2.99725275,0.90000000,0.60000000,perfect screening,12293.54911685,13346.43566715,16520.84583462,0.00000000,0.00000000,0.00000000,0.00000000,0.00000000,0.00000000,0.04013070,0.05472024,0.06093047,402790.13431152,412272.30410988,415768.83775236,110634.22747868,112817.83333185,113814.17022496
3.99725275,0.90000000,0.60000000,perfect screening,12198.69500329,13155.63869391,16535.50147655,0.00000000,0.00000000,0.00000000,0.00000000,0.00000000,0.00000000,0.05214632,0.07325952,0.07739627,514386.63208403,525770.73389032,530286.67838327,111596.49777251,113498.42978044,114517.84063091
4.99725275,0.90000000,0.60000000,perfect screening,12134.02970885,13111.59558718,16344.48814345,0.00000000,0.00000000,0.00000000,0.00000000,0.00000000,0.00000000,0.07962594,0.08656857,0.08972100,626837.39383653,639978.68393715,645611.98140104,112450.76175249,114207.95004682,115325.30301777
5.99725275,0.90000000,0.60000000,perfect screening,12082.37231888,13052.70288163,16552.00452849,0.00000000,0.00000000,0.00000000,0.00000000,0.00000000,0.00000000,0.07516958,0.09984920,0.10111640,740204.03412463,755033.76330444,761802.10573745,113366.64028811,115055.07936729,116190.12433641
6.99725275,0.90000000,0.60000000,perfect screening,12064.12077343,12987.55261337,16367.32189169,0.00000000,0.00000000,0.00000000,0.00000000,0.00000000,0.00000000,0.09972376,0.11168700,0.11458435,854602.12396071,870923.34997828,878905.41317606,114398.08983608,115889.58667384,117103.30743861
7.99725275,0.90000000,0.60000000,perfect screening,12018.76491383,12975.92084049,16406.55164646,0.00000000,0.00000000,0.00000000,0.00000000,0.00000000,0.00000000,0.10693543,0.12106447,0.12562066,969905.22910066,987728.69689206,997006.04108636,115303.10513995,116805.34691378,118100.62791030
8.99725275,0.90000000,0.60000000,perfect screening,12040.45620509,12964.90935182,16445.20652644,0.00000000,0.00000000,0.00000000,0.00000000,0.00000000,0.00000000,0.11417904,0.13083419,0.13489436,1086263.91753540,1105528.54256075,1116184.53169334,116358.68843474,117799.84566870,119178.49060697
9.99725275,0.90000000,0.60000000,perfect screening,12034.29835923,12966.83396938,16333.46013792,0.00000000,0.00000000,0.00000000,0.00000000,0.00000000,0.00000000,0.13169644,0.13990559,0.14507295,1203640.35398113,1224338.57542844,1236407.78362459,117376.43644574,118810.03286769,120223.25193126
0.99725275,0.90000000,0.60000000,realistic screening,12632.42913914,13643.81378153,16697.76946762,0.03425832,0.54042944,1.71482763,0.00000255,0.00003817,0.00012831,-0.00644954,0.01629257,0.02041805,146343.90787416,150652.28699144,159138.78510716,146343.90787416,150652.28699144,159138.78510716
1.99725275,0.90000000,0.60000000,realistic screening,12514.80063535,13462.76605793,16443.83918372,0.08722553,1.36351622,4.32652200,0.00000656,0.00009764,0.00032563,0.02727203,0.03256675,0.03821527,245491.34980719,251859.52170112,263938.23434828,99147.44193303,101207.23470968,104799.44924111
2.99725275,0.90000000,0.60000000,realistic screening,12479.98353588,13496.80752376,16662.62307970,0.13514589,2.11794369,6.66449944,0.00001017,0.00015123,0.00050245,0.03191761,0.04158381,0.04724567,341762.19622859,350039.47082151,365897.08101029,96270.84642140,98179.94912039,101958.84666201
3.99725275,0.90000000,0.60000000,realistic screening,12414.33579608,13359.77644496,16699.48282600,0.17657495,2.76300588,8.69295565,0.00001341,0.00019946,0.00066187,0.04263529,0.05797133,0.06307469,438630.18596813,448573.67333609,468327.69067282,96867.98973954,98534.20251458,102430.60966254
4.99725275,0.90000000,0.60000000,realistic screening,12384.95767924,13347.36660817,16582.60228290,0.21487147,3.36246654,10.60163307,0.00001632,0.00024311,0.00080551,0.06545155,0.06909651,0.07366768,536248.44054967,547690.90012880,571393.52904154,97618.25458154,99117.22679271,103065.83836872
5.99725275,0.90000000,0.60000000,realistic screening,12383.80332902,13341.86694212,16780.55867831,0.24892621,3.90259171,12.23861100,0.00001893,0.00028224,0.00093397,0.06240563,0.07840768,0.08373560,634660.48949829,647541.66135505,675227.70578307,98412.04894862,99850.76122625,103834.17674153
6.99725275,0.90000000,0.60000000,realistic screening,12377.96216472,13292.89961531,16671.28908438,0.27885300,4.36022954,13.71703922,0.00002126,0.00031729,0.00104903,0.08169976,0.09116665,0.09670742,733964.18234097,748100.75316692,779816.72272382,99303.69284267,100559.09181187,104589.01694075
7.99725275,0.90000000,0.60000000,realistic screening,12391.58627516,13339.36544759,16730.05230763,0.30668025,4.80872632,15.11793959,0.00002333,0.00034863,0.00115135,0.08935932,0.09611848,0.10321284,834096.01206279,849475.31133074,885215.69799522,100131.82972182,101374.55816382,105398.97527140
8.99725275,0.90000000,0.60000000,realistic screening,12423.45079665,13342.61660468,16793.01596498,0.33093796,5.18894030,16.25948788,0.00002517,0.00037636,0.00124182,0.09447644,0.10545650,0.11308773,935128.64983492,951716.77069218,991519.97338155,101032.63777213,102241.45936143,106304.27538633
9.99725275,0.90000000,0.60000000,realistic screening,12444.07360607,13381.05923748,16731.69952125,0.35265865,5.52933131,17.38525198,0.00002678,0.00040096,0.00132192,0.10767932,0.11245833,0.12065067,1037070.69905703,1054829.72828517,1098752.31268969,101942.04922211,103136.87379796,107232.33930814
0.99725275,0.90000000,0.60000000,no vaccine,12825.55682716,13894.37584119,16587.18744539,NaN,NaN,NaN,NaN,NaN,NaN,NaN,NaN,NaN,NaN,NaN,NaN,NaN,NaN,NaN
1.99725275,0.90000000,0.60000000,no vaccine,12932.16505675,13918.28385953,16993.62775513,NaN,NaN,NaN,NaN,NaN,NaN,NaN,NaN,NaN,NaN,NaN,NaN,NaN,NaN,NaN
2.99725275,0.90000000,0.60000000,no vaccine,13037.58823382,14121.69410706,17211.50637931,NaN,NaN,NaN,NaN,NaN,NaN,NaN,NaN,NaN,NaN,NaN,NaN,NaN,NaN,NaN
3.99725275,0.90000000,0.60000000,no vaccine,13208.18535329,14192.29302441,17438.98325959,NaN,NaN,NaN,NaN,NaN,NaN,NaN,NaN,NaN,NaN,NaN,NaN,NaN,NaN,NaN
4.99725275,0.90000000,0.60000000,no vaccine,13296.24214321,14357.22895951,17757.21301284,NaN,NaN,NaN,NaN,NaN,NaN,NaN,NaN,NaN,NaN,NaN,NaN,NaN,NaN,NaN
5.99725275,0.90000000,0.60000000,no vaccine,13424.76608089,14489.51779695,17893.27872167,NaN,NaN,NaN,NaN,NaN,NaN,NaN,NaN,NaN,NaN,NaN,NaN,NaN,NaN,NaN
6.99725275,0.90000000,0.60000000,no vaccine,13603.93388185,14622.85183131,18186.71925610,NaN,NaN,NaN,NaN,NaN,NaN,NaN,NaN,NaN,NaN,NaN,NaN,NaN,NaN,NaN
7.99725275,0.90000000,0.60000000,no vaccine,13693.11789738,14773.55640461,18369.29845748,NaN,NaN,NaN,NaN,NaN,NaN,NaN,NaN,NaN,NaN,NaN,NaN,NaN,NaN,NaN
8.99725275,0.90000000,0.60000000,no vaccine,13862.07830625,14924.25631709,18558.82475646,NaN,NaN,NaN,NaN,NaN,NaN,NaN,NaN,NaN,NaN,NaN,NaN,NaN,NaN,NaN
9.99725275,0.90000000,0.60000000,no vaccine,13988.96560326,15070.97580424,18807.57551944,NaN,NaN,NaN,NaN,NaN,NaN,NaN,NaN,NaN,NaN,NaN,NaN,NaN,NaN,NaN
0.99725275,0.90000000,0.80000000,no screening,12906.51536886,13963.11719869,17112.94073581,448.58271624,488.28350780,622.67261438,0.03464913,0.03505271,0.03649061,-0.03145428,-0.00601896,-0.00182373,292273.37023419,292280.98392393,292291.02649207,292273.37023419,292280.98392393,292291.02649207
1.99725275,0.90000000,0.80000000,no screening,13051.41854502,14071.67016191,17243.74427442,876.70158958,947.28600557,1186.25825753,0.06638281,0.06723528,0.06906083,-0.01679830,-0.01283987,-0.00519746,474020.99549236,474053.47543532,474084.13490284,181742.54059305,181764.25812519,181803.35186766
2.99725275,0.90000000,0.80000000,no screening,13203.96444332,14320.69118732,17723.20092447,1210.31788554,1308.82959812,1647.43434380,0.09010731,0.09162490,0.09337628,-0.02965230,-0.01494393,-0.00743833,652891.54656445,652962.43488776,653019.37136296,178869.97332191,178909.75166345,178935.23646012
3.99725275,0.90000000,0.80000000,no screening,13247.64784004,14301.27622604,17980.69931435,1500.49515438,1621.32570666,2041.19301931,0.11093415,0.11318647,0.11476772,-0.03064350,-0.00770469,-0.00268653,832982.36500183,833081.07951187,833145.70915796,180071.55226647,180117.01249214,180146.66881770
4.99725275,0.90000000,0.80000000,no screening,13309.42621325,14405.71830873,18010.24049775,1765.04559760,1906.76586433,2382.05449485,0.12959378,0.13247726,0.13430128,-0.01563041,-0.00373143,0.00246851,1014502.94155092,1014627.68195318,1014670.75723483,181485.56715686,181548.92625784,181584.16870672
5.99725275,0.90000000,0.80000000,no screening,13345.09026761,14442.72575477,18305.64042006,2001.67724187,2163.06931673,2719.33042537,0.14638062,0.14960538,0.15190582,-0.02270643,0.00283165,0.00903189,1197521.44475380,1197656.29999015,1197727.39471284,182986.11977272,183030.48695218,183095.50749280
6.99725275,0.90000000,0.80000000,no screening,13344.24035819,14395.08941752,18263.35574176,2210.50996329,2385.86557344,2984.05467623,0.16159626,0.16524438,0.16787597,-0.00507411,0.01361454,0.01930804,1382160.38798122,1382267.77279741,1382396.26819845,184550.79934094,184622.21922691,184676.90254071
7.99725275,0.90000000,0.80000000,no screening,13360.56905698,14465.74549084,18331.97851103,2402.21698847,2597.18419998,3244.43640576,0.17532089,0.17944112,0.18238975,0.00226086,0.02045466,0.02929777,1568386.35564554,1568501.18252609,1568677.74329207,186208.21823622,186262.92762690,186315.12283503
8.99725275,0.90000000,0.80000000,no screening,13343.24930291,14401.64239206,18405.09053039,2569.52188534,2775.87725946,3477.56992569,0.18778655,0.19236176,0.19558710,0.00832393,0.03291222,0.03877118,1756324.12526156,1756460.93427354,1756654.59803704,187887.32518539,187956.30160113,187978.12239386
9.99725275,0.90000000,0.80000000,no screening,13344.76985784,14405.44711171,18294.12522270,2724.10038656,2940.81643401,3666.85843759,0.19919768,0.20409560,0.20761460,0.02618271,0.04283654,0.04825323,1946033.32118900,1946169.95565809,1946361.40040746,189659.89617387,189702.90431061,189743.70242196
0.99725275,0.90000000,0.80000000,perfect screening,12465.12140206,13486.16008804,16546.63481406,0.00000000,0.00000000,0.00000000,0.00000000,0.00000000,0.00000000,0.00267492,0.02856324,0.03197330,179823.81668392,184730.15352008,186238.49344932,179823.81668392,184730.15352008,186238.49344932
1.99725275,0.90000000,0.80000000,perfect screening,12199.25453898,13164.55004996,16170.84058767,0.00000000,0.00000000,0.00000000,0.00000000,0.00000000,0.00000000,0.04700489,0.05438208,0.05732217,292142.67686818,299456.73672435,301962.94483339,112318.86018426,114726.58320426,115725.62815291
2.99725275,0.90000000,0.80000000,perfect screening,12052.53161616,13075.08225558,16265.73284254,0.00000000,0.00000000,0.00000000,0.00000000,0.00000000,0.00000000,0.05500136,0.07354669,0.07948120,402761.01148859,412272.03008212,415785.53888760,110618.33462041,112815.29335777,113822.59405421
3.99725275,0.90000000,0.80000000,perfect screening,11868.56142110,12814.89939718,16173.89799612,0.00000000,0.00000000,0.00000000,0.00000000,0.00000000,0.00000000,0.07289292,0.09744361,0.10234249,514341.29247414,525740.89658378,530263.46211020,111580.28098556,113468.86650166,114477.92322261
4.99725275,0.90000000,0.80000000,perfect screening,11753.47019220,12697.56175241,15957.33714063,0.00000000,0.00000000,0.00000000,0.00000000,0.00000000,0.00000000,0.10151475,0.11525629,0.11929778,626784.58058113,639938.91361484,645564.53332354,112443.28810699,114198.01703106,115301.07121333
5.99725275,0.90000000,0.80000000,perfect screening,11629.19494089,12578.92451964,16031.98160508,0.00000000,0.00000000,0.00000000,0.00000000,0.00000000,0.00000000,0.10426947,0.13315639,0.13447343,740178.79457031,754982.95025294,761757.06765411,113394.21398918,115044.03663811,116192.53433057
6.99725275,0.90000000,0.80000000,perfect screening,11536.59271091,12429.78638596,15796.82941758,0.00000000,0.00000000,0.00000000,0.00000000,0.00000000,0.00000000,0.13174808,0.14931933,0.15311845,854584.27348367,870854.85580743,878867.10759119,114405.47891337,115871.90555449,117110.03993709
7.99725275,0.90000000,0.80000000,perfect screening,11480.31892500,12376.25907049,15753.61292247,0.00000000,0.00000000,0.00000000,0.00000000,0.00000000,0.00000000,0.14253145,0.16202839,0.16520866,969872.07726387,987648.38741796,996963.08307637,115287.80378020,116793.53161053,118095.97548518
8.99725275,0.90000000,0.80000000,perfect screening,11421.61725269,12298.28904097,15725.94030944,0.00000000,0.00000000,0.00000000,0.00000000,0.00000000,0.00000000,0.15300119,0.17497461,0.17969605,1086260.76620294,1105447.04724713,1116076.61967896,116388.68893907,117798.65982917,119113.53660259
9.99725275,0.90000000,0.80000000,perfect screening,11393.42212401,12272.59591510,15557.78451755,0.00000000,0.00000000,0.00000000,0.00000000,0.00000000,0.00000000,0.17299647,0.18568269,0.19164547,1203674.53384064,1224270.78775914,1236307.92470216,117413.76763770,118823.74051201,120231.30502320
0.99725275,0.90000000,0.80000000,realistic screening,12574.44025048,13571.25336347,16633.38879464,0.04568434,0.72028664,2.28611352,0.00000342,0.00005113,0.00017189,-0.00255830,0.02113742,0.02525453,146342.65638708,150647.36531573,159138.91753069,146342.65638708,150647.36531573,159138.91753069
1.99725275,0.90000000,0.80000000,realistic screening,12380.68888614,13329.20949973,16305.76559553,0.11632539,1.81872140,5.76921006,0.00000884,0.00013158,0.00043870,0.03684599,0.04238979,0.04847476,245490.12345856,251849.73992209,263943.05432680,99147.46707148,101202.37460635,104804.13679611
2.99725275,0.90000000,0.80000000,realistic screening,12283.57026383,13276.95659841,16450.15611045,0.18005242,2.82386544,8.88245809,0.00001377,0.00020483,0.00068030,0.04426758,0.05663084,0.06272608,341753.74446334,350031.07627989,365906.12957441,96263.62100478,98181.33635781,101963.07524761
3.99725275,0.90000000,0.80000000,realistic screening,12165.71612057,13092.92268152,16416.78838341,0.23553767,3.68262485,11.59722338,0.00001824,0.00027148,0.00090040,0.05898037,0.07707657,0.08308979,438624.95665300,448556.94604925,468329.96082252,96871.21218967,98525.86976936,102423.83124810
4.99725275,0.90000000,0.80000000,realistic screening,12081.99637535,13032.12662351,16250.86818982,0.28658824,4.48914670,14.12627266,0.00002231,0.00033245,0.00110072,0.08432871,0.09120359,0.09783917,536263.75699514,547683.35580931,571388.23912132,97638.80034213,99126.40976006,103058.27829880
5.99725275,0.90000000,0.80000000,realistic screening,12040.08399372,12942.70279901,16359.17382935,0.33198505,5.19615388,16.31515179,0.00002598,0.00038762,0.00128172,0.08598929,0.10527945,0.11260532,634701.97964814,647529.29532862,675208.01918403,98438.22265300,99845.93951932,103819.78006272
6.99725275,0.90000000,0.80000000,realistic screening,11962.72236239,12875.17873766,16199.83783599,0.37143553,5.81871172,18.30923854,0.00002929,0.00043761,0.00144530,0.10731188,0.12107157,0.12621005,734014.79785002,748087.45980762,779843.98191366,99312.81820188,100558.16447900,104635.96272962
7.99725275,0.90000000,0.80000000,realistic screening,11969.22014480,12867.45706432,16178.44320467,0.40932360,6.41551463,20.13681439,0.00003227,0.00048261,0.00159196,0.11938275,0.12874906,0.13893088,834141.49511977,849469.30641543,885275.35812972,100126.69726974,101381.84660781,105431.37621606
8.99725275,0.90000000,0.80000000,realistic screening,11943.65117922,12812.00487182,16195.29923564,0.44081086,6.90802973,21.69538445,0.00003491,0.00052282,0.00172282,0.12655775,0.14052813,0.14986274,935182.28964315,951709.41961646,991585.59710822,101040.79452339,102240.11320103,106310.23897850
9.99725275,0.90000000,0.80000000,realistic screening,11942.48330594,12833.51166800,16082.11800783,0.47082225,7.38143847,23.19089570,0.00003727,0.00055878,0.00183943,0.14273394,0.14905599,0.15974937,1037137.16010412,1054832.49743293,1098829.77653798,101954.87046096,103146.82446726,107244.17942976
0.99725275,0.90000000,0.80000000,no vaccine,12825.55682716,13894.37584119,16587.18744539,NaN,NaN,NaN,NaN,NaN,NaN,NaN,NaN,NaN,NaN,NaN,NaN,NaN,NaN,NaN
1.99725275,0.90000000,0.80000000,no vaccine,12932.16505675,13918.28385953,16993.62775513,NaN,NaN,NaN,NaN,NaN,NaN,NaN,NaN,NaN,NaN,NaN,NaN,NaN,NaN,NaN
2.99725275,0.90000000,0.80000000,no vaccine,13037.58823382,14121.69410706,17211.50637931,NaN,NaN,NaN,NaN,NaN,NaN,NaN,NaN,NaN,NaN,NaN,NaN,NaN,NaN,NaN
3.99725275,0.90000000,0.80000000,no vaccine,13208.18535329,14192.29302441,17438.98325959,NaN,NaN,NaN,NaN,NaN,NaN,NaN,NaN,NaN,NaN,NaN,NaN,NaN,NaN,NaN
4.99725275,0.90000000,0.80000000,no vaccine,13296.24214321,14357.22895951,17757.21301284,NaN,NaN,NaN,NaN,NaN,NaN,NaN,NaN,NaN,NaN,NaN,NaN,NaN,NaN,NaN
5.99725275,0.90000000,0.80000000,no vaccine,13424.76608089,14489.51779695,17893.27872167,NaN,NaN,NaN,NaN,NaN,NaN,NaN,NaN,NaN,NaN,NaN,NaN,NaN,NaN,NaN
6.99725275,0.90000000,0.80000000,no vaccine,13603.93388185,14622.85183131,18186.71925610,NaN,NaN,NaN,NaN,NaN,NaN,NaN,NaN,NaN,NaN,NaN,NaN,NaN,NaN,NaN
7.99725275,0.90000000,0.80000000,no vaccine,13693.11789738,14773.55640461,18369.29845748,NaN,NaN,NaN,NaN,NaN,NaN,NaN,NaN,NaN,NaN,NaN,NaN,NaN,NaN,NaN
8.99725275,0.90000000,0.80000000,no vaccine,13862.07830625,14924.25631709,18558.82475646,NaN,NaN,NaN,NaN,NaN,NaN,NaN,NaN,NaN,NaN,NaN,NaN,NaN,NaN,NaN
9.99725275,0.90000000,0.80000000,no vaccine,13988.96560326,15070.97580424,18807.57551944,NaN,NaN,NaN,NaN,NaN,NaN,NaN,NaN,NaN,NaN,NaN,NaN,NaN,NaN,NaN
