time,screeningCoverage,vaccineResponseProb,screeningScenario,totalHospCounts_025,totalHospCounts_500,totalHospCounts_975,vacInducedHospCount_025,vacInducedHospCount_500,vacInducedHospCount_975,vacInducedHospPerc_025,vacInducedHospPerc_500,vacInducedHospPerc_975,advHosp_025,advHosp_500,advHosp_975,nVaccines_025,nVaccines_500,nVaccines_975,nVaccinesPerYear_025,nVaccinesPerYear_500,nVaccinesPerYear_975
0.99725275,0.50000000,0.40000000,no screening,6971.71059355,8252.77787944,10534.28509443,49.78194530,58.88818039,77.47794911,0.00672546,0.00718030,0.00755166,-0.01267547,-0.00602570,0.00427064,81971.13660922,81974.71030966,81980.77642462,81971.13660922,81974.71030966,81980.77642462
1.99725275,0.50000000,0.40000000,no screening,6996.07206169,8270.31855529,10242.50920999,113.90025976,134.23221110,171.75757945,0.01536727,0.01637160,0.01698250,-0.02554928,-0.00804745,-0.00385592,147384.84541186,147392.26091491,147405.03380695,65412.15298190,65417.61023491,65425.17829178
2.99725275,0.50000000,0.40000000,no screening,7013.34387579,8280.00543662,10561.86793435,166.68595104,195.84691036,256.60509954,0.02243041,0.02390029,0.02468008,-0.02747710,-0.00651851,0.00036879,209694.70263015,209708.27869349,209728.50138126,62307.55695750,62315.94358916,62324.55027509
3.99725275,0.50000000,0.40000000,no screening,7039.19392140,8303.23200643,10755.96895657,213.79241051,251.98112937,334.77071009,0.02876080,0.03062008,0.03152683,-0.01647571,-0.01120312,-0.00384321,271433.37198239,271453.39563585,271479.36329054,61734.37514345,61744.76223134,61757.10219801
4.99725275,0.50000000,0.40000000,no screening,7013.56658721,8305.77857053,10522.55059992,255.90953036,302.85281619,386.80799677,0.03454444,0.03674043,0.03777155,-0.02366912,-0.01204427,-0.00777366,333068.44863110,333092.80647182,333127.69692820,61627.39976455,61639.75687934,61652.26985132
5.99725275,0.50000000,0.40000000,no screening,7012.83843367,8295.92543270,10681.68060658,294.53414581,348.28013685,453.12123675,0.03978152,0.04232757,0.04346429,-0.02588781,-0.00943107,-0.00377796,394679.76671001,394711.52523976,394752.47553665,61605.47572407,61619.26156314,61631.70657404
6.99725275,0.50000000,0.40000000,no screening,7013.16965098,8298.48171059,10853.90514778,330.32529733,390.59123773,518.08045881,0.04459432,0.04743531,0.04858045,-0.01532153,-0.01061230,-0.00467081,456284.58058092,456325.81052453,456373.06582059,61601.27103024,61614.63805948,61626.78082344
7.99725275,0.50000000,0.40000000,no screening,7007.09340607,8296.06328827,10601.97639003,361.47254071,428.83050370,549.85958571,0.04898183,0.05208259,0.05327679,-0.01917047,-0.01040817,-0.00605281,517893.09669721,517939.39716910,517989.47960519,61598.84072281,61612.87164172,61625.04990056
8.99725275,0.50000000,0.40000000,no screening,6994.55544119,8279.18652626,10682.71423712,390.57674878,462.55645715,599.40398380,0.05298033,0.05631468,0.05758380,-0.02124807,-0.00740536,-0.00225221,579501.42231674,579551.66858310,579607.63391351,61598.35479969,61612.24586988,61625.25694410
9.99725275,0.50000000,0.40000000,no screening,6975.66959186,8271.31181244,10862.81350408,415.43548073,493.99493995,654.67587869,0.05660888,0.06016264,0.06153317,-0.01106211,-0.00658146,-0.00191143,641108.99213203,641164.41358651,641226.29849951,61597.67181688,61612.94774762,61629.14955766
0.99725275,0.50000000,0.40000000,perfect screening,6922.03742078,8195.23747049,10460.61198721,0.00000000,0.00000000,0.00000000,0.00000000,0.00000000,0.00000000,-0.00541045,0.00111457,0.01123687,41631.30290900,42623.34736395,42948.36459155,41631.30290900,42623.34736395,42948.36459155
1.99725275,0.50000000,0.40000000,perfect screening,6884.90211299,8143.64256597,10091.71443710,0.00000000,0.00000000,0.00000000,0.00000000,0.00000000,0.00000000,-0.00963032,0.00799338,0.01152205,74969.02164409,76660.80458480,77259.85787956,33341.52470670,34033.18086645,34303.59913083
2.99725275,0.50000000,0.40000000,perfect screening,6856.24330487,8083.79814793,10314.32606942,0.00000000,0.00000000,0.00000000,0.00000000,0.00000000,0.00000000,-0.00359780,0.01646987,0.02215787,106794.61769247,109085.91457196,109966.51733843,31803.23565057,32426.76569761,32696.29354125
3.99725275,0.50000000,0.40000000,perfect screening,6833.78648960,8066.74267679,10462.32153718,0.00000000,0.00000000,0.00000000,0.00000000,0.00000000,0.00000000,0.01280551,0.01743830,0.02351364,138435.02237987,141223.68021320,142368.91174520,31640.40468740,32138.23979996,32425.78066439
4.99725275,0.50000000,0.40000000,perfect screening,6785.51057040,8030.33476958,10173.69595509,0.00000000,0.00000000,0.00000000,0.00000000,0.00000000,0.00000000,0.01021125,0.02163613,0.02457945,170060.19123080,173324.53393847,174763.25004943,31624.72307780,32096.04270562,32390.78160607
5.99725275,0.50000000,0.40000000,perfect screening,6754.95771663,7987.61721940,10271.25155401,0.00000000,0.00000000,0.00000000,0.00000000,0.00000000,0.00000000,0.01332040,0.02827536,0.03281089,201687.88977007,205412.14495036,207165.99967494,31614.99812775,32093.13637210,32381.31997870
6.99725275,0.50000000,0.40000000,perfect screening,6733.10119958,7963.90126617,10417.60215600,0.00000000,0.00000000,0.00000000,0.00000000,0.00000000,0.00000000,0.02654116,0.03011526,0.03491511,233373.83702498,237506.82090002,239579.74795886,31685.94725491,32099.93823509,32392.82045456
7.99725275,0.50000000,0.40000000,perfect screening,6712.09742045,7939.17282432,10151.42830570,0.00000000,0.00000000,0.00000000,0.00000000,0.00000000,0.00000000,0.02537293,0.03292243,0.03563368,265075.70395006,269616.59534847,271964.08168980,31703.42250637,32109.74788048,32411.00313151
8.99725275,0.50000000,0.40000000,perfect screening,6689.90019418,7903.35700593,10193.70550643,0.00000000,0.00000000,0.00000000,0.00000000,0.00000000,0.00000000,0.02636623,0.03780036,0.04179103,296761.27100390,301735.95893704,304362.47286632,31688.34872006,32114.64900079,32420.25510689
9.99725275,0.50000000,0.40000000,perfect screening,6663.63717400,7880.63679090,10331.07290466,0.00000000,0.00000000,0.00000000,0.00000000,0.00000000,0.00000000,0.03654551,0.03990097,0.04424127,328485.62565023,333846.02849021,336799.19311420,31723.44147311,32120.31874266,32431.72357313
0.99725275,0.50000000,0.40000000,realistic screening,6930.24839147,8205.11751967,10472.63801203,0.00259054,0.03801544,0.30880968,0.00000031,0.00000462,0.00003519,-0.00687382,-0.00032525,0.01010257,27601.07813584,31424.89030715,35097.81294043,27601.07813584,31424.89030715,35097.81294043
1.99725275,0.50000000,0.40000000,realistic screening,6906.92178090,8165.02036798,10115.21280516,0.00674067,0.09742800,0.80262569,0.00000079,0.00001188,0.00009371,-0.01193983,0.00492666,0.00860284,51291.96422185,57906.02683418,64222.60812728,23691.54860038,26494.44365385,29127.82975859
2.99725275,0.50000000,0.40000000,realistic screening,6881.84925181,8118.05670570,10349.34595470,0.01052782,0.15268780,1.25420720,0.00000124,0.00001855,0.00014783,-0.00650501,0.01220213,0.01837593,74040.91510021,83283.78788698,92116.10332543,22749.81118661,25379.84121964,27848.95354099
3.99725275,0.50000000,0.40000000,realistic screening,6868.93991298,8113.33229966,10513.77831967,0.01402593,0.20273423,1.65713260,0.00000165,0.00002473,0.00019779,0.00722588,0.01172874,0.01899842,96620.18932336,108419.67878759,119722.15589328,22577.50297877,25141.96065892,27598.41522329
4.99725275,0.50000000,0.40000000,realistic screening,6834.07148443,8087.69945549,10221.26300121,0.01719686,0.24731370,2.03819535,0.00000204,0.00003042,0.00024367,0.00376658,0.01477828,0.01862825,119163.71165488,133515.88733030,147241.10677660,22540.31534883,25102.52031338,27557.16242715
5.99725275,0.50000000,0.40000000,realistic screening,6815.44823568,8048.24780624,10337.48014671,0.02005847,0.29022030,2.38781535,0.00000239,0.00003566,0.00028585,0.00753683,0.02029612,0.02569187,141758.19911075,158594.25158436,174789.28493080,22522.05890226,25090.11106835,27552.21765975
6.99725275,0.50000000,0.40000000,realistic screening,6790.94851688,8037.40976750,10510.18593845,0.02272567,0.32804521,2.69097202,0.00000271,0.00004047,0.00032452,0.01679181,0.02116185,0.02711333,164373.75205152,183698.59575301,202360.94629115,22531.36926619,25100.85689305,27552.52798599
7.99725275,0.50000000,0.40000000,realistic screening,6779.70650828,8021.61077401,10223.61304610,0.02513311,0.36130007,2.97396582,0.00000300,0.00004486,0.00035975,0.01611007,0.02294733,0.02697895,186916.20782100,208834.67758170,229941.09053699,22542.36424403,25107.29384867,27555.23110650
8.99725275,0.50000000,0.40000000,realistic screening,6764.21308063,7986.22516900,10294.98916217,0.02725091,0.39329109,3.24132475,0.00000327,0.00004886,0.00039181,0.01661469,0.02714908,0.03235394,209465.74601358,233941.63635136,257530.99569062,22542.12610969,25108.08020532,27554.85436475
9.99725275,0.50000000,0.40000000,realistic screening,6740.41752605,7975.96790466,10445.29704118,0.02919885,0.42151003,3.47120154,0.00000351,0.00005250,0.00042096,0.02370787,0.02856242,0.03417647,232023.65744887,259041.69544837,285125.63975610,22543.11300106,25112.43257396,27554.64921238
0.99725275,0.50000000,0.40000000,no vaccine,6933.24081817,8195.91961944,10581.69213857,NaN,NaN,NaN,NaN,NaN,NaN,NaN,NaN,NaN,NaN,NaN,NaN,NaN,NaN,NaN
1.99725275,0.50000000,0.40000000,no vaccine,6933.62887194,8208.48524165,10007.63745000,NaN,NaN,NaN,NaN,NaN,NaN,NaN,NaN,NaN,NaN,NaN,NaN,NaN,NaN,NaN
2.99725275,0.50000000,0.40000000,no vaccine,6952.44189893,8229.36268498,10323.11247515,NaN,NaN,NaN,NaN,NaN,NaN,NaN,NaN,NaN,NaN,NaN,NaN,NaN,NaN,NaN
3.99725275,0.50000000,0.40000000,no vaccine,6942.05736668,8205.60754717,10730.11753849,NaN,NaN,NaN,NaN,NaN,NaN,NaN,NaN,NaN,NaN,NaN,NaN,NaN,NaN,NaN
4.99725275,0.50000000,0.40000000,no vaccine,6925.54192159,8209.27756247,10282.32158926,NaN,NaN,NaN,NaN,NaN,NaN,NaN,NaN,NaN,NaN,NaN,NaN,NaN,NaN,NaN
5.99725275,0.50000000,0.40000000,no vaccine,6934.01177625,8224.54099224,10417.18284806,NaN,NaN,NaN,NaN,NaN,NaN,NaN,NaN,NaN,NaN,NaN,NaN,NaN,NaN,NaN
6.99725275,0.50000000,0.40000000,no vaccine,6946.29495678,8206.59863958,10783.64918103,NaN,NaN,NaN,NaN,NaN,NaN,NaN,NaN,NaN,NaN,NaN,NaN,NaN,NaN,NaN
7.99725275,0.50000000,0.40000000,no vaccine,6941.07657135,8217.02320715,10412.39649093,NaN,NaN,NaN,NaN,NaN,NaN,NaN,NaN,NaN,NaN,NaN,NaN,NaN,NaN,NaN
8.99725275,0.50000000,0.40000000,no vaccine,6941.42449283,8219.69663551,10505.01089786,NaN,NaN,NaN,NaN,NaN,NaN,NaN,NaN,NaN,NaN,NaN,NaN,NaN,NaN,NaN
9.99725275,0.50000000,0.40000000,no vaccine,6938.16529203,8213.17402859,10784.43154806,NaN,NaN,NaN,NaN,NaN,NaN,NaN,NaN,NaN,NaN,NaN,NaN,NaN,NaN,NaN
0.99725275,0.50000000,0.60000000,no screening,6983.63589602,8267.35206436,10556.32540126,74.68018071,88.33254389,116.21830012,0.01007383,0.01075356,0.01130485,-0.01438462,-0.00763321,0.00271678,81971.27103965,81974.65869369,81980.73468552,81971.27103965,81974.65869369,81980.73468552
1.99725275,0.50000000,0.60000000,no screening,7017.34144561,8298.80081148,10291.35887009,170.80245945,201.33387871,257.74579117,0.02298102,0.02447554,0.02535805,-0.02968621,-0.01140474,-0.00714906,147384.26974594,147392.37563689,147404.91231440,65412.48468298,65417.60167151,65424.61003873
2.99725275,0.50000000,0.60000000,no screening,7050.06086524,8314.55136235,10625.99889071,249.91374721,293.79518794,385.14275802,0.03352553,0.03569790,0.03681256,-0.03370212,-0.01099709,-0.00410453,209694.90980656,209708.58596390,209727.42749844,62307.61884264,62316.03547712,62325.14401333
3.99725275,0.50000000,0.60000000,no screening,7066.25696073,8350.07941083,10816.45341328,320.79596337,378.02976466,501.22716762,0.04296520,0.04570297,0.04696278,-0.02252015,-0.01636483,-0.00973918,271434.16265750,271453.86273909,271479.51663951,61734.38225269,61744.90929234,61756.17101212
4.99725275,0.50000000,0.60000000,no screening,7052.32833732,8352.34906777,10600.76311956,384.16267654,454.46065131,580.65053172,0.05154539,0.05481461,0.05625668,-0.03056348,-0.01745391,-0.01294864,333065.45374246,333093.36985153,333126.93152092,61626.48230180,61640.32638462,61653.80305318
5.99725275,0.50000000,0.60000000,no screening,7046.64726997,8338.58065968,10760.04860501,441.77987860,522.61967945,680.43139222,0.05940729,0.06315213,0.06465749,-0.03393269,-0.01500128,-0.00839083,394676.14596997,394713.17500727,394752.37154095,61605.54475044,61619.48192383,61631.91748338
6.99725275,0.50000000,0.60000000,no screening,7045.46384737,8346.70726699,10937.76265820,495.53673181,585.88537748,777.81133767,0.06661802,0.07077993,0.07236719,-0.02124789,-0.01589042,-0.00965557,456284.18877996,456327.43725135,456371.54892691,61601.27841102,61614.53554604,61625.92269099
7.99725275,0.50000000,0.60000000,no screening,7030.37556653,8334.53283470,10690.83516908,542.55651999,643.13402762,824.43822626,0.07323265,0.07775139,0.07934438,-0.02646455,-0.01537365,-0.00984449,517893.16855947,517939.79873344,517990.57028395,61598.55801102,61612.80576401,61625.79916811
8.99725275,0.50000000,0.60000000,no screening,7024.51670224,8313.78169480,10752.70658388,585.37318867,693.99397138,899.81668047,0.07919828,0.08412074,0.08583313,-0.02800239,-0.01156367,-0.00485609,579500.86907254,579552.03917807,579606.56142110,61598.72729786,61611.59275305,61625.12555435
9.99725275,0.50000000,0.60000000,no screening,6996.47607480,8304.00351572,10935.33535175,623.43324357,741.03284326,981.25585914,0.08467531,0.08993594,0.09178393,-0.01590098,-0.01019218,-0.00388899,641110.13528597,641164.69863248,641228.77967797,61598.78585448,61613.20469560,61628.68831392
0.99725275,0.50000000,0.60000000,perfect screening,6906.76401952,8180.38816450,10449.92333854,0.00000000,0.00000000,0.00000000,0.00000000,0.00000000,0.00000000,-0.00354383,0.00298743,0.01242762,41631.83210653,42623.55712645,42948.60130192,41631.83210653,42623.55712645,42948.60130192
1.99725275,0.50000000,0.60000000,perfect screening,6853.61860362,8109.02259183,10049.34265567,0.00000000,0.00000000,0.00000000,0.00000000,0.00000000,0.00000000,-0.00566844,0.01272189,0.01602068,74969.66328137,76660.71918494,77261.91485692,33343.44618665,34032.93403163,34302.60945986
2.99725275,0.50000000,0.60000000,perfect screening,6803.70420124,8030.21373188,10265.94620396,0.00000000,0.00000000,0.00000000,0.00000000,0.00000000,0.00000000,0.00216364,0.02331005,0.02862711,106796.20750375,109082.74264577,109964.07515434,31804.63429086,32427.18847630,32698.32101829
3.99725275,0.50000000,0.60000000,perfect screening,6764.42044263,7991.14064416,10389.50800563,0.00000000,0.00000000,0.00000000,0.00000000,0.00000000,0.00000000,0.02132681,0.02667509,0.03127833,138440.99270141,141226.41561766,142370.09119301,31640.45911293,32138.46357772,32427.65334546
4.99725275,0.50000000,0.60000000,perfect screening,6705.42712090,7941.31900574,10073.83314040,0.00000000,0.00000000,0.00000000,0.00000000,0.00000000,0.00000000,0.01991016,0.03303483,0.03591180,170069.68677356,173326.92786103,174764.35827083,31628.69407216,32097.30154793,32385.10488530
5.99725275,0.50000000,0.60000000,perfect screening,6660.61544091,7876.57784819,10144.55896147,0.00000000,0.00000000,0.00000000,0.00000000,0.00000000,0.00000000,0.02448019,0.04150998,0.04599492,201689.25763237,205411.77823944,207165.90815717,31616.45215583,32094.30473218,32381.67451172
6.99725275,0.50000000,0.60000000,perfect screening,6633.43684512,7834.52146433,10282.44688886,0.00000000,0.00000000,0.00000000,0.00000000,0.00000000,0.00000000,0.04048230,0.04519172,0.04895388,233376.37296240,237508.37743955,239576.40205376,31685.20616939,32101.27556587,32397.33592603
7.99725275,0.50000000,0.60000000,perfect screening,6597.84957235,7794.90994867,9987.99210127,0.00000000,0.00000000,0.00000000,0.00000000,0.00000000,0.00000000,0.04061474,0.04976821,0.05271894,265069.63189919,269618.03885404,271981.11105068,31701.57102948,32110.06589530,32413.66813699
8.99725275,0.50000000,0.60000000,perfect screening,6560.58626125,7758.17219865,10023.46684291,0.00000000,0.00000000,0.00000000,0.00000000,0.00000000,0.00000000,0.04274990,0.05626037,0.06026864,296752.97830663,301736.21288341,304355.26596262,31693.18245929,32115.40932440,32420.58262458
9.99725275,0.50000000,0.60000000,perfect screening,6525.90801783,7713.71977613,10148.73292674,0.00000000,0.00000000,0.00000000,0.00000000,0.00000000,0.00000000,0.05554579,0.05981762,0.06352812,328483.94499146,333848.88936116,336789.50471725,31729.94907814,32119.55502847,32427.72157110
0.99725275,0.50000000,0.60000000,realistic screening,6921.97094955,8197.37464209,10467.03662975,0.00388529,0.05703375,0.46329457,0.00000046,0.00000694,0.00005285,-0.00564886,0.00095238,0.01105786,27600.88042760,31424.80028249,35097.86519696,27600.88042760,31424.80028249,35097.86519696
1.99725275,0.50000000,0.60000000,realistic screening,6882.16125786,8140.81526025,10085.86781442,0.01011289,0.14613647,1.20379751,0.00000119,0.00001786,0.00014105,-0.00930959,0.00803327,0.01194969,51290.63290208,57906.15108030,64223.05288721,23690.71886053,26495.08822989,29128.27819491
2.99725275,0.50000000,0.60000000,realistic screening,6844.60525697,8077.39457517,10306.81446439,0.01579593,0.22900799,1.88020783,0.00000187,0.00002795,0.00022291,-0.00317806,0.01695631,0.02282229,74040.86563655,83284.30688275,92118.49192582,22751.10855799,25379.62870912,27849.27339179
3.99725275,0.50000000,0.60000000,realistic screening,6824.21049268,8059.51083856,10455.08936100,0.02101634,0.30414717,2.48571744,0.00000250,0.00003732,0.00029881,0.01290983,0.01807115,0.02384940,96619.90456958,108417.15514074,119715.44483198,22577.32346819,25141.17022734,27595.91083335
4.99725275,0.50000000,0.60000000,realistic screening,6778.77827759,8023.02759989,10145.15788974,0.02580610,0.37087698,3.05859229,0.00000308,0.00004600,0.00036875,0.01078095,0.02258673,0.02747573,119163.98108795,133514.11875322,147234.35650920,22540.95545857,25099.51489513,27557.44939156
5.99725275,0.50000000,0.60000000,realistic screening,6750.59285271,7966.12648041,10259.75855123,0.03012992,0.43525420,3.57589708,0.00000361,0.00005401,0.00043328,0.01503264,0.02966529,0.03565226,141755.77990503,158594.16709806,174787.60330816,22522.74926624,25090.92219710,27550.67745287
6.99725275,0.50000000,0.60000000,realistic screening,6713.72290066,7948.22304597,10407.74339952,0.03405367,0.49235005,4.03476252,0.00000410,0.00006138,0.00049267,0.02609695,0.03181993,0.03800683,164375.85131404,183697.36732540,202358.18044573,22529.62685625,25102.56144999,27546.30697167
7.99725275,0.50000000,0.60000000,realistic screening,6703.92167700,7919.96019543,10125.47992055,0.03770476,0.54217960,4.46921071,0.00000455,0.00006814,0.00054695,0.02672843,0.03466269,0.04036879,186917.41065703,208827.43818852,229938.87952739,22540.98603919,25107.85317655,27551.08084296
8.99725275,0.50000000,0.60000000,realistic screening,6680.72079867,7884.50762875,10163.34312439,0.04088977,0.58958626,4.86120008,0.00000496,0.00007431,0.00059652,0.02811510,0.04019100,0.04664004,209468.79098548,233935.34435959,257527.19763303,22538.58653082,25107.93397054,27549.88506060
9.99725275,0.50000000,0.60000000,realistic screening,6640.80836935,7863.44641070,10324.46180920,0.04377850,0.63239864,5.20087513,0.00000534,0.00007994,0.00064169,0.03606539,0.04259303,0.04935416,232029.66638897,259049.53427564,285120.73829522,22539.68169906,25112.06028318,27551.87282405
0.99725275,0.50000000,0.60000000,no vaccine,6933.24081817,8195.91961944,10581.69213857,NaN,NaN,NaN,NaN,NaN,NaN,NaN,NaN,NaN,NaN,NaN,NaN,NaN,NaN,NaN
1.99725275,0.50000000,0.60000000,no vaccine,6933.62887194,8208.48524165,10007.63745000,NaN,NaN,NaN,NaN,NaN,NaN,NaN,NaN,NaN,NaN,NaN,NaN,NaN,NaN,NaN
2.99725275,0.50000000,0.60000000,no vaccine,6952.44189893,8229.36268498,10323.11247515,NaN,NaN,NaN,NaN,NaN,NaN,NaN,NaN,NaN,NaN,NaN,NaN,NaN,NaN,NaN
3.99725275,0.50000000,0.60000000,no vaccine,6942.05736668,8205.60754717,10730.11753849,NaN,NaN,NaN,NaN,NaN,NaN,NaN,NaN,NaN,NaN,NaN,NaN,NaN,NaN,NaN
4.99725275,0.50000000,0.60000000,no vaccine,6925.54192159,8209.27756247,10282.32158926,NaN,NaN,NaN,NaN,NaN,NaN,NaN,NaN,NaN,NaN,NaN,NaN,NaN,NaN,NaN
5.99725275,0.50000000,0.60000000,no vaccine,6934.01177625,8224.54099224,10417.18284806,NaN,NaN,NaN,NaN,NaN,NaN,NaN,NaN,NaN,NaN,NaN,NaN,NaN,NaN,NaN
6.99725275,0.50000000,0.60000000,no vaccine,6946.29495678,8206.59863958,10783.64918103,NaN,NaN,NaN,NaN,NaN,NaN,NaN,NaN,NaN,NaN,NaN,NaN,NaN,NaN,NaN
7.99725275,0.50000000,0.60000000,no vaccine,6941.07657135,8217.02320715,10412.39649093,NaN,NaN,NaN,NaN,NaN,NaN,NaN,NaN,NaN,NaN,NaN,NaN,NaN,NaN,NaN
8.99725275,0.50000000,0.60000000,no vaccine,6941.42449283,8219.69663551,10505.01089786,NaN,NaN,NaN,NaN,NaN,NaN,NaN,NaN,NaN,NaN,NaN,NaN,NaN,NaN,NaN
9.99725275,0.50000000,0.60000000,no vaccine,6938.16529203,8213.17402859,10784.43154806,NaN,NaN,NaN,NaN,NaN,NaN,NaN,NaN,NaN,NaN,NaN,NaN,NaN,NaN,NaN
0.99725275,0.50000000,0.80000000,no screening,6991.84352426,8279.90668124,10576.03660069,99.58550672,117.75886453,154.95353801,0.01341448,0.01431478,0.01504282,-0.01620145,-0.00921565,0.00097795,81971.15320366,81974.68456146,81980.77447925,81971.15320366,81974.68456146,81980.77447925
1.99725275,0.50000000,0.80000000,no screening,7040.00745612,8329.73805394,10327.00469097,227.75815054,268.37903343,343.20310262,0.03054600,0.03253027,0.03365536,-0.03382194,-0.01476871,-0.01023740,147384.42503782,147392.38208799,147404.69553548,65412.15107717,65417.68994611,65424.46937182
2.99725275,0.50000000,0.80000000,no screening,7078.39440058,8351.99735406,10701.08289634,333.49137938,391.64343703,513.36446268,0.04454172,0.04738515,0.04881393,-0.03980920,-0.01557914,-0.00824684,209695.38208029,209708.31417469,209727.56133978,62307.93559315,62315.84419067,62324.38153129
3.99725275,0.50000000,0.80000000,no screening,7097.43139298,8394.35272115,10894.15453450,427.44872762,504.02940564,669.28278175,0.05702618,0.06063221,0.06221067,-0.02783379,-0.02149249,-0.01524324,271433.82475605,271453.28284675,271479.31967122,61734.22984487,61744.94258859,61757.30513205
4.99725275,0.50000000,0.80000000,no screening,7082.98010559,8396.51318071,10679.50968940,512.18679535,605.90042862,773.54101488,0.06840174,0.07270278,0.07448541,-0.03837264,-0.02312270,-0.01703611,333066.70474454,333092.93710295,333125.57469777,61626.08846473,61639.67267986,61653.68452601
5.99725275,0.50000000,0.80000000,no screening,7081.40546762,8389.07999937,10846.85152079,589.29334226,696.27589486,906.34614903,0.07885219,0.08375210,0.08557241,-0.04252558,-0.02062716,-0.01300336,394679.69497012,394711.71518060,394752.46172754,61606.49213689,61619.07881048,61631.25552680
6.99725275,0.50000000,0.80000000,no screening,7085.70781362,8395.41486085,11023.95934993,660.20086828,781.43010285,1035.54759044,0.08844672,0.09389076,0.09573537,-0.02843696,-0.02124545,-0.01429916,456287.29556128,456325.55386312,456372.45394375,61599.67549093,61614.37835455,61625.72944990
7.99725275,0.50000000,0.80000000,no screening,7063.67895203,8376.10583169,10763.77763269,723.86563835,857.92481385,1100.81609565,0.09723915,0.10317678,0.10508276,-0.03434340,-0.02016998,-0.01297801,517892.73592537,517937.63535483,517990.45609543,61599.17632524,61612.66063475,61625.35941715
8.99725275,0.50000000,0.80000000,no screening,7049.73582669,8345.85741196,10832.16187633,781.81774356,925.40221088,1199.55181151,0.10532312,0.11169749,0.11376363,-0.03454176,-0.01593229,-0.00801023,579501.94870262,579550.09246643,579608.05571206,61599.21967098,61611.84993261,61626.26668612
9.99725275,0.50000000,0.80000000,no screening,7018.05762241,8330.37025857,10993.54647100,831.44270220,988.43845117,1308.24231013,0.11273364,0.11949979,0.12170371,-0.02165703,-0.01363137,-0.00601114,641107.86194993,641163.06234406,641231.43079314,61599.04082699,61613.67762015,61629.45060446
0.99725275,0.50000000,0.80000000,perfect screening,6891.02058757,8164.01739627,10432.56915653,0.00000000,0.00000000,0.00000000,0.00000000,0.00000000,0.00000000,-0.00167790,0.00487648,0.01389955,41632.09878778,42623.63250530,42947.15629631,41632.09878778,42623.63250530,42947.15629631
1.99725275,0.50000000,0.80000000,perfect screening,6816.73696849,8067.99105518,10011.50934584,0.00000000,0.00000000,0.00000000,0.00000000,0.00000000,0.00000000,-0.00176371,0.01730839,0.02072875,74971.19380701,76661.12731084,77256.73095500,33343.95209847,34033.09401954,34302.94039135
2.99725275,0.50000000,0.80000000,perfect screening,6750.95839470,7974.12504461,10207.18056008,0.00000000,0.00000000,0.00000000,0.00000000,0.00000000,0.00000000,0.00783804,0.03030317,0.03513894,106797.45854232,109083.92508992,109965.02987242,31803.39633849,32426.64810563,32694.09708464
3.99725275,0.50000000,0.80000000,perfect screening,6707.88174281,7916.12951965,10307.39100749,0.00000000,0.00000000,0.00000000,0.00000000,0.00000000,0.00000000,0.02984090,0.03578090,0.03913809,138441.06796747,141224.41272962,142369.61831949,31637.57300158,32139.09027078,32427.97577363
4.99725275,0.50000000,0.80000000,perfect screening,6623.20088042,7851.03631674,9973.94765921,0.00000000,0.00000000,0.00000000,0.00000000,0.00000000,0.00000000,0.02948567,0.04435759,0.04735668,170071.85743392,173319.47030476,174765.04603056,31630.78946645,32096.22820969,32390.16239343
5.99725275,0.50000000,0.80000000,perfect screening,6567.69036092,7770.41705340,10026.33127671,0.00000000,0.00000000,0.00000000,0.00000000,0.00000000,0.00000000,0.03575293,0.05465113,0.05867601,201698.20079654,205414.59669883,207167.65467264,31620.36351726,32093.40916863,32380.31266416
6.99725275,0.50000000,0.80000000,perfect screening,6527.67678736,7709.92605914,10148.01359300,0.00000000,0.00000000,0.00000000,0.00000000,0.00000000,0.00000000,0.05446079,0.06034702,0.06346855,233380.05119571,237503.02557258,239579.09096590,31685.11626841,32097.61887589,32395.13864342
7.99725275,0.50000000,0.80000000,perfect screening,6481.75534420,7664.39507055,9825.95102083,0.00000000,0.00000000,0.00000000,0.00000000,0.00000000,0.00000000,0.05569998,0.06676276,0.06976836,265076.58681370,269617.63453995,271970.06342557,31701.32385072,32109.96104204,32412.04225092
8.99725275,0.50000000,0.80000000,perfect screening,6434.96002147,7606.57523757,9860.48558895,0.00000000,0.00000000,0.00000000,0.00000000,0.00000000,0.00000000,0.05875582,0.07464584,0.07865798,296764.16261898,301739.69542251,304361.43085844,31691.46764541,32115.17531720,32421.17696765
9.99725275,0.50000000,0.80000000,perfect screening,6390.10174764,7549.44621550,9928.59093831,0.00000000,0.00000000,0.00000000,0.00000000,0.00000000,0.00000000,0.07401347,0.07973521,0.08344824,328490.21929877,333850.31357150,336800.25999674,31725.09862700,32121.91858327,32429.24678953
0.99725275,0.50000000,0.80000000,realistic screening,6912.60388481,8185.77108249,10451.95592941,0.00518115,0.07604043,0.61782808,0.00000061,0.00000926,0.00007057,-0.00434168,0.00221531,0.01207452,27601.32394381,31424.58425765,35097.03136543,27601.32394381,31424.58425765,35097.03136543
1.99725275,0.50000000,0.80000000,realistic screening,6861.91206231,8113.81117782,10060.47886323,0.01347436,0.19489351,1.60493836,0.00000159,0.00002388,0.00018870,-0.00708848,0.01103848,0.01501145,51292.33786581,57905.25970135,64223.71871091,23691.87661722,26494.26749004,29128.63591241
2.99725275,0.50000000,0.80000000,realistic screening,6813.86921705,8038.27063016,10277.97492687,0.02105803,0.30530652,2.50712598,0.00000250,0.00003742,0.00029881,0.00087521,0.02163309,0.02775298,74042.29419169,83283.54804102,92117.98851553,22750.83054354,25380.10177230,27851.12285884
3.99725275,0.50000000,0.80000000,realistic screening,6776.81697444,8006.27695601,10405.50525214,0.02804181,0.40556852,3.31461201,0.00000335,0.00005009,0.00040125,0.01846966,0.02456720,0.03016330,96621.56436868,108417.06654003,119720.04274059,22577.48649742,25140.53564788,27598.71376460
4.99725275,0.50000000,0.80000000,realistic screening,6719.79149499,7955.36077294,10085.17974576,0.03439063,0.49485593,4.07807939,0.00000413,0.00006184,0.00049608,0.01753906,0.03037042,0.03632847,119166.52236603,133513.21727893,147239.37518148,22541.68218992,25099.03803493,27557.98073882
5.99725275,0.50000000,0.80000000,realistic screening,6677.64708914,7889.77497360,10180.32274524,0.04017092,0.58013595,4.77168880,0.00000486,0.00007271,0.00058383,0.02278391,0.03885527,0.04530953,141757.21472568,158594.21075203,174795.60325318,22521.86732604,25090.23988900,27549.29650477
6.99725275,0.50000000,0.80000000,realistic screening,6649.20775722,7861.79930983,10308.10413364,0.04543039,0.65585053,5.37791329,0.00000553,0.00008277,0.00066491,0.03519734,0.04250608,0.04901571,164370.05422462,183698.26421817,202370.24110316,22530.99640457,25099.87230133,27550.92038765
7.99725275,0.50000000,0.80000000,realistic screening,6618.67891270,7823.49998894,10005.39522147,0.05020613,0.72289766,5.96045005,0.00000614,0.00009201,0.00073928,0.03681379,0.04660216,0.05366582,186911.26919786,208827.78628774,229952.33554612,22540.48950309,25110.07861563,27553.92112552
8.99725275,0.50000000,0.80000000,realistic screening,6584.83320447,7771.09433723,10023.96191457,0.05456548,0.78578217,6.48363745,0.00000671,0.00010047,0.00080739,0.03988080,0.05301699,0.06108100,209462.88711999,233940.97877955,257540.29177386,22541.09814323,25108.74907021,27549.91031703
9.99725275,0.50000000,0.80000000,realistic screening,6550.38090271,7742.43560214,10174.53034006,0.05836046,0.84277424,6.92969100,0.00000722,0.00010816,0.00086966,0.04809503,0.05661899,0.06487790,232021.29446765,259052.79597356,285136.60808234,22540.31482737,25114.34803178,27554.52639321
0.99725275,0.50000000,0.80000000,no vaccine,6933.24081817,8195.91961944,10581.69213857,NaN,NaN,NaN,NaN,NaN,NaN,NaN,NaN,NaN,NaN,NaN,NaN,NaN,NaN,NaN
1.99725275,0.50000000,0.80000000,no vaccine,6933.62887194,8208.48524165,10007.63745000,NaN,NaN,NaN,NaN,NaN,NaN,NaN,NaN,NaN,NaN,NaN,NaN,NaN,NaN,NaN
2.99725275,0.50000000,0.80000000,no vaccine,6952.44189893,8229.36268498,10323.11247515,NaN,NaN,NaN,NaN,NaN,NaN,NaN,NaN,NaN,NaN,NaN,NaN,NaN,NaN,NaN
3.99725275,0.50000000,0.80000000,no vaccine,6942.05736668,8205.60754717,10730.11753849,NaN,NaN,NaN,NaN,NaN,NaN,NaN,NaN,NaN,NaN,NaN,NaN,NaN,NaN,NaN
4.99725275,0.50000000,0.80000000,no vaccine,6925.54192159,8209.27756247,10282.32158926,NaN,NaN,NaN,NaN,NaN,NaN,NaN,NaN,NaN,NaN,NaN,NaN,NaN,NaN,NaN
5.99725275,0.50000000,0.80000000,no vaccine,6934.01177625,8224.54099224,10417.18284806,NaN,NaN,NaN,NaN,NaN,NaN,NaN,NaN,NaN,NaN,NaN,NaN,NaN,NaN,NaN
6.99725275,0.50000000,0.80000000,no vaccine,6946.29495678,8206.59863958,10783.64918103,NaN,NaN,NaN,NaN,NaN,NaN,NaN,NaN,NaN,NaN,NaN,NaN,NaN,NaN,NaN
7.99725275,0.50000000,0.80000000,no vaccine,6941.07657135,8217.02320715,10412.39649093,NaN,NaN,NaN,NaN,NaN,NaN,NaN,NaN,NaN,NaN,NaN,NaN,NaN,NaN,NaN
8.99725275,0.50000000,0.80000000,no vaccine,6941.42449283,8219.69663551,10505.01089786,NaN,NaN,NaN,NaN,NaN,NaN,NaN,NaN,NaN,NaN,NaN,NaN,NaN,NaN,NaN
9.99725275,0.50000000,0.80000000,no vaccine,6938.16529203,8213.17402859,10784.43154806,NaN,NaN,NaN,NaN,NaN,NaN,NaN,NaN,NaN,NaN,NaN,NaN,NaN,NaN,NaN
0.99725275,0.70000000,0.40000000,no screening,6982.77934376,8266.48858994,10554.21247995,76.14299738,90.12387363,118.46400175,0.01029547,0.01097030,0.01152747,-0.01450457,-0.00784408,0.00256778,121854.51279925,121859.43596106,121867.10390261,121854.51279925,121859.43596106,121867.10390261
1.99725275,0.70000000,0.40000000,no screening,7016.42613572,8297.05513505,10284.91137640,163.85619051,193.04735248,246.89078277,0.02204210,0.02347796,0.02431885,-0.02920827,-0.01106547,-0.00673329,208509.05432705,208522.05113343,208537.14618925,86651.28927818,86662.48453803,86672.13974045
2.99725275,0.70000000,0.40000000,no screening,7039.70720371,8308.24997730,10622.65596306,233.78186926,274.68258883,360.03597871,0.03135422,0.03339831,0.03444179,-0.03296867,-0.01033209,-0.00338919,291215.11693307,291237.86334058,291263.57743905,82700.45693223,82715.97039289,82731.36054425
3.99725275,0.70000000,0.40000000,no screening,7062.09710128,8341.33805432,10814.75234179,296.40061163,349.46637596,463.53442846,0.03973192,0.04228269,0.04346180,-0.02107700,-0.01539593,-0.00843322,373480.79972866,373517.61167685,373551.94120689,82258.41742428,82279.25625848,82300.42563979
4.99725275,0.70000000,0.40000000,no screening,7038.91899797,8343.33240499,10586.43630179,352.39176872,417.31541284,532.75527479,0.04738347,0.05039089,0.05173555,-0.02951094,-0.01634492,-0.01196003,455696.88183668,455750.03044464,455796.83782523,82205.89672997,82231.50852737,82257.72745601
5.99725275,0.70000000,0.40000000,no screening,7042.15162229,8328.66026878,10748.15234673,404.14816573,477.52997299,622.37084595,0.05436095,0.05781221,0.05922391,-0.03295504,-0.01398118,-0.00745420,537917.83565961,537974.79534316,538032.86137858,82202.85812177,82225.59594519,82249.30968118
6.99725275,0.70000000,0.40000000,no screening,7042.23765211,8340.66440093,10913.21699922,451.68144194,534.16061988,708.02864316,0.06077317,0.06459219,0.06606679,-0.02038942,-0.01488903,-0.00892856,620128.74851693,620197.95537943,620268.59380754,82200.33497983,82223.98860512,82246.03951554
7.99725275,0.70000000,0.40000000,no screening,7034.71738175,8335.23648962,10674.83860253,493.51834445,585.27200670,750.93677257,0.06664141,0.07077806,0.07227654,-0.02472498,-0.01440882,-0.00915812,702338.57359423,702420.74718592,702496.40426659,82199.58165364,82221.42526339,82243.00275753
8.99725275,0.70000000,0.40000000,no screening,7020.80665148,8303.53542108,10745.95124950,532.25324044,630.19095341,816.33513352,0.07195731,0.07642983,0.07803286,-0.02668472,-0.01101789,-0.00481469,784554.91559496,784639.65871047,784721.87026039,82196.34106617,82219.10089296,82240.26557230
9.99725275,0.70000000,0.40000000,no screening,6996.52881989,8298.24803718,10921.31516453,565.29365213,671.74525324,890.89640401,0.07677314,0.08158084,0.08328936,-0.01477393,-0.00956139,-0.00433891,866769.05977435,866859.39719282,866946.54798909,82196.31991659,82219.62388778,82240.90395429
0.99725275,0.70000000,0.40000000,perfect screening,6903.29090929,8177.12199882,10442.07721645,0.00000000,0.00000000,0.00000000,0.00000000,0.00000000,0.00000000,-0.00368798,0.00302525,0.01278943,61877.78629114,63353.04338808,63833.42182280,61877.78629114,63353.04338808,63833.42182280
1.99725275,0.70000000,0.40000000,perfect screening,6856.27894292,8108.46092576,10057.57059816,0.00000000,0.00000000,0.00000000,0.00000000,0.00000000,0.00000000,-0.00648595,0.01195073,0.01539662,106051.76645074,108441.28195572,109286.78637988,44176.99876344,45084.20210941,45438.97447033
2.99725275,0.70000000,0.40000000,perfect screening,6810.77514213,8042.87410338,10276.92133096,0.00000000,0.00000000,0.00000000,0.00000000,0.00000000,0.00000000,0.00127144,0.02193367,0.02706759,148302.59406937,151479.39149120,152696.02132408,42230.38564992,43040.42803929,43395.23739502
3.99725275,0.70000000,0.40000000,perfect screening,6786.56064551,8010.68830972,10398.99691702,0.00000000,0.00000000,0.00000000,0.00000000,0.00000000,0.00000000,0.01910498,0.02438933,0.02913011,190478.88917465,194304.11735764,195885.89854271,42175.57137396,42824.85455409,43214.22987538
4.99725275,0.70000000,0.40000000,perfect screening,6723.92045400,7961.67155996,10098.34390967,0.00000000,0.00000000,0.00000000,0.00000000,0.00000000,0.00000000,0.01740916,0.03003596,0.03295641,232679.56444239,237122.56618555,239119.06300060,42199.21252650,42817.15878215,43206.18246115
5.99725275,0.70000000,0.40000000,perfect screening,6682.89227548,7911.11158313,10185.89704499,0.00000000,0.00000000,0.00000000,0.00000000,0.00000000,0.00000000,0.02183890,0.03792727,0.04230702,274890.93607397,279939.85486579,282333.23816425,42189.16712146,42824.73630466,43207.64672162
6.99725275,0.70000000,0.40000000,perfect screening,6657.84160821,7870.86216571,10318.97031377,0.00000000,0.00000000,0.00000000,0.00000000,0.00000000,0.00000000,0.03636115,0.04105196,0.04487062,317182.29953334,322763.40807455,325576.23877178,42289.23680228,42829.98608210,43227.37304849
7.99725275,0.70000000,0.40000000,perfect screening,6629.31593852,7842.38513555,10041.48035094,0.00000000,0.00000000,0.00000000,0.00000000,0.00000000,0.00000000,0.03623250,0.04501314,0.04779559,359466.77529713,365602.43197400,368797.94022827,42305.75508046,42847.56474771,43245.76413048
8.99725275,0.70000000,0.40000000,perfect screening,6600.75700721,7803.43311183,10072.44261598,0.00000000,0.00000000,0.00000000,0.00000000,0.00000000,0.00000000,0.03817663,0.05098852,0.05491265,401748.93163387,408468.31596146,412035.46651142,42283.34829703,42854.42889738,43267.10939377
9.99725275,0.70000000,0.40000000,perfect screening,6565.23662722,7766.17531079,10193.83589842,0.00000000,0.00000000,0.00000000,0.00000000,0.00000000,0.00000000,0.04997926,0.05405411,0.05782856,444079.09740528,451317.05573299,455319.80964370,42328.73926824,42861.52301919,43274.15142366
0.99725275,0.70000000,0.40000000,realistic screening,6921.30093275,8195.84313526,10460.36520602,0.00450249,0.06603489,0.53634545,0.00000053,0.00000803,0.00006118,-0.00528569,0.00118259,0.01126524,43112.19570370,48521.18149453,53585.37254730,43112.19570370,48521.18149453,53585.37254730
1.99725275,0.70000000,0.40000000,realistic screening,6879.92102552,8141.20289142,10083.99279918,0.01169841,0.16919129,1.39259086,0.00000138,0.00002069,0.00016314,-0.00955597,0.00820085,0.01190945,77016.85368244,85707.46083088,93700.25528769,33796.98771063,37171.57399486,40114.39948533
2.99725275,0.70000000,0.40000000,realistic screening,6850.50742479,8079.92174856,10317.56088714,0.01828111,0.26516951,2.17466513,0.00000216,0.00003236,0.00025769,-0.00304180,0.01671165,0.02277323,109262.43663846,121136.01572458,131931.80826173,32259.46359872,35413.08438326,38196.62806938
3.99725275,0.70000000,0.40000000,realistic screening,6828.17763253,8063.55018972,10467.23413361,0.02436883,0.35215731,2.87422550,0.00000289,0.00004319,0.00034519,0.01278030,0.01782340,0.02404755,141261.12997147,156293.01989353,169911.85207204,32077.05043604,35149.66550007,37981.45275817
4.99725275,0.70000000,0.40000000,realistic screening,6780.08637586,8026.69389670,10163.30705528,0.02986330,0.42937616,3.53589086,0.00000356,0.00005322,0.00042582,0.01006268,0.02196564,0.02631194,173240.65084652,191435.94232228,207874.34291770,32056.20258564,35120.44755085,37961.99928510
5.99725275,0.70000000,0.40000000,realistic screening,6750.07516517,7976.47965032,10261.74439626,0.03486765,0.50377273,4.13848574,0.00000418,0.00006246,0.00050014,0.01446938,0.02870979,0.03434298,205426.18348418,226549.92549027,245858.27143150,32048.61871006,35121.52997926,37982.93010714
6.99725275,0.70000000,0.40000000,realistic screening,6726.63059780,7955.65541258,10420.40484565,0.03946865,0.56983121,4.66522850,0.00000475,0.00007098,0.00056845,0.02598277,0.03079440,0.03636858,237686.76360355,261673.60886656,283862.73658249,32044.68884365,35131.75236493,38004.46515099
7.99725275,0.70000000,0.40000000,realistic screening,6705.31997117,7928.93934345,10123.48825732,0.04361495,0.62746574,5.16461873,0.00000526,0.00007877,0.00063088,0.02573902,0.03361938,0.03831345,269797.65889146,296822.10579275,321877.26672297,32090.62470647,35145.65527206,38014.52970193
8.99725275,0.70000000,0.40000000,realistic screening,6682.22937417,7893.48480110,10174.50543164,0.04733998,0.68283234,5.62047583,0.00000574,0.00008588,0.00068782,0.02696157,0.03873953,0.04424929,301864.07907509,331973.44565334,359904.95522090,32067.04002321,35151.70224064,38016.86466059
9.99725275,0.70000000,0.40000000,realistic screening,6661.54788684,7871.62945566,10332.60546440,0.05075645,0.73262733,6.01208058,0.00000617,0.00009237,0.00073970,0.03539492,0.04110859,0.04690162,333950.11930146,367117.34589981,397941.16926132,32085.64083237,35155.93225515,38021.73844289
0.99725275,0.70000000,0.40000000,no vaccine,6933.24081817,8195.91961944,10581.69213857,NaN,NaN,NaN,NaN,NaN,NaN,NaN,NaN,NaN,NaN,NaN,NaN,NaN,NaN,NaN
1.99725275,0.70000000,0.40000000,no vaccine,6933.62887194,8208.48524165,10007.63745000,NaN,NaN,NaN,NaN,NaN,NaN,NaN,NaN,NaN,NaN,NaN,NaN,NaN,NaN,NaN
2.99725275,0.70000000,0.40000000,no vaccine,6952.44189893,8229.36268498,10323.11247515,NaN,NaN,NaN,NaN,NaN,NaN,NaN,NaN,NaN,NaN,NaN,NaN,NaN,NaN,NaN
3.99725275,0.70000000,0.40000000,no vaccine,6942.05736668,8205.60754717,10730.11753849,NaN,NaN,NaN,NaN,NaN,NaN,NaN,NaN,NaN,NaN,NaN,NaN,NaN,NaN,NaN
4.99725275,0.70000000,0.40000000,no vaccine,6925.54192159,8209.27756247,10282.32158926,NaN,NaN,NaN,NaN,NaN,NaN,NaN,NaN,NaN,NaN,NaN,NaN,NaN,NaN,NaN
5.99725275,0.70000000,0.40000000,no vaccine,6934.01177625,8224.54099224,10417.18284806,NaN,NaN,NaN,NaN,NaN,NaN,NaN,NaN,NaN,NaN,NaN,NaN,NaN,NaN,NaN
6.99725275,0.70000000,0.40000000,no vaccine,6946.29495678,8206.59863958,10783.64918103,NaN,NaN,NaN,NaN,NaN,NaN,NaN,NaN,NaN,NaN,NaN,NaN,NaN,NaN,NaN
7.99725275,0.70000000,0.40000000,no vaccine,6941.07657135,8217.02320715,10412.39649093,NaN,NaN,NaN,NaN,NaN,NaN,NaN,NaN,NaN,NaN,NaN,NaN,NaN,NaN,NaN
8.99725275,0.70000000,0.40000000,no vaccine,6941.42449283,8219.69663551,10505.01089786,NaN,NaN,NaN,NaN,NaN,NaN,NaN,NaN,NaN,NaN,NaN,NaN,NaN,NaN,NaN
9.99725275,0.70000000,0.40000000,no vaccine,6938.16529203,8213.17402859,10784.43154806,NaN,NaN,NaN,NaN,NaN,NaN,NaN,NaN,NaN,NaN,NaN,NaN,NaN,NaN,NaN
0.99725275,0.70000000,0.60000000,no screening,7000.98870997,8288.43684154,10587.79155156,114.25546114,135.15784609,177.69679886,0.01540836,0.01641603,0.01723484,-0.01725224,-0.01018419,-0.00024804,121854.48613835,121859.49785332,121867.20778678,121854.48613835,121859.49785332,121867.20778678
1.99725275,0.70000000,0.60000000,no screening,7048.81005172,8339.40448881,10342.64587526,245.76169293,289.56385945,370.29936034,0.03292264,0.03504958,0.03626012,-0.03494877,-0.01585719,-0.01101149,208508.62461034,208522.03012094,208536.72870309,86651.52778572,86662.21738344,86672.54754130
2.99725275,0.70000000,0.60000000,no screening,7085.87354223,8359.27292416,10711.22715082,350.61141737,412.10450835,540.23636888,0.04678890,0.04978075,0.05126107,-0.04076918,-0.01667415,-0.00948670,291212.75514844,291237.95680572,291263.28383047,82699.32572374,82715.54641454,82731.39239210
3.99725275,0.70000000,0.60000000,no screening,7099.33434855,8405.66488889,10899.25145491,444.31457796,524.14944140,695.35107988,0.05923617,0.06297809,0.06459500,-0.02967804,-0.02263171,-0.01625799,373480.00324547,373516.53422989,373555.16930197,82259.53028044,82278.66096463,82303.27233486
4.99725275,0.70000000,0.60000000,no screening,7096.78356306,8413.84849348,10683.53027704,528.68975622,625.63870959,799.15278774,0.07059312,0.07503207,0.07684743,-0.03939827,-0.02416021,-0.01825054,455700.35944710,455747.98758957,455802.68250748,82205.67575074,82231.56382791,82258.16581062
5.99725275,0.70000000,0.60000000,no screening,7095.01861216,8399.86082476,10856.69671153,606.12537402,716.33338668,933.13294426,0.08103908,0.08607104,0.08790997,-0.04330474,-0.02172252,-0.01433816,537917.40698765,537974.14748841,538035.84208660,82202.43324689,82225.73404624,82248.57382988
6.99725275,0.70000000,0.60000000,no screening,7089.55200514,8403.95999331,11035.30452066,678.16628985,801.16711083,1062.36625370,0.09062761,0.09619064,0.09805002,-0.02997916,-0.02247355,-0.01510436,620130.58091197,620197.42045782,620263.85138291,82199.05619171,82223.36080047,82245.02208715
7.99725275,0.70000000,0.60000000,no screening,7075.81666279,8388.21864042,10783.30338648,740.90220474,877.78549384,1125.39609158,0.09941598,0.10546768,0.10738145,-0.03530680,-0.02133083,-0.01459972,702344.59048437,702417.72630849,702495.91120680,82197.74162395,82221.29371296,82242.72436171
8.99725275,0.70000000,0.60000000,no screening,7060.78266441,8360.77827476,10847.73104527,797.35632940,945.21937156,1224.47041766,0.10749636,0.11396972,0.11604862,-0.03652388,-0.01701246,-0.00889558,784558.62973299,784636.03814326,784720.21808118,82195.11840180,82219.05492586,82239.46107059
9.99725275,0.70000000,0.60000000,no screening,7022.44249286,8341.70866495,11013.85761524,847.60040125,1008.02265957,1334.25627445,0.11489006,0.12176361,0.12397460,-0.02311058,-0.01476309,-0.00697889,866771.22781246,866854.39300511,866944.86211948,82197.19466865,82218.51066037,82241.70519157
0.99725275,0.70000000,0.60000000,perfect screening,6884.14545848,8153.66391325,10420.91651878,0.00000000,0.00000000,0.00000000,0.00000000,0.00000000,0.00000000,-0.00053366,0.00597033,0.01499662,61877.93826076,63353.26781416,63834.09441849,61877.93826076,63353.26781416,63834.09441849
1.99725275,0.70000000,0.60000000,perfect screening,6809.94788866,8057.46876940,10007.76065088,0.00000000,0.00000000,0.00000000,0.00000000,0.00000000,0.00000000,-0.00109978,0.01865939,0.02201972,106054.16610555,108441.73733404,109289.10645690,44176.48329695,45083.60793555,45436.32903256
2.99725275,0.70000000,0.60000000,perfect screening,6742.26212683,7961.04083350,10200.44836493,0.00000000,0.00000000,0.00000000,0.00000000,0.00000000,0.00000000,0.00868073,0.03154956,0.03637177,148309.16849539,151476.53864224,152689.73174698,42222.50291723,43039.00477679,43395.01158496
3.99725275,0.70000000,0.60000000,perfect screening,6694.35006032,7904.93497544,10293.63877822,0.00000000,0.00000000,0.00000000,0.00000000,0.00000000,0.00000000,0.03089770,0.03711466,0.04085837,190493.04519012,194299.22017631,195888.78381666,42168.60690382,42823.95964767,43209.81567022
4.99725275,0.70000000,0.60000000,perfect screening,6616.88891497,7839.16231394,9959.30811172,0.00000000,0.00000000,0.00000000,0.00000000,0.00000000,0.00000000,0.03061676,0.04563633,0.04861599,232677.20441647,237123.78508290,239116.53546825,42190.47309677,42816.90105980,43208.22677828
5.99725275,0.70000000,0.60000000,perfect screening,6555.38014472,7755.94658766,10018.59379785,0.00000000,0.00000000,0.00000000,0.00000000,0.00000000,0.00000000,0.03558497,0.05595455,0.05980939,274871.65660535,279940.77803989,282343.60744935,42186.45423341,42823.54451260,43208.47080794
6.99725275,0.70000000,0.60000000,perfect screening,6512.42118419,7701.89512573,10128.52727418,0.00000000,0.00000000,0.00000000,0.00000000,0.00000000,0.00000000,0.05535937,0.06161435,0.06469819,317166.93565717,322766.92980120,325590.07631349,42286.43721851,42831.62376298,43227.78582758
7.99725275,0.70000000,0.60000000,perfect screening,6468.81051730,7653.10327754,9832.17427189,0.00000000,0.00000000,0.00000000,0.00000000,0.00000000,0.00000000,0.05678557,0.06798470,0.07097543,359466.75507422,365617.02321636,368801.23793288,42312.53190893,42846.18862564,43250.88923420
8.99725275,0.70000000,0.60000000,perfect screening,6429.22841179,7590.30280899,9837.30461429,0.00000000,0.00000000,0.00000000,0.00000000,0.00000000,0.00000000,0.06007489,0.07591972,0.08029250,401745.76704942,408469.95550928,412029.92737531,42291.72822805,42853.32421711,43263.51091858
9.99725275,0.70000000,0.60000000,perfect screening,6375.06827520,7542.15380919,9926.73061676,0.00000000,0.00000000,0.00000000,0.00000000,0.00000000,0.00000000,0.07506791,0.08097143,0.08441278,444084.74522746,451316.43746633,455308.63785014,42337.68925769,42861.25582583,43275.32266742
0.99725275,0.70000000,0.60000000,realistic screening,6904.34780655,8178.96021937,10444.50908744,0.00674849,0.09902674,0.80441325,0.00000080,0.00001207,0.00009197,-0.00340049,0.00312476,0.01291693,43112.42852374,48521.49167242,53585.65294919,43112.42852374,48521.49167242,53585.65294919
1.99725275,0.70000000,0.60000000,realistic screening,6844.42067383,8101.04917812,10046.84691780,0.01756297,0.25385496,2.08955853,0.00000207,0.00003116,0.00024597,-0.00533500,0.01290569,0.01700440,77015.55219753,85704.75926279,93702.22706773,33799.26839831,37174.69444095,40115.99944140
2.99725275,0.70000000,0.60000000,realistic screening,6793.52733502,8020.12375263,10254.51012080,0.02742347,0.39756591,3.26183046,0.00000327,0.00004885,0.00038953,0.00255535,0.02383070,0.02961099,109258.53005554,121134.92781367,131933.25889346,32259.19544443,35414.01263895,38194.77745068
3.99725275,0.70000000,0.60000000,realistic screening,6757.10944402,7986.49894535,10385.51874691,0.03652962,0.52845461,4.31259624,0.00000437,0.00006540,0.00052321,0.02116926,0.02715314,0.03255418,141260.28161617,156288.34955549,169911.71582968,32078.83860072,35148.87587280,37979.78954127
4.99725275,0.70000000,0.60000000,realistic screening,6695.91884349,7931.25477271,10047.11890864,0.04480909,0.64391667,5.30183178,0.00000540,0.00008079,0.00064693,0.02016673,0.03341585,0.03912789,173243.89766195,191424.68395130,207875.87661205,32053.01785255,35120.51621131,37963.64787873
5.99725275,0.70000000,0.60000000,realistic screening,6660.72454395,7861.27845152,10140.47320359,0.05229827,0.75503709,6.20980242,0.00000635,0.00009503,0.00076163,0.02567110,0.04225371,0.04849083,205421.94329424,226547.99505629,245859.57766892,32048.82931169,35122.02200868,37982.71400697
6.99725275,0.70000000,0.60000000,realistic screening,6621.84719932,7829.79490559,10283.84914240,0.05922842,0.85587884,6.99405204,0.00000723,0.00010822,0.00086767,0.03941442,0.04626001,0.05218565,237691.12285503,261655.28149293,283859.24797580,32046.73484183,35130.02615934,37999.67030688
7.99725275,0.70000000,0.60000000,realistic screening,6588.57241974,7788.07351364,9965.56544381,0.06543864,0.94075267,7.75090415,0.00000803,0.00012034,0.00096488,0.04107149,0.05071593,0.05717566,269800.55090995,296813.55153055,321870.39128802,32089.61891512,35142.23103721,38011.14331222
8.99725275,0.70000000,0.60000000,realistic screening,6551.56238941,7736.06586292,9990.17994060,0.07099089,1.02387054,8.43052227,0.00000878,0.00013145,0.00105402,0.04460628,0.05756286,0.06473087,301870.21030383,331974.34257767,359893.78807647,32070.54100509,35155.05375345,38023.10391180
9.99725275,0.70000000,0.60000000,realistic screening,6515.50917093,7703.50623428,10134.38946114,0.07611698,1.09979995,9.01658063,0.00000945,0.00014161,0.00113568,0.05345675,0.06133310,0.06886730,333954.82777950,367120.96441933,397923.24693789,32085.83724829,35157.79581093,38019.57592774
0.99725275,0.70000000,0.60000000,no vaccine,6933.24081817,8195.91961944,10581.69213857,NaN,NaN,NaN,NaN,NaN,NaN,NaN,NaN,NaN,NaN,NaN,NaN,NaN,NaN,NaN
1.99725275,0.70000000,0.60000000,no vaccine,6933.62887194,8208.48524165,10007.63745000,NaN,NaN,NaN,NaN,NaN,NaN,NaN,NaN,NaN,NaN,NaN,NaN,NaN,NaN,NaN
2.99725275,0.70000000,0.60000000,no vaccine,6952.44189893,8229.36268498,10323.11247515,NaN,NaN,NaN,NaN,NaN,NaN,NaN,NaN,NaN,NaN,NaN,NaN,NaN,NaN,NaN
3.99725275,0.70000000,0.60000000,no vaccine,6942.05736668,8205.60754717,10730.11753849,NaN,NaN,NaN,NaN,NaN,NaN,NaN,NaN,NaN,NaN,NaN,NaN,NaN,NaN,NaN
4.99725275,0.70000000,0.60000000,no vaccine,6925.54192159,8209.27756247,10282.32158926,NaN,NaN,NaN,NaN,NaN,NaN,NaN,NaN,NaN,NaN,NaN,NaN,NaN,NaN,NaN
5.99725275,0.70000000,0.60000000,no vaccine,6934.01177625,8224.54099224,10417.18284806,NaN,NaN,NaN,NaN,NaN,NaN,NaN,NaN,NaN,NaN,NaN,NaN,NaN,NaN,NaN
6.99725275,0.70000000,0.60000000,no vaccine,6946.29495678,8206.59863958,10783.64918103,NaN,NaN,NaN,NaN,NaN,NaN,NaN,NaN,NaN,NaN,NaN,NaN,NaN,NaN,NaN
7.99725275,0.70000000,0.60000000,no vaccine,6941.07657135,8217.02320715,10412.39649093,NaN,NaN,NaN,NaN,NaN,NaN,NaN,NaN,NaN,NaN,NaN,NaN,NaN,NaN,NaN
8.99725275,0.70000000,0.60000000,no vaccine,6941.42449283,8219.69663551,10505.01089786,NaN,NaN,NaN,NaN,NaN,NaN,NaN,NaN,NaN,NaN,NaN,NaN,NaN,NaN,NaN
9.99725275,0.70000000,0.60000000,no vaccine,6938.16529203,8213.17402859,10784.43154806,NaN,NaN,NaN,NaN,NaN,NaN,NaN,NaN,NaN,NaN,NaN,NaN,NaN,NaN,NaN
0.99725275,0.70000000,0.80000000,no screening,7017.16135264,8307.97310182,10620.97386561,152.34372216,180.24924025,236.91508893,0.02049958,0.02183331,0.02290349,-0.01984745,-0.01264750,-0.00251490,121854.62061357,121859.52378774,121867.14867566,121854.62061357,121859.52378774,121867.14867566
1.99725275,0.70000000,0.80000000,no screening,7075.39421961,8379.75475590,10402.04505947,327.52995221,386.16014449,493.81134726,0.04372203,0.04651491,0.04803067,-0.04133180,-0.02075633,-0.01570582,208508.18081227,208521.67634149,208537.17805681,86650.94609158,86662.26465924,86672.72509479
2.99725275,0.70000000,0.80000000,no screening,7122.80917710,8413.86128768,10792.37558401,467.41857244,549.20735209,720.15868056,0.06207518,0.06597224,0.06781227,-0.04932603,-0.02313221,-0.01509886,291212.80905657,291238.70921361,291262.56619665,82697.88790998,82715.68380571,82731.32876917
3.99725275,0.70000000,0.80000000,no screening,7160.31553306,8463.35737174,11010.77793985,592.75027344,698.76966786,926.75557803,0.07844211,0.08339765,0.08531675,-0.03814648,-0.03005879,-0.02270772,373482.87172478,373517.38963831,373552.76285572,82259.97815585,82279.06312426,82301.87415167
4.99725275,0.70000000,0.80000000,no screening,7139.17579584,8471.26756950,10795.38669288,705.55935758,834.41163674,1065.30719461,0.09352192,0.09930875,0.10139230,-0.05082892,-0.03205352,-0.02435126,455701.46594930,455749.01824252,455799.10670429,82206.46279087,82231.70147904,82256.19610601
5.99725275,0.70000000,0.80000000,no screening,7133.89008969,8459.69606710,10976.75598524,808.26212472,955.55526357,1243.55232876,0.10736804,0.11393193,0.11599578,-0.05502947,-0.02956871,-0.02068119,537915.72391417,537974.54691280,538031.71810112,82201.80756812,82225.66260716,82248.10317617
6.99725275,0.70000000,0.80000000,no screening,7133.73707250,8465.92363932,11147.20055770,902.98008169,1068.47820382,1415.29659136,0.12002916,0.12737391,0.12939261,-0.04001792,-0.03000508,-0.02106867,620130.78408782,620198.15842826,620264.86150763,82200.22875193,82223.32233761,82246.38372112
7.99725275,0.70000000,0.80000000,no screening,7122.76452723,8447.02565289,10893.19040347,987.22673582,1170.35047814,1500.42552324,0.13179394,0.13971477,0.14192301,-0.04633005,-0.02834762,-0.01923182,702344.34605675,702419.07272964,702489.68541936,82198.89029764,82220.50555983,82242.96054150
8.99725275,0.70000000,0.80000000,no screening,7098.61851441,8413.10559270,10939.45856414,1064.18572122,1259.97340464,1632.27863259,0.14264916,0.15110188,0.15340353,-0.04513746,-0.02298335,-0.01349309,784554.88951188,784636.97920601,784716.10305680,82193.97077960,82218.81799127,82240.42415617
9.99725275,0.70000000,0.80000000,no screening,7048.27835445,8387.28214005,11103.44228632,1130.58963384,1343.94420831,1780.76757793,0.15264329,0.16159655,0.16407170,-0.03186190,-0.01990984,-0.00976624,866766.05652022,866855.42884601,866943.13706531,82197.65451712,82218.81394263,82240.62516933
0.99725275,0.70000000,0.80000000,perfect screening,6863.10617653,8131.95555415,10394.44474590,0.00000000,0.00000000,0.00000000,0.00000000,0.00000000,0.00000000,0.00216422,0.00888712,0.01725682,61877.32991065,63353.04194048,63834.23041390,61877.32991065,63353.04194048,63834.23041390
1.99725275,0.70000000,0.80000000,perfect screening,6761.30060005,8002.97041891,9949.88380169,0.00000000,0.00000000,0.00000000,0.00000000,0.00000000,0.00000000,0.00426035,0.02532190,0.02876709,106052.38178562,108441.18138174,109289.29995799,44178.11163616,45083.99184207,45439.15825095
2.99725275,0.70000000,0.80000000,perfect screening,6671.18370123,7881.25805179,10134.95219872,0.00000000,0.00000000,0.00000000,0.00000000,0.00000000,0.00000000,0.01563163,0.04126219,0.04556866,148305.76469437,151482.54856929,152689.46780909,42224.01825533,43038.34127646,43395.66401837
3.99725275,0.70000000,0.80000000,perfect screening,6602.44425675,7796.93785582,10202.16409088,0.00000000,0.00000000,0.00000000,0.00000000,0.00000000,0.00000000,0.04271071,0.04966283,0.05304260,190486.66628752,194300.87758760,195879.19259122,42172.91554016,42822.10280767,43211.00072470
4.99725275,0.70000000,0.80000000,perfect screening,6506.03038589,7710.12174709,9827.02843479,0.00000000,0.00000000,0.00000000,0.00000000,0.00000000,0.00000000,0.04362720,0.06121610,0.06452926,232674.78766389,237121.12582512,239118.38964052,42193.58195525,42816.32671656,43209.30900022
5.99725275,0.70000000,0.80000000,perfect screening,6428.07308303,7611.27281173,9855.24429148,0.00000000,0.00000000,0.00000000,0.00000000,0.00000000,0.00000000,0.05142092,0.07413074,0.07788225,274889.76508348,279936.63408873,282341.27464286,42192.51572654,42823.28103428,43207.25389171
6.99725275,0.70000000,0.80000000,perfect screening,6367.25939181,7531.94049826,9951.95950437,0.00000000,0.00000000,0.00000000,0.00000000,0.00000000,0.00000000,0.07431635,0.08219145,0.08538288,317179.87897041,322764.60429045,325589.71047063,42291.28227324,42831.31444529,43226.15124144
7.99725275,0.70000000,0.80000000,perfect screening,6309.06574137,7462.76805259,9617.38355552,0.00000000,0.00000000,0.00000000,0.00000000,0.00000000,0.00000000,0.07713032,0.09094955,0.09438950,359473.63431211,365617.17362893,368830.32452410,42310.88691628,42847.26514078,43249.29544748
8.99725275,0.70000000,0.80000000,perfect screening,6252.07174998,7384.89472658,9602.02784471,0.00000000,0.00000000,0.00000000,0.00000000,0.00000000,0.00000000,0.08210682,0.10091957,0.10541992,401749.45859844,408469.73042020,412066.00628909,42277.29317489,42854.97666151,43258.93706450
9.99725275,0.70000000,0.80000000,perfect screening,6194.29706133,7315.54198242,9659.68654189,0.00000000,0.00000000,0.00000000,0.00000000,0.00000000,0.00000000,0.09956553,0.10795861,0.11200881,444085.93718512,451320.61840047,455349.01809725,42334.98967885,42861.10856712,43274.17007074
0.99725275,0.70000000,0.80000000,realistic screening,6889.77995711,8164.35952962,10429.49934848,0.00900031,0.13206580,1.07258568,0.00000107,0.00001613,0.00012289,-0.00161090,0.00511767,0.01434422,43112.65200147,48520.79305557,53585.47930826,43112.65200147,48520.79305557,53585.47930826
1.99725275,0.70000000,0.80000000,realistic screening,6815.17297040,8060.13428429,10008.88687320,0.02342061,0.33852587,2.78592902,0.00000278,0.00004171,0.00032965,-0.00149486,0.01759197,0.02212031,77015.30511180,85707.07670813,93700.30825534,33799.43175478,37171.58191351,40114.26782418
2.99725275,0.70000000,0.80000000,realistic screening,6744.24175194,7962.92270042,10194.22867300,0.03655679,0.53018441,4.35100820,0.00000439,0.00006556,0.00052344,0.00801342,0.03097753,0.03718443,109260.25246521,121134.77937061,131929.95255880,32256.78799142,35414.24383173,38198.36703255
3.99725275,0.70000000,0.80000000,realistic screening,6685.01059551,7904.67706488,10319.08693175,0.04870337,0.70456072,5.74512336,0.00000588,0.00008805,0.00070491,0.02946369,0.03647089,0.04218097,141262.26584549,156286.34545630,169914.75017643,32079.82039495,35151.22113859,37986.22440349
4.99725275,0.70000000,0.80000000,realistic screening,6619.98134901,7837.17307224,9954.60551788,0.05977312,0.85872160,7.07385178,0.00000728,0.00010903,0.00087386,0.02975705,0.04492762,0.05166592,173239.96102807,191418.46249235,207887.72131669,32057.16692452,35118.34961112,37972.13763452
5.99725275,0.70000000,0.80000000,realistic screening,6563.55245847,7754.06236087,10020.86219807,0.06966941,1.00672064,8.28366396,0.00000858,0.00012855,0.00103124,0.03664289,0.05583393,0.06316436,205404.12765082,226536.56058361,245876.71229285,32051.50682822,35121.87333897,37988.09073561
6.99725275,0.70000000,0.80000000,realistic screening,6514.59634008,7701.16097416,10144.22357445,0.07893892,1.13990033,9.32144451,0.00000978,0.00014670,0.00117736,0.05336195,0.06147265,0.06904961,237672.00626590,261661.77471560,283875.97633563,32047.13662961,35128.05899538,37999.26404278
7.99725275,0.70000000,0.80000000,realistic screening,6464.52265902,7643.95179674,9799.87533760,0.08725186,1.25517776,10.32217829,0.00001090,0.00016348,0.00131232,0.05550311,0.06784664,0.07613630,269813.01403636,296818.11742323,321884.57475107,32090.38871004,35142.59083970,38008.59841543
8.99725275,0.70000000,0.80000000,realistic screening,6419.53482563,7577.66769486,9814.06487834,0.09469134,1.36423148,11.25656035,0.00001193,0.00017892,0.00143647,0.06174721,0.07634572,0.08551269,301881.34368067,331977.69177634,359908.58168482,32062.69843988,35152.38577318,38018.91964703
9.99725275,0.70000000,0.80000000,realistic screening,6371.62208399,7535.77862960,9959.14732421,0.10145767,1.46377078,12.01358133,0.00001287,0.00019296,0.00155056,0.07118204,0.08170291,0.09086958,333968.87696794,367123.66989780,397936.66564500,32085.66069429,35158.30084168,38022.65420179
0.99725275,0.70000000,0.80000000,no vaccine,6933.24081817,8195.91961944,10581.69213857,NaN,NaN,NaN,NaN,NaN,NaN,NaN,NaN,NaN,NaN,NaN,NaN,NaN,NaN,NaN
1.99725275,0.70000000,0.80000000,no vaccine,6933.62887194,8208.48524165,10007.63745000,NaN,NaN,NaN,NaN,NaN,NaN,NaN,NaN,NaN,NaN,NaN,NaN,NaN,NaN,NaN
2.99725275,0.70000000,0.80000000,no vaccine,6952.44189893,8229.36268498,10323.11247515,NaN,NaN,NaN,NaN,NaN,NaN,NaN,NaN,NaN,NaN,NaN,NaN,NaN,NaN,NaN
3.99725275,0.70000000,0.80000000,no vaccine,6942.05736668,8205.60754717,10730.11753849,NaN,NaN,NaN,NaN,NaN,NaN,NaN,NaN,NaN,NaN,NaN,NaN,NaN,NaN,NaN
4.99725275,0.70000000,0.80000000,no vaccine,6925.54192159,8209.27756247,10282.32158926,NaN,NaN,NaN,NaN,NaN,NaN,NaN,NaN,NaN,NaN,NaN,NaN,NaN,NaN,NaN
5.99725275,0.70000000,0.80000000,no vaccine,6934.01177625,8224.54099224,10417.18284806,NaN,NaN,NaN,NaN,NaN,NaN,NaN,NaN,NaN,NaN,NaN,NaN,NaN,NaN,NaN
6.99725275,0.70000000,0.80000000,no vaccine,6946.29495678,8206.59863958,10783.64918103,NaN,NaN,NaN,NaN,NaN,NaN,NaN,NaN,NaN,NaN,NaN,NaN,NaN,NaN,NaN
7.99725275,0.70000000,0.80000000,no vaccine,6941.07657135,8217.02320715,10412.39649093,NaN,NaN,NaN,NaN,NaN,NaN,NaN,NaN,NaN,NaN,NaN,NaN,NaN,NaN,NaN
8.99725275,0.70000000,0.80000000,no vaccine,6941.42449283,8219.69663551,10505.01089786,NaN,NaN,NaN,NaN,NaN,NaN,NaN,NaN,NaN,NaN,NaN,NaN,NaN,NaN,NaN
9.99725275,0.70000000,0.80000000,no vaccine,6938.16529203,8213.17402859,10784.43154806,NaN,NaN,NaN,NaN,NaN,NaN,NaN,NaN,NaN,NaN,NaN,NaN,NaN,NaN,NaN
0.99725275,0.90000000,0.40000000,no screening,6997.55272942,8286.43256948,10588.48591448,114.75479305,135.56472076,178.79723017,0.01551121,0.01647696,0.01728272,-0.01730338,-0.01030238,-0.00043018,174979.53549658,174987.56436556,174997.60430337,174979.53549658,174987.56436556,174997.60430337
1.99725275,0.90000000,0.40000000,no screening,7042.70093553,8326.81676257,10330.08251649,226.14870737,266.62386952,341.18194393,0.03035119,0.03230018,0.03340969,-0.03422696,-0.01484804,-0.01014574,282532.23533650,282555.53998992,282579.33638512,107547.44889781,107568.12826134,107587.77978328
2.99725275,0.90000000,0.40000000,no screening,7070.26814073,8346.26338287,10682.40795163,314.47781376,369.32968061,484.32806947,0.04200380,0.04471425,0.04605343,-0.03918816,-0.01491926,-0.00770149,387561.62280768,387601.65771756,387640.89008159,105019.28966392,105045.51378486,105070.90911148
3.99725275,0.90000000,0.40000000,no screening,7096.38160035,8384.87040061,10869.84161027,394.02319970,464.54023711,617.06815177,0.05261589,0.05595571,0.05742633,-0.02680253,-0.02061526,-0.01440310,492496.05620078,492552.92185616,492609.30802974,104915.23210243,104951.73297738,104983.88416041
4.99725275,0.90000000,0.40000000,no screening,7076.22927480,8390.51209795,10657.62502115,465.67098960,551.23418279,703.42529068,0.06229782,0.06622777,0.06788315,-0.03680143,-0.02186540,-0.01622091,597421.07826459,597500.15138226,597575.96762468,104905.92065211,104948.03567284,104990.22214457
5.99725275,0.90000000,0.40000000,no screening,7074.55971942,8378.84038960,10820.71302136,532.13857488,628.18134757,817.99339435,0.07118222,0.07563130,0.07734608,-0.03975023,-0.01948683,-0.01231184,702356.66442273,702452.38418148,702547.91926100,104908.84341453,104951.18034316,105000.30259380
6.99725275,0.90000000,0.40000000,no screening,7075.66532561,8382.30424420,10998.85345838,592.25546201,700.16118703,928.19079440,0.07933284,0.08425040,0.08595525,-0.02714733,-0.02027892,-0.01360967,807298.56529038,807403.23337039,807507.28490352,104912.68881119,104951.93667155,104989.92740783
7.99725275,0.90000000,0.40000000,no screening,7066.26912557,8376.21293827,10738.60894863,646.52291688,765.41100890,979.71064312,0.08677083,0.09213189,0.09388129,-0.03175697,-0.01948499,-0.01293795,912239.15950559,912351.41820847,912466.86903598,104913.30687023,104947.90169351,104980.59836599
8.99725275,0.90000000,0.40000000,no screening,7042.70806883,8345.39558395,10812.72040360,694.59092274,823.03733261,1066.30099130,0.09360642,0.09933500,0.10122191,-0.03236350,-0.01566121,-0.00833289,1017172.36657073,1017296.29775696,1017416.51731541,104914.07771921,104946.70901055,104979.33362030
9.99725275,0.90000000,0.40000000,no screening,7019.23790845,8332.49546446,10993.73768067,737.09999944,875.71846337,1159.82004083,0.09983968,0.10591556,0.10795351,-0.02033463,-0.01379551,-0.00658857,1122113.85091418,1122240.68955788,1122368.54945109,104909.37651208,104944.68646231,104979.02439407
0.99725275,0.90000000,0.40000000,perfect screening,6886.18232257,8155.94580686,10417.89181724,0.00000000,0.00000000,0.00000000,0.00000000,0.00000000,0.00000000,-0.00070678,0.00602461,0.01518749,88838.84280751,90966.51911182,91653.41622646,88838.84280751,90966.51911182,91653.41622646
1.99725275,0.90000000,0.40000000,perfect screening,6817.57441957,8073.98629579,10018.01967252,0.00000000,0.00000000,0.00000000,0.00000000,0.00000000,0.00000000,-0.00285097,0.01695122,0.02007179,143683.68253552,146929.88212018,148086.58732591,54847.56842180,55958.52502569,56399.06493820
2.99725275,0.90000000,0.40000000,perfect screening,6767.86907908,7989.17949090,10229.93643554,0.00000000,0.00000000,0.00000000,0.00000000,0.00000000,0.00000000,0.00612108,0.02839311,0.03332580,197366.39980103,201577.20489748,203200.70810108,53635.63626784,54650.88381366,55104.66024195
3.99725275,0.90000000,0.40000000,perfect screening,6727.64585586,7943.35322832,10321.22155089,0.00000000,0.00000000,0.00000000,0.00000000,0.00000000,0.00000000,0.02676834,0.03262396,0.03608172,251211.02020160,256197.14850347,258271.66574867,53809.19760886,54616.49411597,55125.06511408
4.99725275,0.90000000,0.40000000,perfect screening,6654.13752155,7884.91439865,10013.05217034,0.00000000,0.00000000,0.00000000,0.00000000,0.00000000,0.00000000,0.02525999,0.03977905,0.04272385,305048.86383359,310835.57254821,313472.13673022,53852.76305079,54640.54628989,55138.33059548
5.99725275,0.90000000,0.40000000,perfect screening,6604.67105620,7817.80540765,10084.80257592,0.00000000,0.00000000,0.00000000,0.00000000,0.00000000,0.00000000,0.03093987,0.04895142,0.05302174,358899.76638184,365479.33682870,368621.00564035,53837.32277894,54653.08429363,55144.44951470
6.99725275,0.90000000,0.40000000,perfect screening,6569.82497161,7765.74211132,10214.87803437,0.00000000,0.00000000,0.00000000,0.00000000,0.00000000,0.00000000,0.04781047,0.05349363,0.05695235,412878.24997001,420138.04451105,423812.17438084,53979.23433906,54665.83366474,55180.30462815
7.99725275,0.90000000,0.40000000,perfect screening,6531.30739690,7726.16580187,9893.16283640,0.00000000,0.00000000,0.00000000,0.00000000,0.00000000,0.00000000,0.04799938,0.05888283,0.06181909,466848.06451988,474820.77529824,478977.32787653,54001.04665721,54680.07269077,55197.16409799
8.99725275,0.90000000,0.40000000,perfect screening,6491.11866604,7671.15331720,9943.00775124,0.00000000,0.00000000,0.00000000,0.00000000,0.00000000,0.00000000,0.05131410,0.06593077,0.06977958,520815.11879412,529516.40403522,534140.38645496,53965.51283638,54685.34395983,55209.67677688
9.99725275,0.90000000,0.40000000,perfect screening,6454.67884521,7629.40560394,10023.35568861,0.00000000,0.00000000,0.00000000,0.00000000,0.00000000,0.00000000,0.06456835,0.07013184,0.07365131,574840.30525494,584183.82452040,589379.89483308,54023.37303259,54696.24239478,55222.35637906
0.99725275,0.90000000,0.40000000,realistic screening,6899.90731353,8174.08649146,10443.80620115,0.00860345,0.12627578,1.02455738,0.00000102,0.00001540,0.00011715,-0.00315324,0.00370671,0.01283784,67225.38966476,74211.98249753,80347.05523341,67225.38966476,74211.98249753,80347.05523341
1.99725275,0.90000000,0.40000000,realistic screening,6848.95834451,8100.94011818,10049.03983272,0.02239452,0.32358666,2.65667252,0.00000264,0.00003972,0.00031278,-0.00541080,0.01297817,0.01659652,113396.88282911,123703.58879663,132448.39578326,46187.34069074,49481.12724387,52104.99059386
2.99725275,0.90000000,0.40000000,realistic screening,6797.11770382,8026.75050001,10264.78383997,0.03499213,0.50671409,4.15160237,0.00000416,0.00006224,0.00049456,0.00197981,0.02321563,0.02866691,157761.13428522,171379.28868829,182870.49171140,44364.25145612,47655.10775241,50422.09592814
3.99725275,0.90000000,0.40000000,realistic screening,6770.59401505,7998.59327022,10396.62054485,0.04651516,0.67299509,5.48608061,0.00000557,0.00008324,0.00066342,0.02058111,0.02596084,0.03083566,201961.25456200,218912.92409636,233208.95838838,44279.25127582,47533.03283436,50346.35303921
4.99725275,0.90000000,0.40000000,realistic screening,6707.52348522,7947.02222267,10070.40415648,0.05713485,0.82114841,6.73276091,0.00000687,0.00010275,0.00081951,0.01867218,0.03183533,0.03607620,246170.15405014,266429.04712883,283574.18209910,44288.29436568,47546.21120385,50374.86347161
5.99725275,0.90000000,0.40000000,realistic screening,6670.86372021,7882.43645805,10155.41144768,0.06671725,0.96303977,7.88930639,0.00000808,0.00012079,0.00096396,0.02354393,0.04006645,0.04532702,290396.23002345,313967.03734140,333974.46872613,44323.09042725,47562.77316627,50400.28662704
6.99725275,0.90000000,0.40000000,realistic screening,6639.28681733,7849.78410054,10297.92268038,0.07542111,1.08921635,8.89722893,0.00000919,0.00013748,0.00109723,0.03804835,0.04345165,0.04842373,334739.62654456,361491.46816236,384415.44314778,44333.12118180,47574.44796921,50436.50862112
7.99725275,0.90000000,0.40000000,realistic screening,6606.90599209,7813.65925294,10000.73812707,0.08341161,1.20051277,9.83902568,0.00001021,0.00015280,0.00121927,0.03850269,0.04759876,0.05258517,379322.36102358,409087.36493392,434856.26697154,44357.25944447,47604.38819420,50441.85494301
8.99725275,0.90000000,0.40000000,realistic screening,6571.71480123,7765.20309474,10034.10968503,0.09056181,1.30492536,10.70522137,0.00001115,0.00016683,0.00133110,0.04108836,0.05406611,0.05973419,423892.98177048,456668.99746973,485326.49143993,44361.95998392,47597.02657793,50457.38679068
9.99725275,0.90000000,0.40000000,realistic screening,6542.12034497,7735.93272231,10172.27735396,0.09699261,1.40021928,11.46412893,0.00001200,0.00017967,0.00143326,0.05162004,0.05738287,0.06313606,468443.67508213,504248.36254075,535800.62888366,44371.69790095,47616.99933933,50468.62323018
0.99725275,0.90000000,0.40000000,no vaccine,6933.24081817,8195.91961944,10581.69213857,NaN,NaN,NaN,NaN,NaN,NaN,NaN,NaN,NaN,NaN,NaN,NaN,NaN,NaN,NaN
1.99725275,0.90000000,0.40000000,no vaccine,6933.62887194,8208.48524165,10007.63745000,NaN,NaN,NaN,NaN,NaN,NaN,NaN,NaN,NaN,NaN,NaN,NaN,NaN,NaN,NaN
2.99725275,0.90000000,0.40000000,no vaccine,6952.44189893,8229.36268498,10323.11247515,NaN,NaN,NaN,NaN,NaN,NaN,NaN,NaN,NaN,NaN,NaN,NaN,NaN,NaN,NaN
3.99725275,0.90000000,0.40000000,no vaccine,6942.05736668,8205.60754717,10730.11753849,NaN,NaN,NaN,NaN,NaN,NaN,NaN,NaN,NaN,NaN,NaN,NaN,NaN,NaN,NaN
4.99725275,0.90000000,0.40000000,no vaccine,6925.54192159,8209.27756247,10282.32158926,NaN,NaN,NaN,NaN,NaN,NaN,NaN,NaN,NaN,NaN,NaN,NaN,NaN,NaN,NaN
5.99725275,0.90000000,0.40000000,no vaccine,6934.01177625,8224.54099224,10417.18284806,NaN,NaN,NaN,NaN,NaN,NaN,NaN,NaN,NaN,NaN,NaN,NaN,NaN,NaN,NaN
6.99725275,0.90000000,0.40000000,no vaccine,6946.29495678,8206.59863958,10783.64918103,NaN,NaN,NaN,NaN,NaN,NaN,NaN,NaN,NaN,NaN,NaN,NaN,NaN,NaN,NaN
7.99725275,0.90000000,0.40000000,no vaccine,6941.07657135,8217.02320715,10412.39649093,NaN,NaN,NaN,NaN,NaN,NaN,NaN,NaN,NaN,NaN,NaN,NaN,NaN,NaN,NaN
8.99725275,0.90000000,0.40000000,no vaccine,6941.42449283,8219.69663551,10505.01089786,NaN,NaN,NaN,NaN,NaN,NaN,NaN,NaN,NaN,NaN,NaN,NaN,NaN,NaN,NaN
9.99725275,0.90000000,0.40000000,no vaccine,6938.16529203,8213.17402859,10784.43154806,NaN,NaN,NaN,NaN,NaN,NaN,NaN,NaN,NaN,NaN,NaN,NaN,NaN,NaN,NaN
0.99725275,0.90000000,0.60000000,no screening,7023.57930683,8319.30665884,10638.39056823,172.18517606,203.35310666,268.08633624,0.02318948,0.02462291,0.02580322,-0.02132989,-0.01399881,-0.00395598,174980.07407242,174987.71107139,174997.42040052,174980.07407242,174987.71107139,174997.42040052
1.99725275,0.90000000,0.60000000,no screening,7089.65217741,8387.58774984,10408.67630276,339.36551046,399.99616203,511.73343286,0.04526139,0.04812914,0.04968915,-0.04235252,-0.02164689,-0.01656934,282533.23253382,282556.16002189,282580.84241097,107548.14809728,107568.72385417,107588.64613983
2.99725275,0.90000000,0.60000000,no screening,7134.78831913,8418.29379375,10807.59302139,471.38068017,554.26542872,726.42820256,0.06256404,0.06649854,0.06832682,-0.04965595,-0.02381857,-0.01604251,387565.17290712,387602.78290900,387643.04712236,105017.23042047,105046.50614988,105074.27742619
3.99725275,0.90000000,0.60000000,no screening,7166.01683575,8467.40620340,11012.54344113,591.39032139,697.08624521,924.70113302,0.07820330,0.08314004,0.08506116,-0.03859603,-0.03052902,-0.02330204,492500.00938808,492555.92405580,492608.19303871,104918.01580287,104951.67746928,104985.44945352
4.99725275,0.90000000,0.60000000,no screening,7150.16063848,8478.29526943,10800.97618409,698.45944621,826.54252316,1056.25737365,0.09263160,0.09836400,0.10039155,-0.05005498,-0.03230178,-0.02479302,597426.95129352,597504.59229997,597576.36959041,104907.73509863,104949.61241176,104989.41622901
5.99725275,0.90000000,0.60000000,no screening,7144.96445333,8467.19324021,10970.91023281,797.24841026,942.34722144,1227.18063970,0.10586716,0.11233714,0.11438811,-0.05550799,-0.02993068,-0.02119456,702357.19749990,702454.25711662,702553.28876368,104910.24270605,104951.18339849,104999.07326346
6.99725275,0.90000000,0.60000000,no screening,7141.14870297,8471.89870864,11161.74653232,888.74217624,1050.60811464,1392.96936006,0.11795812,0.12518865,0.12716853,-0.03977490,-0.03056445,-0.02152114,807300.25535499,807405.19692850,807511.98119411,104911.53570689,104952.40950846,104990.36643808
7.99725275,0.90000000,0.60000000,no screening,7130.49955717,8455.48208809,10894.96972617,969.01152895,1148.00551571,1470.38291336,0.12918981,0.13696950,0.13914495,-0.04616950,-0.02882271,-0.01982570,912247.41580305,912354.07241070,912474.42440616,104914.48487705,104948.05896737,104984.68224795
8.99725275,0.90000000,0.60000000,no screening,7096.37252690,8417.13137921,10943.13191174,1041.62937255,1233.73007007,1598.09453970,0.13953506,0.14783580,0.15008590,-0.04576712,-0.02372485,-0.01416534,1017184.20753509,1017300.00114353,1017430.67918681,104911.85558199,104945.03770327,104979.57144564
9.99725275,0.90000000,0.60000000,no screening,7059.56172714,8390.98842502,11115.02434594,1104.85337947,1313.19345468,1740.34989870,0.14904940,0.15783380,0.16025936,-0.03257911,-0.02083143,-0.01116760,1122124.09193861,1122244.12348285,1122386.38081790,104908.73352440,104943.43817676,104977.75060942
0.99725275,0.90000000,0.60000000,perfect screening,6851.98512408,8119.22514242,10385.94638020,0.00000000,0.00000000,0.00000000,0.00000000,0.00000000,0.00000000,0.00328448,0.01037144,0.01829828,88838.10433027,90967.37950357,91650.96873115,88838.10433027,90967.37950357,91650.96873115
1.99725275,0.90000000,0.60000000,perfect screening,6752.50739816,7999.05045196,9948.26765742,0.00000000,0.00000000,0.00000000,0.00000000,0.00000000,0.00000000,0.00504511,0.02605579,0.02945346,143679.11330238,146926.88348063,148068.47577791,54847.44240854,55956.40041017,56401.19580322
2.99725275,0.90000000,0.60000000,perfect screening,6673.89778471,7880.48380862,10128.46343191,0.00000000,0.00000000,0.00000000,0.00000000,0.00000000,0.00000000,0.01579309,0.04129895,0.04564471,197352.60549941,201574.61426423,203206.23609676,53627.32691269,54647.63027786,55117.21276111
3.99725275,0.90000000,0.60000000,perfect screening,6606.25904998,7802.20475005,10197.11189338,0.00000000,0.00000000,0.00000000,0.00000000,0.00000000,0.00000000,0.04211912,0.04928490,0.05272770,251181.95562174,256198.44701692,258290.84594761,53814.34750512,54617.90550214,55112.22941737
4.99725275,0.90000000,0.60000000,perfect screening,6518.31846840,7718.57473579,9830.12633239,0.00000000,0.00000000,0.00000000,0.00000000,0.00000000,0.00000000,0.04268763,0.06025369,0.06348735,305037.94869852,310842.60249968,313481.10586609,53854.36840336,54642.89945560,55136.31541465
5.99725275,0.90000000,0.60000000,perfect screening,6440.55829157,7625.52636903,9870.91443303,0.00000000,0.00000000,0.00000000,0.00000000,0.00000000,0.00000000,0.04935233,0.07264804,0.07637172,358921.34485997,365479.62560390,368590.72118945,53841.47245837,54653.83993034,55149.82375200
6.99725275,0.90000000,0.60000000,perfect screening,6382.13887627,7547.04815084,9968.48020949,0.00000000,0.00000000,0.00000000,0.00000000,0.00000000,0.00000000,0.07202792,0.08029571,0.08341485,412905.41530302,420150.77943811,423780.53815268,53983.79966200,54666.15906690,55182.50822535
7.99725275,0.90000000,0.60000000,perfect screening,6326.83373160,7480.84315004,9636.10412277,0.00000000,0.00000000,0.00000000,0.00000000,0.00000000,0.00000000,0.07481017,0.08884656,0.09200766,466871.91675769,474823.45544176,478961.30380923,53998.03986570,54680.12538859,55203.21105781
8.99725275,0.90000000,0.60000000,perfect screening,6268.09456283,7409.78625292,9634.29565422,0.00000000,0.00000000,0.00000000,0.00000000,0.00000000,0.00000000,0.07945461,0.09846931,0.10255377,520832.76716633,529504.49201717,534194.64453956,53959.04838242,54687.83450563,55219.94492919
9.99725275,0.90000000,0.60000000,perfect screening,6205.85881767,7343.55277896,9688.21215952,0.00000000,0.00000000,0.00000000,0.00000000,0.00000000,0.00000000,0.09653643,0.10506418,0.10895047,574869.88839478,584185.37989244,589426.29667045,54035.36176865,54695.25338647,55227.63607482
0.99725275,0.90000000,0.60000000,realistic screening,6877.41037534,8147.10033877,10416.73485202,0.01290916,0.18940862,1.53581890,0.00000153,0.00002317,0.00017631,0.00008541,0.00684799,0.01572319,67226.98831796,74213.39885117,80346.62232883,67226.98831796,74213.39885117,80346.62232883
1.99725275,0.90000000,0.60000000,realistic screening,6791.79845559,8040.66987418,9989.53417846,0.03358214,0.48525611,3.98793539,0.00000399,0.00005996,0.00047270,0.00010133,0.02001961,0.02404580,113403.45841768,123708.25616908,132453.18918427,46186.69641684,49482.25230036,52104.93438949
2.99725275,0.90000000,0.60000000,realistic screening,6726.63884359,7944.27824283,10178.34150825,0.05249129,0.76035449,6.22518705,0.00000631,0.00009425,0.00075010,0.01024374,0.03344577,0.03907329,157763.15364766,171383.88451081,182860.60157365,44359.69522998,47654.25436547,50429.96632212
3.99725275,0.90000000,0.60000000,realistic screening,6671.05438911,7886.48380667,10285.55560259,0.06984709,1.01013885,8.21870588,0.00000846,0.00012659,0.00100974,0.03250171,0.03938332,0.04425816,201954.72644782,218917.69900867,233198.28315236,44277.23408874,47535.30826117,50341.18920376
4.99725275,0.90000000,0.60000000,realistic screening,6594.57572621,7808.42263025,9933.39757438,0.08574174,1.23199294,10.10729662,0.00001047,0.00015679,0.00125154,0.03276738,0.04820230,0.05387110,246160.15614359,266447.20054468,283557.62315330,44293.96152690,47550.39255188,50367.65030658
5.99725275,0.90000000,0.60000000,realistic screening,6536.22830138,7724.43585530,9988.32274563,0.10001450,1.44376274,11.84518462,0.00001235,0.00018490,0.00147697,0.03933343,0.05911675,0.06510260,290391.89990006,313964.98190332,333962.47321123,44317.53116352,47565.94248938,50404.85005793
6.99725275,0.90000000,0.60000000,realistic screening,6485.47106538,7671.21945806,10099.44875051,0.11314422,1.63572147,13.32607944,0.00001409,0.00021108,0.00168627,0.05777249,0.06506449,0.07129021,334759.70542622,361517.97473215,384403.25112000,44326.18088288,47582.71937797,50436.88869550
7.99725275,0.90000000,0.60000000,realistic screening,6440.73560568,7615.55640979,9765.06547785,0.12508481,1.80185710,14.76085529,0.00001570,0.00023529,0.00187937,0.05993175,0.07191085,0.07856467,379351.59993327,409105.26825680,434849.44031078,44360.87923110,47603.88575087,50447.01835113
8.99725275,0.90000000,0.60000000,realistic screening,6394.41582431,7545.11494538,9775.44203421,0.13583596,1.95619187,16.07755287,0.00001718,0.00025757,0.00205744,0.06429562,0.08042128,0.08791968,423919.15760022,456688.01230520,485292.78776267,44357.43512700,47603.87397881,50443.34745189
9.99725275,0.90000000,0.60000000,realistic screening,6345.71597846,7494.48014317,9898.54266097,0.14560257,2.10157606,17.17763612,0.00001855,0.00027799,0.00222092,0.07735342,0.08589600,0.09326968,468443.97542846,504271.68084329,535746.55329709,44375.12052157,47614.22827242,50468.84996203
0.99725275,0.90000000,0.60000000,no vaccine,6933.24081817,8195.91961944,10581.69213857,NaN,NaN,NaN,NaN,NaN,NaN,NaN,NaN,NaN,NaN,NaN,NaN,NaN,NaN,NaN
1.99725275,0.90000000,0.60000000,no vaccine,6933.62887194,8208.48524165,10007.63745000,NaN,NaN,NaN,NaN,NaN,NaN,NaN,NaN,NaN,NaN,NaN,NaN,NaN,NaN,NaN
2.99725275,0.90000000,0.60000000,no vaccine,6952.44189893,8229.36268498,10323.11247515,NaN,NaN,NaN,NaN,NaN,NaN,NaN,NaN,NaN,NaN,NaN,NaN,NaN,NaN,NaN
3.99725275,0.90000000,0.60000000,no vaccine,6942.05736668,8205.60754717,10730.11753849,NaN,NaN,NaN,NaN,NaN,NaN,NaN,NaN,NaN,NaN,NaN,NaN,NaN,NaN,NaN
4.99725275,0.90000000,0.60000000,no vaccine,6925.54192159,8209.27756247,10282.32158926,NaN,NaN,NaN,NaN,NaN,NaN,NaN,NaN,NaN,NaN,NaN,NaN,NaN,NaN,NaN
5.99725275,0.90000000,0.60000000,no vaccine,6934.01177625,8224.54099224,10417.18284806,NaN,NaN,NaN,NaN,NaN,NaN,NaN,NaN,NaN,NaN,NaN,NaN,NaN,NaN,NaN
6.99725275,0.90000000,0.60000000,no vaccine,6946.29495678,8206.59863958,10783.64918103,NaN,NaN,NaN,NaN,NaN,NaN,NaN,NaN,NaN,NaN,NaN,NaN,NaN,NaN,NaN
7.99725275,0.90000000,0.60000000,no vaccine,6941.07657135,8217.02320715,10412.39649093,NaN,NaN,NaN,NaN,NaN,NaN,NaN,NaN,NaN,NaN,NaN,NaN,NaN,NaN,NaN
8.99725275,0.90000000,0.60000000,no vaccine,6941.42449283,8219.69663551,10505.01089786,NaN,NaN,NaN,NaN,NaN,NaN,NaN,NaN,NaN,NaN,NaN,NaN,NaN,NaN,NaN
9.99725275,0.90000000,0.60000000,no vaccine,6938.16529203,8213.17402859,10784.43154806,NaN,NaN,NaN,NaN,NaN,NaN,NaN,NaN,NaN,NaN,NaN,NaN,NaN,NaN,NaN
0.99725275,0.90000000,0.80000000,no screening,7049.51483659,8353.12029452,10686.35685359,229.54291487,271.14100285,357.46206125,0.03081243,0.03270803,0.03424311,-0.02542579,-0.01767297,-0.00899905,174979.80015984,174987.49046486,174997.58645381,174979.80015984,174987.49046486,174997.58645381
1.99725275,0.90000000,0.80000000,no screening,7128.35476704,8443.21264316,10502.02455486,452.41768228,533.05741112,682.18712451,0.06000572,0.06375794,0.06569534,-0.05137683,-0.02859996,-0.02282839,282533.32415351,282556.52736276,282579.67293063,107548.33814333,107568.66320698,107586.74816193
2.99725275,0.90000000,0.80000000,no screening,7190.46030266,8488.24515582,10912.28730856,628.54254091,738.58341478,968.93427332,0.08285142,0.08791619,0.09010871,-0.06222626,-0.03248782,-0.02375637,387562.36063465,387601.53979597,387641.44099640,105018.13770999,105045.20824670,105073.68237186
3.99725275,0.90000000,0.80000000,no screening,7224.12298844,8546.19739010,11142.90438531,788.55560402,929.32187877,1232.72262237,0.10346902,0.10982676,0.11199439,-0.05068706,-0.04047231,-0.03158068,492495.57607025,492552.38513379,492612.36525104,104919.17430334,104950.72578959,104985.25502516
4.99725275,0.90000000,0.80000000,no screening,7209.29233950,8561.66645073,10941.09765174,931.43521665,1102.41878729,1408.23104855,0.12244498,0.12988230,0.13205234,-0.06454189,-0.04282172,-0.03317250,597427.10078599,597501.44832175,597577.64456653,104905.88344823,104949.83689017,104990.01367052
5.99725275,0.90000000,0.80000000,no screening,7203.69725462,8554.02865419,11124.68251898,1063.35901466,1256.58264478,1634.82351324,0.13990804,0.14834634,0.15043183,-0.06974660,-0.04040346,-0.02986036,702354.78507439,702452.33555045,702551.24806863,104909.70710216,104949.31708267,104996.62449270
6.99725275,0.90000000,0.80000000,no screening,7203.70876061,8550.62183615,11308.88247377,1185.41185937,1400.59217067,1859.09606483,0.15588448,0.16532908,0.16750403,-0.05417962,-0.04062350,-0.02974926,807297.56608864,807404.32407240,807514.14655443,104910.76957415,104953.67958110,104992.69197833
7.99725275,0.90000000,0.80000000,no screening,7180.07917333,8523.34177121,11023.28697345,1292.19821641,1531.14772997,1962.81860715,0.17085458,0.18104749,0.18331586,-0.05991085,-0.03826974,-0.02649678,912233.51746305,912352.76896333,912470.32052834,104915.09029646,104948.50200162,104982.74246051
8.99725275,0.90000000,0.80000000,no screening,7163.75662563,8491.27030621,11075.19446527,1388.83665112,1645.14304646,2130.65416978,0.18474287,0.19557599,0.19801792,-0.05992800,-0.03212121,-0.01981144,1017172.15802164,1017299.12133447,1017422.58758282,104911.25307067,104944.91122576,104976.35377754
9.99725275,0.90000000,0.80000000,no screening,7099.38276936,8449.85734300,11253.67134785,1472.60498770,1751.73481836,2317.13556400,0.19761058,0.20906534,0.21171117,-0.04432440,-0.02773778,-0.01517966,1122107.59184021,1122243.64433292,1122375.34964353,104907.28891988,104944.89403840,104975.98488661
0.99725275,0.90000000,0.80000000,perfect screening,6821.40885496,8084.92330746,10345.83474962,0.00000000,0.00000000,0.00000000,0.00000000,0.00000000,0.00000000,0.00761548,0.01483722,0.02179347,88838.00813902,90965.95773797,91651.85933789,88838.00813902,90965.95773797,91651.85933789
1.99725275,0.90000000,0.80000000,perfect screening,6685.84014116,7925.99271501,9873.90106295,0.00000000,0.00000000,0.00000000,0.00000000,0.00000000,0.00000000,0.01214000,0.03513309,0.03880617,143677.56288582,146927.13758099,148068.40633671,54841.04389438,55956.84674045,56403.17590775
2.99725275,0.90000000,0.80000000,perfect screening,6575.17139207,7773.53090022,10023.64083583,0.00000000,0.00000000,0.00000000,0.00000000,0.00000000,0.00000000,0.02628530,0.05430820,0.05821503,197359.03947419,201577.53564321,203184.35340019,53630.32603449,54648.87091793,55102.56853108
3.99725275,0.90000000,0.80000000,perfect screening,6483.73266132,7665.80900385,10062.60669382,0.00000000,0.00000000,0.00000000,0.00000000,0.00000000,0.00000000,0.05643311,0.06594030,0.06979649,251177.32304457,256197.79680428,258276.67046714,53811.87631900,54620.85302515,55123.83668938
4.99725275,0.90000000,0.80000000,perfect screening,6371.09871932,7549.07540943,9657.12995294,0.00000000,0.00000000,0.00000000,0.00000000,0.00000000,0.00000000,0.05999168,0.08070905,0.08433218,305027.93100958,310837.74848199,313470.59718047,53843.62877610,54643.93860880,55139.02800228
5.99725275,0.90000000,0.80000000,perfect screening,6270.80956249,7429.78322427,9652.39601248,0.00000000,0.00000000,0.00000000,0.00000000,0.00000000,0.00000000,0.06808773,0.09651012,0.10013747,358872.92171285,365486.82693477,368610.48172029,53844.45043459,54652.44569096,55149.39453041
6.99725275,0.90000000,0.80000000,perfect screening,6187.28806796,7324.13298427,9738.95967072,0.00000000,0.00000000,0.00000000,0.00000000,0.00000000,0.00000000,0.09535924,0.10729284,0.11084589,412870.32890804,420157.47413259,423790.15464009,53983.09871477,54659.71834364,55175.97379585
7.99725275,0.90000000,0.80000000,perfect screening,6117.09873558,7236.68504164,9361.34980438,0.00000000,0.00000000,0.00000000,0.00000000,0.00000000,0.00000000,0.10125627,0.11874756,0.12230034,466844.72321867,474820.65642419,478976.36042159,53996.19053967,54681.62244882,55203.31273822
8.99725275,0.90000000,0.80000000,perfect screening,6038.10197564,7138.34504702,9318.97355102,0.00000000,0.00000000,0.00000000,0.00000000,0.00000000,0.00000000,0.10698133,0.13091464,0.13577850,520799.39234761,529506.33016748,534195.81752178,53959.52578953,54688.54905075,55219.41433131
9.99725275,0.90000000,0.80000000,perfect screening,5968.68783258,7056.54523404,9347.61729159,0.00000000,0.00000000,0.00000000,0.00000000,0.00000000,0.00000000,0.12802116,0.14004271,0.14441694,574838.78333801,584182.89146673,589408.71763914,54038.20506857,54698.21946961,55221.78454487
0.99725275,0.90000000,0.80000000,realistic screening,6853.86671729,8122.63412758,10393.28477375,0.01721247,0.25253252,2.04851924,0.00000205,0.00003099,0.00023587,0.00308386,0.01011137,0.01823530,67226.61271667,74212.43795831,80346.53460248,67226.61271667,74212.43795831,80346.53460248
1.99725275,0.90000000,0.80000000,realistic screening,6741.96976718,7988.56483515,9940.62587596,0.04479512,0.64721652,5.31694195,0.00000535,0.00008046,0.00063502,0.00544460,0.02697909,0.03168316,113404.26103031,123703.08397003,132446.29464275,46187.54254078,49478.70352065,52112.44855911
2.99725275,0.90000000,0.80000000,realistic screening,6648.95781433,7853.00735220,10092.13314663,0.06992775,1.01335095,8.29660281,0.00000849,0.00012699,0.00101137,0.01874792,0.04402498,0.04968061,157764.42220679,171378.02896118,182867.22493809,44360.16117648,47654.00228809,50425.33929841
3.99725275,0.90000000,0.80000000,realistic screening,6565.66807858,7770.46720845,10177.01059547,0.09316637,1.34518095,10.96349053,0.00001142,0.00017129,0.00136637,0.04401728,0.05248185,0.05876530,201955.14333064,218905.04074141,233214.42575422,44272.55349692,47538.84170572,50347.20081613
4.99725275,0.90000000,0.80000000,realistic screening,6481.54475250,7680.68342309,9793.23739235,0.11423166,1.64231520,13.48066614,0.00001419,0.00021291,0.00169965,0.04654084,0.06450380,0.07174794,246157.09501796,266431.73101146,283589.80366535,44288.52912805,47549.85200604,50375.37791113
5.99725275,0.90000000,0.80000000,realistic screening,6399.05493983,7569.51899537,9828.11267438,0.13331085,1.92646078,15.77954197,0.00001679,0.00025195,0.00201224,0.05529798,0.07830820,0.08554520,290387.92590006,313973.89895770,333998.75874666,44316.84600394,47565.32216536,50405.08501527
6.99725275,0.90000000,0.80000000,realistic screening,6338.02781527,7486.72474644,9907.46526518,0.15100042,2.17712365,17.78626152,0.00001920,0.00028849,0.00230490,0.07667594,0.08663440,0.09466118,334765.85315739,361518.37835376,384419.53420033,44336.51073916,47580.41507421,50427.68480232
7.99725275,0.90000000,0.80000000,realistic screening,6273.49274803,7409.60566384,9531.58396177,0.16686410,2.40049422,19.69118774,0.00002146,0.00032248,0.00257688,0.08075051,0.09595982,0.10517014,379353.45019352,409094.98869347,434857.33099039,44359.65398603,47610.79087759,50444.66031439
8.99725275,0.90000000,0.80000000,realistic screening,6203.54767149,7327.37539736,9536.15758651,0.18105797,2.61078092,21.42742215,0.00002356,0.00035381,0.00282894,0.08808478,0.10697466,0.11592924,423927.66205406,456683.98621243,485318.01906171,44355.80714613,47604.44102614,50455.97721923
9.99725275,0.90000000,0.80000000,realistic screening,6141.48714181,7264.94467738,9628.49619451,0.19410091,2.79979419,22.88816659,0.00002549,0.00038266,0.00306210,0.10311315,0.11444491,0.12410170,468427.11225443,504262.54608514,535781.14926112,44370.64906863,47619.61049749,50463.13019941
0.99725275,0.90000000,0.80000000,no vaccine,6933.24081817,8195.91961944,10581.69213857,NaN,NaN,NaN,NaN,NaN,NaN,NaN,NaN,NaN,NaN,NaN,NaN,NaN,NaN,NaN
1.99725275,0.90000000,0.80000000,no vaccine,6933.62887194,8208.48524165,10007.63745000,NaN,NaN,NaN,NaN,NaN,NaN,NaN,NaN,NaN,NaN,NaN,NaN,NaN,NaN,NaN
2.99725275,0.90000000,0.80000000,no vaccine,6952.44189893,8229.36268498,10323.11247515,NaN,NaN,NaN,NaN,NaN,NaN,NaN,NaN,NaN,NaN,NaN,NaN,NaN,NaN,NaN
3.99725275,0.90000000,0.80000000,no vaccine,6942.05736668,8205.60754717,10730.11753849,NaN,NaN,NaN,NaN,NaN,NaN,NaN,NaN,NaN,NaN,NaN,NaN,NaN,NaN,NaN
4.99725275,0.90000000,0.80000000,no vaccine,6925.54192159,8209.27756247,10282.32158926,NaN,NaN,NaN,NaN,NaN,NaN,NaN,NaN,NaN,NaN,NaN,NaN,NaN,NaN,NaN
5.99725275,0.90000000,0.80000000,no vaccine,6934.01177625,8224.54099224,10417.18284806,NaN,NaN,NaN,NaN,NaN,NaN,NaN,NaN,NaN,NaN,NaN,NaN,NaN,NaN,NaN
6.99725275,0.90000000,0.80000000,no vaccine,6946.29495678,8206.59863958,10783.64918103,NaN,NaN,NaN,NaN,NaN,NaN,NaN,NaN,NaN,NaN,NaN,NaN,NaN,NaN,NaN
7.99725275,0.90000000,0.80000000,no vaccine,6941.07657135,8217.02320715,10412.39649093,NaN,NaN,NaN,NaN,NaN,NaN,NaN,NaN,NaN,NaN,NaN,NaN,NaN,NaN,NaN
8.99725275,0.90000000,0.80000000,no vaccine,6941.42449283,8219.69663551,10505.01089786,NaN,NaN,NaN,NaN,NaN,NaN,NaN,NaN,NaN,NaN,NaN,NaN,NaN,NaN,NaN
9.99725275,0.90000000,0.80000000,no vaccine,6938.16529203,8213.17402859,10784.43154806,NaN,NaN,NaN,NaN,NaN,NaN,NaN,NaN,NaN,NaN,NaN,NaN,NaN,NaN,NaN
