time,screeningCoverage,vaccineResponseProb,screeningScenario,totalHospCounts_025,totalHospCounts_500,totalHospCounts_975,vacInducedHospCount_025,vacInducedHospCount_500,vacInducedHospCount_975,vacInducedHospPerc_025,vacInducedHospPerc_500,vacInducedHospPerc_975,advHosp_025,advHosp_500,advHosp_975,nVaccines_025,nVaccines_500,nVaccines_975,nVaccinesPerYear_025,nVaccinesPerYear_500,nVaccinesPerYear_975
0.99725275,0.50000000,0.40000000,no screening,11162.92693701,13404.14293373,16671.20972808,80.46222389,95.76521360,126.86783664,0.00675174,0.00722003,0.00765156,0.01364055,0.02796482,0.03244022,126153.48130257,126178.19854784,126206.34270180,126153.48130257,126178.19854784,126206.34270180
1.99725275,0.50000000,0.40000000,no screening,10725.08715300,12974.79172924,16566.03467580,198.70141246,240.09754279,322.34634766,0.01752095,0.01868469,0.01947056,0.04276437,0.06132965,0.08510101,253584.57215380,253642.35693814,253698.98517963,127413.63787633,127464.03354893,127508.75387493
2.99725275,0.50000000,0.40000000,no screening,11045.83159833,13477.71045041,17284.80548106,317.26235661,384.50003071,510.58452284,0.02698438,0.02886607,0.02976093,0.01563693,0.03908758,0.06757664,381949.69782484,382038.67533180,382121.70072441,128340.08967475,128397.51466455,128453.26229890
3.99725275,0.50000000,0.40000000,no screening,11079.31167741,13233.38715642,16981.74591205,417.67984740,493.98075526,657.58183121,0.03539028,0.03783224,0.03873179,0.03848674,0.06352067,0.07046816,511347.74630245,511457.24501094,511575.21910442,129357.43077022,129418.41609172,129483.67681005
4.99725275,0.50000000,0.40000000,no screening,11035.12657285,13259.84376524,17262.66487404,506.45203286,603.42172541,798.49323657,0.04300129,0.04597631,0.04677927,0.04308321,0.06898059,0.07988685,641781.10570044,641918.57002234,642055.10632476,130397.36703172,130460.00838433,130520.85685992
5.99725275,0.50000000,0.40000000,no screening,11200.85622988,13503.76934665,17498.75269262,595.88344476,711.31730418,937.08335031,0.04966344,0.05323025,0.05403598,0.03206948,0.06283319,0.07560347,773306.00361063,773451.98298095,773614.60785702,131474.94174455,131534.78406496,131594.38509275
6.99725275,0.50000000,0.40000000,no screening,11283.50945664,13372.72712534,17292.41833643,670.48625862,790.01145242,1036.11423579,0.05565226,0.05976070,0.06064620,0.05983818,0.07952706,0.08340548,905967.69614577,906128.31368722,906311.95286879,132611.24383287,132678.24986485,132741.07378260
7.99725275,0.50000000,0.40000000,no screening,11358.63532976,13551.89664497,17589.44745191,742.32655485,882.31909234,1151.97272954,0.06115127,0.06567096,0.06662201,0.05069011,0.07708183,0.08245726,1039788.43821420,1039972.52413843,1040175.88580730,133774.39990971,133845.41520043,133917.20736127
8.99725275,0.50000000,0.40000000,no screening,11483.97352656,13666.85369695,17631.99699331,808.95673297,958.84481319,1247.21629943,0.06608313,0.07089657,0.07199170,0.05700244,0.07910133,0.08247211,1174850.30507277,1175058.75421491,1175291.42960696,135013.65647108,135087.32548763,135163.01520083
9.99725275,0.50000000,0.40000000,no screening,11566.08749515,13663.07922240,17613.56183997,867.42526373,1024.40678535,1326.46702407,0.07056193,0.07555379,0.07685420,0.07170840,0.08601039,0.08940998,1311197.23203437,1311436.24681168,1311685.41598244,136304.27544583,136375.08904379,136456.78264603
0.99725275,0.50000000,0.40000000,perfect screening,11081.64249102,13309.48463347,16553.24646292,0.00000000,0.00000000,0.00000000,0.00000000,0.00000000,0.00000000,0.02075349,0.03468277,0.03929171,72319.40541684,74408.04239656,74921.49110293,72319.40541684,74408.04239656,74921.49110293
1.99725275,0.50000000,0.40000000,perfect screening,10567.11655779,12770.47893066,16288.16917722,0.00000000,0.00000000,0.00000000,0.00000000,0.00000000,0.00000000,0.05929621,0.07605139,0.09695395,145321.19168442,149157.53013861,150172.37914151,72933.08340342,74742.79357523,75252.20935956
2.99725275,0.50000000,0.40000000,perfect screening,10868.82679164,13199.43873336,16884.16784412,0.00000000,0.00000000,0.00000000,0.00000000,0.00000000,0.00000000,0.03862972,0.05891421,0.07988322,218721.62073576,223934.61490116,225452.12009424,73388.39772515,74785.17397944,75285.26568976
3.99725275,0.50000000,0.40000000,perfect screening,10915.00397240,12917.41575877,16458.22222254,0.00000000,0.00000000,0.00000000,0.00000000,0.00000000,0.00000000,0.06659143,0.08546619,0.09013374,292492.11663893,298908.99681419,300905.34606889,73765.58856620,74977.99663460,75471.47172758
4.99725275,0.50000000,0.40000000,perfect screening,10848.52587499,12934.36027520,16634.75718966,0.00000000,0.00000000,0.00000000,0.00000000,0.00000000,0.00000000,0.07514314,0.09236077,0.09749292,366475.14106189,373974.01042795,376471.50881675,74020.96302626,75055.63402957,75577.88881918
5.99725275,0.50000000,0.40000000,perfect screening,10992.89896815,13161.50688198,16889.74288675,0.00000000,0.00000000,0.00000000,0.00000000,0.00000000,0.00000000,0.06730594,0.08788160,0.09160513,440868.01539050,449236.94680412,452309.64372201,74396.55655892,75267.32988617,75835.42441372
6.99725275,0.50000000,0.40000000,perfect screening,11088.98373380,13018.81058930,16661.66467748,0.00000000,0.00000000,0.00000000,0.00000000,0.00000000,0.00000000,0.08907160,0.10274739,0.10739708,515619.64139543,524834.09894465,528488.01538513,74826.44710416,75593.47489693,76205.19713232
7.99725275,0.50000000,0.40000000,perfect screening,11167.06546632,13223.23285104,16922.93714615,0.00000000,0.00000000,0.00000000,0.00000000,0.00000000,0.00000000,0.08576028,0.09857570,0.10249817,590717.82574078,600776.14818789,605130.27016162,75178.00580577,75949.65383420,76689.29171242
8.99725275,0.50000000,0.40000000,perfect screening,11300.42692504,13312.59384752,16977.55943270,0.00000000,0.00000000,0.00000000,0.00000000,0.00000000,0.00000000,0.09221189,0.10127363,0.10658341,666303.29689940,677269.73482548,682374.48826259,75662.05924608,76473.35130373,77306.02764452
9.99725275,0.50000000,0.40000000,perfect screening,11390.07320773,13362.12910417,16932.27378122,0.00000000,0.00000000,0.00000000,0.00000000,0.00000000,0.00000000,0.09454257,0.10702814,0.11355228,742263.45541560,754304.39878113,760239.90728790,76120.98703036,77031.51446973,77964.98343994
0.99725275,0.50000000,0.40000000,realistic screening,11099.15314504,13323.19745102,16574.25805973,7.92578722,14.61104006,24.75729286,0.00061315,0.00110144,0.00170231,0.01956027,0.03353383,0.03821561,77944.63527515,82060.74397391,86627.02691113,77944.63527515,82060.74397391,86627.02691113
1.99725275,0.50000000,0.40000000,realistic screening,10593.07060624,12812.28822817,16331.63072029,19.71192942,36.69203532,62.59888725,0.00160293,0.00288038,0.00445304,0.05679892,0.07379219,0.09513847,156558.43635330,164639.23749286,173805.64306903,78575.87803314,82559.33549431,87177.25055451
2.99725275,0.50000000,0.40000000,realistic screening,10900.00026551,13241.82041729,16931.04100706,31.50325644,58.95031309,98.70730042,0.00247794,0.00447760,0.00691262,0.03534758,0.05566113,0.07760611,235518.52254331,247353.70360764,261223.86445966,78939.32881699,82750.61328769,87424.41999718
3.99725275,0.50000000,0.40000000,realistic screening,10928.89109819,12974.89513159,16537.91457279,40.36583452,76.07183276,128.08435750,0.00324973,0.00589832,0.00909479,0.06264653,0.08162957,0.08703726,314876.53265166,330417.18920344,349016.10833719,79213.62046956,83076.18102018,87827.40180992
4.99725275,0.50000000,0.40000000,realistic screening,10885.02131049,12990.71718321,16737.69441251,49.64620451,93.19951708,156.11987599,0.00395617,0.00718744,0.01109921,0.06965280,0.08852874,0.09475281,394546.76391778,413723.50669364,437126.64749334,79436.95698396,83308.62938184,88107.72820385
5.99725275,0.50000000,0.40000000,realistic screening,11029.49844592,13213.21487260,16950.99471948,58.41859816,109.98214695,184.51783043,0.00459011,0.00834193,0.01289858,0.06274486,0.08369985,0.08874523,474525.18863086,497341.47011062,525591.52504394,79784.44103985,83684.89740880,88525.11825701
6.99725275,0.50000000,0.40000000,realistic screening,11124.60010541,13080.36567049,16765.56462418,65.24718390,122.34845754,205.66918896,0.00515805,0.00937161,0.01450689,0.08586705,0.09862802,0.10340595,554519.55023890,581417.51142130,614590.34749399,80166.23294328,84107.79641090,89003.87337809
7.99725275,0.50000000,0.40000000,realistic screening,11207.03924655,13281.62816569,17039.42571128,72.72358562,136.60408496,229.02986963,0.00567491,0.01029036,0.01596092,0.08044053,0.09486599,0.09895336,634907.56789266,665950.66724880,704152.82079227,80560.33843890,84545.33080109,89591.52285335
8.99725275,0.50000000,0.40000000,realistic screening,11325.20563849,13365.34638263,17037.66777620,78.77818794,148.33580943,249.88323143,0.00613181,0.01110240,0.01724033,0.08790514,0.09736255,0.10218179,715868.00357261,751082.53644136,794355.92851309,81004.25011804,85147.14523956,90261.60195666
9.99725275,0.50000000,0.40000000,realistic screening,11419.93390452,13419.83307574,17050.95474117,84.29442168,158.50052403,266.05558494,0.00653989,0.01184708,0.01837171,0.09235522,0.10336684,0.10942536,797625.95279728,836842.93357945,885151.43296387,81589.74506229,85805.71669891,90902.62869677
0.99725275,0.50000000,0.40000000,no vaccine,11523.70048913,13795.15712885,17001.93818151,NaN,NaN,NaN,NaN,NaN,NaN,NaN,NaN,NaN,NaN,NaN,NaN,NaN,NaN,NaN
1.99725275,0.50000000,0.40000000,no vaccine,11647.43178396,13848.75455622,17358.88284866,NaN,NaN,NaN,NaN,NaN,NaN,NaN,NaN,NaN,NaN,NaN,NaN,NaN,NaN,NaN
2.99725275,0.50000000,0.40000000,no vaccine,11755.51452534,14025.43966803,17529.78524736,NaN,NaN,NaN,NaN,NaN,NaN,NaN,NaN,NaN,NaN,NaN,NaN,NaN,NaN,NaN
3.99725275,0.50000000,0.40000000,no vaccine,11856.60243298,14125.52833523,17684.06861413,NaN,NaN,NaN,NaN,NaN,NaN,NaN,NaN,NaN,NaN,NaN,NaN,NaN,NaN,NaN
4.99725275,0.50000000,0.40000000,no vaccine,11989.58692257,14266.33636681,18090.37936745,NaN,NaN,NaN,NaN,NaN,NaN,NaN,NaN,NaN,NaN,NaN,NaN,NaN,NaN,NaN
5.99725275,0.50000000,0.40000000,no vaccine,12111.66234351,14409.93077656,18100.40288110,NaN,NaN,NaN,NaN,NaN,NaN,NaN,NaN,NaN,NaN,NaN,NaN,NaN,NaN,NaN
6.99725275,0.50000000,0.40000000,no vaccine,12219.55889366,14536.65692274,18428.53882695,NaN,NaN,NaN,NaN,NaN,NaN,NaN,NaN,NaN,NaN,NaN,NaN,NaN,NaN,NaN
7.99725275,0.50000000,0.40000000,no vaccine,12372.23164601,14699.12348728,18626.76120347,NaN,NaN,NaN,NaN,NaN,NaN,NaN,NaN,NaN,NaN,NaN,NaN,NaN,NaN,NaN
8.99725275,0.50000000,0.40000000,no vaccine,12473.48564257,14833.57011921,18743.62541824,NaN,NaN,NaN,NaN,NaN,NaN,NaN,NaN,NaN,NaN,NaN,NaN,NaN,NaN,NaN
9.99725275,0.50000000,0.40000000,no vaccine,12594.46989817,14990.13760632,19053.59866581,NaN,NaN,NaN,NaN,NaN,NaN,NaN,NaN,NaN,NaN,NaN,NaN,NaN,NaN,NaN
0.99725275,0.50000000,0.60000000,no screening,10988.47613120,13213.25412825,16499.00644745,118.09345879,140.85784685,187.48179039,0.01006941,0.01076750,0.01142148,0.02309162,0.04152961,0.04797881,126157.00128389,126181.14557608,126207.68085437,126157.00128389,126181.14557608,126207.68085437
1.99725275,0.50000000,0.60000000,no screening,10263.65591522,12549.73198557,16228.24203043,285.39906360,347.38880408,471.60862099,0.02626888,0.02799872,0.02911565,0.06315440,0.09288114,0.12726141,253592.75562387,253651.12773437,253707.31863178,127419.85199532,127470.22842158,127514.65817729
2.99725275,0.50000000,0.60000000,no screening,10672.75850695,13181.63946354,17093.65252826,462.47967615,564.59165728,756.72252563,0.04058883,0.04341136,0.04453317,0.02394141,0.06000447,0.10379145,381971.01822169,382055.32203011,382144.64279418,128348.11027044,128404.84844868,128462.40347465
3.99725275,0.50000000,0.60000000,no screening,10743.13237686,12827.29513453,16625.30184241,611.65426691,720.86391951,964.34287376,0.05326441,0.05696956,0.05802804,0.05726745,0.09221713,0.10167872,511372.29463168,511481.02490982,511592.62991858,129365.11241241,129425.28551728,129485.22042227
4.99725275,0.50000000,0.60000000,no screening,10579.11840376,12750.76797418,16806.95781711,737.38716535,877.16375088,1169.89896440,0.06479565,0.06954221,0.07057411,0.06515058,0.10556421,0.11915428,641820.21313336,641951.19373415,642083.65975196,130409.14200215,130470.21876255,130523.49551155
5.99725275,0.50000000,0.60000000,no screening,10764.05821826,13087.32273694,17197.18240714,871.60441238,1045.83963585,1386.64069026,0.07517785,0.08090848,0.08208760,0.04803722,0.09214094,0.11309792,773351.42157711,773488.04550507,773647.57647993,131480.11224870,131540.61094851,131604.22446147
6.99725275,0.50000000,0.60000000,no screening,10845.47337518,12837.26704819,16785.67052828,989.22941003,1158.14573419,1517.38707656,0.08465389,0.09118969,0.09244869,0.08741872,0.11536462,0.12089729,906009.48715209,906172.45141875,906343.85014987,132617.68535875,132683.88650599,132751.55410777
7.99725275,0.50000000,0.60000000,no screening,10890.72822046,12982.47586960,17103.21560592,1095.24229297,1295.14195420,1692.83594089,0.09352481,0.10067730,0.10197992,0.07748983,0.11585167,0.12193715,1039837.54207448,1040022.17528649,1040220.09366161,133778.18141924,133849.69596245,133926.68584369
8.99725275,0.50000000,0.60000000,no screening,11018.69073082,13159.44976678,17165.65507233,1200.81296983,1422.02135800,1845.88903579,0.10150236,0.10915876,0.11063148,0.08059427,0.11364470,0.11906251,1174881.70327854,1175117.29506173,1175352.43158653,135021.79402725,135095.73680744,135170.03870675
9.99725275,0.50000000,0.60000000,no screening,11093.07730935,13064.34520209,16981.44263825,1288.57967351,1514.05136088,1949.81523825,0.10883135,0.11691599,0.11855567,0.10621432,0.12562232,0.12988728,1311250.30747590,1311504.73665215,1311746.86401196,136311.98805268,136383.28678576,136460.42414416
0.99725275,0.50000000,0.60000000,perfect screening,10880.75950947,13076.83409723,16326.65296438,0.00000000,0.00000000,0.00000000,0.00000000,0.00000000,0.00000000,0.03314737,0.05141172,0.05790833,72290.52859926,74387.71572096,74902.70194679,72290.52859926,74387.71572096,74902.70194679
1.99725275,0.50000000,0.60000000,perfect screening,10057.61334908,12256.84267168,15804.99729842,0.00000000,0.00000000,0.00000000,0.00000000,0.00000000,0.00000000,0.08697035,0.11408402,0.14388519,145168.49692127,148956.23230654,149969.04577756,72812.80872100,74561.52079330,75071.59935908
2.99725275,0.50000000,0.60000000,perfect screening,10425.19270756,12779.75251378,16478.70047455,0.00000000,0.00000000,0.00000000,0.00000000,0.00000000,0.00000000,0.05892128,0.08904396,0.12252327,218292.78744000,223330.18113482,224835.21133267,73112.84823014,74383.39239916,74858.16207351
3.99725275,0.50000000,0.60000000,perfect screening,10471.18799164,12360.40333064,15915.05969510,0.00000000,0.00000000,0.00000000,0.00000000,0.00000000,0.00000000,0.09928537,0.12489631,0.13123367,291657.29690264,297753.12947953,299728.37717371,73371.91067465,74419.10848314,74879.72705222
4.99725275,0.50000000,0.60000000,perfect screening,10321.48274868,12262.19560417,15942.27776343,0.00000000,0.00000000,0.00000000,0.00000000,0.00000000,0.00000000,0.11203517,0.13940026,0.14569164,365040.73073455,372043.63579288,374498.67231597,73500.12037366,74291.75372863,74771.91147242
5.99725275,0.50000000,0.60000000,perfect screening,10476.06154882,12555.11871299,16226.32490624,0.00000000,0.00000000,0.00000000,0.00000000,0.00000000,0.00000000,0.10021487,0.12997365,0.13602245,438766.63561977,446344.71652408,449312.77215368,73711.46938501,74331.49540372,74834.57821828
6.99725275,0.50000000,0.60000000,perfect screening,10535.08127333,12304.42939084,15820.58678428,0.00000000,0.00000000,0.00000000,0.00000000,0.00000000,0.00000000,0.13158064,0.15091432,0.15752374,512662.44235511,520854.41194277,524368.86919939,73923.31188794,74538.65937213,75089.49971205
7.99725275,0.50000000,0.60000000,perfect screening,10616.15005254,12498.69087082,16102.58642329,0.00000000,0.00000000,0.00000000,0.00000000,0.00000000,0.00000000,0.13047892,0.14813532,0.15361583,586737.37584756,595637.20736053,599710.69293694,74122.61061917,74754.47691554,75463.41264970
8.99725275,0.50000000,0.60000000,perfect screening,10713.32690584,12599.48153059,16139.31937744,0.00000000,0.00000000,0.00000000,0.00000000,0.00000000,0.00000000,0.13594323,0.14819964,0.15459731,661202.41011902,670831.13572345,675638.52365058,74517.71731424,75175.52354254,76022.22526486
9.99725275,0.50000000,0.60000000,perfect screening,10805.22006407,12583.08884743,15967.51152314,0.00000000,0.00000000,0.00000000,0.00000000,0.00000000,0.00000000,0.13994784,0.15923031,0.16845637,736336.44908363,746555.51924686,752113.18841923,74895.60249855,75665.37941218,76655.69518515
0.99725275,0.50000000,0.60000000,realistic screening,10895.88132357,13100.45353075,16361.39624204,11.65576085,21.48673082,36.58643093,0.00091714,0.00164809,0.00254592,0.03130346,0.04958886,0.05626923,77931.69396955,82040.42692622,86620.72326548,77931.69396955,82040.42692622,86620.72326548
1.99725275,0.50000000,0.60000000,realistic screening,10093.84301328,12305.39184326,15852.22116807,28.61041477,53.37135801,90.80759946,0.00241798,0.00434429,0.00671507,0.08312785,0.11041830,0.14140686,156406.61734855,164458.92161152,173661.27158527,78433.33208388,82410.17644866,87054.61231360
2.99725275,0.50000000,0.60000000,realistic screening,10467.67810398,12839.58822093,16571.07550986,46.50855036,86.98286693,146.40437015,0.00376015,0.00680762,0.01050133,0.05348856,0.08396255,0.11884161,235120.31590060,246869.58367043,260809.47636660,78530.89981257,82409.25416950,87137.45415019
3.99725275,0.50000000,0.60000000,realistic screening,10509.26305229,12436.37659826,16032.88880173,59.51076026,111.64515449,188.23427004,0.00495972,0.00901825,0.01389198,0.09254436,0.11930888,0.12643795,314122.87968323,329459.47473892,348208.20092904,78741.26069445,82627.59817499,87410.51691552
4.99725275,0.50000000,0.60000000,realistic screening,10341.04159126,12340.13886559,16090.42413290,72.80003329,136.42481144,229.65632867,0.00609561,0.01107451,0.01706486,0.10481622,0.13350837,0.14105979,392980.83769088,412148.58547427,435773.72524926,78787.23769601,82702.75881269,87582.01705663
5.99725275,0.50000000,0.60000000,realistic screening,10537.58779653,12633.93894182,16356.32161111,86.56081200,163.02935514,272.42249398,0.00712524,0.01292765,0.01994477,0.09339159,0.12354560,0.13168915,471744.74640861,494975.30721110,523533.89764248,78908.17851341,82904.67339274,87837.34470423
6.99725275,0.50000000,0.60000000,realistic screening,10580.03307487,12387.93677719,15951.61456519,97.19709159,180.60147572,303.92044819,0.00804195,0.01458550,0.02255345,0.12708305,0.14471531,0.15132066,551030.12311047,578130.55375659,611658.03140354,79187.78383040,83205.53055573,88186.99729205
7.99725275,0.50000000,0.60000000,realistic screening,10645.78313247,12582.05406802,16258.02407420,108.11671847,202.51332321,338.80150363,0.00886650,0.01610774,0.02493001,0.12086347,0.14260955,0.14812046,630345.03374060,661653.67076122,700182.05935797,79480.99354525,83523.22505225,88541.49871057
8.99725275,0.50000000,0.60000000,realistic screening,10765.37121096,12690.58471566,16254.44904905,117.56429161,221.72137205,372.16072245,0.00960310,0.01744916,0.02705214,0.12780352,0.14196957,0.14829226,710789.37526440,745598.84969540,789275.33111449,79851.81408034,84047.31123194,89166.94758573
9.99725275,0.50000000,0.60000000,realistic screening,10843.06812694,12658.24779087,16124.25466538,125.97368640,235.56536281,395.49948727,0.01028715,0.01865424,0.02895485,0.13683163,0.15344261,0.16201051,791335.62238808,830241.85530565,879094.16609180,80316.87775344,84619.05115544,89790.01689583
0.99725275,0.50000000,0.60000000,no vaccine,11523.70048913,13795.15712885,17001.93818151,NaN,NaN,NaN,NaN,NaN,NaN,NaN,NaN,NaN,NaN,NaN,NaN,NaN,NaN,NaN
1.99725275,0.50000000,0.60000000,no vaccine,11647.43178396,13848.75455622,17358.88284866,NaN,NaN,NaN,NaN,NaN,NaN,NaN,NaN,NaN,NaN,NaN,NaN,NaN,NaN,NaN
2.99725275,0.50000000,0.60000000,no vaccine,11755.51452534,14025.43966803,17529.78524736,NaN,NaN,NaN,NaN,NaN,NaN,NaN,NaN,NaN,NaN,NaN,NaN,NaN,NaN,NaN
3.99725275,0.50000000,0.60000000,no vaccine,11856.60243298,14125.52833523,17684.06861413,NaN,NaN,NaN,NaN,NaN,NaN,NaN,NaN,NaN,NaN,NaN,NaN,NaN,NaN,NaN
4.99725275,0.50000000,0.60000000,no vaccine,11989.58692257,14266.33636681,18090.37936745,NaN,NaN,NaN,NaN,NaN,NaN,NaN,NaN,NaN,NaN,NaN,NaN,NaN,NaN,NaN
5.99725275,0.50000000,0.60000000,no vaccine,12111.66234351,14409.93077656,18100.40288110,NaN,NaN,NaN,NaN,NaN,NaN,NaN,NaN,NaN,NaN,NaN,NaN,NaN,NaN,NaN
6.99725275,0.50000000,0.60000000,no vaccine,12219.55889366,14536.65692274,18428.53882695,NaN,NaN,NaN,NaN,NaN,NaN,NaN,NaN,NaN,NaN,NaN,NaN,NaN,NaN,NaN
7.99725275,0.50000000,0.60000000,no vaccine,12372.23164601,14699.12348728,18626.76120347,NaN,NaN,NaN,NaN,NaN,NaN,NaN,NaN,NaN,NaN,NaN,NaN,NaN,NaN,NaN
8.99725275,0.50000000,0.60000000,no vaccine,12473.48564257,14833.57011921,18743.62541824,NaN,NaN,NaN,NaN,NaN,NaN,NaN,NaN,NaN,NaN,NaN,NaN,NaN,NaN,NaN
9.99725275,0.50000000,0.60000000,no vaccine,12594.46989817,14990.13760632,19053.59866581,NaN,NaN,NaN,NaN,NaN,NaN,NaN,NaN,NaN,NaN,NaN,NaN,NaN,NaN,NaN
0.99725275,0.50000000,0.80000000,no screening,10812.58161657,13028.82604577,16322.82635651,154.11100898,184.05894057,246.49854429,0.01334334,0.01427601,0.01515336,0.03205092,0.05483537,0.06321124,126160.47688249,126184.59344360,126212.13514683,126160.47688249,126184.59344360,126212.13514683
1.99725275,0.50000000,0.80000000,no screening,9788.18177210,12117.97933887,15859.95628647,364.95973177,446.00946771,612.57290902,0.03498864,0.03728461,0.03867599,0.08322699,0.12439117,0.16845940,253601.64773227,253660.44290624,253717.43859515,127424.12095248,127474.68407135,127522.88698442
2.99725275,0.50000000,0.80000000,no screening,10228.73306707,12882.97852411,16882.57846693,597.62137418,735.88069668,995.99799709,0.05426476,0.05798305,0.05925168,0.03185837,0.08187623,0.14173763,381983.35086799,382070.62584387,382151.69867900,128347.81456944,128409.63647558,128468.65971405
3.99725275,0.50000000,0.80000000,no screening,10418.74290929,12451.53894879,16321.68221064,797.74042974,935.87380756,1255.62181121,0.07117336,0.07624000,0.07789265,0.07583049,0.11920842,0.13129966,511392.36656451,511499.11750904,511609.87529168,129368.52931547,129431.69239308,129490.41751071
4.99725275,0.50000000,0.80000000,no screening,10182.23819487,12226.38783760,16363.57210619,952.24898670,1130.21268590,1521.36487106,0.08690882,0.09340004,0.09505920,0.08933377,0.14246552,0.15706188,641844.23466215,641977.44482104,642103.32434285,130414.53538355,130476.70662139,130532.87830726
5.99725275,0.50000000,0.80000000,no screening,10353.62131596,12658.99714643,16862.61922103,1133.32003160,1366.66105683,1819.54596946,0.10134195,0.10904305,0.11105768,0.06443867,0.12157948,0.15061755,773384.03996412,773520.44399465,773666.16878300,131488.23703977,131547.93717733,131602.78013675
6.99725275,0.50000000,0.80000000,no screening,10430.35660651,12371.52009019,16306.56792332,1292.31205130,1509.74338863,1977.14759742,0.11451122,0.12329411,0.12560319,0.11401041,0.14821190,0.15456026,906051.54768105,906209.08081711,906378.12467222,132621.27244779,132689.33878211,132756.06663860
7.99725275,0.50000000,0.80000000,no screening,10468.25963747,12413.36118933,16615.32721037,1432.22294137,1684.36565154,2207.58381078,0.12691295,0.13670435,0.13892632,0.10620338,0.15423524,0.16048348,1039882.95069804,1040067.62707310,1040269.53081239,133784.59954690,133856.83728052,133933.59185747
8.99725275,0.50000000,0.80000000,no screening,10573.32162519,12667.19783912,16752.68375464,1576.79114900,1871.00129132,2431.31251034,0.13829954,0.14890556,0.15119703,0.10241461,0.14559918,0.15505532,1174968.07043992,1175167.27912356,1175394.04894552,135019.47314570,135102.19982729,135176.09690488
9.99725275,0.50000000,0.80000000,no screening,10625.34519495,12529.17259309,16385.80038104,1698.70410217,1989.76659500,2550.23807963,0.14871724,0.16006317,0.16234884,0.13787064,0.16098949,0.16691736,1311323.50538307,1311552.30857293,1311806.98887947,136313.37461771,136389.39415730,136466.48643386
0.99725275,0.50000000,0.80000000,perfect screening,10677.14945298,12852.62143960,16104.28536538,0.00000000,0.00000000,0.00000000,0.00000000,0.00000000,0.00000000,0.04536450,0.06770615,0.07624709,72271.11634470,74370.00454513,74880.93728422,72271.11634470,74370.00454513,74880.93728422
1.99725275,0.50000000,0.80000000,perfect screening,9536.15359352,11749.02973797,15323.68809358,0.00000000,0.00000000,0.00000000,0.00000000,0.00000000,0.00000000,0.11413216,0.15200662,0.18953302,145011.63917316,148758.74179146,149753.18510872,72669.02670719,74384.92928197,74873.26339088
2.99725275,0.50000000,0.80000000,perfect screening,9941.72916339,12343.65154372,16064.66866191,0.00000000,0.00000000,0.00000000,0.00000000,0.00000000,0.00000000,0.07921777,0.12012082,0.16541117,217817.88871918,222733.31787954,224185.61086302,72803.69509114,73976.62102348,74438.83763531
3.99725275,0.50000000,0.80000000,perfect screening,10016.42949412,11828.18241626,15370.59925164,0.00000000,0.00000000,0.00000000,0.00000000,0.00000000,0.00000000,0.12996109,0.16193111,0.16983905,290808.75501476,296598.23066090,298449.13976985,72990.46036757,73859.52715619,74338.38151542
4.99725275,0.50000000,0.80000000,perfect screening,9809.81388178,11591.02136399,15255.45672098,0.00000000,0.00000000,0.00000000,0.00000000,0.00000000,0.00000000,0.14942547,0.18582953,0.19301190,363654.93194139,370118.95468781,372441.42182074,72913.32050049,73531.50206948,73970.84392453
5.99725275,0.50000000,0.80000000,perfect screening,9935.69757444,11959.44585580,15627.07678814,0.00000000,0.00000000,0.00000000,0.00000000,0.00000000,0.00000000,0.13264597,0.17158175,0.18002462,436622.79486084,443452.44297705,446294.48044078,72847.36800360,73376.14432048,73849.96087008
6.99725275,0.50000000,0.80000000,perfect screening,9995.53125986,11633.12873129,15039.68291008,0.00000000,0.00000000,0.00000000,0.00000000,0.00000000,0.00000000,0.17398412,0.19635477,0.20508767,509645.78661490,516894.55334566,520232.19534382,72934.13380603,73463.21039688,73951.72324560
7.99725275,0.50000000,0.80000000,perfect screening,10078.54019244,11769.99889722,15247.87313021,0.00000000,0.00000000,0.00000000,0.00000000,0.00000000,0.00000000,0.17343832,0.19773057,0.20461179,582714.85645091,590415.46294955,594305.49335059,73010.24072386,73531.71401115,74234.08467892
8.99725275,0.50000000,0.80000000,perfect screening,10148.83060265,11937.40012202,15342.85415361,0.00000000,0.00000000,0.00000000,0.00000000,0.00000000,0.00000000,0.17675219,0.19372774,0.20059020,656366.95898280,664292.18072531,668824.56974775,73259.63121719,73854.48764555,74698.99668264
9.99725275,0.50000000,0.80000000,perfect screening,10217.27934422,11824.90414792,15048.15444256,0.00000000,0.00000000,0.00000000,0.00000000,0.00000000,0.00000000,0.18498534,0.20888138,0.22103125,730399.84798168,738664.44480699,743972.81805684,73621.23708227,74299.48968892,75338.33104097
0.99725275,0.50000000,0.80000000,realistic screening,10700.50677406,12884.13166511,16142.22788111,15.22367444,28.11933328,47.95979935,0.00121911,0.00219193,0.00338398,0.04315733,0.06544297,0.07417657,77918.62560129,82026.78884870,86602.46771009,77918.62560129,82026.78884870,86602.46771009
1.99725275,0.50000000,0.80000000,realistic screening,9586.47685282,11806.01495070,15409.44495146,36.79876879,68.83799740,117.22404580,0.00324193,0.00582898,0.00899992,0.10919720,0.14704489,0.18630158,156274.04154898,164295.76515097,173502.82832779,78354.04956226,82265.30978764,86917.70059642
2.99725275,0.50000000,0.80000000,realistic screening,9982.32269299,12427.30848098,16221.93075952,60.94548168,113.80239934,193.08932868,0.00507209,0.00920734,0.01417447,0.07267745,0.11331684,0.16134145,234696.47157868,246393.32870738,260372.30768688,78256.97415377,82071.27698025,86853.22634308
3.99725275,0.50000000,0.80000000,realistic screening,10091.49431293,11926.97648402,15502.37303593,78.01348232,145.65719300,245.43744964,0.00676147,0.01226321,0.01886171,0.12149923,0.15471474,0.16373441,313189.41908497,328519.23316879,347370.50800530,78171.94753492,82171.67609164,86979.15795164
4.99725275,0.50000000,0.80000000,realistic screening,9875.96500687,11690.82974885,15426.31520943,94.47031574,177.04193402,299.88887265,0.00835726,0.01515789,0.02332365,0.14048104,0.17825545,0.18719471,391010.53988514,410499.20416983,434273.44896398,78015.71104344,82043.48743855,86996.48650022
5.99725275,0.50000000,0.80000000,realistic screening,10030.63192106,12075.86350951,15821.49940211,114.09721736,214.49300680,357.84936284,0.00982024,0.01779889,0.02742436,0.12280118,0.16293023,0.17502738,469414.34887876,492588.06133173,521239.99722810,77946.29535674,82077.87009956,87136.48781253
6.99725275,0.50000000,0.80000000,realistic screening,10064.55009383,11751.21046403,15250.92709208,128.75703432,237.38611416,397.80994431,0.01116395,0.02020811,0.03117150,0.16728695,0.18794839,0.19649873,547595.75034672,574851.22489413,608495.59514219,78148.13373468,82276.12617484,87367.71115417
7.99725275,0.50000000,0.80000000,realistic screening,10132.88919980,11881.64487273,15491.16915573,142.33309212,266.16301239,444.39334053,0.01239297,0.02241670,0.03467817,0.16253902,0.18991367,0.19724391,626265.61444396,657453.99565922,696252.89839238,78351.11280080,82483.84208105,87590.55783144
8.99725275,0.50000000,0.80000000,realistic screening,10215.71802244,12053.36246684,15556.51423841,156.47603184,294.14855373,493.65387430,0.01346639,0.02437688,0.03776571,0.16578079,0.18514712,0.19230078,705188.26467458,740395.77198183,784616.74780979,78711.75586736,82902.33627615,88064.17182731
9.99725275,0.50000000,0.80000000,realistic screening,10272.75308756,11938.58533095,15245.11571150,168.46071535,311.85113036,523.66375225,0.01440701,0.02616400,0.04050381,0.18062313,0.20081919,0.21178143,784628.64632815,823873.49780813,873190.67436052,79073.38418474,83432.74840219,88706.46280618
0.99725275,0.50000000,0.80000000,no vaccine,11523.70048913,13795.15712885,17001.93818151,NaN,NaN,NaN,NaN,NaN,NaN,NaN,NaN,NaN,NaN,NaN,NaN,NaN,NaN,NaN
1.99725275,0.50000000,0.80000000,no vaccine,11647.43178396,13848.75455622,17358.88284866,NaN,NaN,NaN,NaN,NaN,NaN,NaN,NaN,NaN,NaN,NaN,NaN,NaN,NaN,NaN
2.99725275,0.50000000,0.80000000,no vaccine,11755.51452534,14025.43966803,17529.78524736,NaN,NaN,NaN,NaN,NaN,NaN,NaN,NaN,NaN,NaN,NaN,NaN,NaN,NaN,NaN
3.99725275,0.50000000,0.80000000,no vaccine,11856.60243298,14125.52833523,17684.06861413,NaN,NaN,NaN,NaN,NaN,NaN,NaN,NaN,NaN,NaN,NaN,NaN,NaN,NaN,NaN
4.99725275,0.50000000,0.80000000,no vaccine,11989.58692257,14266.33636681,18090.37936745,NaN,NaN,NaN,NaN,NaN,NaN,NaN,NaN,NaN,NaN,NaN,NaN,NaN,NaN,NaN
5.99725275,0.50000000,0.80000000,no vaccine,12111.66234351,14409.93077656,18100.40288110,NaN,NaN,NaN,NaN,NaN,NaN,NaN,NaN,NaN,NaN,NaN,NaN,NaN,NaN,NaN
6.99725275,0.50000000,0.80000000,no vaccine,12219.55889366,14536.65692274,18428.53882695,NaN,NaN,NaN,NaN,NaN,NaN,NaN,NaN,NaN,NaN,NaN,NaN,NaN,NaN,NaN
7.99725275,0.50000000,0.80000000,no vaccine,12372.23164601,14699.12348728,18626.76120347,NaN,NaN,NaN,NaN,NaN,NaN,NaN,NaN,NaN,NaN,NaN,NaN,NaN,NaN,NaN
8.99725275,0.50000000,0.80000000,no vaccine,12473.48564257,14833.57011921,18743.62541824,NaN,NaN,NaN,NaN,NaN,NaN,NaN,NaN,NaN,NaN,NaN,NaN,NaN,NaN,NaN
9.99725275,0.50000000,0.80000000,no vaccine,12594.46989817,14990.13760632,19053.59866581,NaN,NaN,NaN,NaN,NaN,NaN,NaN,NaN,NaN,NaN,NaN,NaN,NaN,NaN,NaN
0.99725275,0.70000000,0.40000000,no screening,11028.12052723,13249.87779431,16530.77652097,110.66343438,131.99723741,175.43686519,0.00940948,0.01006106,0.01067080,0.02093158,0.03878828,0.04492588,176623.51849061,176653.12027959,176691.44216632,176623.51849061,176653.12027959,176691.44216632
1.99725275,0.70000000,0.40000000,no screening,10350.62945229,12635.51513202,16299.97991400,268.58122443,326.56290967,442.70738619,0.02452344,0.02613653,0.02718572,0.05980883,0.08631868,0.11894787,355028.06108551,355109.85647592,355192.24954356,178380.54777842,178456.83950735,178520.04377795
2.99725275,0.70000000,0.40000000,no screening,10763.04020479,13243.00792035,17133.69781886,434.09816958,529.29144609,707.73359391,0.03787139,0.04049505,0.04158453,0.02229105,0.05531003,0.09685103,534754.19350031,534873.34494113,535001.12839058,179685.41818089,179767.16873326,179844.63253108
3.99725275,0.70000000,0.40000000,no screening,10798.76074166,12898.67215160,16694.68354268,573.63883945,676.62211652,903.89600033,0.04966907,0.05313284,0.05415329,0.05382743,0.08667903,0.09561982,715914.37603621,716056.13196837,716209.80908241,181108.30469871,181184.03815784,181256.20794583
4.99725275,0.70000000,0.40000000,no screening,10663.58330238,12847.50058586,16897.29904602,692.05942481,824.06839298,1097.29054207,0.06043014,0.06480334,0.06576683,0.06055636,0.09825187,0.11154626,898535.75296612,898695.64594716,898892.94732019,182565.84251077,182640.49016191,182720.27896583
5.99725275,0.70000000,0.40000000,no screening,10857.65386035,13171.56033055,17259.56219890,817.95265789,980.01046836,1296.19190271,0.06999292,0.07533453,0.07640080,0.04465220,0.08616977,0.10511536,1082667.05899442,1082877.50007816,1083094.06512088,184088.66480586,184177.26797946,184262.58311621
6.99725275,0.70000000,0.40000000,no screening,10927.58459581,12947.82851832,16883.70769357,926.98688521,1085.84815787,1422.19626457,0.07884770,0.08484532,0.08598449,0.08226269,0.10836458,0.11341321,1268418.18855070,1268650.91289758,1268881.44991593,185691.60399396,185776.62792698,185858.52824842
7.99725275,0.70000000,0.40000000,no screening,10972.00391213,13100.66484497,17180.73399693,1024.98561482,1214.39404600,1589.87126988,0.08697006,0.09356144,0.09480655,0.07222626,0.10806923,0.11417842,1455820.07003408,1456086.14807531,1456350.86194657,187346.11872873,187431.22183545,187515.74309378
8.99725275,0.70000000,0.40000000,no screening,11121.28225901,13249.73676314,17246.43295013,1123.00319759,1330.62924981,1727.46626038,0.09431663,0.10140923,0.10276946,0.07645018,0.10668635,0.11164903,1644958.52177156,1645237.47865025,1645519.39111024,189069.06790932,189151.67403430,189245.38097499
9.99725275,0.70000000,0.40000000,no screening,11185.81410917,13185.88789369,17104.21123167,1205.49601407,1417.91984580,1826.09487691,0.10101260,0.10845636,0.11004240,0.09976874,0.11789278,0.12185481,1835878.33288592,1836170.25586813,1836503.82874166,190849.91302448,190935.18989916,191038.70615904
0.99725275,0.70000000,0.40000000,perfect screening,10918.00637873,13122.07977133,16373.20395790,0.00000000,0.00000000,0.00000000,0.00000000,0.00000000,0.00000000,0.03087275,0.04797445,0.05415327,101227.80735870,104157.66502163,104873.39486664,101227.80735870,104157.66502163,104873.39486664
1.99725275,0.70000000,0.40000000,perfect screening,10162.79702168,12365.77103816,15910.83905970,0.00000000,0.00000000,0.00000000,0.00000000,0.00000000,0.00000000,0.08149982,0.10674479,0.13448280,203289.18682747,208597.66375295,210023.19717192,101979.93841666,104440.88592516,105144.79309133
2.99725275,0.70000000,0.40000000,perfect screening,10507.70649876,12863.22597488,16580.56774316,0.00000000,0.00000000,0.00000000,0.00000000,0.00000000,0.00000000,0.05484261,0.08275118,0.11355791,305717.52459894,312837.13162913,314944.72684980,102413.69602470,104249.33405823,104921.08992624
3.99725275,0.70000000,0.40000000,perfect screening,10561.67377721,12470.22494464,16030.44142043,0.00000000,0.00000000,0.00000000,0.00000000,0.00000000,0.00000000,0.09243724,0.11713067,0.12308242,408544.49647185,417171.33760917,419925.10848533,102847.90997786,104343.93497697,105000.99815066
4.99725275,0.70000000,0.40000000,perfect screening,10412.19410332,12400.57268635,16088.28939830,0.00000000,0.00000000,0.00000000,0.00000000,0.00000000,0.00000000,0.10494476,0.12995955,0.13609491,511514.78303148,521417.59554394,524835.40474899,103024.53527654,104227.22530077,104909.06207578
5.99725275,0.70000000,0.40000000,perfect screening,10586.94308861,12676.32467203,16363.94431656,0.00000000,0.00000000,0.00000000,0.00000000,0.00000000,0.00000000,0.09350998,0.12152450,0.12689749,614833.42654695,625732.41460598,629901.56619342,103415.55394244,104347.53186954,105065.75405059
6.99725275,0.70000000,0.40000000,perfect screening,10656.43856080,12446.34543212,15992.61578993,0.00000000,0.00000000,0.00000000,0.00000000,0.00000000,0.00000000,0.12339385,0.14151939,0.14786392,718487.52414943,730381.88350743,735247.39476532,103794.05349717,104656.53783361,105441.13283309
7.99725275,0.70000000,0.40000000,perfect screening,10710.06162695,12647.95228494,16267.49953467,0.00000000,0.00000000,0.00000000,0.00000000,0.00000000,0.00000000,0.12166411,0.13836475,0.14345962,822451.63590741,835402.85667750,841059.90289183,104070.12445503,104994.88395583,106008.83146807
8.99725275,0.70000000,0.40000000,perfect screening,10830.52319655,12751.90012794,16298.50548033,0.00000000,0.00000000,0.00000000,0.00000000,0.00000000,0.00000000,0.12742819,0.13890344,0.14512550,927001.54964586,941003.47056279,947889.09423499,104639.12212669,105610.76215934,106775.68216288
9.99725275,0.70000000,0.40000000,perfect screening,10913.10148148,12730.89950357,16164.18633866,0.00000000,0.00000000,0.00000000,0.00000000,0.00000000,0.00000000,0.13111880,0.14890971,0.15753397,1032486.54614171,1047396.87303028,1055323.12816098,105208.98465219,106329.34091801,107688.76613035
0.99725275,0.70000000,0.40000000,realistic screening,10937.63364727,13145.03884122,16396.77331107,10.92368076,20.13706561,34.24601747,0.00085631,0.00153909,0.00237793,0.02887869,0.04641783,0.05274632,109104.51244119,114868.83205601,121269.83058512,109104.51244119,114868.83205601,121269.83058512
1.99725275,0.70000000,0.40000000,realistic screening,10191.24566315,12409.83547968,15946.63634641,26.85965187,50.16809456,85.32263403,0.00225478,0.00405007,0.00626158,0.07753052,0.10314191,0.13201155,219024.95658384,230301.98827979,243164.31198977,109880.02515343,115415.26421396,121899.22663609
2.99725275,0.70000000,0.40000000,realistic screening,10552.65300058,12921.33494891,16649.00003682,43.56926729,81.49402031,137.13919777,0.00350133,0.00633705,0.00977421,0.04977803,0.07834790,0.11007591,329297.57306668,345765.26470581,365198.96700776,110091.08464303,115482.35331873,122040.01968477
3.99725275,0.70000000,0.40000000,realistic screening,10603.54094774,12540.61537878,16121.17990467,55.76478198,104.71843933,176.12016910,0.00460874,0.00838229,0.01291809,0.08659913,0.11208818,0.11900176,439987.21843292,461531.06214894,487655.96943481,110369.80536814,115787.11476395,122479.25199927
4.99725275,0.70000000,0.40000000,realistic screening,10444.32626945,12478.27332648,16231.65604740,68.21563907,127.97286112,215.55685093,0.00565504,0.01028413,0.01585225,0.09730748,0.12444663,0.13191839,550793.24952916,577481.19819727,610377.84157774,110496.48480738,115960.74544038,122726.00244145
5.99725275,0.70000000,0.40000000,realistic screening,10640.22591428,12746.44950111,16472.69496237,80.98174889,152.49470926,255.35168778,0.00660155,0.01198414,0.01849978,0.08697052,0.11558571,0.12299503,661309.47548853,693656.21471702,733498.59893634,110706.75234592,116274.34905097,123179.84521222
6.99725275,0.70000000,0.40000000,realistic screening,10687.55355443,12523.30004751,16096.07279714,90.91782110,168.96785333,284.08577227,0.00744353,0.01351329,0.02090065,0.11877223,0.13578685,0.14194713,772350.32385893,810325.10962996,857088.58912160,111208.16799046,116776.06237183,123691.34562009
7.99725275,0.70000000,0.40000000,realistic screening,10757.90646157,12727.29538436,16421.43183954,101.03306670,189.46928489,317.45390260,0.00819873,0.01490603,0.02308332,0.11288976,0.13303041,0.13834970,883989.48350622,927522.13681477,981255.17382131,111600.73705897,117241.57446344,124230.33747098
8.99725275,0.70000000,0.40000000,realistic screening,10873.44088467,12819.51844385,16420.76900886,109.91058638,207.15717681,347.29393172,0.00888657,0.01613671,0.02502460,0.12031408,0.13311080,0.13913474,996414.24244155,1045436.86454326,1106297.73453059,112190.08070666,117963.78639959,125114.56589656
9.99725275,0.70000000,0.40000000,realistic screening,10956.32624824,12811.79862648,16325.18117222,117.66401610,220.32979791,369.52374797,0.00951196,0.01724445,0.02676255,0.12808968,0.14360791,0.15149644,1109773.18901040,1164192.00612296,1232264.20548951,112890.12412797,118808.83230773,126067.69334957
0.99725275,0.70000000,0.40000000,no vaccine,11523.70048913,13795.15712885,17001.93818151,NaN,NaN,NaN,NaN,NaN,NaN,NaN,NaN,NaN,NaN,NaN,NaN,NaN,NaN,NaN
1.99725275,0.70000000,0.40000000,no vaccine,11647.43178396,13848.75455622,17358.88284866,NaN,NaN,NaN,NaN,NaN,NaN,NaN,NaN,NaN,NaN,NaN,NaN,NaN,NaN,NaN
2.99725275,0.70000000,0.40000000,no vaccine,11755.51452534,14025.43966803,17529.78524736,NaN,NaN,NaN,NaN,NaN,NaN,NaN,NaN,NaN,NaN,NaN,NaN,NaN,NaN,NaN
3.99725275,0.70000000,0.40000000,no vaccine,11856.60243298,14125.52833523,17684.06861413,NaN,NaN,NaN,NaN,NaN,NaN,NaN,NaN,NaN,NaN,NaN,NaN,NaN,NaN,NaN
4.99725275,0.70000000,0.40000000,no vaccine,11989.58692257,14266.33636681,18090.37936745,NaN,NaN,NaN,NaN,NaN,NaN,NaN,NaN,NaN,NaN,NaN,NaN,NaN,NaN,NaN
5.99725275,0.70000000,0.40000000,no vaccine,12111.66234351,14409.93077656,18100.40288110,NaN,NaN,NaN,NaN,NaN,NaN,NaN,NaN,NaN,NaN,NaN,NaN,NaN,NaN,NaN
6.99725275,0.70000000,0.40000000,no vaccine,12219.55889366,14536.65692274,18428.53882695,NaN,NaN,NaN,NaN,NaN,NaN,NaN,NaN,NaN,NaN,NaN,NaN,NaN,NaN,NaN
7.99725275,0.70000000,0.40000000,no vaccine,12372.23164601,14699.12348728,18626.76120347,NaN,NaN,NaN,NaN,NaN,NaN,NaN,NaN,NaN,NaN,NaN,NaN,NaN,NaN,NaN
8.99725275,0.70000000,0.40000000,no vaccine,12473.48564257,14833.57011921,18743.62541824,NaN,NaN,NaN,NaN,NaN,NaN,NaN,NaN,NaN,NaN,NaN,NaN,NaN,NaN,NaN
9.99725275,0.70000000,0.40000000,no vaccine,12594.46989817,14990.13760632,19053.59866581,NaN,NaN,NaN,NaN,NaN,NaN,NaN,NaN,NaN,NaN,NaN,NaN,NaN,NaN,NaN
0.99725275,0.70000000,0.60000000,no screening,10780.35739728,12994.46084372,16296.05833877,161.09873674,192.50975547,258.10486932,0.01399537,0.01497083,0.01589792,0.03350184,0.05744446,0.06626736,176624.36832028,176658.14699593,176695.20572809,176624.36832028,176658.14699593,176695.20572809
1.99725275,0.70000000,0.60000000,no screening,9698.68613609,12035.98595855,15791.31578928,379.67193309,464.50555462,639.46061416,0.03673132,0.03913347,0.04058168,0.08803190,0.13049954,0.17658926,355053.25937936,355127.31280592,355204.21367609,178403.72463058,178468.70418181,178532.35326677
2.99725275,0.70000000,0.60000000,no screening,10141.92195108,12828.95423142,16848.58957016,623.00723308,768.93108047,1043.16432549,0.05699463,0.06091674,0.06222678,0.03422695,0.08637898,0.14989856,534792.40622181,534902.07620946,535008.64356573,179690.99910069,179774.92421027,179848.55173154
3.99725275,0.70000000,0.60000000,no screening,10352.56490499,12373.89790813,16246.52104419,833.26783407,977.62240711,1312.83349842,0.07472762,0.08009864,0.08190202,0.07877790,0.12431822,0.13680307,715963.09332578,716096.25559778,716237.37966943,181119.71116093,181193.47471033,181266.73904192
4.99725275,0.70000000,0.60000000,no screening,10093.43653452,12123.37422234,16282.63959293,993.31377885,1178.02704172,1589.28787464,0.09137996,0.09818681,0.10001049,0.09381193,0.14954885,0.16446646,898588.08665433,898757.50042199,898931.75585467,182579.43424903,182660.81032073,182737.56141640
5.99725275,0.70000000,0.60000000,no screening,10266.45500172,12581.28994666,16828.00063959,1184.49531614,1428.46136387,1903.83051045,0.10661442,0.11475333,0.11695716,0.06698235,0.12720573,0.15779036,1082736.71438650,1082947.39090549,1083154.38060688,184105.31314708,184192.75599713,184267.39569170
6.99725275,0.70000000,0.60000000,no screening,10358.02472278,12284.90986151,16209.80541660,1352.02420594,1578.53240088,2065.40744095,0.12048340,0.12985648,0.13233047,0.11843074,0.15429653,0.16103641,1268510.28499968,1268733.24835006,1268946.33244189,185702.14714846,185787.29428602,185876.54335526
7.99725275,0.70000000,0.60000000,no screening,10383.31234586,12295.60824913,16519.74046429,1498.23535954,1759.13067691,2306.36401019,0.13372404,0.14405029,0.14646664,0.11147525,0.16180123,0.16809138,1455941.31155956,1456177.07848559,1456427.08538609,187365.24857175,187443.00144158,187532.77675597
8.99725275,0.70000000,0.60000000,no screening,10478.66081180,12572.55006142,16694.06049790,1651.53623284,1959.81970879,2546.83882224,0.14584425,0.15704057,0.15951734,0.10509788,0.15168282,0.16214591,1645100.29848756,1645341.53774662,1645637.59004570,189084.84340847,189163.58040814,189263.17741486
9.99725275,0.70000000,0.60000000,no screening,10528.15180762,12429.46562083,16266.04902964,1781.10461303,2083.38829714,2662.00220968,0.15663965,0.16891241,0.17137979,0.14392309,0.16759156,0.17349733,1836011.07063085,1836289.67440711,1836621.76548530,190860.09149150,190947.86875072,191065.24440260
0.99725275,0.70000000,0.60000000,perfect screening,10635.82140042,12810.13907095,16051.30107726,0.00000000,0.00000000,0.00000000,0.00000000,0.00000000,0.00000000,0.04798217,0.07090138,0.07988112,101204.55608093,104114.18790176,104837.75625025,101204.55608093,104114.18790176,104837.75625025
1.99725275,0.70000000,0.60000000,perfect screening,9430.18794654,11645.81691160,15222.78516809,0.00000000,0.00000000,0.00000000,0.00000000,0.00000000,0.00000000,0.11980602,0.15939791,0.19822591,203001.59109004,208208.70395160,209606.89582422,101713.60510721,104089.26864624,104787.84594833
2.99725275,0.70000000,0.60000000,perfect screening,9826.73659797,12253.02933647,15995.91349289,0.00000000,0.00000000,0.00000000,0.00000000,0.00000000,0.00000000,0.08337322,0.12644851,0.17418835,304831.05021987,311666.67268543,313732.86985772,101829.77414811,103452.88744295,104119.50883333
3.99725275,0.70000000,0.60000000,perfect screening,9932.50082957,11730.44232623,15254.72816630,0.00000000,0.00000000,0.00000000,0.00000000,0.00000000,0.00000000,0.13630234,0.16926626,0.17758834,406888.54731899,414894.80736266,417506.63793712,102058.17951446,103242.80193624,103916.38874311
4.99725275,0.70000000,0.60000000,perfect screening,9718.07232218,11455.90512143,15130.58284563,0.00000000,0.00000000,0.00000000,0.00000000,0.00000000,0.00000000,0.15667236,0.19510642,0.20252668,508728.88819411,517600.46909512,520817.02645621,101897.19096150,102736.35927529,103360.10032098
5.99725275,0.70000000,0.60000000,perfect screening,9823.54025634,11844.95057614,15501.13687477,0.00000000,0.00000000,0.00000000,0.00000000,0.00000000,0.00000000,0.13891504,0.17973548,0.18901259,610663.42478334,620034.72080126,623944.90082979,101744.37752159,102470.86306412,103131.34771222
6.99725275,0.70000000,0.60000000,perfect screening,9895.47878806,11503.68445497,14882.71248949,0.00000000,0.00000000,0.00000000,0.00000000,0.00000000,0.00000000,0.18226190,0.20515364,0.21393957,712576.27732062,722554.74095520,727146.87565510,101841.81607274,102548.28889012,103240.57651433
7.99725275,0.70000000,0.60000000,perfect screening,9961.12714724,11627.82350544,15092.35466772,0.00000000,0.00000000,0.00000000,0.00000000,0.00000000,0.00000000,0.18279556,0.20751800,0.21484918,814715.89622287,825195.22320378,830581.87660993,101890.55940819,102606.00171375,103587.69309409
8.99725275,0.70000000,0.60000000,perfect screening,10038.14194780,11800.65624615,15190.41769831,0.00000000,0.00000000,0.00000000,0.00000000,0.00000000,0.00000000,0.18508265,0.20266847,0.20949296,917564.41523946,928183.54566606,934541.67337421,102225.54970165,103030.44202144,104197.57673666
9.99725275,0.70000000,0.60000000,perfect screening,10097.76521151,11675.51804141,14854.32740888,0.00000000,0.00000000,0.00000000,0.00000000,0.00000000,0.00000000,0.19407179,0.21867170,0.23116220,1020777.83033943,1031899.95181858,1039313.49643640,102700.97898365,103640.26532965,105079.64214699
0.99725275,0.70000000,0.60000000,realistic screening,10655.76348987,12841.42446948,16097.55779533,15.91511560,29.42344729,50.16887239,0.00127959,0.00229994,0.00355117,0.04532456,0.06858497,0.07762113,109072.14986347,114840.26321570,121232.26469957,109072.14986347,114840.26321570,121232.26469957
1.99725275,0.70000000,0.60000000,realistic screening,9472.84609820,11708.21938571,15315.06720983,38.31659874,71.73440133,122.42507051,0.00340882,0.00612796,0.00946036,0.11448045,0.15435047,0.19510481,218732.54868584,229996.01957947,242860.11591590,109657.60388743,115131.61885904,121650.92720085
2.99725275,0.70000000,0.60000000,realistic screening,9882.59569255,12344.28936113,16145.21708181,63.66569208,118.95398249,201.86212759,0.00533902,0.00969802,0.01492345,0.07662316,0.11945533,0.17001890,328531.62545843,344795.76107419,364388.63716324,109447.45056845,114817.91407495,121491.55795132
3.99725275,0.70000000,0.60000000,realistic screening,9999.42301712,11830.57971257,15405.75032834,81.69037087,152.25322149,256.55477066,0.00712402,0.01292490,0.01988029,0.12644866,0.16163127,0.17093042,438037.90286271,459681.56259618,486104.78473405,109266.44582494,114896.70392385,121661.38439340
4.99725275,0.70000000,0.60000000,realistic screening,9771.85872898,11559.20841456,15308.63396081,98.51553517,184.87556074,312.98431537,0.00881591,0.01600023,0.02461519,0.14787913,0.18722214,0.19630882,546916.24044769,574297.18125636,607599.41190373,109004.08556100,114679.06739151,121658.92682174
5.99725275,0.70000000,0.60000000,realistic screening,9934.76993429,11962.12890226,15695.71244412,119.49409282,224.69432976,374.32811963,0.01037397,0.01881367,0.02898347,0.12902750,0.17062547,0.18355345,656323.78915908,688962.58925111,729182.29272886,108881.40696796,114654.03155946,121738.98050361
6.99725275,0.70000000,0.60000000,realistic screening,9960.69264085,11628.96935027,15112.93770322,134.74255163,248.44525588,416.79097921,0.01180640,0.02138348,0.03297031,0.17520556,0.19613883,0.20537261,765931.82578983,803948.04622396,851127.15119290,109121.25369299,114954.54889585,122128.63230790
7.99725275,0.70000000,0.60000000,realistic screening,10021.01862489,11734.38850422,15332.10861273,149.28505127,278.58272472,464.67061664,0.01313819,0.02374868,0.03671504,0.17076323,0.19933081,0.20691819,875455.10509393,919170.50803747,974012.58119809,109431.36166858,115196.60550269,122391.09096949
8.99725275,0.70000000,0.60000000,realistic screening,10116.38728300,11929.04283170,15408.91381647,164.23825927,308.75466227,517.66190026,0.01428904,0.02584755,0.04003579,0.17340069,0.19363593,0.20085909,985584.68737038,1035021.16506156,1097127.14816640,109878.00918559,115757.13319739,122969.63012641
9.99725275,0.70000000,0.60000000,realistic screening,10166.78300637,11802.29017367,15071.27108977,176.67939115,327.03212851,548.06840171,0.01529684,0.02776598,0.04295575,0.18933420,0.20985347,0.22141627,1096480.27737508,1151721.43517126,1220880.08771240,110380.33742131,116469.00474890,123865.29415409
0.99725275,0.70000000,0.60000000,no vaccine,11523.70048913,13795.15712885,17001.93818151,NaN,NaN,NaN,NaN,NaN,NaN,NaN,NaN,NaN,NaN,NaN,NaN,NaN,NaN,NaN
1.99725275,0.70000000,0.60000000,no vaccine,11647.43178396,13848.75455622,17358.88284866,NaN,NaN,NaN,NaN,NaN,NaN,NaN,NaN,NaN,NaN,NaN,NaN,NaN,NaN,NaN
2.99725275,0.70000000,0.60000000,no vaccine,11755.51452534,14025.43966803,17529.78524736,NaN,NaN,NaN,NaN,NaN,NaN,NaN,NaN,NaN,NaN,NaN,NaN,NaN,NaN,NaN
3.99725275,0.70000000,0.60000000,no vaccine,11856.60243298,14125.52833523,17684.06861413,NaN,NaN,NaN,NaN,NaN,NaN,NaN,NaN,NaN,NaN,NaN,NaN,NaN,NaN,NaN
4.99725275,0.70000000,0.60000000,no vaccine,11989.58692257,14266.33636681,18090.37936745,NaN,NaN,NaN,NaN,NaN,NaN,NaN,NaN,NaN,NaN,NaN,NaN,NaN,NaN,NaN
5.99725275,0.70000000,0.60000000,no vaccine,12111.66234351,14409.93077656,18100.40288110,NaN,NaN,NaN,NaN,NaN,NaN,NaN,NaN,NaN,NaN,NaN,NaN,NaN,NaN,NaN
6.99725275,0.70000000,0.60000000,no vaccine,12219.55889366,14536.65692274,18428.53882695,NaN,NaN,NaN,NaN,NaN,NaN,NaN,NaN,NaN,NaN,NaN,NaN,NaN,NaN,NaN
7.99725275,0.70000000,0.60000000,no vaccine,12372.23164601,14699.12348728,18626.76120347,NaN,NaN,NaN,NaN,NaN,NaN,NaN,NaN,NaN,NaN,NaN,NaN,NaN,NaN,NaN
8.99725275,0.70000000,0.60000000,no vaccine,12473.48564257,14833.57011921,18743.62541824,NaN,NaN,NaN,NaN,NaN,NaN,NaN,NaN,NaN,NaN,NaN,NaN,NaN,NaN,NaN
9.99725275,0.70000000,0.60000000,no vaccine,12594.46989817,14990.13760632,19053.59866581,NaN,NaN,NaN,NaN,NaN,NaN,NaN,NaN,NaN,NaN,NaN,NaN,NaN,NaN,NaN
0.99725275,0.70000000,0.80000000,no screening,10541.17302038,12744.86539818,16047.88747715,208.25632603,249.36384714,337.39349648,0.01851047,0.01979970,0.02105039,0.04577662,0.07566226,0.08698777,176631.97321879,176664.47644640,176699.73743284,176631.97321879,176664.47644640,176699.73743284
1.99725275,0.70000000,0.80000000,no screening,9071.11202997,11426.96155799,15276.87171993,472.68385392,586.69130424,821.02683933,0.04888899,0.05205056,0.05383922,0.11676999,0.17483624,0.23259699,355078.01516661,355148.57813178,355226.29552475,178417.69931073,178485.21120920,178550.54621297
2.99725275,0.70000000,0.80000000,no screening,9493.20700557,12370.29050890,16564.90553382,782.29608768,990.24448651,1362.15838565,0.07612440,0.08140254,0.08330887,0.04872465,0.11984745,0.20572379,534829.89004286,534935.94125049,535052.55508537,179701.46675851,179787.28835629,179868.05001977
3.99725275,0.70000000,0.80000000,no screening,9888.42335079,11882.53116628,15858.32013404,1073.20359322,1258.25422377,1700.57101618,0.09978264,0.10722858,0.11012508,0.10136019,0.15852022,0.17457242,716007.98898990,716137.03874882,716286.30473276,181132.25386336,181203.72572303,181274.34026824
4.99725275,0.70000000,0.80000000,no screening,9530.01877502,11394.75738308,15669.85295219,1273.01370341,1488.81503025,2034.46534784,0.12263044,0.13196088,0.13520944,0.12983851,0.20055058,0.21582592,898658.76880736,898812.78314910,898996.85042190,182598.93012016,182675.24037995,182756.39337994
5.99725275,0.70000000,0.80000000,no screening,9651.98854828,11980.02670924,16396.76774910,1512.53017044,1836.99858346,2480.58388386,0.14367483,0.15487718,0.15893804,0.08869418,0.16991883,0.21015218,1082828.68459533,1083016.58019601,1083223.89906324,184116.82857141,184204.68175689,184279.35006744
6.99725275,0.70000000,0.80000000,no screening,9807.47543688,11707.97509837,15625.43588725,1750.77529647,2044.07894941,2674.39582879,0.16317669,0.17603334,0.18076741,0.15006728,0.19442748,0.20185039,1268610.94507526,1268817.76854063,1269040.28502874,185712.68413840,185798.02623268,185895.45981531
7.99725275,0.70000000,0.80000000,no screening,9828.85832171,11544.95199220,15719.48969916,1947.38531493,2251.32034442,2960.23553051,0.18162562,0.19633115,0.20070767,0.15346962,0.21266027,0.21955988,1456058.78349019,1456278.52454274,1456516.89257423,187381.27541477,187456.79909543,187554.87372500
8.99725275,0.70000000,0.80000000,no screening,9878.31463433,11930.42877288,16155.18426684,2145.22195860,2548.32063015,3331.78769178,0.19852880,0.21514563,0.21930192,0.13295397,0.19576857,0.20998521,1645213.89637821,1645451.27129325,1645724.66573397,189100.19091370,189176.66063224,189275.97428230
9.99725275,0.70000000,0.80000000,no screening,9973.40282583,11815.83776507,15529.10645459,2331.26842212,2725.89766321,3465.35735009,0.21418682,0.23238400,0.23633935,0.18125971,0.20844145,0.21593339,1836145.87597523,1836416.43032239,1836734.54791254,190872.59706492,190962.97610124,191069.22782119
0.99725275,0.70000000,0.80000000,perfect screening,10354.95991932,12508.47777032,15744.08865471,0.00000000,0.00000000,0.00000000,0.00000000,0.00000000,0.00000000,0.06423297,0.09317460,0.10480178,101149.60255451,104077.91298189,104794.51361937,101149.60255451,104077.91298189,104794.51361937
1.99725275,0.70000000,0.80000000,perfect screening,8735.89412046,10933.48424400,14560.56502633,0.00000000,0.00000000,0.00000000,0.00000000,0.00000000,0.00000000,0.15751807,0.21117578,0.25995498,202644.81157103,207827.28783834,209206.89497928,101474.26587101,103750.00691582,104409.31021859
2.99725275,0.70000000,0.80000000,perfect screening,9104.79497623,11623.98072537,15436.25705382,0.00000000,0.00000000,0.00000000,0.00000000,0.00000000,0.00000000,0.11096019,0.17156547,0.23751744,303985.63079251,310489.02275536,312448.71882134,101262.19973864,102659.24889268,103346.57790433
3.99725275,0.70000000,0.80000000,perfect screening,9338.36858975,11045.72707034,14503.35327458,0.00000000,0.00000000,0.00000000,0.00000000,0.00000000,0.00000000,0.17607972,0.21732634,0.22685279,405248.53595750,412525.74973750,415144.61788204,101222.21028179,102136.37915307,102823.93335356
4.99725275,0.70000000,0.80000000,perfect screening,8979.29368442,10545.72421496,14146.12833257,0.00000000,0.00000000,0.00000000,0.00000000,0.00000000,0.00000000,0.20915870,0.25867658,0.26712907,505997.78054162,513724.60761987,517047.59276347,100491.60565190,101241.13170988,101895.57111440
5.99725275,0.70000000,0.80000000,perfect screening,9076.32319512,11009.46293777,14662.16759388,0.00000000,0.00000000,0.00000000,0.00000000,0.00000000,0.00000000,0.18295367,0.23794580,0.25113899,606438.92273904,614252.77472602,618165.46912119,99860.85011455,100551.40207175,101308.53065284
6.99725275,0.70000000,0.80000000,perfect screening,9184.77613289,10657.43266138,13866.53377779,0.00000000,0.00000000,0.00000000,0.00000000,0.00000000,0.00000000,0.23991882,0.26321290,0.27405795,706790.75845941,714641.32103566,719166.44372128,99727.76385741,100390.75324533,101141.14520439
7.99725275,0.70000000,0.80000000,perfect screening,9177.87403691,10605.55963947,13934.31566281,0.00000000,0.00000000,0.00000000,0.00000000,0.00000000,0.00000000,0.24188893,0.27547544,0.28491111,807391.73719518,814832.48518729,819997.16280113,99538.75762452,100207.54361600,101119.59374381
8.99725275,0.70000000,0.80000000,perfect screening,9279.26354452,10875.23747513,14142.56594681,0.00000000,0.00000000,0.00000000,0.00000000,0.00000000,0.00000000,0.24008763,0.26487871,0.27247672,907633.25986995,915217.46311255,921152.38872268,99660.72228347,100403.45256743,101604.75484338
9.99725275,0.70000000,0.80000000,perfect screening,9336.86480747,10711.85797272,13646.17821422,0.00000000,0.00000000,0.00000000,0.00000000,0.00000000,0.00000000,0.25509814,0.28271561,0.29805111,1008020.55021225,1016238.56446575,1023169.12445014,100095.10694978,100911.81707517,102439.63372072
0.99725275,0.70000000,0.80000000,realistic screening,10391.52413014,12550.14364994,15798.15165031,20.60706496,38.21243320,65.19350596,0.00169915,0.00305393,0.00471479,0.06088887,0.09010511,0.10222363,109050.12821561,114801.14077473,121213.35553865,109050.12821561,114801.14077473,121213.35553865
1.99725275,0.70000000,0.80000000,realistic screening,8789.89622959,11013.59050747,14660.71687568,47.99073138,90.64616936,156.28359665,0.00457916,0.00823769,0.01270092,0.15006898,0.20489561,0.25591343,218449.82772376,229658.92947361,242586.11170643,109401.64737399,114855.83097765,121421.74705304
2.99725275,0.70000000,0.80000000,realistic screening,9183.87992626,11743.99349222,15627.09623133,81.24567587,153.80713012,261.90007019,0.00728803,0.01318138,0.02025774,0.10275335,0.16246475,0.23254423,327553.32067437,343838.44383260,363561.53223264,108630.85510025,114166.07490143,120901.05464031
3.99725275,0.70000000,0.80000000,realistic screening,9449.78136572,11174.19140869,14710.42433440,106.28187727,197.36128901,332.76822024,0.00981368,0.01768708,0.02718644,0.16456804,0.20735129,0.21877708,435709.53171530,457657.88077428,484325.26940878,108125.85346925,113936.92720345,120763.73717614
4.99725275,0.70000000,0.80000000,realistic screening,9078.55090417,10680.48229012,14408.17015340,127.19169734,236.48735843,399.29689917,0.01215739,0.02212099,0.03398234,0.19716328,0.24843868,0.25948730,543830.99564123,571033.93976242,604645.09766936,107628.96358133,113420.91440494,120365.70749137
5.99725275,0.70000000,0.80000000,realistic screening,9211.25197165,11153.69296080,14949.42607967,156.05062054,292.85778934,487.09728489,0.01444102,0.02629376,0.04039091,0.16956696,0.22576020,0.24453632,651052.17945438,684138.78443684,724723.97257513,107079.93203370,113001.11895290,120223.76987151
6.99725275,0.70000000,0.80000000,realistic screening,9278.45442924,10828.45482903,14186.26769239,177.80299584,324.41251591,545.81963046,0.01655937,0.03013275,0.04624311,0.22627489,0.25081845,0.26259211,758166.38390646,797338.99571943,845408.13036227,107114.20445207,113036.19443196,120348.58805883
7.99725275,0.70000000,0.80000000,realistic screening,9279.90749098,10756.62212913,14243.36348555,196.52914181,362.33598043,606.20699403,0.01861343,0.03370692,0.05184484,0.22835552,0.26398547,0.27415194,865093.67558415,910292.90447246,966149.57000091,107229.72483056,113096.69409266,120578.43366878
8.99725275,0.70000000,0.80000000,realistic screening,9372.66879475,11048.02819228,14485.69595258,217.71638003,408.21556804,682.76607234,0.02049177,0.03694529,0.05702019,0.22253610,0.25269317,0.26145441,972758.73355075,1023831.26974407,1087478.10744506,107536.46305373,113469.66196322,120929.40240486
9.99725275,0.70000000,0.80000000,realistic screening,9421.00924277,10893.69715441,13951.45314429,235.48800895,432.35509044,719.48810977,0.02206178,0.03985347,0.06156168,0.24764869,0.26975615,0.28490704,1081174.42665843,1138030.95049217,1209117.44811909,107960.00483607,114048.94888098,121570.23052567
0.99725275,0.70000000,0.80000000,no vaccine,11523.70048913,13795.15712885,17001.93818151,NaN,NaN,NaN,NaN,NaN,NaN,NaN,NaN,NaN,NaN,NaN,NaN,NaN,NaN,NaN
1.99725275,0.70000000,0.80000000,no vaccine,11647.43178396,13848.75455622,17358.88284866,NaN,NaN,NaN,NaN,NaN,NaN,NaN,NaN,NaN,NaN,NaN,NaN,NaN,NaN,NaN
2.99725275,0.70000000,0.80000000,no vaccine,11755.51452534,14025.43966803,17529.78524736,NaN,NaN,NaN,NaN,NaN,NaN,NaN,NaN,NaN,NaN,NaN,NaN,NaN,NaN,NaN
3.99725275,0.70000000,0.80000000,no vaccine,11856.60243298,14125.52833523,17684.06861413,NaN,NaN,NaN,NaN,NaN,NaN,NaN,NaN,NaN,NaN,NaN,NaN,NaN,NaN,NaN
4.99725275,0.70000000,0.80000000,no vaccine,11989.58692257,14266.33636681,18090.37936745,NaN,NaN,NaN,NaN,NaN,NaN,NaN,NaN,NaN,NaN,NaN,NaN,NaN,NaN,NaN
5.99725275,0.70000000,0.80000000,no vaccine,12111.66234351,14409.93077656,18100.40288110,NaN,NaN,NaN,NaN,NaN,NaN,NaN,NaN,NaN,NaN,NaN,NaN,NaN,NaN,NaN
6.99725275,0.70000000,0.80000000,no vaccine,12219.55889366,14536.65692274,18428.53882695,NaN,NaN,NaN,NaN,NaN,NaN,NaN,NaN,NaN,NaN,NaN,NaN,NaN,NaN,NaN
7.99725275,0.70000000,0.80000000,no vaccine,12372.23164601,14699.12348728,18626.76120347,NaN,NaN,NaN,NaN,NaN,NaN,NaN,NaN,NaN,NaN,NaN,NaN,NaN,NaN,NaN
8.99725275,0.70000000,0.80000000,no vaccine,12473.48564257,14833.57011921,18743.62541824,NaN,NaN,NaN,NaN,NaN,NaN,NaN,NaN,NaN,NaN,NaN,NaN,NaN,NaN,NaN
9.99725275,0.70000000,0.80000000,no vaccine,12594.46989817,14990.13760632,19053.59866581,NaN,NaN,NaN,NaN,NaN,NaN,NaN,NaN,NaN,NaN,NaN,NaN,NaN,NaN,NaN
0.99725275,0.90000000,0.40000000,no screening,10886.00079771,13101.79812960,16399.30323835,139.88008602,167.03229684,223.04052909,0.01203895,0.01287756,0.01366700,0.02863349,0.04949165,0.05722968,227090.97973830,227130.45745223,227176.94368311,227090.97973830,227130.45745223,227176.94368311
1.99725275,0.90000000,0.40000000,no screening,9984.49561299,12291.84129787,16002.95515400,333.99237069,407.45007989,557.43451230,0.03150543,0.03357429,0.03486219,0.07550659,0.11178980,0.15206380,456494.68720396,456585.21908816,456677.95261901,229373.85801925,229455.25742728,229530.26035911
2.99725275,0.90000000,0.40000000,no screening,10411.42129667,13009.10586452,16973.94924133,545.43883222,668.71589616,901.40410055,0.04879774,0.05215951,0.05337435,0.02894273,0.07299387,0.12634003,687611.95625636,687752.83374303,687889.55329789,231080.50952380,231166.34367533,231258.06600579
3.99725275,0.90000000,0.40000000,no screening,10539.12301121,12596.63812559,16450.33475296,723.59202059,851.17622219,1140.88084967,0.06401611,0.06852951,0.06987312,0.06814081,0.10857133,0.11956132,920534.78923700,920707.66227395,920876.23219586,232877.30356344,232958.24878547,233038.79556106
4.99725275,0.90000000,0.40000000,no screening,10311.17681193,12438.90496855,16557.84963787,867.95675013,1031.40178532,1382.89741763,0.07800328,0.08384205,0.08521949,0.07963413,0.12774257,0.14219635,1155329.88144165,1155534.48981572,1155740.62419142,234754.61548588,234824.02252983,234906.68138526
5.99725275,0.90000000,0.40000000,no screening,10517.96602602,12832.04700357,17018.34346974,1031.70858930,1239.92594068,1647.01524331,0.09073403,0.09773709,0.09936572,0.05745209,0.10976756,0.13505677,1392077.92729948,1392313.36383871,1392541.45412224,236700.12584418,236777.46642279,236845.61490032
6.99725275,0.90000000,0.40000000,no screening,10596.82065084,12552.72913909,16489.70820468,1172.34015084,1371.24390593,1794.39801296,0.10254948,0.11035289,0.11218348,0.10378070,0.13544353,0.14147333,1630882.21155392,1631148.30933140,1631422.57372982,238752.24562529,238835.68160451,238915.21387974
7.99725275,0.90000000,0.40000000,no screening,10632.90748755,12637.45891863,16814.93865165,1298.83266514,1531.42241723,2007.82995166,0.11355261,0.12214361,0.12398295,0.09421596,0.13888116,0.14495694,1871835.89319603,1872128.96030742,1872433.17575471,240903.65649390,240977.19067742,241058.22416226
8.99725275,0.90000000,0.40000000,no screening,10755.46592071,12868.10023407,16922.72005078,1427.86713822,1693.30980003,2198.69156028,0.12345172,0.13285972,0.13476593,0.09298279,0.13285783,0.14074836,2115020.12041723,2115331.74265175,2115674.96261756,243126.42692014,243204.53925702,243283.87809442
9.99725275,0.90000000,0.40000000,no screening,10819.28179927,12737.38511333,16602.74625146,1537.33523633,1800.57344217,2308.24964895,0.13260390,0.14257360,0.14455885,0.12547127,0.14734272,0.15259116,2360503.04788875,2360846.95276111,2361226.42565562,245438.80690078,245514.55562481,245596.52247406
0.99725275,0.90000000,0.40000000,perfect screening,10761.06111149,12940.69842186,16198.24883438,0.00000000,0.00000000,0.00000000,0.00000000,0.00000000,0.00000000,0.04056440,0.06110132,0.06900112,130104.21765963,133881.59646486,134811.34549916,130104.21765963,133881.59646486,134811.34549916
1.99725275,0.90000000,0.40000000,perfect screening,9740.26869247,11949.09230052,15526.80557518,0.00000000,0.00000000,0.00000000,0.00000000,0.00000000,0.00000000,0.10306815,0.13691311,0.17112004,261162.50475071,267911.43828942,269714.84110832,130908.73365739,134024.98869918,134916.02338302
2.99725275,0.90000000,0.40000000,perfect screening,10144.05990927,12516.36627310,16226.75577169,0.00000000,0.00000000,0.00000000,0.00000000,0.00000000,0.00000000,0.07121361,0.10747849,0.14795527,392440.39315873,401354.04259764,403992.10256914,131247.56929548,133443.55830172,134290.55296729
3.99725275,0.90000000,0.40000000,perfect screening,10195.75604671,12037.74457063,15573.97241740,0.00000000,0.00000000,0.00000000,0.00000000,0.00000000,0.00000000,0.11710583,0.14754223,0.15459475,524054.66637776,534730.03968021,538187.50598610,131649.38758674,133352.60137329,134214.76547326
4.99725275,0.90000000,0.40000000,perfect screening,10013.05104359,11853.69036708,15530.03134548,0.00000000,0.00000000,0.00000000,0.00000000,0.00000000,0.00000000,0.13499725,0.16722396,0.17429142,655598.67114373,667612.13508353,671880.22098907,131664.08123598,132915.85446000,133741.72074012
5.99725275,0.90000000,0.40000000,perfect screening,10165.84358347,12198.42214654,15879.08450961,0.00000000,0.00000000,0.00000000,0.00000000,0.00000000,0.00000000,0.11930694,0.15471303,0.16205130,787518.88334661,800348.27984805,805515.67387418,131817.30182710,132770.40079950,133649.94199835
6.99725275,0.90000000,0.40000000,perfect screening,10210.48257109,11899.58376692,15344.44040981,0.00000000,0.00000000,0.00000000,0.00000000,0.00000000,0.00000000,0.15719386,0.17843920,0.18631702,919517.87225320,933340.65056085,939469.31853234,132013.92620754,133031.15759618,133960.36227379
7.99725275,0.90000000,0.40000000,perfect screening,10286.91102359,12059.17763839,15594.55192946,0.00000000,0.00000000,0.00000000,0.00000000,0.00000000,0.00000000,0.15657694,0.17785321,0.18432661,1051746.51958036,1066585.45578843,1073718.92727787,132219.27702846,133259.23257409,134529.58060992
8.99725275,0.90000000,0.40000000,perfect screening,10372.58341974,12202.31868660,15668.67163543,0.00000000,0.00000000,0.00000000,0.00000000,0.00000000,0.00000000,0.16120545,0.17559900,0.18202979,1184952.55785735,1200570.26503766,1208832.55166773,132780.01706451,133916.66182873,135418.72569270
9.99725275,0.90000000,0.40000000,perfect screening,10460.72633182,12117.24206918,15401.20958555,0.00000000,0.00000000,0.00000000,0.00000000,0.00000000,0.00000000,0.16711916,0.18940809,0.20030037,1319077.41144976,1335319.38011975,1345139.69938730,133433.13899760,134723.91115755,136569.67192406
0.99725275,0.90000000,0.40000000,realistic screening,10780.60651531,12969.20073883,16227.44659910,13.82005197,25.49095946,43.42993690,0.00109873,0.00197458,0.00304964,0.03824501,0.05912738,0.06707909,140265.12157854,147661.37262457,155891.59753759,140265.12157854,147661.37262457,155891.59753759
1.99725275,0.90000000,0.40000000,realistic screening,9785.25508515,11999.17736543,15593.98837979,33.60483582,62.80625648,106.72723931,0.00291142,0.00523329,0.00808497,0.09870258,0.13230869,0.16801437,281362.98571223,295832.35807074,312383.80266471,141091.65761713,148183.59995011,156528.79331226
2.99725275,0.90000000,0.40000000,realistic screening,10190.18348264,12593.14529304,16365.79686749,55.28864025,103.22722748,174.63757202,0.00454380,0.00824095,0.01269401,0.06448754,0.10164027,0.14419750,422764.61057581,443825.39920269,468909.99857552,141050.58618174,147984.55613826,156489.04225547
3.99725275,0.90000000,0.40000000,realistic screening,10257.09498719,12128.80061308,15708.18817700,70.73796033,132.14665341,222.92552396,0.00603579,0.01095014,0.01685316,0.10973596,0.14094297,0.14927195,564482.98440532,592053.62749403,625857.52630092,141137.85219488,148201.27926022,156859.05701137
4.99725275,0.90000000,0.40000000,realistic screening,10056.72697081,11949.49354391,15709.73314118,85.90131312,161.19138819,272.26515153,0.00744654,0.01349824,0.02078530,0.12620400,0.16057247,0.16901202,705163.07585756,740156.10774784,782714.95542908,140983.16852303,148147.33538684,157062.38032138
5.99725275,0.90000000,0.40000000,realistic screening,10226.63336803,12299.25615803,16051.00051853,103.18176216,194.10726413,324.38405676,0.00872788,0.01582157,0.02437840,0.11110171,0.14704123,0.15773209,846493.58468394,888343.94436044,939801.13260008,140973.03935165,148349.46381732,157322.00303568
6.99725275,0.90000000,0.40000000,realistic screening,10285.73487030,11999.62842217,15532.59559212,116.28695404,214.83259784,360.31693745,0.00989815,0.01790676,0.02765424,0.15118424,0.17092434,0.17877063,987969.59471416,1037108.27122834,1097460.97245964,141456.95034421,148802.60111486,157881.52905337
7.99725275,0.90000000,0.40000000,realistic screening,10337.47901769,12163.35611214,15800.75438662,128.71858630,240.99019699,402.71905255,0.01094518,0.01981750,0.03069577,0.14549154,0.17093496,0.17737186,1130716.90270745,1186601.92141557,1255694.35063355,141867.38670059,149249.38801249,158392.97402117
8.99725275,0.90000000,0.40000000,realistic screening,10436.80009889,12315.62427893,15836.25082720,141.07112297,265.42703650,445.28080561,0.01187271,0.02152556,0.03335476,0.15032279,0.16778583,0.17459501,1274086.46833909,1336720.54118773,1415865.55388604,142513.46160237,150067.48123961,159412.02831024
9.99725275,0.90000000,0.40000000,realistic screening,10507.26536022,12221.05908214,15596.00891712,151.45789712,281.33249368,473.54618581,0.01270352,0.02308680,0.03576148,0.16277311,0.18216642,0.19207426,1417561.17039472,1487578.68697831,1576169.26437184,143291.78236745,151065.14157634,160525.08341530
0.99725275,0.90000000,0.40000000,no vaccine,11523.70048913,13795.15712885,17001.93818151,NaN,NaN,NaN,NaN,NaN,NaN,NaN,NaN,NaN,NaN,NaN,NaN,NaN,NaN,NaN
1.99725275,0.90000000,0.40000000,no vaccine,11647.43178396,13848.75455622,17358.88284866,NaN,NaN,NaN,NaN,NaN,NaN,NaN,NaN,NaN,NaN,NaN,NaN,NaN,NaN,NaN
2.99725275,0.90000000,0.40000000,no vaccine,11755.51452534,14025.43966803,17529.78524736,NaN,NaN,NaN,NaN,NaN,NaN,NaN,NaN,NaN,NaN,NaN,NaN,NaN,NaN,NaN
3.99725275,0.90000000,0.40000000,no vaccine,11856.60243298,14125.52833523,17684.06861413,NaN,NaN,NaN,NaN,NaN,NaN,NaN,NaN,NaN,NaN,NaN,NaN,NaN,NaN,NaN
4.99725275,0.90000000,0.40000000,no vaccine,11989.58692257,14266.33636681,18090.37936745,NaN,NaN,NaN,NaN,NaN,NaN,NaN,NaN,NaN,NaN,NaN,NaN,NaN,NaN,NaN
5.99725275,0.90000000,0.40000000,no vaccine,12111.66234351,14409.93077656,18100.40288110,NaN,NaN,NaN,NaN,NaN,NaN,NaN,NaN,NaN,NaN,NaN,NaN,NaN,NaN,NaN
6.99725275,0.90000000,0.40000000,no vaccine,12219.55889366,14536.65692274,18428.53882695,NaN,NaN,NaN,NaN,NaN,NaN,NaN,NaN,NaN,NaN,NaN,NaN,NaN,NaN,NaN
7.99725275,0.90000000,0.40000000,no vaccine,12372.23164601,14699.12348728,18626.76120347,NaN,NaN,NaN,NaN,NaN,NaN,NaN,NaN,NaN,NaN,NaN,NaN,NaN,NaN,NaN
8.99725275,0.90000000,0.40000000,no vaccine,12473.48564257,14833.57011921,18743.62541824,NaN,NaN,NaN,NaN,NaN,NaN,NaN,NaN,NaN,NaN,NaN,NaN,NaN,NaN,NaN
9.99725275,0.90000000,0.40000000,no vaccine,12594.46989817,14990.13760632,19053.59866581,NaN,NaN,NaN,NaN,NaN,NaN,NaN,NaN,NaN,NaN,NaN,NaN,NaN,NaN,NaN
0.99725275,0.90000000,0.60000000,no screening,10573.33676384,12783.25754409,16083.67272108,201.72579584,241.43866976,326.27160383,0.01786882,0.01911414,0.02032040,0.04391341,0.07304761,0.08407229,227098.76494167,227138.45538268,227186.93859946,227098.76494167,227138.45538268,227186.93859946
1.99725275,0.90000000,0.60000000,no screening,9162.17617723,11511.22366449,15359.86971445,460.22376701,570.22563425,795.75677529,0.04715126,0.05021577,0.05195947,0.11248769,0.16859394,0.22459272,456521.98209893,456613.85125354,456704.82629080,229394.61082756,229476.39898844,229549.98334596
2.99725275,0.90000000,0.60000000,no screening,9598.39573316,12436.14868295,16622.15995307,761.72418491,959.64768678,1318.51796727,0.07340651,0.07847223,0.08031031,0.04644964,0.11504755,0.19777937,687676.84978151,687797.20893475,687921.10489007,231095.31416321,231183.10133424,231271.70094084
3.99725275,0.90000000,0.60000000,no screening,9961.32217966,11949.28210525,15904.85930551,1040.77345158,1219.97590027,1646.93919693,0.09620206,0.10334760,0.10612305,0.09927850,0.15365548,0.16939595,920630.07351921,920776.05700090,920927.94910158,232897.55779032,232978.31815448,233057.51671620
4.99725275,0.90000000,0.60000000,no screening,9602.12330769,11495.94775856,15760.23285074,1233.55010928,1446.38641636,1974.01073879,0.11815991,0.12712296,0.13012738,0.12439007,0.19368787,0.20880024,1155458.21508781,1155624.53964607,1155807.85586614,234776.07664094,234853.46796314,234930.57648442
5.99725275,0.90000000,0.60000000,no screening,9736.40442799,12070.44275338,16440.49498506,1469.25758779,1781.94300265,2402.89737988,0.13832541,0.14913517,0.15286448,0.08596921,0.16394077,0.20284524,1392220.43793958,1392423.44015151,1392630.00309223,236723.92197969,236795.41255092,236871.78973797
6.99725275,0.90000000,0.60000000,no screening,9898.82685671,11784.90191744,15732.47628418,1696.06234900,1978.55760352,2587.76923439,0.15703005,0.16934449,0.17373232,0.14602280,0.18906450,0.19618216,1631044.49509558,1631281.06758697,1631529.27454074,238783.23947635,238858.55052726,238936.95559593
7.99725275,0.90000000,0.60000000,no screening,9916.08421292,11653.76470476,15835.86217079,1884.83045548,2183.89803199,2869.06441144,0.17476549,0.18878821,0.19284369,0.14682380,0.20577566,0.21244469,1872028.85437089,1872281.62510468,1872570.90981263,240930.16202812,241006.78500930,241079.42296080
8.99725275,0.90000000,0.60000000,no screening,9963.50778363,12025.04736341,16216.61413432,2077.00654704,2468.03393360,3223.17432138,0.19086175,0.20673656,0.21059092,0.12973036,0.18947797,0.20332151,2115223.53441744,2115507.80310807,2115836.61323205,243141.92740360,243230.02125748,243311.24766612
9.99725275,0.90000000,0.60000000,no screening,10052.83437675,11898.86067865,15628.55768419,2255.77954219,2635.80719249,3347.99709876,0.20592972,0.22317537,0.22687478,0.17693449,0.20292847,0.21054868,2360728.25905309,2361052.50589546,2361419.69449438,245459.62613387,245541.07153183,245620.93856001
0.99725275,0.90000000,0.60000000,perfect screening,10390.56803608,12550.68636957,15785.20199658,0.00000000,0.00000000,0.00000000,0.00000000,0.00000000,0.00000000,0.06175202,0.09002386,0.10131907,130068.79613721,133823.79354088,134745.66573175,130068.79613721,133823.79354088,134745.66573175
1.99725275,0.90000000,0.60000000,perfect screening,8832.98080983,11035.62251856,14663.83633433,0.00000000,0.00000000,0.00000000,0.00000000,0.00000000,0.00000000,0.15205746,0.20363803,0.25144989,260694.89715257,267292.87697489,269065.67240503,130514.03920869,133464.22423234,134311.12839634
2.99725275,0.90000000,0.60000000,perfect screening,9215.02733617,11712.78932811,15511.04027826,0.00000000,0.00000000,0.00000000,0.00000000,0.00000000,0.00000000,0.10717265,0.16453430,0.22827400,391065.69303265,399429.71990574,402001.17629555,130328.33238035,132134.54018155,133001.62416100
3.99725275,0.90000000,0.60000000,perfect screening,9418.85194196,11146.41286978,14604.48721727,0.00000000,0.00000000,0.00000000,0.00000000,0.00000000,0.00000000,0.17054692,0.21076360,0.22029781,521432.06930612,530793.62913887,534199.43517308,130302.42426641,131531.33153592,132415.44219356
4.99725275,0.90000000,0.60000000,perfect screening,9080.31467373,10674.56809370,14283.20394162,0.00000000,0.00000000,0.00000000,0.00000000,0.00000000,0.00000000,0.20216207,0.24962772,0.25796296,651156.23879277,661242.71517672,665457.29098286,129487.57242106,130447.21956903,131281.11278897
5.99725275,0.90000000,0.60000000,perfect screening,9170.90833932,11127.19839636,14772.49427843,0.00000000,0.00000000,0.00000000,0.00000000,0.00000000,0.00000000,0.17661277,0.22950041,0.24211454,780591.81287840,790815.78829341,795912.62959888,128760.43046585,129641.91473449,130597.14630193
6.99725275,0.90000000,0.60000000,perfect screening,9288.42924367,10773.34911855,14019.81259040,0.00000000,0.00000000,0.00000000,0.00000000,0.00000000,0.00000000,0.23228905,0.25524608,0.26543189,909875.73480749,920323.42743451,926203.34405105,128646.09266851,129483.21308248,130422.51284221
7.99725275,0.90000000,0.60000000,perfect screening,9289.21878406,10741.77216495,14087.99735034,0.00000000,0.00000000,0.00000000,0.00000000,0.00000000,0.00000000,0.23326049,0.26587975,0.27488783,1039468.89482881,1049569.77177980,1056196.62094216,128440.81901616,129308.51384487,130437.83139738
8.99725275,0.90000000,0.60000000,perfect screening,9383.73341816,11011.75655351,14281.95571851,0.00000000,0.00000000,0.00000000,0.00000000,0.00000000,0.00000000,0.23141313,0.25602718,0.26329035,1169085.71239036,1179184.59991647,1186954.06681896,128643.25689807,129583.02267006,131131.76266734
9.99725275,0.90000000,0.60000000,perfect screening,9442.13254846,10843.88345892,13807.97082348,0.00000000,0.00000000,0.00000000,0.00000000,0.00000000,0.00000000,0.24633131,0.27378807,0.28948019,1298640.50546296,1309598.27546366,1318461.09987735,129172.32485050,130241.03517695,132226.43461455
0.99725275,0.90000000,0.60000000,realistic screening,10429.76664950,12589.10161913,15841.34461746,19.95337416,36.98531884,63.10309421,0.00163936,0.00294691,0.00454862,0.05845441,0.08706343,0.09857256,140234.15187608,147606.86515292,155828.15159506,140234.15187608,147606.86515292,155828.15159506
1.99725275,0.90000000,0.60000000,realistic screening,8889.03249270,11108.53084101,14739.85445567,46.66388483,88.14842861,151.81997900,0.00441129,0.00793383,0.01223549,0.14488674,0.19751696,0.24683569,280957.57543549,295349.59439066,311927.32516149,140712.30228139,147722.10822781,156118.89130333
2.99725275,0.90000000,0.60000000,realistic screening,9282.11703631,11824.62367782,15700.49915005,78.84227523,149.20867659,253.45649079,0.00700419,0.01267596,0.01948565,0.09945426,0.15632280,0.22302333,421425.01982759,442232.47453527,467594.79590069,139780.70479602,146873.00069536,155540.83543490
3.99725275,0.90000000,0.60000000,realistic screening,9530.52843395,11267.14997309,14816.93098059,102.82571281,191.03240424,322.43509552,0.00941068,0.01698908,0.02612446,0.15905079,0.20097196,0.21230926,560528.53942376,588837.52088806,623073.27397864,139150.39757721,146644.67871630,155478.47807795
4.99725275,0.90000000,0.60000000,realistic screening,9170.39511391,10806.72980064,14518.74831166,123.15314840,229.40596440,387.18596887,0.01166741,0.02122544,0.03260426,0.19041024,0.23985769,0.25036525,699705.81817641,734801.83057648,778001.15086975,138609.75042016,146052.95310161,155000.54799542
5.99725275,0.90000000,0.60000000,realistic screening,9304.07382626,11270.18826226,15042.96496396,151.08599839,283.48872130,471.07042998,0.01383881,0.02518476,0.03870193,0.16379404,0.21787522,0.23590611,838074.40680472,880507.64777031,932639.87403363,138018.92961415,145625.88451975,154776.63420827
6.99725275,0.90000000,0.60000000,realistic screening,9382.98466322,10933.85328787,14309.04538975,171.81414061,313.57322242,528.04383817,0.01585303,0.02882251,0.04427239,0.21987178,0.24316241,0.25482081,976096.33523508,1026432.09673946,1088543.35922367,138133.33257014,145681.82260442,155117.60946325
7.99725275,0.90000000,0.60000000,realistic screening,9379.50799191,10897.00194699,14398.25869221,189.96977401,350.65404600,586.99941802,0.01779825,0.03221693,0.04958855,0.22106308,0.25496586,0.26453948,1114007.99742091,1172181.19375379,1244156.40929661,138299.61173492,145816.65170414,155309.24855197
8.99725275,0.90000000,0.60000000,realistic screening,9477.43061632,11175.94276841,14631.99904426,210.42511300,394.32612870,659.69183550,0.01956502,0.03527889,0.05448093,0.21535336,0.24429932,0.25266374,1252937.70505812,1318742.44313363,1400078.68242648,138649.45854612,146365.17628519,155851.61409374
9.99725275,0.90000000,0.60000000,realistic screening,9524.14066679,11012.90226942,14094.95651715,227.22119185,417.60446108,694.81890031,0.02103516,0.03802513,0.05876780,0.23913604,0.26157543,0.27667059,1392885.52391836,1465859.47908230,1556804.43795497,139232.32222848,147147.49878860,156788.49440831
0.99725275,0.90000000,0.60000000,no vaccine,11523.70048913,13795.15712885,17001.93818151,NaN,NaN,NaN,NaN,NaN,NaN,NaN,NaN,NaN,NaN,NaN,NaN,NaN,NaN,NaN
1.99725275,0.90000000,0.60000000,no vaccine,11647.43178396,13848.75455622,17358.88284866,NaN,NaN,NaN,NaN,NaN,NaN,NaN,NaN,NaN,NaN,NaN,NaN,NaN,NaN,NaN
2.99725275,0.90000000,0.60000000,no vaccine,11755.51452534,14025.43966803,17529.78524736,NaN,NaN,NaN,NaN,NaN,NaN,NaN,NaN,NaN,NaN,NaN,NaN,NaN,NaN,NaN
3.99725275,0.90000000,0.60000000,no vaccine,11856.60243298,14125.52833523,17684.06861413,NaN,NaN,NaN,NaN,NaN,NaN,NaN,NaN,NaN,NaN,NaN,NaN,NaN,NaN,NaN
4.99725275,0.90000000,0.60000000,no vaccine,11989.58692257,14266.33636681,18090.37936745,NaN,NaN,NaN,NaN,NaN,NaN,NaN,NaN,NaN,NaN,NaN,NaN,NaN,NaN,NaN
5.99725275,0.90000000,0.60000000,no vaccine,12111.66234351,14409.93077656,18100.40288110,NaN,NaN,NaN,NaN,NaN,NaN,NaN,NaN,NaN,NaN,NaN,NaN,NaN,NaN,NaN
6.99725275,0.90000000,0.60000000,no vaccine,12219.55889366,14536.65692274,18428.53882695,NaN,NaN,NaN,NaN,NaN,NaN,NaN,NaN,NaN,NaN,NaN,NaN,NaN,NaN,NaN
7.99725275,0.90000000,0.60000000,no vaccine,12372.23164601,14699.12348728,18626.76120347,NaN,NaN,NaN,NaN,NaN,NaN,NaN,NaN,NaN,NaN,NaN,NaN,NaN,NaN,NaN
8.99725275,0.90000000,0.60000000,no vaccine,12473.48564257,14833.57011921,18743.62541824,NaN,NaN,NaN,NaN,NaN,NaN,NaN,NaN,NaN,NaN,NaN,NaN,NaN,NaN,NaN
9.99725275,0.90000000,0.60000000,no vaccine,12594.46989817,14990.13760632,19053.59866581,NaN,NaN,NaN,NaN,NaN,NaN,NaN,NaN,NaN,NaN,NaN,NaN,NaN,NaN,NaN
0.99725275,0.90000000,0.80000000,no screening,10277.63936583,12466.33845737,15799.53681219,258.64864871,310.67524856,423.70840167,0.02357042,0.02521144,0.02682845,0.05965800,0.09599319,0.11048189,227109.13315123,227147.85431116,227192.73182535,227109.13315123,227147.85431116,227192.73182535
1.99725275,0.90000000,0.80000000,no screening,8337.54251941,10736.18699104,14701.64772776,557.50970408,706.92041556,1005.99240105,0.06267973,0.06670049,0.06884091,0.14894184,0.22522366,0.29499309,456557.56281754,456644.12622714,456731.90073397,229422.00081392,229496.62999132,229573.24687798
2.99725275,0.90000000,0.80000000,no screening,8700.54047281,11791.01228270,16212.10634932,929.10463247,1216.06742935,1705.19662901,0.09796593,0.10484342,0.10771750,0.06772375,0.16125458,0.27415777,687724.46619194,687842.59226137,687969.25038594,231107.08159230,231198.75143410,231291.20517585
3.99725275,0.90000000,0.80000000,no screening,9396.16682107,11391.86055392,15431.66241086,1326.24108745,1557.45451680,2118.14623904,0.12855680,0.13826873,0.14314700,0.12492475,0.19384759,0.21489909,920688.63714772,920836.60514438,920985.25905937,232909.94309054,232995.35140704,233065.81761973
4.99725275,0.90000000,0.80000000,no screening,8909.59600345,10603.80729895,14929.38684390,1551.02283620,1793.68134859,2473.95501782,0.15858415,0.17063131,0.17634490,0.17093920,0.25586139,0.27051077,1155538.28435443,1155712.10103338,1155885.33331030,234806.72009904,234875.22476798,234950.16004425
5.99725275,0.90000000,0.80000000,no screening,8945.68246091,11244.99685861,15927.93075151,1837.37537479,2241.37842638,3087.39520508,0.18685482,0.20157466,0.20827626,0.11681357,0.22235466,0.26815798,1392334.34542555,1392532.74995449,1392736.76684499,236746.22202386,236818.19538339,236891.88259438
6.99725275,0.90000000,0.80000000,no screening,9257.55796321,11153.98549607,15073.71000602,2173.64209960,2551.15346081,3330.15925134,0.21242130,0.23010489,0.23783169,0.17991300,0.23236136,0.24631069,1631176.85471582,1631408.01205900,1631630.55840680,238799.98571631,238874.00978790,238950.24373128
7.99725275,0.90000000,0.80000000,no screening,9240.87121084,10753.18941037,14767.76201935,2420.43087440,2756.72884975,3614.29220008,0.23658894,0.25742789,0.26492128,0.20099642,0.26413867,0.27247944,1872188.13382118,1872434.08302757,1872696.22775612,240954.48907397,241030.78785825,241104.89101275
8.99725275,0.90000000,0.80000000,no screening,9303.42023971,11160.45606140,15531.46857899,2659.56480812,3143.35051584,4156.19469399,0.26034148,0.28334817,0.29009576,0.16748362,0.24763420,0.26154843,2115407.59499980,2115684.75339869,2115973.69192336,243178.30833192,243251.90007392,243331.87120457
9.99725275,0.90000000,0.80000000,no screening,9409.03655962,11255.53322864,14931.31644338,2919.42298059,3437.14830713,4344.74291990,0.28133209,0.30711144,0.31354637,0.21278962,0.24736011,0.25688924,2360946.08197282,2361247.67738386,2361570.91796082,245484.86938397,245561.49588402,245645.83537083
0.99725275,0.90000000,0.80000000,perfect screening,10037.34284780,12170.32674241,15416.60223028,0.00000000,0.00000000,0.00000000,0.00000000,0.00000000,0.00000000,0.08326700,0.11785208,0.13229047,130008.41074935,133756.72554304,134681.95142351,130008.41074935,133756.72554304,134681.95142351
1.99725275,0.90000000,0.80000000,perfect screening,7935.94738346,10133.42328613,13789.54053689,0.00000000,0.00000000,0.00000000,0.00000000,0.00000000,0.00000000,0.19985679,0.26906819,0.32740133,260257.25763932,266660.64395639,268419.06980138,130094.12243852,132905.70233093,133758.03827018
2.99725275,0.90000000,0.80000000,perfect screening,8229.24152448,10868.00567340,14788.56963306,0.00000000,0.00000000,0.00000000,0.00000000,0.00000000,0.00000000,0.14434616,0.22501108,0.31230289,389613.41840970,397461.58417066,399958.87847445,129358.23171962,130833.13876695,131719.26268663
3.99725275,0.90000000,0.80000000,perfect screening,8716.48781454,10326.50508176,13718.01166083,0.00000000,0.00000000,0.00000000,0.00000000,0.00000000,0.00000000,0.21987477,0.26831571,0.27956868,518690.80073840,526977.25008793,530541.22006599,128227.31286342,129658.85480024,130748.67578569
4.99725275,0.90000000,0.80000000,perfect screening,8180.46076500,9552.44061349,13141.86105644,0.00000000,0.00000000,0.00000000,0.00000000,0.00000000,0.00000000,0.26685302,0.32753205,0.33679275,646470.56200468,654906.80236774,659173.67039290,126922.66417481,127918.82001739,129080.81571706
5.99725275,0.90000000,0.80000000,perfect screening,8232.63564750,10017.58775423,13661.61883463,0.00000000,0.00000000,0.00000000,0.00000000,0.00000000,0.00000000,0.23545006,0.30586721,0.32157212,773348.57174578,781280.28452165,786410.79891618,125400.04311520,126384.78157404,127716.18902030
6.99725275,0.90000000,0.80000000,perfect screening,8418.41409068,9772.94313471,12816.32941403,0.00000000,0.00000000,0.00000000,0.00000000,0.00000000,0.00000000,0.30003993,0.32368231,0.33497224,899781.83900644,907077.56596884,912986.48969813,124801.32799827,125765.19571432,127157.08648513
7.99725275,0.90000000,0.80000000,perfect screening,8320.42152445,9508.13336402,12669.88591746,0.00000000,0.00000000,0.00000000,0.00000000,0.00000000,0.00000000,0.30791062,0.34870062,0.36140459,1024591.32650090,1032360.09578187,1039030.73149191,124364.20980134,125272.74265418,126501.16952522
8.99725275,0.90000000,0.80000000,perfect screening,8443.92873267,9811.19788403,12971.36255783,0.00000000,0.00000000,0.00000000,0.00000000,0.00000000,0.00000000,0.29855427,0.33565733,0.34459826,1149196.49430033,1157613.84965486,1164956.28657921,124164.70951881,125164.73781728,126769.38217052
9.99725275,0.90000000,0.80000000,perfect screening,8477.48338709,9716.92975080,12373.96000210,0.00000000,0.00000000,0.00000000,0.00000000,0.00000000,0.00000000,0.32313732,0.34866199,0.36642896,1273994.25481845,1283293.25148126,1291689.84289904,124616.26704788,125642.68745218,127754.43788169
0.99725275,0.90000000,0.80000000,realistic screening,10084.49857638,12217.77530109,15475.87456401,25.60161841,47.60842734,81.59308874,0.00217393,0.00390951,0.00603693,0.07871808,0.11399576,0.12923273,140166.29650990,147560.30156913,155798.06480810,140166.29650990,147560.30156913,155798.06480810
1.99725275,0.90000000,0.80000000,realistic screening,8004.68961167,10223.65980601,13930.12072145,57.26090736,109.62944596,188.51380332,0.00593794,0.01069323,0.01645776,0.19104072,0.26111317,0.32198437,280469.95930265,294847.65013948,311451.48844862,140309.27749983,147263.56334733,155686.25510147
2.99725275,0.90000000,0.80000000,realistic screening,8325.74249315,11024.75684043,15024.23367682,98.59964731,190.18992195,326.45513912,0.00962885,0.01732243,0.02658436,0.13537449,0.21430031,0.30644104,419744.91695835,440657.37276885,466050.50818376,138491.53773914,145825.75260899,154522.88400900
3.99725275,0.90000000,0.80000000,realistic screening,8828.74967377,10488.92378339,13982.57513142,132.95798591,246.02982935,413.74507509,0.01316301,0.02348215,0.03596929,0.20527802,0.25526593,0.26949663,557386.34572513,585527.82125241,620085.75112018,137533.45148435,145080.07947217,154035.68069226
4.99725275,0.90000000,0.80000000,realistic screening,8315.50234398,9720.14760616,13435.02981497,158.18764878,289.03064117,486.95681805,0.01642859,0.02962727,0.04541101,0.24984844,0.31484699,0.32700248,693506.81779650,729648.32684614,772990.90290924,136230.17449953,143950.66400177,153201.24300697
5.99725275,0.90000000,0.80000000,realistic screening,8382.28463729,10228.35172176,14088.70225429,194.71696320,363.60618465,613.92024496,0.01965229,0.03555574,0.05453862,0.21630833,0.29071609,0.31268071,828326.18619923,872665.88740585,925201.63274043,135118.69406201,142922.87889166,152518.53295297
6.99725275,0.90000000,0.80000000,realistic screening,8546.18422875,10004.84748015,13244.87136877,225.73210095,410.20189727,685.76335144,0.02273128,0.04099475,0.06301374,0.27915162,0.30729406,0.32057782,963529.08317466,1015176.62035494,1077112.48522796,134743.43111576,142569.98762790,152430.56723565
7.99725275,0.90000000,0.80000000,realistic screening,8482.30226191,9726.94120042,13064.73701236,250.21962253,450.60316702,752.69444308,0.02564147,0.04634659,0.07114744,0.29146039,0.33340603,0.34655014,1097877.44844123,1157476.65307550,1229257.05295779,134476.75551363,142294.42102246,152240.50970746
8.99725275,0.90000000,0.80000000,realistic screening,8563.25541444,10046.18214438,13457.34712857,277.14060650,516.80507640,860.82079045,0.02845513,0.05130892,0.07889419,0.27776793,0.31926752,0.33110347,1232837.35338095,1299808.85946370,1382062.58911215,134561.30457495,142437.47547474,152326.32286193
9.99725275,0.90000000,0.80000000,realistic screening,8626.02266179,9977.82407246,12856.77479555,302.78393196,553.41287088,912.92344067,0.03105795,0.05567730,0.08586791,0.31116241,0.33090565,0.34826829,1368960.69417294,1442912.55944487,1535814.33880438,135140.16834416,143093.34418817,152958.95734906
0.99725275,0.90000000,0.80000000,no vaccine,11523.70048913,13795.15712885,17001.93818151,NaN,NaN,NaN,NaN,NaN,NaN,NaN,NaN,NaN,NaN,NaN,NaN,NaN,NaN,NaN
1.99725275,0.90000000,0.80000000,no vaccine,11647.43178396,13848.75455622,17358.88284866,NaN,NaN,NaN,NaN,NaN,NaN,NaN,NaN,NaN,NaN,NaN,NaN,NaN,NaN,NaN
2.99725275,0.90000000,0.80000000,no vaccine,11755.51452534,14025.43966803,17529.78524736,NaN,NaN,NaN,NaN,NaN,NaN,NaN,NaN,NaN,NaN,NaN,NaN,NaN,NaN,NaN
3.99725275,0.90000000,0.80000000,no vaccine,11856.60243298,14125.52833523,17684.06861413,NaN,NaN,NaN,NaN,NaN,NaN,NaN,NaN,NaN,NaN,NaN,NaN,NaN,NaN,NaN
4.99725275,0.90000000,0.80000000,no vaccine,11989.58692257,14266.33636681,18090.37936745,NaN,NaN,NaN,NaN,NaN,NaN,NaN,NaN,NaN,NaN,NaN,NaN,NaN,NaN,NaN
5.99725275,0.90000000,0.80000000,no vaccine,12111.66234351,14409.93077656,18100.40288110,NaN,NaN,NaN,NaN,NaN,NaN,NaN,NaN,NaN,NaN,NaN,NaN,NaN,NaN,NaN
6.99725275,0.90000000,0.80000000,no vaccine,12219.55889366,14536.65692274,18428.53882695,NaN,NaN,NaN,NaN,NaN,NaN,NaN,NaN,NaN,NaN,NaN,NaN,NaN,NaN,NaN
7.99725275,0.90000000,0.80000000,no vaccine,12372.23164601,14699.12348728,18626.76120347,NaN,NaN,NaN,NaN,NaN,NaN,NaN,NaN,NaN,NaN,NaN,NaN,NaN,NaN,NaN
8.99725275,0.90000000,0.80000000,no vaccine,12473.48564257,14833.57011921,18743.62541824,NaN,NaN,NaN,NaN,NaN,NaN,NaN,NaN,NaN,NaN,NaN,NaN,NaN,NaN,NaN
9.99725275,0.90000000,0.80000000,no vaccine,12594.46989817,14990.13760632,19053.59866581,NaN,NaN,NaN,NaN,NaN,NaN,NaN,NaN,NaN,NaN,NaN,NaN,NaN,NaN,NaN
