time,screeningCoverage,vaccineResponseProb,screeningScenario,totalHospCounts_025,totalHospCounts_500,totalHospCounts_975,vacInducedHospCount_025,vacInducedHospCount_500,vacInducedHospCount_975,vacInducedHospPerc_025,vacInducedHospPerc_500,vacInducedHospPerc_975,advHosp_025,advHosp_500,advHosp_975,nVaccines_025,nVaccines_500,nVaccines_975,nVaccinesPerYear_025,nVaccinesPerYear_500,nVaccinesPerYear_975
0.99725275,0.50000000,0.40000000,no screening,10800.11827122,12525.85297168,14405.60135249,77.90965000,99.42157124,134.55651660,0.00704610,0.00794338,0.00951378,0.02486147,0.03578292,0.04766522,126127.74586172,126151.37257207,126177.60658007,126127.74586172,126151.37257207,126177.60658007
1.99725275,0.50000000,0.40000000,no screening,8177.48087918,9342.27917625,10904.69756552,159.77789773,197.25175426,265.01086953,0.01890883,0.02107684,0.02494554,0.14041385,0.14909755,0.15940435,253576.49732928,253636.94622010,253693.66047561,127438.76001299,127485.29029656,127532.66358502
2.99725275,0.50000000,0.40000000,no screening,9371.86959999,10647.65682934,12252.02032222,289.81697136,356.56944807,464.79783880,0.03035217,0.03343982,0.03930091,0.07168524,0.08655896,0.09940951,381967.60676581,382045.87404823,382120.78836496,128342.67288219,128407.43131837,128469.71779681
3.99725275,0.50000000,0.40000000,no screening,12431.43403166,13924.17927018,15743.42142841,504.36384240,610.91376153,786.42935502,0.03964002,0.04372330,0.05125246,-0.04757097,-0.02475074,-0.00387536,511288.99968511,511397.35508422,511501.05146289,129291.71388348,129350.27835662,129416.22227330
4.99725275,0.50000000,0.40000000,no screening,10011.37214432,11686.34057137,13885.84455147,481.42262629,607.45655409,826.33535807,0.04693832,0.05212667,0.06097872,0.03733763,0.05788208,0.07575068,641719.47279067,641842.13763440,641955.28337394,130384.75598626,130444.14314605,130503.34459101
5.99725275,0.50000000,0.40000000,no screening,8732.87795813,9839.08650945,11381.28751616,493.84276792,594.78389997,782.67452447,0.05477094,0.06054890,0.07059516,0.10834790,0.14023104,0.16936496,773277.68218194,773403.59113228,773530.47133594,131500.83099933,131563.18946742,131622.81876866
6.99725275,0.50000000,0.40000000,no screening,10858.51947237,12457.10710845,14274.21509398,695.26947659,852.38035849,1111.09234529,0.06235570,0.06846594,0.07950554,0.02368722,0.05696351,0.07878950,905917.93425555,906062.54947068,906216.40099718,132600.02141043,132663.26005010,132728.69014291
7.99725275,0.50000000,0.40000000,no screening,12299.17444317,13882.37065360,15948.65506993,843.63127716,1038.17713921,1353.26351055,0.06749729,0.07457530,0.08646684,-0.04809835,-0.01752920,0.01868998,1039723.40768874,1039888.24849558,1040052.11858954,133760.12787471,133823.39281022,133893.09283055
8.99725275,0.50000000,0.40000000,no screening,9675.51960212,11198.32941197,13311.79254913,712.09803016,888.01471181,1206.46711585,0.07194238,0.07970079,0.09253390,0.04641294,0.08127192,0.11994006,1174820.04094067,1174995.21872556,1175180.51453682,135039.85898466,135105.64082677,135172.47577431
9.99725275,0.50000000,0.40000000,no screening,9728.75475893,10892.45343464,12411.10840130,770.05380471,925.06736251,1206.57605372,0.07733399,0.08517294,0.09866249,0.09583356,0.13661664,0.16370622,1311197.94529569,1311383.48160531,1311587.20759440,136329.90271720,136392.13675055,136459.91355806
0.99725275,0.50000000,0.40000000,perfect screening,10733.86449658,12441.78348285,14286.69671613,0.00000000,0.00000000,0.00000000,0.00000000,0.00000000,0.00000000,0.03152688,0.04249547,0.05439674,74479.83216574,75321.69425608,75997.42906577,74479.83216574,75321.69425608,75997.42906577
1.99725275,0.50000000,0.40000000,perfect screening,8094.61245574,9251.01225426,10758.64208030,0.00000000,0.00000000,0.00000000,0.00000000,0.00000000,0.00000000,0.14989835,0.15758104,0.16756146,149803.79329225,150895.07946033,151707.64377325,75323.22553996,75561.98631326,75735.88560777
2.99725275,0.50000000,0.40000000,perfect screening,9271.82455347,10539.58893041,12064.14215181,0.00000000,0.00000000,0.00000000,0.00000000,0.00000000,0.00000000,0.08321009,0.09583183,0.10661057,224275.65094703,225402.55443910,226426.57042968,74311.54841258,74523.25804822,74751.20961324
3.99725275,0.50000000,0.40000000,perfect screening,12258.34260771,13670.87985549,15333.38619313,0.00000000,0.00000000,0.00000000,0.00000000,0.00000000,0.00000000,-0.02468780,-0.00543997,0.01087518,298521.52014271,300298.52077047,302051.16664030,74261.21374605,74909.99174884,75667.97626348
4.99725275,0.50000000,0.40000000,perfect screening,9756.37235306,11389.66137284,13421.27298809,0.00000000,0.00000000,0.00000000,0.00000000,0.00000000,0.00000000,0.06843536,0.08152845,0.09617282,374115.26933019,376611.20603410,378851.10984938,75591.47330313,76292.73026287,76792.82120812
5.99725275,0.50000000,0.40000000,perfect screening,8584.62374677,9611.31693939,10989.46172927,0.00000000,0.00000000,0.00000000,0.00000000,0.00000000,0.00000000,0.13441402,0.16063147,0.18679029,450021.84121305,452627.10567524,454951.79198750,75851.79025663,76014.36534551,76152.15429348
6.99725275,0.50000000,0.40000000,perfect screening,10672.33908857,12178.35702354,13819.26870588,0.00000000,0.00000000,0.00000000,0.00000000,0.00000000,0.00000000,0.05157594,0.07992815,0.09592139,525406.31075098,528238.22266140,530990.81675579,75357.39610857,75639.70690150,76070.95676455
7.99725275,0.50000000,0.40000000,perfect screening,12023.18965253,13458.79932008,15241.79099084,0.00000000,0.00000000,0.00000000,0.00000000,0.00000000,0.00000000,-0.00874233,0.01383283,0.04537590,601613.86103324,605245.95842824,608715.31042972,76176.83649580,76998.04325127,77768.75960640
8.99725275,0.50000000,0.40000000,perfect screening,9423.00730347,10835.69194599,12664.57101159,0.00000000,0.00000000,0.00000000,0.00000000,0.00000000,0.00000000,0.08842574,0.11087232,0.14449341,679277.73991938,683461.47234993,687219.36246596,77693.99759966,78204.04938866,78510.50943388
9.99725275,0.50000000,0.40000000,perfect screening,9520.88301002,10601.22914254,11874.24414771,0.00000000,0.00000000,0.00000000,0.00000000,0.00000000,0.00000000,0.13007354,0.16201999,0.18467007,757212.67846226,761439.02636460,765373.05806345,77816.14539014,77999.35352082,78181.01190934
0.99725275,0.50000000,0.40000000,realistic screening,10902.23181545,12630.01181403,14484.76563087,0.00364312,0.05345588,0.42615998,0.00000029,0.00000428,0.00003325,0.01654299,0.02791663,0.03991334,50896.03391045,56418.10559735,61810.21656215,50896.03391045,56418.10559735,61810.21656215
1.99725275,0.50000000,0.40000000,realistic screening,8546.71316413,9719.63265821,11287.23355270,0.00767283,0.11216192,0.87874391,0.00000075,0.00001164,0.00009048,0.10121987,0.11474174,0.12856435,102335.49204457,113185.91015857,123672.41702454,51384.28610602,56743.54441045,61939.91092224
2.99725275,0.50000000,0.40000000,realistic screening,9733.86992951,11066.60868423,12700.12446443,0.01388206,0.20300030,1.62137895,0.00000120,0.00001847,0.00014284,0.03306486,0.04919104,0.06520275,153115.82573291,169171.25682943,184847.26313874,50702.08747396,56001.95341414,61195.21830540
3.99725275,0.50000000,0.40000000,realistic screening,12388.07594826,13831.14987640,15461.19080488,0.02218549,0.33507251,2.62810151,0.00000158,0.00002414,0.00018463,-0.02616087,-0.01726855,-0.00749239,204083.53008268,225554.73117743,246253.47842545,50940.06959742,56401.85798454,61622.40742579
4.99725275,0.50000000,0.40000000,realistic screening,9962.92947355,11584.12974425,13602.66080236,0.02270157,0.32817686,2.60922017,0.00000189,0.00002889,0.00022068,0.05444019,0.06469861,0.07740913,256088.22861296,283019.36273123,309037.37597938,52021.37527773,57453.16339489,62783.89755393
5.99725275,0.50000000,0.40000000,realistic screening,9171.26557123,10218.89202666,11611.71513304,0.02258766,0.34160529,2.67392648,0.00000218,0.00003355,0.00025761,0.08539660,0.10673133,0.12939993,308079.74054152,340220.29280993,371365.69699648,51898.28557163,57239.38031859,62481.71810380
6.99725275,0.50000000,0.40000000,realistic screening,11223.14191044,12838.35142142,14489.07072175,0.03255636,0.48115174,3.83665924,0.00000246,0.00003776,0.00028942,0.00852739,0.02824198,0.04875162,359633.03175730,397210.24961120,433691.27063899,51644.92862687,57033.37529295,62325.57364251
7.99725275,0.50000000,0.40000000,realistic screening,11989.67565656,13549.94740177,15358.14267700,0.03756677,0.54945565,4.26336085,0.00000268,0.00004097,0.00031213,-0.00291720,0.00944326,0.02633460,412282.97309480,455365.45006787,496962.16579049,52492.96984042,58092.78489577,63492.18528915
8.99725275,0.50000000,0.40000000,realistic screening,9755.25983901,11109.88513959,12939.93186464,0.03299267,0.47730718,3.78173650,0.00000286,0.00004377,0.00033414,0.07019437,0.08600527,0.10984701,465686.84325297,514197.51304394,561154.65961526,53395.47763660,58866.98870845,64238.36253394
9.99725275,0.50000000,0.40000000,realistic screening,10268.70461323,11444.05970376,12892.67171775,0.03483581,0.53005360,4.20964067,0.00000304,0.00004663,0.00035701,0.06778673,0.09249890,0.11631979,518797.29616937,572828.39385465,625246.07146539,53185.30883212,58692.08149116,64086.27843575
0.99725275,0.50000000,0.40000000,no vaccine,11300.06978980,12991.12722772,14849.46531570,NaN,NaN,NaN,NaN,NaN,NaN,NaN,NaN,NaN,NaN,NaN,NaN,NaN,NaN,NaN
1.99725275,0.50000000,0.40000000,no vaccine,9652.08907127,10992.97083401,12713.47862294,NaN,NaN,NaN,NaN,NaN,NaN,NaN,NaN,NaN,NaN,NaN,NaN,NaN,NaN,NaN
2.99725275,0.50000000,0.40000000,no vaccine,10276.45818524,11655.15068482,13255.69587130,NaN,NaN,NaN,NaN,NaN,NaN,NaN,NaN,NaN,NaN,NaN,NaN,NaN,NaN,NaN
3.99725275,0.50000000,0.40000000,no vaccine,12240.33495220,13598.35026519,15096.72085553,NaN,NaN,NaN,NaN,NaN,NaN,NaN,NaN,NaN,NaN,NaN,NaN,NaN,NaN,NaN
4.99725275,0.50000000,0.40000000,no vaccine,10712.86094545,12395.90464950,14482.51166663,NaN,NaN,NaN,NaN,NaN,NaN,NaN,NaN,NaN,NaN,NaN,NaN,NaN,NaN,NaN
5.99725275,0.50000000,0.40000000,no vaccine,10276.80454024,11470.04795379,12881.08420689,NaN,NaN,NaN,NaN,NaN,NaN,NaN,NaN,NaN,NaN,NaN,NaN,NaN,NaN,NaN
6.99725275,0.50000000,0.40000000,no vaccine,11637.98355819,13208.06756239,14812.13289200,NaN,NaN,NaN,NaN,NaN,NaN,NaN,NaN,NaN,NaN,NaN,NaN,NaN,NaN,NaN
7.99725275,0.50000000,0.40000000,no vaccine,12100.06496471,13716.75643991,15525.96650763,NaN,NaN,NaN,NaN,NaN,NaN,NaN,NaN,NaN,NaN,NaN,NaN,NaN,NaN,NaN
8.99725275,0.50000000,0.40000000,no vaccine,10796.34626810,12184.09050537,14076.79886845,NaN,NaN,NaN,NaN,NaN,NaN,NaN,NaN,NaN,NaN,NaN,NaN,NaN,NaN,NaN
9.99725275,0.50000000,0.40000000,no vaccine,11263.25728267,12615.09977276,14162.79929585,NaN,NaN,NaN,NaN,NaN,NaN,NaN,NaN,NaN,NaN,NaN,NaN,NaN,NaN,NaN
0.99725275,0.50000000,0.60000000,no screening,10630.64136603,12330.67131496,14198.32211267,114.10230617,145.64033529,197.00419307,0.01049610,0.01181983,0.01414949,0.03929009,0.05067530,0.06325079,126128.55666936,126155.10458525,126181.98609889,126128.55666936,126155.10458525,126181.98609889
1.99725275,0.50000000,0.60000000,no screening,7650.78091284,8804.27124354,10342.93598821,223.59533981,277.42481451,374.53793931,0.02832000,0.03148904,0.03716210,0.18518906,0.19830153,0.21366608,253589.55883358,253652.07591486,253709.98587074,127446.66518459,127496.14089863,127540.42428306
2.99725275,0.50000000,0.60000000,no screening,8782.03589955,9985.31682533,11511.86110069,409.16840414,502.50100810,653.59180427,0.04581816,0.05025144,0.05873363,0.12330821,0.14373461,0.16072176,381993.74920695,382070.52732678,382151.00925282,128362.73649756,128421.21371640,128474.51881048
3.99725275,0.50000000,0.60000000,no screening,12265.21279289,13819.47677720,15703.94621186,751.92465434,915.70925366,1177.57891314,0.06021436,0.06600877,0.07676219,-0.05532478,-0.01729509,0.01718980,511313.98652347,511424.06378580,511522.87400786,129288.59054708,129350.35692038,129412.18016975
4.99725275,0.50000000,0.60000000,no screening,9937.31529999,11660.19943101,13946.19988976,724.14852471,915.99711067,1244.14856187,0.07130285,0.07870643,0.09126887,0.03128569,0.06071680,0.08458870,641740.79188645,641868.94554886,641985.61863956,130383.04159990,130444.53175545,130504.32666280
5.99725275,0.50000000,0.60000000,no screening,8137.63801243,9247.77691196,10851.54860678,695.50066924,846.48373343,1130.71262115,0.08338227,0.09159094,0.10580700,0.14368180,0.19149829,0.23723759,773309.78421284,773441.67046222,773580.31994531,131512.88699587,131574.39380461,131640.46025163
6.99725275,0.50000000,0.60000000,no screening,10078.31444157,11636.39567687,13487.25127632,988.81192277,1212.12200298,1577.09393192,0.09556175,0.10419192,0.11975314,0.07554483,0.11886917,0.14610452,905968.40993728,906119.87696056,906273.95863788,132611.21819333,132678.62438364,132745.01005152
7.99725275,0.50000000,0.60000000,no screening,12400.85851884,13989.93237520,16100.54084614,1312.99820844,1598.59691196,2081.35478334,0.10415714,0.11410042,0.13068251,-0.08024905,-0.02586636,0.03462089,1039775.60268564,1039941.95580206,1040104.81039540,133755.50389698,133823.98578374,133885.04606841
8.99725275,0.50000000,0.60000000,no screening,9517.40140283,11163.00608718,13476.41097163,1079.70764261,1356.13405289,1843.29724314,0.11086426,0.12200807,0.13972771,0.03436257,0.08350568,0.13804087,1174878.49376144,1175049.49508220,1175218.98848866,135038.30943799,135107.50760751,135173.50313865
9.99725275,0.50000000,0.60000000,no screening,8871.26249809,10045.19447224,11644.17652948,1092.18518652,1304.98317041,1715.09102840,0.11935035,0.13066328,0.14966184,0.14069973,0.20451912,0.24969583,1311272.45247902,1311463.52660669,1311644.92833228,136345.20197923,136412.94468955,136475.98189054
0.99725275,0.50000000,0.60000000,perfect screening,10524.29937303,12205.76680493,14019.79718199,0.00000000,0.00000000,0.00000000,0.00000000,0.00000000,0.00000000,0.04946028,0.06049869,0.07349965,74456.63861912,75292.93885841,75982.70905690,74456.63861912,75292.93885841,75982.70905690
1.99725275,0.50000000,0.60000000,perfect screening,7535.24826654,8662.99846680,10166.33285044,0.00000000,0.00000000,0.00000000,0.00000000,0.00000000,0.00000000,0.19798746,0.21035927,0.22495382,149548.44678471,150643.69540447,151477.43049292,75092.66621885,75341.32095132,75513.75039119
2.99725275,0.50000000,0.60000000,perfect screening,8667.21284862,9833.06474883,11262.93978442,0.00000000,0.00000000,0.00000000,0.00000000,0.00000000,0.00000000,0.14032742,0.15674870,0.17061900,223468.07838100,224588.60694367,225608.59320864,73743.29625754,73949.32713422,74140.56524071
3.99725275,0.50000000,0.60000000,perfect screening,11950.14218066,13453.03001743,15153.89036416,0.00000000,0.00000000,0.00000000,0.00000000,0.00000000,0.00000000,-0.02199488,0.01161388,0.03962204,296873.52141025,298630.84170922,300358.56758979,73442.95094794,74054.78493896,74795.99656207
4.99725275,0.50000000,0.60000000,perfect screening,9560.14177980,11208.36097628,13253.85126592,0.00000000,0.00000000,0.00000000,0.00000000,0.00000000,0.00000000,0.07910948,0.09720768,0.11489939,371622.25471080,374143.23729309,376392.42711882,74740.35111111,75507.49183273,76079.07567297
5.99725275,0.50000000,0.60000000,perfect screening,7891.04873198,8902.18460167,10250.78648431,0.00000000,0.00000000,0.00000000,0.00000000,0.00000000,0.00000000,0.18283262,0.22208657,0.26317701,446668.29969485,449339.54445448,451663.75194716,74997.67349040,75162.93947258,75306.42621673
6.99725275,0.50000000,0.60000000,perfect screening,9813.94739138,11219.15919666,12809.85663238,0.00000000,0.00000000,0.00000000,0.00000000,0.00000000,0.00000000,0.11503839,0.15178933,0.17170266,520985.92038667,523774.95819123,526467.81967836,74228.95141031,74462.79418167,74816.36466611
7.99725275,0.50000000,0.60000000,perfect screening,12008.23070360,13348.24617337,15052.44247968,0.00000000,0.00000000,0.00000000,0.00000000,0.00000000,0.00000000,-0.02231313,0.02198291,0.07605576,595850.57063248,599428.11088574,602911.67304679,74878.67198662,75666.44617085,76478.08310668
8.99725275,0.50000000,0.60000000,perfect screening,9120.62795082,10572.62892249,12493.86498495,0.00000000,0.00000000,0.00000000,0.00000000,0.00000000,0.00000000,0.09998708,0.13002400,0.17684629,672425.11137514,676645.98505944,680464.01764249,76582.90176613,77193.01714670,77607.50893123
9.99725275,0.50000000,0.60000000,perfect screening,8584.82366787,9567.03325218,10837.09153568,0.00000000,0.00000000,0.00000000,0.00000000,0.00000000,0.00000000,0.18981722,0.24358853,0.27999370,749302.88726353,753604.62266028,757589.75583556,76776.19877575,76959.59342906,77115.57694391
0.99725275,0.50000000,0.60000000,realistic screening,10778.74305830,12493.96845395,14343.70612197,0.00539091,0.07905482,0.62917284,0.00000043,0.00000640,0.00004976,0.02676251,0.03911499,0.05245089,50882.04951903,56410.56484054,61802.60933314,50882.04951903,56410.56484054,61802.60933314
1.99725275,0.50000000,0.60000000,realistic screening,8188.80889073,9353.01483777,10908.09288859,0.01115254,0.16173795,1.27030477,0.00000114,0.00001754,0.00013622,0.12828476,0.14771298,0.16797118,102217.59093134,113062.17415028,123510.86541556,51275.30318290,56619.81346139,61817.18873675
2.99725275,0.50000000,0.60000000,realistic screening,9391.85344364,10656.00616416,12266.54994979,0.02028716,0.29625123,2.35600690,0.00000182,0.00002803,0.00021676,0.06145463,0.08444376,0.10714639,152768.29694312,168741.36971854,184293.24386285,50478.26069771,55699.79583217,60825.77511408
3.99725275,0.50000000,0.60000000,realistic screening,12296.94472348,13701.70368478,15353.51677540,0.03340251,0.50641650,4.00295865,0.00000241,0.00003676,0.00028147,-0.02474757,-0.00892428,0.00908359,203394.39086319,224672.80842151,245211.07674752,50616.80389464,55966.46337428,61114.39501444
4.99725275,0.50000000,0.60000000,realistic screening,9811.20393640,11431.73402924,13454.20787994,0.03413633,0.49336654,3.93019921,0.00000289,0.00004409,0.00033679,0.06493733,0.07787412,0.09361886,255051.94916726,281725.12848858,307518.99633044,51676.10865055,57044.92189038,62307.87580963
5.99725275,0.50000000,0.60000000,realistic screening,8683.60686068,9747.45324805,11167.16958286,0.03321764,0.49888408,3.91703286,0.00000335,0.00005137,0.00039450,0.11623524,0.14732787,0.18140354,306677.72915689,338473.79813860,369263.07790618,51514.30337446,56775.41434555,61905.21274523
6.99725275,0.50000000,0.60000000,realistic screening,10802.65344743,12341.29281650,14042.23179265,0.04838245,0.70772376,5.65565422,0.00000379,0.00005807,0.00044556,0.03697847,0.06585341,0.09767251,357779.19033786,394836.20878626,430799.06567627,51151.72825399,56407.01293792,61589.53228315
7.99725275,0.50000000,0.60000000,realistic screening,12009.60197030,13488.27111830,15294.52361416,0.05773194,0.84750260,6.63755944,0.00000415,0.00006311,0.00048154,-0.00703233,0.01264612,0.04263477,409861.15668600,452262.86252492,493318.56704443,51955.40256313,57409.08185879,62684.26208046
8.99725275,0.50000000,0.60000000,realistic screening,9452.17129201,10879.88245970,12735.84190539,0.04992534,0.71944643,5.71985358,0.00000442,0.00006746,0.00051536,0.08356732,0.10571098,0.13895354,462784.33021020,510571.64663058,556903.48764757,52926.12499693,58312.83792012,63600.34173370
9.99725275,0.50000000,0.60000000,realistic screening,9666.83656693,10780.61489561,12190.54415407,0.05034393,0.77220175,6.07626118,0.00000470,0.00007204,0.00055209,0.10577138,0.14447226,0.18095861,515466.56794452,568607.78777587,620099.20774665,52687.44449092,58104.26144304,63387.69234055
0.99725275,0.50000000,0.60000000,no vaccine,11300.06978980,12991.12722772,14849.46531570,NaN,NaN,NaN,NaN,NaN,NaN,NaN,NaN,NaN,NaN,NaN,NaN,NaN,NaN,NaN
1.99725275,0.50000000,0.60000000,no vaccine,9652.08907127,10992.97083401,12713.47862294,NaN,NaN,NaN,NaN,NaN,NaN,NaN,NaN,NaN,NaN,NaN,NaN,NaN,NaN,NaN
2.99725275,0.50000000,0.60000000,no vaccine,10276.45818524,11655.15068482,13255.69587130,NaN,NaN,NaN,NaN,NaN,NaN,NaN,NaN,NaN,NaN,NaN,NaN,NaN,NaN,NaN
3.99725275,0.50000000,0.60000000,no vaccine,12240.33495220,13598.35026519,15096.72085553,NaN,NaN,NaN,NaN,NaN,NaN,NaN,NaN,NaN,NaN,NaN,NaN,NaN,NaN,NaN
4.99725275,0.50000000,0.60000000,no vaccine,10712.86094545,12395.90464950,14482.51166663,NaN,NaN,NaN,NaN,NaN,NaN,NaN,NaN,NaN,NaN,NaN,NaN,NaN,NaN,NaN
5.99725275,0.50000000,0.60000000,no vaccine,10276.80454024,11470.04795379,12881.08420689,NaN,NaN,NaN,NaN,NaN,NaN,NaN,NaN,NaN,NaN,NaN,NaN,NaN,NaN,NaN
6.99725275,0.50000000,0.60000000,no vaccine,11637.98355819,13208.06756239,14812.13289200,NaN,NaN,NaN,NaN,NaN,NaN,NaN,NaN,NaN,NaN,NaN,NaN,NaN,NaN,NaN
7.99725275,0.50000000,0.60000000,no vaccine,12100.06496471,13716.75643991,15525.96650763,NaN,NaN,NaN,NaN,NaN,NaN,NaN,NaN,NaN,NaN,NaN,NaN,NaN,NaN,NaN
8.99725275,0.50000000,0.60000000,no vaccine,10796.34626810,12184.09050537,14076.79886845,NaN,NaN,NaN,NaN,NaN,NaN,NaN,NaN,NaN,NaN,NaN,NaN,NaN,NaN,NaN
9.99725275,0.50000000,0.60000000,no vaccine,11263.25728267,12615.09977276,14162.79929585,NaN,NaN,NaN,NaN,NaN,NaN,NaN,NaN,NaN,NaN,NaN,NaN,NaN,NaN,NaN
0.99725275,0.50000000,0.80000000,no screening,10465.75139786,12140.62733396,13996.25604813,148.67498904,189.74575793,256.53700481,0.01389309,0.01563592,0.01870473,0.05324221,0.06532042,0.07865657,126132.27673197,126158.50836445,126188.27747586,126132.27673197,126158.50836445,126188.27747586
1.99725275,0.50000000,0.80000000,no screening,7150.81513719,8289.25096956,9794.53104225,278.60423325,346.40433670,470.70668547,0.03769770,0.04180505,0.04918830,0.22813897,0.24562192,0.26532284,253608.49222836,253665.53647684,253718.42546657,127459.83647083,127506.82561756,127551.60453853
2.99725275,0.50000000,0.80000000,no screening,8146.38589078,9283.03506844,10708.24402965,508.98963041,623.73162910,810.55118899,0.06149862,0.06707682,0.07798685,0.17825844,0.20348175,0.22454128,382018.72988761,382099.01286526,382173.10975985,128373.17028971,128434.94253616,128492.37199802
3.99725275,0.50000000,0.80000000,no screening,11976.72648176,13644.74936336,15611.23388201,990.11176444,1210.65975465,1562.17773354,0.08131133,0.08857785,0.10219746,-0.05921316,-0.00481737,0.04295919,511360.91155018,511458.11035049,511556.96219666,129295.45807164,129358.68422244,129418.07168869
4.99725275,0.50000000,0.80000000,no screening,9943.04072635,11726.00785112,14065.63943731,978.64848621,1237.95974320,1680.12252176,0.09625402,0.10566574,0.12134437,0.01726705,0.05629980,0.08647006,641785.78156437,641902.37415077,642013.08782543,130382.71292858,130444.97167014,130504.34894829
5.99725275,0.50000000,0.80000000,no screening,7593.93134642,8735.65246150,10427.90767330,877.28232437,1075.08414903,1440.08599499,0.11263809,0.12307576,0.14077901,0.17458924,0.23589964,0.29567962,773356.94664889,773486.61980781,773609.22786319,131519.63522257,131583.77903723,131642.71254460
6.99725275,0.50000000,0.80000000,no screening,9243.73462121,10703.37393169,12467.43600688,1224.81543264,1507.25944688,1959.80713181,0.12977994,0.14067784,0.15974911,0.13989551,0.18876341,0.21990424,906034.94817047,906180.80016832,906322.62329550,132631.59987216,132693.59148232,132757.25747780
7.99725275,0.50000000,0.80000000,no screening,12349.82267723,13985.89763945,16172.34529988,1796.36397612,2171.53152919,2800.21074499,0.14249563,0.15490997,0.17536599,-0.11054011,-0.02726181,0.06040658,1039840.02838979,1040004.47141902,1040170.42394160,133761.76248328,133823.47059419,133894.00203905
8.99725275,0.50000000,0.80000000,no screening,9569.08366203,11306.58390292,13777.78374990,1478.97806769,1869.67628313,2539.10095159,0.15165570,0.16588593,0.18777342,0.00817095,0.07076603,0.13841239,1174926.85941794,1175108.18571193,1175281.09539635,135039.68521872,135105.66659732,135171.31815543
9.99725275,0.50000000,0.80000000,no screening,8197.22460184,9334.27747888,11069.86773625,1371.04849691,1655.36086208,2176.69920765,0.16336840,0.17768893,0.20063250,0.17260683,0.26116759,0.32390225,1311336.88963786,1311534.79515464,1311714.45751727,136359.73183140,136425.72528974,136483.43438500
0.99725275,0.50000000,0.80000000,perfect screening,10323.24670370,11975.55019746,13765.11778346,0.00000000,0.00000000,0.00000000,0.00000000,0.00000000,0.00000000,0.06658869,0.07814033,0.09166861,74425.49042893,75274.50721965,75959.67604851,74425.49042893,75274.50721965,75959.67604851
1.99725275,0.50000000,0.80000000,perfect screening,7009.42817401,8112.01522897,9576.87893748,0.00000000,0.00000000,0.00000000,0.00000000,0.00000000,0.00000000,0.24454368,0.26093723,0.27985854,149283.11712287,150409.30944929,151245.77317579,74861.16385666,75124.90034270,75303.16609569
2.99725275,0.50000000,0.80000000,perfect screening,8029.79713890,9100.13994502,10420.52042183,0.00000000,0.00000000,0.00000000,0.00000000,0.00000000,0.00000000,0.19991575,0.21970483,0.23656792,222660.90391566,223772.37611161,224767.49866487,73180.33126585,73381.21002415,73562.31228057
3.99725275,0.50000000,0.80000000,perfect screening,11594.10665643,13165.52452811,14892.32738261,0.00000000,0.00000000,0.00000000,0.00000000,0.00000000,0.00000000,-0.01615155,0.03299522,0.07203261,295244.13855536,296922.05029261,298620.31949253,72601.17186097,73164.04992285,73870.86146194
4.99725275,0.50000000,0.80000000,perfect screening,9464.70134957,11102.32999951,13119.02977005,0.00000000,0.00000000,0.00000000,0.00000000,0.00000000,0.00000000,0.08237021,0.10596218,0.12582893,369100.09889071,371623.09488109,373872.21387786,73862.86204808,74685.30418431,75316.34806491
5.99725275,0.50000000,0.80000000,perfect screening,7257.94196485,8273.06119095,9677.28781391,0.00000000,0.00000000,0.00000000,0.00000000,0.00000000,0.00000000,0.22581450,0.27630858,0.32999423,443270.89093775,445967.82296229,448338.31220550,74139.86258142,74328.15724693,74485.62272539
6.99725275,0.50000000,0.80000000,perfect screening,8893.73607539,10165.39069116,11690.61649551,0.00000000,0.00000000,0.00000000,0.00000000,0.00000000,0.00000000,0.19150199,0.23054361,0.25270193,516520.51339439,519258.70477178,521933.54541772,73092.31810116,73316.12833362,73584.86351552
7.99725275,0.50000000,0.80000000,perfect screening,11756.93939617,13128.50018745,14822.02935977,0.00000000,0.00000000,0.00000000,0.00000000,0.00000000,0.00000000,-0.03198947,0.03724857,0.11398094,590039.69503289,593502.30371255,596973.41366030,73508.90610984,74252.07616681,75077.50056836
8.99725275,0.50000000,0.80000000,perfect screening,8972.19014942,10486.66688599,12445.42030519,0.00000000,0.00000000,0.00000000,0.00000000,0.00000000,0.00000000,0.10044627,0.13616700,0.19279424,665368.73688506,669637.38110114,673566.38663223,75388.25636031,76120.41712866,76644.17141925
9.99725275,0.50000000,0.80000000,perfect screening,7765.35442225,8680.58935722,9976.67529457,0.00000000,0.00000000,0.00000000,0.00000000,0.00000000,0.00000000,0.24082813,0.31292106,0.36552967,741244.29923597,745618.69290227,749655.55825410,75786.78783038,75971.23656208,76123.06453209
0.99725275,0.50000000,0.80000000,realistic screening,10657.54700307,12350.59977297,14204.09072809,0.00708763,0.10388952,0.82626543,0.00000057,0.00000851,0.00006618,0.03659877,0.05012638,0.06503867,50874.76849888,56400.92147785,61787.17984987,50874.76849888,56400.92147785,61787.17984987
1.99725275,0.50000000,0.80000000,realistic screening,7846.90412186,9000.48433203,10541.10642555,0.01437098,0.20791182,1.62474853,0.00000152,0.00002348,0.00018243,0.15390897,0.18013406,0.20724235,102102.75404734,112932.14343346,123361.26994673,51183.97633703,56501.22753803,61662.59138392
2.99725275,0.50000000,0.80000000,realistic screening,8990.54251844,10238.54527057,11805.63030888,0.02631285,0.38355572,3.04797205,0.00000245,0.00003778,0.00029235,0.09000992,0.12041456,0.15001800,152421.86471325,168306.51109821,183754.12242871,50240.51508751,55395.04579757,60460.30944549
3.99725275,0.50000000,0.80000000,realistic screening,12134.91475433,13579.53644069,15265.88347096,0.04462192,0.67971175,5.39739311,0.00000327,0.00004977,0.00038151,-0.02320225,0.00046812,0.02700613,202719.27752619,223806.63500434,244143.39817457,50269.95773490,55539.89262852,60561.62984452
4.99725275,0.50000000,0.80000000,realistic screening,9669.39082545,11309.78828482,13311.06471697,0.04573057,0.66155786,5.27263543,0.00000393,0.00005979,0.00045703,0.07290697,0.08863860,0.10684746,254032.06413076,280460.26704009,305980.82177473,51343.17555450,56626.94114983,61836.28242999
5.99725275,0.50000000,0.80000000,realistic screening,8247.92932517,9305.57411712,10738.75815852,0.04339915,0.64645093,5.03729147,0.00000456,0.00006987,0.00053697,0.14522174,0.18545856,0.23069486,305271.23240345,336735.01335447,367210.70579022,51167.71629861,56314.95567031,61325.63138937
6.99725275,0.50000000,0.80000000,realistic screening,10252.68657017,11787.04973396,13483.65812287,0.06363804,0.92241860,7.35768239,0.00000519,0.00007927,0.00060973,0.06831202,0.10751160,0.14951312,355913.27344083,392431.74456150,427839.95193990,50647.66063936,55765.19116649,60807.91574014
7.99725275,0.50000000,0.80000000,realistic screening,12021.98482843,13415.46759639,15172.37157565,0.07835479,1.16189985,9.17491393,0.00000569,0.00008639,0.00066096,-0.01402332,0.01658208,0.06117453,407424.57800486,449185.22789626,489659.31689459,51424.65453919,56717.29921849,61771.37764637
8.99725275,0.50000000,0.80000000,realistic screening,9244.16222147,10694.69413421,12619.01637831,0.06676842,0.96887771,7.72229563,0.00000607,0.00009245,0.00070702,0.09348039,0.12055651,0.16283555,459893.72461283,506973.40192210,552636.46866503,52471.12900655,57767.16287191,62977.15177044
9.99725275,0.50000000,0.80000000,realistic screening,9085.51015307,10159.09301329,11518.16762144,0.06547066,0.99395563,7.80295872,0.00000647,0.00009883,0.00075882,0.14409498,0.19473348,0.24439130,512177.57591952,564431.95990140,615136.15982489,52235.98576801,57515.49984348,62652.78283659
0.99725275,0.50000000,0.80000000,no vaccine,11300.06978980,12991.12722772,14849.46531570,NaN,NaN,NaN,NaN,NaN,NaN,NaN,NaN,NaN,NaN,NaN,NaN,NaN,NaN,NaN
1.99725275,0.50000000,0.80000000,no vaccine,9652.08907127,10992.97083401,12713.47862294,NaN,NaN,NaN,NaN,NaN,NaN,NaN,NaN,NaN,NaN,NaN,NaN,NaN,NaN,NaN
2.99725275,0.50000000,0.80000000,no vaccine,10276.45818524,11655.15068482,13255.69587130,NaN,NaN,NaN,NaN,NaN,NaN,NaN,NaN,NaN,NaN,NaN,NaN,NaN,NaN,NaN
3.99725275,0.50000000,0.80000000,no vaccine,12240.33495220,13598.35026519,15096.72085553,NaN,NaN,NaN,NaN,NaN,NaN,NaN,NaN,NaN,NaN,NaN,NaN,NaN,NaN,NaN
4.99725275,0.50000000,0.80000000,no vaccine,10712.86094545,12395.90464950,14482.51166663,NaN,NaN,NaN,NaN,NaN,NaN,NaN,NaN,NaN,NaN,NaN,NaN,NaN,NaN,NaN
5.99725275,0.50000000,0.80000000,no vaccine,10276.80454024,11470.04795379,12881.08420689,NaN,NaN,NaN,NaN,NaN,NaN,NaN,NaN,NaN,NaN,NaN,NaN,NaN,NaN,NaN
6.99725275,0.50000000,0.80000000,no vaccine,11637.98355819,13208.06756239,14812.13289200,NaN,NaN,NaN,NaN,NaN,NaN,NaN,NaN,NaN,NaN,NaN,NaN,NaN,NaN,NaN
7.99725275,0.50000000,0.80000000,no vaccine,12100.06496471,13716.75643991,15525.96650763,NaN,NaN,NaN,NaN,NaN,NaN,NaN,NaN,NaN,NaN,NaN,NaN,NaN,NaN,NaN
8.99725275,0.50000000,0.80000000,no vaccine,10796.34626810,12184.09050537,14076.79886845,NaN,NaN,NaN,NaN,NaN,NaN,NaN,NaN,NaN,NaN,NaN,NaN,NaN,NaN,NaN
9.99725275,0.50000000,0.80000000,no vaccine,11263.25728267,12615.09977276,14162.79929585,NaN,NaN,NaN,NaN,NaN,NaN,NaN,NaN,NaN,NaN,NaN,NaN,NaN,NaN,NaN
0.99725275,0.70000000,0.40000000,no screening,10664.32208074,12370.80915240,14238.77505552,107.03938194,136.55229192,184.72607393,0.00980974,0.01104977,0.01322733,0.03625943,0.04779357,0.06015274,176577.11949569,176616.80243475,176654.79140068,176577.11949569,176616.80243475,176654.79140068
1.99725275,0.70000000,0.40000000,no screening,7749.45193778,8911.70418666,10452.42830440,211.70565390,262.32241135,353.74263587,0.02643954,0.02941828,0.03472914,0.17636030,0.18855969,0.20319779,355030.12538453,355111.10975211,355190.87353947,178426.96067968,178493.66639908,178558.86359819
2.99725275,0.70000000,0.40000000,no screening,8903.88378533,10122.11138328,11637.03218008,386.51949470,475.10862709,618.54281730,0.04268804,0.04688310,0.05485226,0.11315210,0.13208567,0.14816260,534790.99197300,534895.27718438,535003.26812815,179703.37692829,179786.17863511,179868.10507151
3.99725275,0.70000000,0.40000000,no screening,12294.84039220,13853.38073901,15719.41731534,703.32048249,855.65371086,1101.36101130,0.05608130,0.06153123,0.07167629,-0.05428512,-0.01916412,0.01239119,715835.39817218,715975.55079325,716107.25177721,180993.21185572,181081.95449978,181155.25816636
4.99725275,0.70000000,0.40000000,no screening,9938.91049327,11660.56073028,13924.04328109,675.51624029,853.51773436,1159.18301001,0.06638313,0.07335278,0.08522892,0.03275753,0.06087453,0.08419063,898415.81514680,898589.04437610,898772.91172673,182523.95893737,182613.72424023,182704.30134287
5.99725275,0.70000000,0.40000000,no screening,8249.89946211,9357.39252860,10958.94864773,655.59424880,797.94953025,1061.09508405,0.07760803,0.08535703,0.09875218,0.13686953,0.18169453,0.22468166,1082591.95076445,1082785.94500811,1082986.52855405,184109.59798353,184198.56946646,184283.75031680
6.99725275,0.70000000,0.40000000,no screening,10224.19187824,11814.91380703,13664.62881493,934.37298369,1144.93980836,1490.52106242,0.08883137,0.09697825,0.11173735,0.06390914,0.10537579,0.13184534,1268309.21673158,1268522.46578092,1268744.85438904,185653.11241966,185737.39720446,185830.34300872
7.99725275,0.70000000,0.40000000,no screening,12386.33504286,13992.59976467,16069.94913796,1216.06280908,1486.13162144,1934.89773567,0.09667469,0.10607308,0.12180355,-0.07358365,-0.02490577,0.03069973,1455630.02594374,1455871.86808270,1456126.21591943,187256.72400847,187348.92301632,187439.38525310
8.99725275,0.70000000,0.40000000,no screening,9525.16083173,11146.88429428,13427.07530419,1003.79191567,1259.03804141,1708.94173141,0.10291246,0.11341851,0.13022340,0.03776669,0.08452598,0.13615595,1644746.52822272,1645043.35299392,1645327.64327196,189067.77088036,189165.54786763,189254.98644472
9.99725275,0.70000000,0.40000000,no screening,9037.07514091,10204.49770424,11750.37444549,1030.44536947,1233.97314349,1616.09396617,0.11077429,0.12145552,0.13950298,0.13208350,0.19144812,0.23335855,1835689.21938097,1836032.25767839,1836314.59879803,190887.39823980,190986.50003679,191070.53125952
0.99725275,0.70000000,0.40000000,perfect screening,10565.45944675,12253.16271175,14075.43120093,0.00000000,0.00000000,0.00000000,0.00000000,0.00000000,0.00000000,0.04587719,0.05698256,0.06949190,104239.60237583,105420.17482596,106377.11358070,104239.60237583,105420.17482596,106377.11358070
1.99725275,0.70000000,0.40000000,perfect screening,7643.40242477,8777.77309771,10283.73914858,0.00000000,0.00000000,0.00000000,0.00000000,0.00000000,0.00000000,0.18856260,0.19999475,0.21349845,209469.27532856,210987.79212285,212117.64305945,105199.65488616,105543.90731993,105791.61438663
2.99725275,0.70000000,0.40000000,perfect screening,8789.87554942,9978.57402587,11425.99652174,0.00000000,0.00000000,0.00000000,0.00000000,0.00000000,0.00000000,0.12927481,0.14428879,0.15747737,313082.29471201,314648.63632203,316071.93449876,103409.19267709,103690.23407174,103990.77969499
3.99725275,0.70000000,0.40000000,perfect screening,12006.56941625,13504.06435031,15186.78258884,0.00000000,0.00000000,0.00000000,0.00000000,0.00000000,0.00000000,-0.02320025,0.00778856,0.03334614,416128.77822783,418548.60320023,421013.72604134,103059.69634601,103919.27745088,104959.43525992
4.99725275,0.70000000,0.40000000,perfect screening,9597.35442938,11236.23032794,13276.38601229,0.00000000,0.00000000,0.00000000,0.00000000,0.00000000,0.00000000,0.07752287,0.09473073,0.11143524,521028.70479305,524516.55251922,527670.82910955,104886.54939007,105939.33293040,106714.65461020
5.99725275,0.70000000,0.40000000,perfect screening,8031.62095634,9036.04361452,10412.45157539,0.00000000,0.00000000,0.00000000,0.00000000,0.00000000,0.00000000,0.17364349,0.21046277,0.24882574,626303.16763215,629992.80754711,633309.21025018,105230.24177901,105470.92235467,105661.45239274
6.99725275,0.70000000,0.40000000,perfect screening,9984.94576460,11424.35549752,13035.36852009,0.00000000,0.00000000,0.00000000,0.00000000,0.00000000,0.00000000,0.10163387,0.13650271,0.15594302,730682.73425211,734536.45502332,738413.61308473,104231.30314510,104581.92830207,105083.79910849
7.99725275,0.70000000,0.40000000,perfect screening,12031.74452825,13373.66043110,15079.95090922,0.00000000,0.00000000,0.00000000,0.00000000,0.00000000,0.00000000,-0.01868203,0.02017156,0.06944594,835873.27175450,840866.99831207,845798.17310668,105198.98035541,106331.96567102,107455.23995426
8.99725275,0.70000000,0.40000000,perfect screening,9161.87843161,10616.15086588,12514.88095450,0.00000000,0.00000000,0.00000000,0.00000000,0.00000000,0.00000000,0.09807309,0.12732221,0.17161796,943402.78750348,949229.20302958,954676.37727026,107503.39538355,108362.50971096,108890.67004919
9.99725275,0.70000000,0.40000000,perfect screening,8783.92884785,9765.81767654,11042.60529174,0.00000000,0.00000000,0.00000000,0.00000000,0.00000000,0.00000000,0.17903183,0.22809863,0.26119972,1051276.34639100,1057244.09181806,1062958.24742795,107781.26157952,108035.38144658,108263.18420547
0.99725275,0.70000000,0.40000000,realistic screening,10800.48109131,12521.18437656,14374.23916040,0.00504515,0.07400477,0.58908834,0.00000040,0.00000598,0.00004647,0.02483599,0.03684020,0.05003185,71236.92199038,78977.98413700,86508.42051598,71236.92199038,78977.98413700,86508.42051598
1.99725275,0.70000000,0.40000000,realistic screening,8264.42689473,9421.70346316,10976.75077176,0.01048221,0.15208020,1.19440833,0.00000106,0.00001635,0.00012709,0.12285990,0.14116188,0.16020482,143133.92374967,158321.08677682,172949.83571465,71827.96288000,79309.00887900,86577.51216747
2.99725275,0.70000000,0.40000000,realistic screening,9460.37593483,10735.95905651,12354.66521836,0.01904938,0.27831628,2.21048244,0.00000169,0.00002611,0.00020183,0.05562587,0.07731957,0.09875955,213969.84879025,236360.25246915,258182.11248598,70718.73897394,78047.81700089,85285.51310921
3.99725275,0.70000000,0.40000000,realistic screening,12303.00578386,13735.50235616,15376.11464339,0.03113711,0.47159640,3.71821503,0.00000224,0.00003420,0.00026183,-0.02507583,-0.01042218,0.00580802,284966.40250399,314801.98498688,343559.32275144,70964.41723748,78477.57207515,85704.03669166
4.99725275,0.70000000,0.40000000,realistic screening,9838.82927116,11452.51855943,13475.72900757,0.03185279,0.46068303,3.66606955,0.00000269,0.00004100,0.00031328,0.06276264,0.07560042,0.09068089,357380.31109566,394795.57446359,430938.01445010,72425.67095927,79979.41335407,87378.69169866
5.99725275,0.70000000,0.40000000,realistic screening,8784.94546200,9840.30467808,11260.89174365,0.03115750,0.46822960,3.65372041,0.00000311,0.00004774,0.00036669,0.11014675,0.13940885,0.17083918,429747.67388626,474344.46965714,517541.95302224,72240.16291204,79607.79841419,86850.53486090
6.99725275,0.70000000,0.40000000,realistic screening,10890.04028027,12448.56301766,14122.99395223,0.04525978,0.66289840,5.30868594,0.00000352,0.00005392,0.00041367,0.03134015,0.05807983,0.08790089,501401.02721191,553438.82837273,603921.48227364,71717.67625448,79129.58700810,86454.21296093
7.99725275,0.70000000,0.40000000,realistic screening,12008.70961538,13498.73015215,15303.78491041,0.05363108,0.78663114,6.14551454,0.00000385,0.00005860,0.00044694,-0.00618081,0.01224949,0.03852472,574497.79901513,634061.06478820,691637.01821186,72915.72239481,80560.38316323,87953.85225332
8.99725275,0.70000000,0.40000000,realistic screening,9507.10564431,10925.91391801,12794.77574081,0.04657503,0.67075198,5.32553389,0.00000410,0.00006265,0.00047835,0.08079085,0.10196998,0.13399992,648767.89815662,715877.37198764,780828.32706767,74257.51651915,81785.20647635,89198.04547245
9.99725275,0.70000000,0.40000000,realistic screening,9787.25148062,10913.46909047,12329.00958403,0.04727436,0.72446363,5.71753891,0.00000436,0.00006687,0.00051209,0.09758528,0.13378050,0.16863452,722635.73025058,797312.32803507,869569.58387275,73928.23170484,81508.10313417,88915.26325867
0.99725275,0.70000000,0.40000000,no vaccine,11300.06978980,12991.12722772,14849.46531570,NaN,NaN,NaN,NaN,NaN,NaN,NaN,NaN,NaN,NaN,NaN,NaN,NaN,NaN,NaN
1.99725275,0.70000000,0.40000000,no vaccine,9652.08907127,10992.97083401,12713.47862294,NaN,NaN,NaN,NaN,NaN,NaN,NaN,NaN,NaN,NaN,NaN,NaN,NaN,NaN,NaN
2.99725275,0.70000000,0.40000000,no vaccine,10276.45818524,11655.15068482,13255.69587130,NaN,NaN,NaN,NaN,NaN,NaN,NaN,NaN,NaN,NaN,NaN,NaN,NaN,NaN,NaN
3.99725275,0.70000000,0.40000000,no vaccine,12240.33495220,13598.35026519,15096.72085553,NaN,NaN,NaN,NaN,NaN,NaN,NaN,NaN,NaN,NaN,NaN,NaN,NaN,NaN,NaN
4.99725275,0.70000000,0.40000000,no vaccine,10712.86094545,12395.90464950,14482.51166663,NaN,NaN,NaN,NaN,NaN,NaN,NaN,NaN,NaN,NaN,NaN,NaN,NaN,NaN,NaN
5.99725275,0.70000000,0.40000000,no vaccine,10276.80454024,11470.04795379,12881.08420689,NaN,NaN,NaN,NaN,NaN,NaN,NaN,NaN,NaN,NaN,NaN,NaN,NaN,NaN,NaN
6.99725275,0.70000000,0.40000000,no vaccine,11637.98355819,13208.06756239,14812.13289200,NaN,NaN,NaN,NaN,NaN,NaN,NaN,NaN,NaN,NaN,NaN,NaN,NaN,NaN,NaN
7.99725275,0.70000000,0.40000000,no vaccine,12100.06496471,13716.75643991,15525.96650763,NaN,NaN,NaN,NaN,NaN,NaN,NaN,NaN,NaN,NaN,NaN,NaN,NaN,NaN,NaN
8.99725275,0.70000000,0.40000000,no vaccine,10796.34626810,12184.09050537,14076.79886845,NaN,NaN,NaN,NaN,NaN,NaN,NaN,NaN,NaN,NaN,NaN,NaN,NaN,NaN,NaN
9.99725275,0.70000000,0.40000000,no vaccine,11263.25728267,12615.09977276,14162.79929585,NaN,NaN,NaN,NaN,NaN,NaN,NaN,NaN,NaN,NaN,NaN,NaN,NaN,NaN,NaN
0.99725275,0.70000000,0.60000000,no screening,10433.51264039,12106.26090726,13956.10319508,155.43284119,198.27251339,267.93353117,0.01456813,0.01639559,0.01960299,0.05609975,0.06832770,0.08197824,176591.54165637,176623.97036576,176659.60630654,176591.54165637,176623.97036576,176659.60630654
1.99725275,0.70000000,0.60000000,no screening,7059.55699544,8186.86540465,9687.90973814,288.81085055,358.79166057,487.16732313,0.03956631,0.04386083,0.05157043,0.23670302,0.25485898,0.27499698,355056.88425187,355139.19158450,355216.66577237,178448.69756612,178514.90271336,178580.67665506
2.99725275,0.70000000,0.60000000,no screening,8025.81737959,9135.30512684,10545.56594171,526.62363497,645.37960145,836.82192462,0.06463732,0.07045831,0.08178210,0.18973354,0.21570352,0.23739133,534837.30324661,534947.54633014,535052.22667341,179731.35586218,179811.63152009,179886.74811694
3.99725275,0.70000000,0.60000000,no screening,11912.64662781,13601.64604643,15568.78199724,1037.85018820,1269.07810226,1639.08319190,0.08557277,0.09311480,0.10727590,-0.05793600,-0.00140438,0.04862396,715907.31023708,716036.65229539,716167.99984411,180998.98497651,181088.46366441,181165.09910434
4.99725275,0.70000000,0.60000000,no screening,9949.43232635,11754.20593249,14115.66568568,1030.84872983,1304.10598175,1768.99452425,0.10134213,0.11109061,0.12735099,0.01453288,0.05480140,0.08575813,898483.35210362,898647.56055591,898812.15956626,182527.20891210,182615.55676161,182698.03520829
5.99725275,0.70000000,0.60000000,no screening,7485.61908030,8647.26962310,10348.11946905,907.53032090,1118.78310265,1500.28847672,0.11854699,0.12939503,0.14771114,0.17864300,0.24371505,0.30648306,1082674.73560584,1082868.46354619,1083056.94750164,184135.92981967,184222.85420211,184306.62020770
6.99725275,0.70000000,0.60000000,no screening,9077.49758972,10516.46005382,12247.85861994,1264.96208056,1557.05796402,2026.88033923,0.13678012,0.14805246,0.16774858,0.15385609,0.20333792,0.23493392,1268427.92112364,1268644.08692496,1268850.50358333,185685.98343215,185772.52385946,185862.63865788
7.99725275,0.70000000,0.60000000,no screening,12295.59236564,13972.53025352,16189.70657562,1889.73305516,2283.70792424,2943.63520777,0.15032139,0.16319046,0.18423471,-0.11362179,-0.02554490,0.06631517,1455746.21438589,1455987.79536388,1456233.43602014,187257.53774314,187348.93475310,187437.58081126
8.99725275,0.70000000,0.60000000,no screening,9591.10351632,11374.24468812,13869.37906044,1566.28081452,1977.94150198,2686.39550083,0.16003301,0.17481554,0.19735436,0.00136585,0.06677598,0.13564612,1644868.32556072,1645146.46010697,1645415.44885647,189059.02438141,189161.95385789,189244.78068350
9.99725275,0.70000000,0.60000000,no screening,8068.61678307,9206.41887765,10948.13282958,1420.11652668,1722.52140625,2276.95315968,0.17231158,0.18724539,0.21089977,0.17733436,0.27019221,0.33628015,1835849.33230707,1836160.91806469,1836440.78595615,190913.05762021,191011.92405020,191095.99635033
0.99725275,0.70000000,0.60000000,perfect screening,10280.87847785,11931.62216441,13715.10396195,0.00000000,0.00000000,0.00000000,0.00000000,0.00000000,0.00000000,0.07026082,0.08169003,0.09544753,104184.96480060,105365.86257359,106334.45387678,104184.96480060,105365.86257359,106334.45387678
1.99725275,0.70000000,0.60000000,perfect screening,6909.50478689,8005.83049798,9448.22439926,0.00000000,0.00000000,0.00000000,0.00000000,0.00000000,0.00000000,0.25373727,0.27082139,0.29044497,208942.88692556,210504.32620699,211690.70407187,104747.97386962,105118.55141568,105372.37317210
2.99725275,0.70000000,0.60000000,perfect screening,7904.17984890,8948.50726342,10258.31988496,0.00000000,0.00000000,0.00000000,0.00000000,0.00000000,0.00000000,0.21198304,0.23250508,0.25020078,311487.02308175,313056.82015353,314437.63864511,102306.36162219,102578.14045479,102829.93820670
3.99725275,0.70000000,0.60000000,perfect screening,11524.93908640,13094.55019794,14836.82943142,0.00000000,0.00000000,0.00000000,0.00000000,0.00000000,0.00000000,-0.01397323,0.03786996,0.07838749,412871.42160002,415215.08601387,417616.42364414,101369.78784989,102178.47401205,103156.74656078
4.99725275,0.70000000,0.60000000,perfect screening,9462.89950597,11096.51095290,13077.19270743,0.00000000,0.00000000,0.00000000,0.00000000,0.00000000,0.00000000,0.08210872,0.10681316,0.12811217,516036.67441308,519565.63449951,522768.57733942,103151.52730367,104321.20396303,105232.25094436
5.99725275,0.70000000,0.60000000,perfect screening,7146.06932755,8159.15346254,9565.67915316,0.00000000,0.00000000,0.00000000,0.00000000,0.00000000,0.00000000,0.23318109,0.28617713,0.34342567,619647.82185434,623400.68570343,626803.18704071,103568.30984036,103836.28361725,104045.10042485
6.99725275,0.70000000,0.60000000,perfect screening,8713.97405218,9944.26874518,11451.08552853,0.00000000,0.00000000,0.00000000,0.00000000,0.00000000,0.00000000,0.20736545,0.24665823,0.26939669,721891.73667662,725684.38608285,729502.27444731,102028.64516656,102336.53509301,102699.03617506
7.99725275,0.70000000,0.60000000,perfect screening,11703.50488151,13067.46426537,14752.27300746,0.00000000,0.00000000,0.00000000,0.00000000,0.00000000,0.00000000,-0.03230305,0.04194135,0.12273664,824425.68782036,829245.74836666,834165.54609117,102541.56428906,103568.60853077,104683.00533750
8.99725275,0.70000000,0.60000000,perfect screening,8946.82647424,10491.05385918,12447.18158148,0.00000000,0.00000000,0.00000000,0.00000000,0.00000000,0.00000000,0.09918496,0.13580467,0.19322904,929602.33082515,935499.62745971,941078.85663191,105187.14844098,106258.75615913,107007.74661882
9.99725275,0.70000000,0.60000000,perfect screening,7622.59136717,8531.71299006,9807.43647666,0.00000000,0.00000000,0.00000000,0.00000000,0.00000000,0.00000000,0.24914385,0.32498612,0.38063668,1035507.72674979,1041590.38484221,1047383.14017750,105844.25486830,106092.55619930,106303.62670975
0.99725275,0.70000000,0.60000000,realistic screening,10631.73687751,12322.89494624,14173.34864954,0.00742710,0.10882405,0.86449886,0.00000060,0.00000893,0.00006945,0.03849975,0.05231261,0.06746621,71211.98190851,78952.49984239,86507.17818861,71211.98190851,78952.49984239,86507.17818861
1.99725275,0.70000000,0.60000000,realistic screening,7775.39419952,8928.64182107,10472.21193441,0.01497918,0.21669131,1.69171164,0.00000160,0.00002467,0.00019171,0.15901697,0.18646167,0.21473637,142919.76516944,158066.56348165,172650.56859088,71639.08282913,79071.22933276,86263.52101535
2.99725275,0.70000000,0.60000000,realistic screening,8915.53073877,10157.06916092,11718.26993601,0.02740774,0.40015462,3.17730689,0.00000258,0.00003975,0.00030769,0.09636068,0.12773072,0.16000093,213309.69062611,235504.45800957,257140.85040152,70245.60114281,77456.95889790,84530.65852140
3.99725275,0.70000000,0.60000000,realistic screening,12092.51747300,13551.55188409,15245.43724511,0.04690288,0.71458025,5.66993896,0.00000344,0.00005243,0.00040191,-0.02293947,0.00239731,0.03037438,283641.31098995,313045.51981658,341476.53786395,70291.48661201,77622.01050611,84609.91163495
4.99725275,0.70000000,0.60000000,realistic screening,9650.64316412,11289.88188370,13298.82290973,0.04818523,0.69579306,5.55357866,0.00000414,0.00006297,0.00048163,0.07445304,0.09046191,0.10875340,355459.71079728,392268.09574432,427915.69819525,71781.00959193,79141.06014721,86434.51817529
5.99725275,0.70000000,0.60000000,realistic screening,8152.59329960,9228.88105622,10660.07168162,0.04534769,0.67414591,5.25709003,0.00000481,0.00007367,0.00056629,0.15083964,0.19298289,0.24005933,427031.18697196,470905.54555406,513427.94155219,71534.58370524,78700.19856875,85738.21374563
6.99725275,0.70000000,0.60000000,realistic screening,10124.87985307,11667.28147844,13355.79119578,0.06643322,0.96411427,7.69740326,0.00000548,0.00008365,0.00064372,0.07503336,0.11634196,0.16031844,497798.03079077,548766.14765605,598175.92116862,70785.04686813,77890.56370354,84909.17446777
7.99725275,0.70000000,0.60000000,realistic screening,12020.88715650,13393.82369499,15153.99338393,0.08261167,1.22605008,9.68147919,0.00000601,0.00009122,0.00069810,-0.01601330,0.01711836,0.06538878,569754.93572971,627996.14294520,684373.24583106,71828.64169349,79205.76532801,86246.59671417
8.99725275,0.70000000,0.60000000,realistic screening,9222.70876479,10666.44781892,12572.02000288,0.07017166,1.02103854,8.14240432,0.00000641,0.00009762,0.00074665,0.09521884,0.12287686,0.16574290,643067.07067554,708739.09655166,772371.96492162,73315.24337819,80710.44433141,87998.71909055
9.99725275,0.70000000,0.60000000,realistic screening,8961.45977507,10036.65757853,11399.92654847,0.06840576,1.03676938,8.14487625,0.00000683,0.00010432,0.00080182,0.15144324,0.20432556,0.25574224,716151.52537336,788999.99301852,859703.64626752,72969.79412881,80364.97992128,87579.73427220
0.99725275,0.70000000,0.60000000,no vaccine,11300.06978980,12991.12722772,14849.46531570,NaN,NaN,NaN,NaN,NaN,NaN,NaN,NaN,NaN,NaN,NaN,NaN,NaN,NaN,NaN
1.99725275,0.70000000,0.60000000,no vaccine,9652.08907127,10992.97083401,12713.47862294,NaN,NaN,NaN,NaN,NaN,NaN,NaN,NaN,NaN,NaN,NaN,NaN,NaN,NaN,NaN
2.99725275,0.70000000,0.60000000,no vaccine,10276.45818524,11655.15068482,13255.69587130,NaN,NaN,NaN,NaN,NaN,NaN,NaN,NaN,NaN,NaN,NaN,NaN,NaN,NaN,NaN
3.99725275,0.70000000,0.60000000,no vaccine,12240.33495220,13598.35026519,15096.72085553,NaN,NaN,NaN,NaN,NaN,NaN,NaN,NaN,NaN,NaN,NaN,NaN,NaN,NaN,NaN
4.99725275,0.70000000,0.60000000,no vaccine,10712.86094545,12395.90464950,14482.51166663,NaN,NaN,NaN,NaN,NaN,NaN,NaN,NaN,NaN,NaN,NaN,NaN,NaN,NaN,NaN
5.99725275,0.70000000,0.60000000,no vaccine,10276.80454024,11470.04795379,12881.08420689,NaN,NaN,NaN,NaN,NaN,NaN,NaN,NaN,NaN,NaN,NaN,NaN,NaN,NaN,NaN
6.99725275,0.70000000,0.60000000,no vaccine,11637.98355819,13208.06756239,14812.13289200,NaN,NaN,NaN,NaN,NaN,NaN,NaN,NaN,NaN,NaN,NaN,NaN,NaN,NaN,NaN
7.99725275,0.70000000,0.60000000,no vaccine,12100.06496471,13716.75643991,15525.96650763,NaN,NaN,NaN,NaN,NaN,NaN,NaN,NaN,NaN,NaN,NaN,NaN,NaN,NaN,NaN
8.99725275,0.70000000,0.60000000,no vaccine,10796.34626810,12184.09050537,14076.79886845,NaN,NaN,NaN,NaN,NaN,NaN,NaN,NaN,NaN,NaN,NaN,NaN,NaN,NaN,NaN
9.99725275,0.70000000,0.60000000,no vaccine,11263.25728267,12615.09977276,14162.79929585,NaN,NaN,NaN,NaN,NaN,NaN,NaN,NaN,NaN,NaN,NaN,NaN,NaN,NaN,NaN
0.99725275,0.70000000,0.80000000,no screening,10200.70718843,11842.15197080,13680.34772697,200.46471018,255.93395389,345.52233105,0.01922087,0.02161360,0.02582891,0.07568507,0.08819903,0.10349947,176594.96219046,176629.98819012,176670.19325401,176594.96219046,176629.98819012,176670.19325401
1.99725275,0.70000000,0.80000000,no screening,6414.87469011,7498.95264396,8946.54279727,348.48152231,434.80474494,591.94853722,0.05259337,0.05807853,0.06804594,0.29482438,0.31753262,0.34301879,355079.51434816,355161.34733909,355241.28399507,178461.09162577,178532.11953313,178593.57140516
2.99725275,0.70000000,0.80000000,no screening,7101.23660265,8119.32364385,9376.76675469,625.81436082,764.03284811,987.24049628,0.08675554,0.09399143,0.10829807,0.27187131,0.30305381,0.32923833,534879.87825676,535003.89417718,535111.32064776,179757.50094607,179840.60718300,179914.92702167
3.99725275,0.70000000,0.80000000,no screening,11388.48099283,13165.15358895,15226.59785854,1342.98821404,1648.74819114,2139.97025230,0.11595266,0.12511819,0.14261731,-0.04998539,0.02990651,0.09612638,715970.06450215,716103.30143367,716233.20330991,181010.78807236,181100.97880782,181184.07244062
4.99725275,0.70000000,0.80000000,no screening,10170.26712423,12031.29165111,14515.73483281,1422.69742244,1793.64764779,2422.05946579,0.13744057,0.14948670,0.16926620,-0.02207593,0.03225190,0.07381399,898550.21047025,898710.01728780,898875.97419382,182525.40157590,182609.89595181,182691.92656866
5.99725275,0.70000000,0.80000000,no screening,6911.25281119,8134.47494558,9964.31624864,1132.33412454,1413.04640597,1918.69171419,0.16031839,0.17396176,0.19593124,0.20824797,0.28724845,0.36762671,1082760.54199910,1082949.91469536,1083124.08210147,184151.84640393,184239.44550457,184318.43491021
6.99725275,0.70000000,0.80000000,no screening,7903.23825600,9114.66774541,10749.45324644,1486.57308667,1821.27277503,2368.18783250,0.18631064,0.19991066,0.22328216,0.25591615,0.31004137,0.34517124,1268546.76910693,1268763.84987220,1268959.13392304,185724.88825082,185815.00904480,185897.10822863
7.99725275,0.70000000,0.80000000,no screening,11696.93176152,13521.84140730,15974.74539350,2462.96566828,3004.48762631,3885.60966736,0.20702135,0.22211971,0.24672449,-0.12471362,0.00526109,0.12671990,1455892.23536801,1456129.42550417,1456352.70189376,187275.03574351,187363.66750059,187458.87515790
8.99725275,0.70000000,0.80000000,no screening,10042.61726753,11986.91263216,14682.65314682,2253.36429746,2849.45807420,3842.44635594,0.22060038,0.23840436,0.26445027,-0.06825898,0.01777096,0.09834562,1644982.17111561,1645267.48094895,1645543.62558649,189040.30632277,189141.96563570,189240.48917327
9.99725275,0.70000000,0.80000000,no screening,7395.65856629,8671.26767136,10662.55479874,1777.69005631,2210.36231294,2987.52978385,0.23653266,0.25513681,0.28261171,0.19353062,0.31205044,0.40764950,1835978.57702088,1836296.26319077,1836579.50984023,190923.05433259,191024.54260989,191111.06150610
0.99725275,0.70000000,0.80000000,perfect screening,10011.02842694,11620.54323162,13375.35984023,0.00000000,0.00000000,0.00000000,0.00000000,0.00000000,0.00000000,0.09364459,0.10537329,0.12046062,104138.33659406,105329.45057225,106292.54728672,104138.33659406,105329.45057225,106292.54728672
1.99725275,0.70000000,0.80000000,perfect screening,6216.47051127,7270.64005643,8645.86627399,0.00000000,0.00000000,0.00000000,0.00000000,0.00000000,0.00000000,0.31603194,0.33753613,0.36242794,208473.29329699,210046.89769053,211252.84013619,104322.41831970,104713.59934730,104984.00776069
2.99725275,0.70000000,0.80000000,perfect screening,6969.78785068,7883.76221401,9041.18025993,0.00000000,0.00000000,0.00000000,0.00000000,0.00000000,0.00000000,0.29624502,0.32317821,0.34529387,309936.05069364,311516.68099990,312893.44538240,101221.10077878,101492.09727126,101695.70195398
3.99725275,0.70000000,0.80000000,perfect screening,10902.46917462,12552.83956385,14312.78815209,0.00000000,0.00000000,0.00000000,0.00000000,0.00000000,0.00000000,0.00907630,0.07978988,0.13318903,409585.63096138,411832.32180352,414117.44544550,99634.76822681,100328.54502840,101258.80629356
4.99725275,0.70000000,0.80000000,perfect screening,9494.92202713,11123.77066053,13110.51672749,0.00000000,0.00000000,0.00000000,0.00000000,0.00000000,0.00000000,0.07309199,0.10543103,0.13343675,510886.99850488,514400.84969618,517649.29156142,101301.27284529,102572.18804902,103601.97051520
5.99725275,0.70000000,0.80000000,perfect screening,6428.24235774,7481.72338210,8943.94651487,0.00000000,0.00000000,0.00000000,0.00000000,0.00000000,0.00000000,0.28186324,0.34493326,0.41573777,612865.12378631,616670.80365276,620171.46888360,101921.59743375,102252.88255067,102505.60404362
6.99725275,0.70000000,0.80000000,perfect screening,7423.27913328,8429.49275211,9649.59310375,0.00000000,0.00000000,0.00000000,0.00000000,0.00000000,0.00000000,0.32472410,0.36241146,0.38729590,713013.19967237,716831.70780658,720531.57497958,99905.15597158,100192.86558407,100424.34729900
7.99725275,0.70000000,0.80000000,perfect screening,10871.71431379,12381.29415370,14093.90003337,0.00000000,0.00000000,0.00000000,0.00000000,0.00000000,0.00000000,-0.02262728,0.09501749,0.20004763,812742.35655084,817424.57509248,822200.80887865,99768.76844695,100603.52225675,101646.16719473
8.99725275,0.70000000,0.80000000,perfect screening,9132.54511515,10698.98022499,12602.73327108,0.00000000,0.00000000,0.00000000,0.00000000,0.00000000,0.00000000,0.07508076,0.11938173,0.18459093,915317.50612055,921298.06576649,926950.80310038,102562.22649973,103841.78436630,104881.97120173
9.99725275,0.70000000,0.80000000,perfect screening,6713.10866251,7726.50863127,9125.11269821,0.00000000,0.00000000,0.00000000,0.00000000,0.00000000,0.00000000,0.29411881,0.38787115,0.46643009,1019316.00596801,1025557.91410608,1031454.66829726,103963.63932178,104269.21744276,104516.45706263
0.99725275,0.70000000,0.80000000,realistic screening,10459.74953244,12131.28025458,13945.65801682,0.00971338,0.14226234,1.12889676,0.00000080,0.00001187,0.00009224,0.05144070,0.06758598,0.08447420,71189.08166608,78925.60758808,86471.38324582,71189.08166608,78925.60758808,86471.38324582
1.99725275,0.70000000,0.80000000,realistic screening,7289.05183238,8443.79860528,9958.97932267,0.01902261,0.27238429,2.12515971,0.00000215,0.00003307,0.00025697,0.19446127,0.23036521,0.26650835,142708.35744067,157798.85004941,172360.06026731,71440.75003224,78841.19118795,86011.94471007
2.99725275,0.70000000,0.80000000,realistic screening,8335.46997029,9541.46682677,11066.84792014,0.03496618,0.50668251,4.01178640,0.00000350,0.00005378,0.00041687,0.13585677,0.18000925,0.22269613,212640.40255503,234664.60501574,256124.69967788,69818.94045291,76879.94993706,83874.34320331
3.99725275,0.70000000,0.80000000,realistic screening,11792.52630181,13338.16403960,15034.02969009,0.06263849,0.96021264,7.62145885,0.00000470,0.00007136,0.00054877,-0.01911734,0.01783399,0.05872965,282286.57503217,311327.66470675,339426.34677506,69615.77422220,76726.75825549,83548.04997994
4.99725275,0.70000000,0.80000000,realistic screening,9522.43206302,11172.60487151,13162.70591866,0.06487570,0.94078973,7.53815888,0.00000567,0.00008585,0.00065842,0.08045430,0.10066554,0.12170169,353473.20748468,389704.84609892,424865.97860295,71082.93197629,78309.44278548,85431.44229507
5.99725275,0.70000000,0.80000000,realistic screening,7578.27435431,8669.80767285,10090.23319035,0.05883484,0.86018534,6.74535960,0.00000661,0.00010088,0.00077725,0.18867499,0.24137255,0.30182394,424290.85455959,467452.14604402,509422.72688284,70800.88588269,77808.33946256,84643.14382436
6.99725275,0.70000000,0.80000000,realistic screening,9323.44995026,10837.10810081,12476.63404034,0.08603498,1.22689003,9.72672255,0.00000758,0.00011509,0.00089050,0.12303473,0.18008305,0.23868744,494126.66777336,544079.66603310,592513.60481126,69828.39258878,76662.59060191,83315.68168722
7.99725275,0.70000000,0.80000000,realistic screening,11897.98262290,13273.93650676,14991.86996503,0.11233809,1.69123636,13.40802524,0.00000836,0.00012611,0.00097040,-0.02633902,0.02630106,0.09934215,564977.09016530,621869.55286319,677117.34356615,70728.55215621,77788.77159758,84422.90500417
8.99725275,0.70000000,0.80000000,realistic screening,9069.05316314,10525.89816236,12487.83055564,0.09472685,1.40410991,11.27652053,0.00000893,0.00013488,0.00103686,0.10071376,0.13366563,0.18465094,637337.15492031,701509.47370674,763824.66847739,72360.06475502,79578.99167949,86705.90125131
9.99725275,0.70000000,0.80000000,realistic screening,8144.85537530,9213.86017986,10613.71140537,0.08864524,1.33256896,10.28506368,0.00000952,0.00014429,0.00111588,0.19846958,0.26763482,0.33490606,709581.69718350,780642.89960961,849886.18120200,72080.11582150,79245.30036529,86233.88262215
0.99725275,0.70000000,0.80000000,no vaccine,11300.06978980,12991.12722772,14849.46531570,NaN,NaN,NaN,NaN,NaN,NaN,NaN,NaN,NaN,NaN,NaN,NaN,NaN,NaN,NaN
1.99725275,0.70000000,0.80000000,no vaccine,9652.08907127,10992.97083401,12713.47862294,NaN,NaN,NaN,NaN,NaN,NaN,NaN,NaN,NaN,NaN,NaN,NaN,NaN,NaN,NaN
2.99725275,0.70000000,0.80000000,no vaccine,10276.45818524,11655.15068482,13255.69587130,NaN,NaN,NaN,NaN,NaN,NaN,NaN,NaN,NaN,NaN,NaN,NaN,NaN,NaN,NaN
3.99725275,0.70000000,0.80000000,no vaccine,12240.33495220,13598.35026519,15096.72085553,NaN,NaN,NaN,NaN,NaN,NaN,NaN,NaN,NaN,NaN,NaN,NaN,NaN,NaN,NaN
4.99725275,0.70000000,0.80000000,no vaccine,10712.86094545,12395.90464950,14482.51166663,NaN,NaN,NaN,NaN,NaN,NaN,NaN,NaN,NaN,NaN,NaN,NaN,NaN,NaN,NaN
5.99725275,0.70000000,0.80000000,no vaccine,10276.80454024,11470.04795379,12881.08420689,NaN,NaN,NaN,NaN,NaN,NaN,NaN,NaN,NaN,NaN,NaN,NaN,NaN,NaN,NaN
6.99725275,0.70000000,0.80000000,no vaccine,11637.98355819,13208.06756239,14812.13289200,NaN,NaN,NaN,NaN,NaN,NaN,NaN,NaN,NaN,NaN,NaN,NaN,NaN,NaN,NaN
7.99725275,0.70000000,0.80000000,no vaccine,12100.06496471,13716.75643991,15525.96650763,NaN,NaN,NaN,NaN,NaN,NaN,NaN,NaN,NaN,NaN,NaN,NaN,NaN,NaN,NaN
8.99725275,0.70000000,0.80000000,no vaccine,10796.34626810,12184.09050537,14076.79886845,NaN,NaN,NaN,NaN,NaN,NaN,NaN,NaN,NaN,NaN,NaN,NaN,NaN,NaN,NaN
9.99725275,0.70000000,0.80000000,no vaccine,11263.25728267,12615.09977276,14162.79929585,NaN,NaN,NaN,NaN,NaN,NaN,NaN,NaN,NaN,NaN,NaN,NaN,NaN,NaN,NaN
0.99725275,0.90000000,0.40000000,no screening,10531.92282581,12215.37881148,14081.28420180,135.03581647,172.36362747,232.89900388,0.01253966,0.01411825,0.01689333,0.04771122,0.05952166,0.07268863,227039.37853511,227083.90481722,227134.40906133,227039.37853511,227083.90481722,227134.40906133
1.99725275,0.90000000,0.40000000,no screening,7349.73444338,8490.28334744,10011.79722989,257.75861617,319.98291207,434.18693240,0.03395017,0.03769169,0.04440117,0.21125717,0.22684213,0.24498288,456495.86441293,456584.65518152,456680.83994051,229426.55203471,229502.23061932,229570.98981967
2.99725275,0.90000000,0.40000000,no screening,8409.19646863,9569.01160586,11025.04325953,471.88366526,577.97628047,753.19111035,0.05519828,0.06035228,0.07029824,0.15614457,0.17934294,0.19855851,687677.56859744,687797.33139039,687908.32998359,231129.26320650,231213.62965829,231292.87986728
3.99725275,0.90000000,0.40000000,no screening,12083.62321837,13739.80850593,15691.38769588,895.53845527,1093.28907890,1408.29244513,0.07282217,0.07951361,0.09206376,-0.05880865,-0.01058519,0.03146908,920512.86994333,920643.96986006,920774.67847559,232777.95720927,232847.79419365,232925.44126986
4.99725275,0.90000000,0.40000000,no screening,9926.16491564,11684.80853015,14003.25107211,875.97824028,1107.11831118,1503.53051158,0.08619772,0.09481886,0.10929508,0.02398775,0.05917222,0.08673153,1155270.91852501,1155430.12187059,1155575.98469778,234712.45175649,234784.39549145,234852.43030853
5.99725275,0.90000000,0.40000000,no screening,7797.16488285,8922.14216688,10581.42738249,809.16867574,985.58642031,1317.10098020,0.10085847,0.11043381,0.12682761,0.16260574,0.21974132,0.27349381,1392089.84841873,1392269.05434944,1392431.50184640,236769.84668638,236836.46783168,236902.29383946
6.99725275,0.90000000,0.40000000,no screening,9574.21716642,11085.88577386,12916.07689697,1136.90301857,1397.63693759,1821.26003607,0.11598306,0.12598874,0.14374396,0.11336283,0.16001707,0.18958586,1630904.09156742,1631098.55083882,1631275.80559788,238751.29417654,238828.30980727,238902.28381036
7.99725275,0.90000000,0.40000000,no screening,12429.42666412,14008.09101798,16168.91790271,1601.31129726,1944.25521808,2510.82799590,0.12695629,0.13849085,0.15749028,-0.09999090,-0.02823385,0.04834511,1871770.08073376,1871975.89178405,1872168.60609195,240806.86661670,240876.66333908,240945.65466574
8.99725275,0.90000000,0.40000000,no screening,9525.22774448,11228.52924998,13661.14310071,1313.84941534,1656.03530922,2250.65598004,0.13511236,0.14816209,0.16854568,0.02174886,0.07779036,0.14093355,2114926.60244027,2115164.82166418,2115379.38317734,243116.73437141,243192.89308065,243267.00740105
9.99725275,0.90000000,0.40000000,no screening,8449.28406015,9579.80168071,11253.37323517,1265.27186512,1517.40084020,1995.41869262,0.14556242,0.15869674,0.18021093,0.16073564,0.24056193,0.29623100,2360470.71026239,2360723.43932192,2360966.93752569,245492.40927979,245557.37019875,245626.60226139
0.99725275,0.90000000,0.40000000,perfect screening,10404.51359781,12066.43920011,13868.16591940,0.00000000,0.00000000,0.00000000,0.00000000,0.00000000,0.00000000,0.05982410,0.07117668,0.08445849,133994.06632713,135508.61129000,136738.44371360,133994.06632713,135508.61129000,136738.44371360
1.99725275,0.90000000,0.40000000,perfect screening,7218.15398390,8328.82832075,9822.38547698,0.00000000,0.00000000,0.00000000,0.00000000,0.00000000,0.00000000,0.22620883,0.24094132,0.25785386,268930.54303638,270919.87167932,272414.51544629,134941.22030915,135397.12626576,135726.45169610
2.99725275,0.90000000,0.40000000,perfect screening,8280.14379136,9401.10093333,10759.25310393,0.00000000,0.00000000,0.00000000,0.00000000,0.00000000,0.00000000,0.17577812,0.19414099,0.20991867,401404.30969476,403383.39875006,405187.97218262,132161.74624528,132499.14034392,132853.97860208
3.99725275,0.90000000,0.40000000,perfect screening,11729.45222772,13292.15167189,14982.99410817,0.00000000,0.00000000,0.00000000,0.00000000,0.00000000,0.00000000,-0.01831787,0.02356068,0.05854702,532627.61107416,535704.75764940,538817.90764720,131320.27293164,132346.67527304,133650.33311665
4.99725275,0.90000000,0.40000000,perfect screening,9508.58762079,11142.51774375,13156.52738071,0.00000000,0.00000000,0.00000000,0.00000000,0.00000000,0.00000000,0.08177285,0.10328599,0.12257994,666264.29818118,670758.84398541,674832.35879810,133610.44507939,135039.72389677,136144.16403938
5.99725275,0.90000000,0.40000000,perfect screening,7499.90897048,8520.05095798,9901.65778798,0.00000000,0.00000000,0.00000000,0.00000000,0.00000000,0.00000000,0.20910954,0.25572256,0.30408991,800423.36700403,805185.04669633,809494.23608260,134077.71074853,134391.17480705,134650.58372308
6.99725275,0.90000000,0.40000000,perfect screening,9263.74826024,10602.49338852,12148.25092635,0.00000000,0.00000000,0.00000000,0.00000000,0.00000000,0.00000000,0.15992359,0.19804480,0.21953904,933004.53991484,937915.48506545,942870.58463020,132369.68479114,132795.45567867,133351.42494588
7.99725275,0.90000000,0.40000000,perfect screening,11870.12586299,13236.38529034,14938.25604897,0.00000000,0.00000000,0.00000000,0.00000000,0.00000000,0.00000000,-0.02972676,0.03014325,0.09808252,1066287.33784896,1072623.13562950,1078952.91860035,133331.65712679,134705.22610858,136169.22406066
8.99725275,0.90000000,0.40000000,perfect screening,9017.45558029,10497.54330382,12459.29900977,0.00000000,0.00000000,0.00000000,0.00000000,0.00000000,0.00000000,0.10227845,0.13548732,0.18864909,1202850.45622402,1210451.59010659,1217511.71664236,136565.42806787,137817.92314273,138657.77265941
9.99725275,0.90000000,0.40000000,perfect screening,8086.93741370,9009.54725209,10279.27867810,0.00000000,0.00000000,0.00000000,0.00000000,0.00000000,0.00000000,0.22176408,0.28702012,0.33328139,1340172.14995534,1347904.32821448,1355252.17052052,137112.81084720,137461.10895654,137729.07208174
0.99725275,0.90000000,0.40000000,realistic screening,10706.27812610,12405.05255803,14266.39297751,0.00641556,0.09406094,0.74790610,0.00000052,0.00000767,0.00005963,0.03299592,0.04570865,0.06009305,91566.69177947,101515.64503820,111224.11109569,91566.69177947,101515.64503820,111224.11109569
1.99725275,0.90000000,0.40000000,realistic screening,7988.64629325,9139.68985110,10697.12707614,0.01311191,0.18981204,1.48738109,0.00000137,0.00002110,0.00016394,0.14391741,0.16728249,0.19163702,183861.59034642,203351.09537161,222166.80598013,92202.98267501,101772.36826723,111093.39469382
2.99725275,0.90000000,0.40000000,realistic screening,9151.99687265,10402.44984397,11986.17885757,0.02392809,0.34933771,2.77538981,0.00000220,0.00003386,0.00026191,0.07917953,0.10573067,0.13309106,274630.60240153,303250.55699807,331153.74627294,90579.49182464,99929.83942277,109076.73868822
3.99725275,0.90000000,0.40000000,realistic screening,12206.84798505,13636.22807418,15300.33332037,0.04016450,0.60988156,4.83589953,0.00000292,0.00004452,0.00034111,-0.02414490,-0.00342388,0.01905697,365408.01852962,403474.85457188,440213.39629667,90736.88581556,100262.01600736,109395.76506152
4.99725275,0.90000000,0.40000000,realistic screening,9728.56835219,11344.96261997,13359.63785738,0.04108918,0.59383940,4.73410175,0.00000351,0.00005345,0.00040849,0.07004855,0.08456417,0.10194140,457987.87438781,505710.16451213,551813.72260204,92615.37379537,102226.41756323,111597.91567181
5.99725275,0.90000000,0.40000000,realistic screening,8411.80134498,9477.40542391,10917.13848406,0.03932214,0.58840760,4.59720204,0.00000407,0.00006238,0.00047941,0.13399081,0.17050663,0.21102063,550510.24955384,607353.52384582,662354.99933767,92319.18667188,101696.27910420,110821.39221582
6.99725275,0.90000000,0.40000000,realistic screening,10481.84295741,12018.06120541,13710.97727363,0.05762667,0.83966107,6.69496127,0.00000462,0.00007070,0.00054310,0.05538450,0.09020951,0.12810035,641994.56016709,708126.74411546,772159.07041971,91547.95014854,100822.93454984,110044.29623363
7.99725275,0.90000000,0.40000000,realistic screening,12022.00406660,13447.85581103,15228.08269972,0.07018082,1.03261583,8.12867096,0.00000506,0.00007687,0.00058796,-0.01074830,0.01460745,0.05305875,735110.72758033,810734.09039468,883903.52416131,92946.86384677,102587.18397564,111844.67896881
8.99725275,0.90000000,0.40000000,realistic screening,9333.09535279,10764.18932796,12667.51146775,0.06005310,0.86725142,6.90465895,0.00000540,0.00008226,0.00062915,0.08989635,0.11512335,0.15359322,829880.67710846,915143.96132785,997740.23467969,94776.01922824,104374.95533730,113836.71051838
9.99725275,0.90000000,0.40000000,realistic screening,9335.43301882,10414.63400704,11777.33530949,0.05940998,0.90830000,7.12964046,0.00000575,0.00008797,0.00067476,0.12876160,0.17465039,0.21904052,924314.34777181,1019043.84170411,1110756.68851947,94340.12277224,103944.57509614,113333.37992445
0.99725275,0.90000000,0.40000000,no vaccine,11300.06978980,12991.12722772,14849.46531570,NaN,NaN,NaN,NaN,NaN,NaN,NaN,NaN,NaN,NaN,NaN,NaN,NaN,NaN,NaN
1.99725275,0.90000000,0.40000000,no vaccine,9652.08907127,10992.97083401,12713.47862294,NaN,NaN,NaN,NaN,NaN,NaN,NaN,NaN,NaN,NaN,NaN,NaN,NaN,NaN,NaN
2.99725275,0.90000000,0.40000000,no vaccine,10276.45818524,11655.15068482,13255.69587130,NaN,NaN,NaN,NaN,NaN,NaN,NaN,NaN,NaN,NaN,NaN,NaN,NaN,NaN,NaN
3.99725275,0.90000000,0.40000000,no vaccine,12240.33495220,13598.35026519,15096.72085553,NaN,NaN,NaN,NaN,NaN,NaN,NaN,NaN,NaN,NaN,NaN,NaN,NaN,NaN,NaN
4.99725275,0.90000000,0.40000000,no vaccine,10712.86094545,12395.90464950,14482.51166663,NaN,NaN,NaN,NaN,NaN,NaN,NaN,NaN,NaN,NaN,NaN,NaN,NaN,NaN,NaN
5.99725275,0.90000000,0.40000000,no vaccine,10276.80454024,11470.04795379,12881.08420689,NaN,NaN,NaN,NaN,NaN,NaN,NaN,NaN,NaN,NaN,NaN,NaN,NaN,NaN,NaN
6.99725275,0.90000000,0.40000000,no vaccine,11637.98355819,13208.06756239,14812.13289200,NaN,NaN,NaN,NaN,NaN,NaN,NaN,NaN,NaN,NaN,NaN,NaN,NaN,NaN,NaN
7.99725275,0.90000000,0.40000000,no vaccine,12100.06496471,13716.75643991,15525.96650763,NaN,NaN,NaN,NaN,NaN,NaN,NaN,NaN,NaN,NaN,NaN,NaN,NaN,NaN,NaN
8.99725275,0.90000000,0.40000000,no vaccine,10796.34626810,12184.09050537,14076.79886845,NaN,NaN,NaN,NaN,NaN,NaN,NaN,NaN,NaN,NaN,NaN,NaN,NaN,NaN,NaN
9.99725275,0.90000000,0.40000000,no vaccine,11263.25728267,12615.09977276,14162.79929585,NaN,NaN,NaN,NaN,NaN,NaN,NaN,NaN,NaN,NaN,NaN,NaN,NaN,NaN,NaN
0.99725275,0.90000000,0.60000000,no screening,10234.63707386,11879.54604316,13719.81775726,194.33136456,247.95391358,334.80140040,0.01856041,0.02087259,0.02494630,0.07274532,0.08534307,0.10030477,227048.07398715,227096.55215130,227146.72933926,227048.07398715,227096.55215130,227146.72933926
1.99725275,0.90000000,0.60000000,no screening,6502.73230031,7597.28812094,9051.72299036,341.34531290,425.16624630,578.10729166,0.05074205,0.05606752,0.06572101,0.28661052,0.30878426,0.33367870,456533.07170379,456628.50838922,456719.94722632,229458.07912840,229531.01466370,229603.96473851
2.99725275,0.90000000,0.60000000,no screening,7234.66651781,8264.44797637,9549.32219221,613.56017961,750.48030738,971.28053085,0.08357094,0.09064127,0.10453961,0.25976263,0.29014535,0.31634836,687775.32137121,687885.60744538,688013.05651515,231177.83969195,231256.88720639,231345.42547773
3.99725275,0.90000000,0.60000000,no screening,11481.21628807,13247.75232106,15280.40950347,1299.70513845,1598.37619234,2071.22709399,0.11154617,0.12053599,0.13762607,-0.05279627,0.02413328,0.08791632,920635.89992349,920757.79265728,920900.03021841,232796.10708224,232870.63674005,232957.33377725
4.99725275,0.90000000,0.60000000,no screening,10128.37291072,11973.20041838,14432.53639175,1363.93746013,1721.48922405,2323.30105763,0.13222377,0.14397433,0.16332763,-0.01525863,0.03652445,0.07663740,1155391.54114322,1155536.71330900,1155699.01314410,234706.71858019,234779.40530351,234850.83392115
5.99725275,0.90000000,0.60000000,no screening,6990.64330944,8194.33165872,9995.62431432,1101.33716322,1371.90248997,1859.31309252,0.15433072,0.16755251,0.18911753,0.20531288,0.28263435,0.36015445,1392218.76808810,1392399.01296299,1392565.58019696,236797.42828057,236860.88231213,236930.10394882
6.99725275,0.90000000,0.60000000,no screening,8070.71042831,9310.29104560,10944.53674055,1461.76044457,1791.53240659,2333.04423545,0.17920262,0.19252695,0.21540040,0.24169699,0.29471715,0.32943588,1631090.80300199,1631282.25740838,1631474.39436496,238819.01874055,238886.60391592,238957.40285051
7.99725275,0.90000000,0.60000000,no screening,11818.19131640,13631.78861062,16010.58722154,2388.44543572,2910.42409144,3761.39956691,0.19876529,0.21359407,0.23774112,-0.12649268,-0.00124043,0.11489078,1871975.59755453,1872174.55170325,1872389.95047140,240813.96821153,240892.93766423,240965.14278696
8.99725275,0.90000000,0.60000000,no screening,9954.42185781,11879.74855565,14578.70115402,2145.99500746,2712.15734530,3671.73150798,0.21174419,0.22916082,0.25486929,-0.05639663,0.02643886,0.10645671,2115124.58164648,2115349.07046309,2115578.54385425,243101.86012515,243173.86901030,243252.06999446
9.99725275,0.90000000,0.60000000,no screening,7459.81417493,8704.28887681,10671.88826408,1720.55794334,2136.14516597,2876.83696482,0.22722733,0.24534197,0.27256138,0.19258533,0.30913548,0.40103631,2360687.73113114,2360943.41122053,2361178.97246995,245519.97393016,245589.84636354,245662.21619878
0.99725275,0.90000000,0.60000000,perfect screening,10048.32797656,11662.00880042,13424.91821779,0.00000000,0.00000000,0.00000000,0.00000000,0.00000000,0.00000000,0.09011463,0.10207140,0.11695157,133899.38978890,135426.75957975,136680.33657192,133899.38978890,135426.75957975,136680.33657192
1.99725275,0.90000000,0.60000000,perfect screening,6312.60362121,7371.67760637,8751.12378860,0.00000000,0.00000000,0.00000000,0.00000000,0.00000000,0.00000000,0.30763034,0.32836294,0.35258871,268110.46538153,270162.83393528,271690.31398930,134208.45628492,134705.53381430,135070.06571271
2.99725275,0.90000000,0.60000000,perfect screening,7105.29901298,8039.80394843,9202.57929551,0.00000000,0.00000000,0.00000000,0.00000000,0.00000000,0.00000000,0.28424527,0.30991145,0.33140793,398808.13355522,400804.26109229,402544.43700122,130358.99793538,130685.55577271,130967.09818400
3.99725275,0.90000000,0.60000000,perfect screening,10995.45614558,12650.96930336,14404.13868938,0.00000000,0.00000000,0.00000000,0.00000000,0.00000000,0.00000000,0.00434535,0.07286301,0.12473876,527239.05594874,530141.74613021,533099.61545342,128433.92284073,129344.26405245,130567.92655926
4.99725275,0.90000000,0.60000000,perfect screening,9470.04937935,11107.36867086,13091.95480925,0.00000000,0.00000000,0.00000000,0.00000000,0.00000000,0.00000000,0.07557518,0.10651598,0.13293030,657820.13757693,662371.91292623,666473.25713307,130600.18817518,132201.88739062,133524.60435818
5.99725275,0.90000000,0.60000000,perfect screening,6509.93990443,7567.14118295,9022.37638227,0.00000000,0.00000000,0.00000000,0.00000000,0.00000000,0.00000000,0.27576752,0.33758483,0.40689184,789234.16534840,794136.56945463,798550.50264040,131348.50441211,131753.20921171,132063.79407859
6.99725275,0.90000000,0.60000000,perfect screening,7608.92961915,8640.32679838,9894.93757903,0.00000000,0.00000000,0.00000000,0.00000000,0.00000000,0.00000000,0.30795782,0.34591471,0.37023930,918362.57625821,923300.87564407,928044.64489878,128815.65984896,129202.02380463,129522.91034606
7.99725275,0.90000000,0.60000000,perfect screening,11024.48139560,12506.88112881,14225.29276738,0.00000000,0.00000000,0.00000000,0.00000000,0.00000000,0.00000000,-0.02579927,0.08447424,0.18708556,1047111.01785948,1053162.42484817,1059266.11037436,128790.20115139,129899.34980748,131277.24666911
8.99725275,0.90000000,0.60000000,perfect screening,9084.31233746,10660.06445424,12574.43130048,0.00000000,0.00000000,0.00000000,0.00000000,0.00000000,0.00000000,0.08047720,0.12268915,0.18655731,1179447.10095748,1187176.45353709,1194394.08777420,132383.12016441,134000.32717237,135283.19304948
9.99725275,0.90000000,0.60000000,perfect screening,6821.32742259,7819.50731074,9182.94403980,0.00000000,0.00000000,0.00000000,0.00000000,0.00000000,0.00000000,0.28918349,0.38131464,0.45750551,1313547.34542137,1321571.93527419,1329074.75985244,134025.79270858,134395.14371433,134691.15473608
0.99725275,0.90000000,0.60000000,realistic screening,10488.25563167,12161.47591826,13979.96214992,0.00938963,0.13756692,1.09147978,0.00000077,0.00001145,0.00008896,0.04992833,0.06548340,0.08205375,91542.62282937,101482.04065836,111191.48106704,91542.62282937,101482.04065836,111191.48106704
1.99725275,0.90000000,0.60000000,realistic screening,7362.41172120,8514.18968376,10030.83639840,0.01847443,0.26486436,2.06822709,0.00000207,0.00003187,0.00024762,0.18950380,0.22416689,0.25943757,183540.96028915,202932.87920977,221685.10601261,91897.18140955,101424.87446313,110652.91366883
2.99725275,0.90000000,0.60000000,realistic screening,8419.00960879,9634.88897655,11154.97791449,0.03394777,0.49197180,3.90331433,0.00000336,0.00005176,0.00040105,0.13026516,0.17247691,0.21362125,273523.62565232,301861.16006399,329425.10443020,89825.11714597,98940.88995235,107915.82917429
3.99725275,0.90000000,0.60000000,realistic screening,11820.18816976,13364.68654262,15075.97255107,0.06040835,0.92560993,7.34546084,0.00000452,0.00006863,0.00052741,-0.01924052,0.01554436,0.05501200,363208.99654683,400603.75803545,436798.41577533,89632.54485941,98815.50930331,107632.11402956
4.99725275,0.90000000,0.60000000,realistic screening,9532.71810862,11181.83778747,13173.25318976,0.06245790,0.90537252,7.24013635,0.00000544,0.00008250,0.00063259,0.08024781,0.09957380,0.12037578,454889.31031805,501469.91188267,546872.04506086,91533.31235292,100844.84473610,109996.40897826
5.99725275,0.90000000,0.60000000,realistic screening,7637.39216676,8742.86330633,10162.97263705,0.05704491,0.83465286,6.54982609,0.00000635,0.00009694,0.00074623,0.18462753,0.23481572,0.29405953,546027.62095660,601666.90087666,655702.46762481,91182.63746035,100211.20591181,109003.79067239
6.99725275,0.90000000,0.60000000,realistic screening,9460.92345915,10951.75615607,12619.64370662,0.08343195,1.19059389,9.46867683,0.00000727,0.00011051,0.00085414,0.11528608,0.17051759,0.22657707,636012.99679986,700440.35194104,762797.10257542,89988.84190051,98809.07196367,107412.30248313
7.99725275,0.90000000,0.60000000,realistic screening,11925.75209155,13295.73388082,15000.95106301,0.10809652,1.62177500,12.85354084,0.00000801,0.00012100,0.00093014,-0.02310044,0.02462587,0.09380999,727248.93717252,800672.09107645,871911.34442635,91145.34619905,100278.62161177,108936.76538863
8.99725275,0.90000000,0.60000000,realistic screening,9076.62471607,10540.20827861,12487.84191467,0.09114037,1.34864699,10.81705366,0.00000856,0.00012941,0.00099392,0.10083143,0.13287570,0.18275299,820501.82325970,903222.93081814,983671.13230468,93253.36825581,102545.92916610,111757.00687762
9.99725275,0.90000000,0.60000000,realistic screening,8250.47518071,9331.50036919,10728.19233812,0.08580718,1.29238469,9.99542636,0.00000912,0.00013841,0.00106931,0.19293456,0.25904832,0.32396870,913546.98784181,1005279.20573990,1094510.82090107,92820.68486653,102098.77163954,111105.43098573
0.99725275,0.90000000,0.60000000,no vaccine,11300.06978980,12991.12722772,14849.46531570,NaN,NaN,NaN,NaN,NaN,NaN,NaN,NaN,NaN,NaN,NaN,NaN,NaN,NaN,NaN
1.99725275,0.90000000,0.60000000,no vaccine,9652.08907127,10992.97083401,12713.47862294,NaN,NaN,NaN,NaN,NaN,NaN,NaN,NaN,NaN,NaN,NaN,NaN,NaN,NaN,NaN
2.99725275,0.90000000,0.60000000,no vaccine,10276.45818524,11655.15068482,13255.69587130,NaN,NaN,NaN,NaN,NaN,NaN,NaN,NaN,NaN,NaN,NaN,NaN,NaN,NaN,NaN
3.99725275,0.90000000,0.60000000,no vaccine,12240.33495220,13598.35026519,15096.72085553,NaN,NaN,NaN,NaN,NaN,NaN,NaN,NaN,NaN,NaN,NaN,NaN,NaN,NaN,NaN
4.99725275,0.90000000,0.60000000,no vaccine,10712.86094545,12395.90464950,14482.51166663,NaN,NaN,NaN,NaN,NaN,NaN,NaN,NaN,NaN,NaN,NaN,NaN,NaN,NaN,NaN
5.99725275,0.90000000,0.60000000,no vaccine,10276.80454024,11470.04795379,12881.08420689,NaN,NaN,NaN,NaN,NaN,NaN,NaN,NaN,NaN,NaN,NaN,NaN,NaN,NaN,NaN
6.99725275,0.90000000,0.60000000,no vaccine,11637.98355819,13208.06756239,14812.13289200,NaN,NaN,NaN,NaN,NaN,NaN,NaN,NaN,NaN,NaN,NaN,NaN,NaN,NaN,NaN
7.99725275,0.90000000,0.60000000,no vaccine,12100.06496471,13716.75643991,15525.96650763,NaN,NaN,NaN,NaN,NaN,NaN,NaN,NaN,NaN,NaN,NaN,NaN,NaN,NaN,NaN
8.99725275,0.90000000,0.60000000,no vaccine,10796.34626810,12184.09050537,14076.79886845,NaN,NaN,NaN,NaN,NaN,NaN,NaN,NaN,NaN,NaN,NaN,NaN,NaN,NaN,NaN
9.99725275,0.90000000,0.60000000,no vaccine,11263.25728267,12615.09977276,14162.79929585,NaN,NaN,NaN,NaN,NaN,NaN,NaN,NaN,NaN,NaN,NaN,NaN,NaN,NaN,NaN
0.99725275,0.90000000,0.80000000,no screening,9943.80006196,11556.13113986,13356.20607281,248.12209208,317.12290398,427.73539800,0.02441550,0.02742957,0.03274808,0.09699684,0.11030139,0.12690484,227061.80811197,227105.77394243,227157.04143566,227061.80811197,227105.77394243,227157.04143566
1.99725275,0.90000000,0.80000000,no screening,5723.31548943,6753.75511594,8143.88163924,397.45029262,498.81914392,683.90189248,0.06729384,0.07404509,0.08637975,0.35721997,0.38489017,0.41463106,456570.18407729,456665.79904849,456750.52028960,229487.46169446,229557.69846370,229626.12200245
2.99725275,0.90000000,0.80000000,no screening,6074.32090698,6951.12296340,8055.07178284,690.50412632,837.57352746,1088.15685741,0.11218030,0.12077626,0.13792081,0.36416676,0.40381688,0.43375672,687835.41547208,687970.53000816,688085.34294362,231218.93718877,231302.74924025,231382.25547841
3.99725275,0.90000000,0.80000000,no screening,10529.69292361,12390.96076284,14510.79091889,1628.62672830,2007.49328075,2617.12861184,0.15165701,0.16209183,0.18243695,-0.00953075,0.08900248,0.16799717,920721.02923262,920877.55333467,921010.12504943,232823.20783216,232906.17917545,232989.39624431
4.99725275,0.90000000,0.80000000,no screening,10680.31643128,12590.70567116,15216.44503052,1945.58978588,2439.01046842,3253.64492178,0.17987914,0.19398619,0.21684659,-0.08578124,-0.01324593,0.04759101,1155471.68857895,1155645.45859456,1155797.47871849,234696.35385019,234766.43958316,234834.53323189
5.99725275,0.90000000,0.80000000,no screening,6565.12055347,7843.53833155,9804.00869595,1398.81884519,1756.59653421,2398.22805155,0.20890649,0.22501510,0.24989401,0.21917158,0.31332998,0.40996410,1392319.10032104,1392514.34448756,1392688.46246440,236799.63224375,236873.07817412,236939.46273744
6.99725275,0.90000000,0.80000000,no screening,6535.62721510,7542.96898177,8945.37093172,1604.58783794,1946.62009630,2531.46431494,0.24371462,0.25924037,0.28516090,0.36662175,0.42835099,0.46577656,1631240.84675739,1631459.21649525,1631643.72428713,238877.64952964,238944.78421059,239012.58220502
7.99725275,0.90000000,0.80000000,no screening,10383.20924185,12296.37335000,14758.22791384,2896.90262385,3573.85013637,4660.59001728,0.27430610,0.29036250,0.31673299,-0.06598725,0.09969367,0.23309115,1872165.90021170,1872407.02264023,1872606.79729537,240864.63089425,240944.75023323,241030.93854262
8.99725275,0.90000000,0.80000000,no screening,11066.55658699,13097.21587484,16125.86415803,3273.35728632,4090.51847296,5447.49227373,0.29310783,0.31288652,0.34065465,-0.18171098,-0.07296402,0.01807243,2115287.58818339,2115552.71955252,2115758.24693258,243077.37526209,243141.52834680,243215.76892722
9.99725275,0.90000000,0.80000000,no screening,7243.09013406,8713.71304189,11007.03471427,2302.91445539,2893.82931531,3938.72450843,0.31242913,0.33381833,0.36303240,0.16716778,0.30939526,0.43057365,2360862.34949726,2361149.18747267,2361377.66959941,245526.78770892,245598.48647654,245668.38294293
0.99725275,0.90000000,0.80000000,perfect screening,9711.52328536,11275.99675501,12992.12543686,0.00000000,0.00000000,0.00000000,0.00000000,0.00000000,0.00000000,0.12017929,0.13173435,0.14741059,133835.08366479,135349.71409246,136605.55783557,133835.08366479,135349.71409246,136605.55783557
1.99725275,0.90000000,0.80000000,perfect screening,5515.47898600,6490.86609220,7777.07914177,0.00000000,0.00000000,0.00000000,0.00000000,0.00000000,0.00000000,0.38314272,0.40857103,0.43747949,267344.98537976,269434.17189899,271004.34787566,133499.60133228,134053.15317781,134435.62898281
2.99725275,0.90000000,0.80000000,perfect screening,5913.57550860,6683.18374848,7684.84689146,0.00000000,0.00000000,0.00000000,0.00000000,0.00000000,0.00000000,0.39245530,0.42667520,0.45284895,396288.50772992,398320.58178557,400078.05251699,128612.65673973,128933.12791529,129154.92880154
3.99725275,0.90000000,0.80000000,perfect screening,9970.00876572,11633.76023525,13434.06792089,0.00000000,0.00000000,0.00000000,0.00000000,0.00000000,0.00000000,0.05727866,0.14673809,0.21079777,521742.71775701,524472.84535843,527276.85213434,125386.53044144,126157.34845180,127257.39293782
4.99725275,0.90000000,0.80000000,perfect screening,9727.92296248,11336.53894769,13292.41428007,0.00000000,0.00000000,0.00000000,0.00000000,0.00000000,0.00000000,0.04195877,0.08667945,0.12634425,648958.95107324,653472.48097937,657679.90857641,127269.78641216,128981.06698134,130485.37016466
5.99725275,0.90000000,0.80000000,perfect screening,5919.60380801,6966.64188721,8485.62880387,0.00000000,0.00000000,0.00000000,0.00000000,0.00000000,0.00000000,0.31730178,0.38858685,0.46908674,777667.17152054,782683.75198717,787241.06580822,128618.13023690,129204.44886486,129592.48470414
6.99725275,0.90000000,0.80000000,perfect screening,6003.42157163,6754.96418024,7785.35077566,0.00000000,0.00000000,0.00000000,0.00000000,0.00000000,0.00000000,0.44595194,0.48900488,0.51499931,903539.43895332,908569.13153542,913185.33904129,125547.79276883,125911.35342371,126100.45826404
7.99725275,0.90000000,0.80000000,perfect screening,9349.54340656,10896.01784296,12609.52483428,0.00000000,0.00000000,0.00000000,0.00000000,0.00000000,0.00000000,0.05926511,0.20475350,0.31666979,1027635.74758848,1033403.72767631,1039148.83393332,124058.45203102,124840.32486177,125965.42023218
8.99725275,0.90000000,0.80000000,perfect screening,9718.23560876,11253.32044057,13099.75947974,0.00000000,0.00000000,0.00000000,0.00000000,0.00000000,0.00000000,0.01997927,0.07594301,0.13843835,1155011.67445705,1162607.82339684,1169973.73756689,127418.99647144,129248.79614820,130938.76056236
9.99725275,0.90000000,0.80000000,perfect screening,6278.98820047,7391.54499313,8917.37592356,0.00000000,0.00000000,0.00000000,0.00000000,0.00000000,0.00000000,0.30831488,0.41252761,0.51371752,1285937.66246829,1294164.02523014,1301861.33067479,130849.22208932,131512.50416607,131925.75805794
0.99725275,0.90000000,0.80000000,realistic screening,10270.24613893,11917.43890270,13717.78066044,0.01221583,0.17876481,1.41541807,0.00000102,0.00001519,0.00011802,0.06632571,0.08449859,0.10322759,91495.81210782,101442.70096543,111125.12721452,91495.81210782,101442.70096543,111125.12721452
1.99725275,0.90000000,0.80000000,realistic screening,6758.45543652,7920.97120463,9425.51055487,0.02310906,0.32795456,2.55191759,0.00000278,0.00004276,0.00033238,0.23448865,0.27850295,0.32340829,183190.56192265,202526.28157469,221198.66714600,91614.47440889,101025.98554365,110189.58529478
2.99725275,0.90000000,0.80000000,realistic screening,7633.42655446,8845.99559501,10296.37128678,0.04241690,0.61446308,4.78696718,0.00000458,0.00007029,0.00054576,0.18347173,0.24198430,0.29670654,272466.35710470,300496.32152533,327784.00217871,89050.04554701,97993.30032832,106799.60940503
3.99725275,0.90000000,0.80000000,realistic screening,11457.56629298,13046.55411496,14809.49145302,0.08117553,1.23633962,9.82847027,0.00000621,0.00009403,0.00072546,-0.01034924,0.03995671,0.09692385,360941.91272011,397696.36689923,433245.65092237,88500.18578070,97289.82768933,105688.83235193
4.99725275,0.90000000,0.80000000,realistic screening,9468.54828914,11096.42155074,13080.86655495,0.08437364,1.24042130,9.98888052,0.00000752,0.00011355,0.00087189,0.08103894,0.10629589,0.12865259,451588.22222013,497192.97811716,541573.79885437,90399.14182354,99417.75313463,108108.95059064
5.99725275,0.90000000,0.80000000,realistic screening,6997.17184371,8092.53709029,9564.10410156,0.07346690,1.06047340,8.32995400,0.00000880,0.00013339,0.00103286,0.22790408,0.29061797,0.36199000,541413.18829865,595897.61837653,648800.95810579,90034.39502342,98770.08420618,107260.70171451
6.99725275,0.90000000,0.80000000,realistic screening,8283.71498818,9817.85960196,11557.31992532,0.10493586,1.48880153,11.65768000,0.00001015,0.00015358,0.00119399,0.18360675,0.25832427,0.33034614,630001.27104070,692713.69875487,753575.90063348,88415.54821589,96837.42029728,105117.36707210
7.99725275,0.90000000,0.80000000,realistic screening,11614.79184651,12996.52595602,14780.64368388,0.14699103,2.24239962,17.72165577,0.00001130,0.00016891,0.00131144,-0.03206799,0.04459689,0.14862722,719348.47584690,790487.66471110,859573.26962405,89337.85348545,97843.65093193,105766.31231101
8.99725275,0.90000000,0.80000000,realistic screening,8967.37519777,10502.67320476,12524.90902549,0.12708252,1.88865691,15.43375776,0.00001209,0.00018074,0.00140032,0.09579743,0.13434769,0.19347566,811161.64787676,891117.56836996,969045.64003903,91686.51893998,100549.01840921,109159.85632169
9.99725275,0.90000000,0.80000000,realistic screening,7335.18268408,8445.72356266,9876.54089614,0.11120150,1.62827517,12.78439866,0.00001288,0.00019369,0.00150686,0.24518601,0.32826345,0.40766854,902481.81447743,991398.12493536,1077956.81106070,91382.83867081,100335.04319485,108996.20737140
0.99725275,0.90000000,0.80000000,no vaccine,11300.06978980,12991.12722772,14849.46531570,NaN,NaN,NaN,NaN,NaN,NaN,NaN,NaN,NaN,NaN,NaN,NaN,NaN,NaN,NaN
1.99725275,0.90000000,0.80000000,no vaccine,9652.08907127,10992.97083401,12713.47862294,NaN,NaN,NaN,NaN,NaN,NaN,NaN,NaN,NaN,NaN,NaN,NaN,NaN,NaN,NaN
2.99725275,0.90000000,0.80000000,no vaccine,10276.45818524,11655.15068482,13255.69587130,NaN,NaN,NaN,NaN,NaN,NaN,NaN,NaN,NaN,NaN,NaN,NaN,NaN,NaN,NaN
3.99725275,0.90000000,0.80000000,no vaccine,12240.33495220,13598.35026519,15096.72085553,NaN,NaN,NaN,NaN,NaN,NaN,NaN,NaN,NaN,NaN,NaN,NaN,NaN,NaN,NaN
4.99725275,0.90000000,0.80000000,no vaccine,10712.86094545,12395.90464950,14482.51166663,NaN,NaN,NaN,NaN,NaN,NaN,NaN,NaN,NaN,NaN,NaN,NaN,NaN,NaN,NaN
5.99725275,0.90000000,0.80000000,no vaccine,10276.80454024,11470.04795379,12881.08420689,NaN,NaN,NaN,NaN,NaN,NaN,NaN,NaN,NaN,NaN,NaN,NaN,NaN,NaN,NaN
6.99725275,0.90000000,0.80000000,no vaccine,11637.98355819,13208.06756239,14812.13289200,NaN,NaN,NaN,NaN,NaN,NaN,NaN,NaN,NaN,NaN,NaN,NaN,NaN,NaN,NaN
7.99725275,0.90000000,0.80000000,no vaccine,12100.06496471,13716.75643991,15525.96650763,NaN,NaN,NaN,NaN,NaN,NaN,NaN,NaN,NaN,NaN,NaN,NaN,NaN,NaN,NaN
8.99725275,0.90000000,0.80000000,no vaccine,10796.34626810,12184.09050537,14076.79886845,NaN,NaN,NaN,NaN,NaN,NaN,NaN,NaN,NaN,NaN,NaN,NaN,NaN,NaN,NaN
9.99725275,0.90000000,0.80000000,no vaccine,11263.25728267,12615.09977276,14162.79929585,NaN,NaN,NaN,NaN,NaN,NaN,NaN,NaN,NaN,NaN,NaN,NaN,NaN,NaN,NaN
