time,screeningCoverage,vaccineResponseProb,screeningScenario,totalHospCounts_025,totalHospCounts_500,totalHospCounts_975,vacInducedHospCount_025,vacInducedHospCount_500,vacInducedHospCount_975,vacInducedHospPerc_025,vacInducedHospPerc_500,vacInducedHospPerc_975,advHosp_025,advHosp_500,advHosp_975,nVaccines_025,nVaccines_500,nVaccines_975,nVaccinesPerYear_025,nVaccinesPerYear_500,nVaccinesPerYear_975
0.99725275,0.50000000,0.40000000,no screening,11532.40233303,12620.16859872,16873.80220571,84.05412707,91.64260188,124.21039953,0.00702515,0.00723200,0.00740700,0.00395650,0.02819652,0.03219743,126156.55421619,126177.71484743,126199.63221487,126156.55421619,126177.71484743,126199.63221487
1.99725275,0.50000000,0.40000000,no screening,11078.52228675,12166.52992549,16598.92569654,208.36151519,228.70951359,315.70062820,0.01817901,0.01872367,0.01907561,0.04686671,0.06945363,0.07896708,253592.21459656,253626.95987078,253662.06692802,127413.56228395,127446.73836746,127480.68633589
2.99725275,0.50000000,0.40000000,no screening,11421.88372989,12601.39980859,17119.44258159,332.22474099,366.18461973,500.26373371,0.02801085,0.02899010,0.02932278,0.02161152,0.04835537,0.06142208,381955.40575530,382021.41438222,382076.42085606,128353.75592671,128402.22249415,128438.16097839
3.99725275,0.50000000,0.40000000,no screening,11394.44624077,12454.17535850,17113.21176680,434.66526030,475.47740362,651.81581004,0.03654766,0.03803592,0.03824279,0.03418520,0.06696560,0.06957016,511350.36735072,511447.37903181,511502.16705879,129361.75180401,129399.88144601,129461.13906146
4.99725275,0.50000000,0.40000000,no screening,11381.30084197,12447.12084855,17052.45871207,527.50992748,577.81209946,785.09751343,0.04436461,0.04619245,0.04644531,0.05570570,0.07611204,0.08041718,641772.78562115,641876.89352265,641942.67357661,130403.79463900,130427.82232285,130472.89875307
5.99725275,0.50000000,0.40000000,no screening,11571.47448719,12692.91826408,17419.82298116,621.35578330,682.39307689,925.53692064,0.05131404,0.05339681,0.05383565,0.03574413,0.06828161,0.07313541,773302.32286063,773411.92892158,773463.17608445,131502.68402020,131529.47488038,131575.85194435
6.99725275,0.50000000,0.40000000,no screening,11609.48073742,12650.06488353,17278.15630041,699.29463187,763.90753199,1027.42074461,0.05755409,0.05980373,0.06041843,0.06217847,0.07989449,0.08225978,905943.16184118,906081.33787788,906159.21713935,132623.69362786,132666.46322619,132713.70176398
7.99725275,0.50000000,0.40000000,no screening,11694.97588630,12780.31732343,17399.29098351,772.91396366,847.63945525,1134.92442512,0.06328856,0.06558802,0.06635081,0.06169410,0.08004407,0.08144893,1039763.90857511,1039941.05969373,1039985.40189358,133801.58450440,133831.30930564,133910.45580269
8.99725275,0.50000000,0.40000000,no screening,11830.44834877,12932.88363957,17592.66994700,843.35976870,925.86149441,1238.53098406,0.06838007,0.07075191,0.07161425,0.05819885,0.07956584,0.08105036,1174853.57113124,1175030.39587371,1175074.38425374,135037.10853946,135083.55566117,135140.07986580
9.99725275,0.50000000,0.40000000,no screening,11910.85057293,12976.01659959,17499.96999418,903.78356992,989.52190610,1314.01932271,0.07301411,0.07538039,0.07627349,0.07809736,0.08422712,0.08856658,1311231.46430184,1311436.07008385,1311520.44273751,136333.63163038,136410.69647656,136473.01404210
0.99725275,0.50000000,0.40000000,perfect screening,11446.65470105,12534.58876190,16752.02571994,0.00000000,0.00000000,0.00000000,0.00000000,0.00000000,0.00000000,0.01111468,0.03495329,0.03901055,73060.98408629,74260.60562795,74698.99890133,73060.98408629,74260.60562795,74698.99890133
1.99725275,0.50000000,0.40000000,perfect screening,10928.43724106,11977.95432269,16325.96814333,0.00000000,0.00000000,0.00000000,0.00000000,0.00000000,0.00000000,0.06235292,0.08387606,0.09128754,146751.24015367,148893.19835638,149761.21816208,73690.25606738,74632.59272843,75062.21926075
2.99725275,0.50000000,0.40000000,perfect screening,11228.92934056,12354.21401164,16714.83118198,0.00000000,0.00000000,0.00000000,0.00000000,0.00000000,0.00000000,0.04353686,0.06703224,0.07475961,220681.34053320,223573.69325856,224819.56829326,73930.10037953,74680.49490218,75058.35013118
3.99725275,0.50000000,0.40000000,perfect screening,11177.55092063,12207.23087017,16592.84229326,0.00000000,0.00000000,0.00000000,0.00000000,0.00000000,0.00000000,0.06306420,0.08548052,0.08907228,294946.55421334,298467.23885178,300074.19864834,74240.70322349,74893.54559322,75254.63035508
4.99725275,0.50000000,0.40000000,perfect screening,11170.12278084,12184.30955855,16499.09981890,0.00000000,0.00000000,0.00000000,0.00000000,0.00000000,0.00000000,0.08518131,0.09534194,0.09685848,369420.16841183,373462.55108353,375465.68984819,74468.01506802,74995.31223175,75391.49119985
5.99725275,0.50000000,0.40000000,perfect screening,11361.37276782,12407.77475568,16808.06946723,0.00000000,0.00000000,0.00000000,0.00000000,0.00000000,0.00000000,0.06961534,0.08896181,0.09098115,444175.31958379,448689.93012660,451132.97254710,74743.50402556,75227.37904307,75667.28269891
6.99725275,0.50000000,0.40000000,perfect screening,11377.00458176,12388.50106534,16622.88887003,0.00000000,0.00000000,0.00000000,0.00000000,0.00000000,0.00000000,0.09467703,0.09992234,0.10709142,519280.55009006,524282.13072584,527212.10569138,75096.08252854,75592.20059923,76079.13314428
7.99725275,0.50000000,0.40000000,perfect screening,11495.07197441,12522.86800184,16768.48598496,0.00000000,0.00000000,0.00000000,0.00000000,0.00000000,0.00000000,0.09365585,0.09735613,0.10131300,594707.97972659,600221.57542165,603776.14054587,75427.42963653,75971.64615649,76564.03485449
8.99725275,0.50000000,0.40000000,perfect screening,11621.21333258,12671.09201586,16937.62926827,0.00000000,0.00000000,0.00000000,0.00000000,0.00000000,0.00000000,0.09157163,0.09887168,0.10369593,670599.87239896,676703.58504664,680933.75092687,75891.89267237,76560.27650254,77157.61038100
9.99725275,0.50000000,0.40000000,perfect screening,11700.51203636,12744.79803405,16849.08816929,0.00000000,0.00000000,0.00000000,0.00000000,0.00000000,0.00000000,0.09680837,0.10488923,0.11263334,746995.77480901,753741.43609262,758774.72946640,76395.90241005,77217.29743466,77840.97853953
0.99725275,0.50000000,0.40000000,realistic screening,11600.23435632,12746.02832476,16945.15962871,0.01403934,0.05038147,0.33828304,0.00000099,0.00000410,0.00002624,0.00019162,0.02147127,0.02596595,47895.99775268,53078.58285683,57526.26995056,47895.99775268,53078.58285683,57526.26995056
1.99725275,0.50000000,0.40000000,realistic screening,11293.18886261,12490.71162061,16742.70030270,0.03548081,0.12686884,0.85680452,0.00000259,0.00001068,0.00006793,0.03843643,0.04772490,0.06055270,96135.60744304,106520.18033348,115393.55488730,48239.60969037,53441.59747666,57867.28493674
2.99725275,0.50000000,0.40000000,realistic screening,11546.55350410,12764.62212588,17037.05724633,0.05629881,0.20214486,1.35407716,0.00000401,0.00001657,0.00010514,0.02448633,0.03596326,0.04849253,144554.59558878,160087.33005038,173320.51195015,48418.98814574,53567.14971690,57926.95706284
3.99725275,0.50000000,0.40000000,realistic screening,11523.91015604,12714.97248756,17124.77500381,0.07344972,0.26338802,1.77324029,0.00000526,0.00002178,0.00013801,0.03249542,0.05491123,0.05890383,193210.37714894,213937.97837865,231491.89070634,48655.78156016,53850.64832826,58171.37875620
4.99725275,0.50000000,0.40000000,realistic screening,11581.72671636,12773.93003970,17072.67719303,0.08971586,0.32089232,2.16033524,0.00000639,0.00002645,0.00016744,0.04860815,0.05586620,0.06296886,242056.63641597,267923.76264013,289850.50252254,48846.25926703,53985.78426149,58358.61181619
5.99725275,0.50000000,0.40000000,realistic screening,11741.08109614,12966.85484563,17368.74409305,0.10511832,0.37747434,2.53349686,0.00000739,0.00003058,0.00019344,0.03868541,0.05081923,0.05954758,291130.55835151,322146.97580735,348468.66036648,49073.92193554,54223.21316722,58618.15784394
6.99725275,0.50000000,0.40000000,realistic screening,11798.12609939,12979.81380718,17354.80245558,0.11779177,0.42062646,2.83798097,0.00000828,0.00003420,0.00021626,0.05314690,0.06401495,0.06983984,340467.60882251,376672.10427662,407448.32234587,49337.05047101,54525.12846927,58979.66197939
7.99725275,0.50000000,0.40000000,realistic screening,11927.19719654,13148.95649267,17458.19927551,0.13046447,0.46720917,3.13968351,0.00000907,0.00003739,0.00023636,0.05123073,0.05993724,0.06328482,390127.74419253,431478.95244205,466804.75907220,49660.13537002,54806.84816543,59356.43672633
8.99725275,0.50000000,0.40000000,realistic screening,12044.73021797,13272.66650700,17696.86864499,0.14128252,0.50661399,3.40495001,0.00000975,0.00004015,0.00025379,0.04971920,0.06211248,0.06712948,440146.34250280,486642.54077157,526631.96591668,50018.59831027,55163.58832952,59827.20684448
9.99725275,0.50000000,0.40000000,realistic screening,12147.34331327,13365.58923768,17685.32334155,0.15099188,0.53959928,3.63109473,0.00001036,0.00004255,0.00026891,0.05576556,0.06582409,0.07260714,490563.58176969,542224.52821632,586960.30417366,50417.23926689,55581.98744474,60328.33825698
0.99725275,0.50000000,0.40000000,no vaccine,11901.86216140,13004.18896838,16950.51793737,NaN,NaN,NaN,NaN,NaN,NaN,NaN,NaN,NaN,NaN,NaN,NaN,NaN,NaN,NaN
1.99725275,0.50000000,0.40000000,no vaccine,11998.60200522,13095.29209657,17424.82507727,NaN,NaN,NaN,NaN,NaN,NaN,NaN,NaN,NaN,NaN,NaN,NaN,NaN,NaN,NaN
2.99725275,0.50000000,0.40000000,no vaccine,12115.51951159,13257.88817089,17506.22538637,NaN,NaN,NaN,NaN,NaN,NaN,NaN,NaN,NaN,NaN,NaN,NaN,NaN,NaN,NaN
3.99725275,0.50000000,0.40000000,no vaccine,12241.70308587,13350.52596319,17729.94541275,NaN,NaN,NaN,NaN,NaN,NaN,NaN,NaN,NaN,NaN,NaN,NaN,NaN,NaN,NaN
4.99725275,0.50000000,0.40000000,no vaccine,12353.60209340,13483.40552171,18060.43110882,NaN,NaN,NaN,NaN,NaN,NaN,NaN,NaN,NaN,NaN,NaN,NaN,NaN,NaN,NaN
5.99725275,0.50000000,0.40000000,no vaccine,12484.43983998,13642.04173786,18085.87785764,NaN,NaN,NaN,NaN,NaN,NaN,NaN,NaN,NaN,NaN,NaN,NaN,NaN,NaN,NaN
6.99725275,0.50000000,0.40000000,no vaccine,12618.53571086,13761.27021270,18419.10812004,NaN,NaN,NaN,NaN,NaN,NaN,NaN,NaN,NaN,NaN,NaN,NaN,NaN,NaN,NaN
7.99725275,0.50000000,0.40000000,no vaccine,12731.74914712,13892.29755406,18552.90538736,NaN,NaN,NaN,NaN,NaN,NaN,NaN,NaN,NaN,NaN,NaN,NaN,NaN,NaN,NaN
8.99725275,0.50000000,0.40000000,no vaccine,12865.35219065,14067.21724776,18690.60339010,NaN,NaN,NaN,NaN,NaN,NaN,NaN,NaN,NaN,NaN,NaN,NaN,NaN,NaN,NaN
9.99725275,0.50000000,0.40000000,no vaccine,13002.30578368,14179.21084400,18986.79707795,NaN,NaN,NaN,NaN,NaN,NaN,NaN,NaN,NaN,NaN,NaN,NaN,NaN,NaN,NaN
0.99725275,0.50000000,0.60000000,no screening,11351.22325568,12438.28941854,16704.38198555,123.35339032,134.68339942,183.44346303,0.01048010,0.01078647,0.01104823,0.01404544,0.04238436,0.04730935,126161.67293131,126176.53269344,126208.18557452,126161.67293131,126176.53269344,126208.18557452
1.99725275,0.50000000,0.60000000,no screening,10626.82552315,11712.37299776,16226.51786405,299.57500208,329.83798146,461.63011872,0.02721383,0.02806176,0.02854008,0.06783905,0.10416148,0.11886752,253616.16929385,253652.15165864,253702.28264615,127440.33339041,127471.39819100,127508.39939207
2.99725275,0.50000000,0.60000000,no screening,11056.78027300,12258.26571788,16924.77117871,484.56594883,535.93096405,740.55018729,0.04201565,0.04364760,0.04394800,0.03265773,0.07426095,0.09315065,382023.54148438,382073.54459641,382118.07074355,128383.86920381,128425.53497939,128453.60531371
3.99725275,0.50000000,0.60000000,no screening,11011.44456441,12046.59343260,16750.22784071,634.87340638,694.22105004,955.77953614,0.05488477,0.05733023,0.05770812,0.05454775,0.09723297,0.10105201,511429.30801102,511506.45073892,511564.32408932,129400.01809377,129420.41732300,129462.92445632
4.99725275,0.50000000,0.60000000,no screening,10888.59625196,11927.87064579,16619.07985872,766.20313434,839.11569482,1149.56838798,0.06686275,0.06987622,0.07046248,0.07910123,0.11466867,0.11900236,641874.44632833,641964.50018821,642041.40797304,130413.37435784,130459.15258690,130486.47051537
5.99725275,0.50000000,0.60000000,no screening,11144.88516888,12243.01082618,17060.54913051,913.06982890,1001.65238581,1365.77928288,0.07762099,0.08134732,0.08207419,0.05571022,0.10130583,0.10846342,773421.23990447,773473.47105480,773582.81377518,131484.52861725,131539.27177121,131563.61858010
6.99725275,0.50000000,0.60000000,no screening,11152.23576873,12162.54262347,16755.48684362,1029.06847440,1123.93614956,1506.12138375,0.08737750,0.09164326,0.09248688,0.09023870,0.11532634,0.11771396,906054.53059007,906159.94227958,906284.06081735,132602.72652697,132687.86317545,132731.41838680
7.99725275,0.50000000,0.60000000,no screening,11197.17915435,12229.45351823,16846.89221142,1138.67660158,1246.57049454,1667.93962130,0.09651838,0.10095571,0.10198449,0.09114769,0.11956909,0.12128253,1039846.33183174,1040045.11972995,1040159.94447236,133785.38861007,133850.12814835,133942.39754727
8.99725275,0.50000000,0.60000000,no screening,11361.73984839,12412.55804601,17102.96416697,1251.55007407,1371.55286841,1834.89450180,0.10473454,0.10932366,0.11054381,0.08466740,0.11550000,0.11778434,1174915.29238496,1175142.08853057,1175271.10916346,135059.02330158,135089.74148047,135157.98450705
9.99725275,0.50000000,0.60000000,no screening,11412.47310066,12443.20589300,16847.78944610,1343.14053691,1470.29644368,1935.31633677,0.11229143,0.11677155,0.11819118,0.11200990,0.12272999,0.12894458,1311311.65653454,1311518.67223792,1311711.74612428,136345.39426369,136395.91141660,136453.23020038
0.99725275,0.50000000,0.60000000,perfect screening,11231.26341464,12306.38176173,16522.39522853,0.00000000,0.00000000,0.00000000,0.00000000,0.00000000,0.00000000,0.02468862,0.05258288,0.05752250,73042.65590189,74238.31273723,74686.71080802,73042.65590189,74238.31273723,74686.71080802
1.99725275,0.50000000,0.60000000,perfect screening,10402.46300109,11442.46919973,15827.13930751,0.00000000,0.00000000,0.00000000,0.00000000,0.00000000,0.00000000,0.09041493,0.12481828,0.13633893,146603.93257859,148696.72575499,149557.84897229,73561.27667670,74458.41301776,74871.13816427
2.99725275,0.50000000,0.60000000,perfect screening,10774.68767184,11901.67918523,16312.82350872,0.00000000,0.00000000,0.00000000,0.00000000,0.00000000,0.00000000,0.06722473,0.10121035,0.11419237,220236.96422822,222977.38192571,224145.10780106,73611.85550407,74280.65617072,74587.25882877
3.99725275,0.50000000,0.60000000,perfect screening,10684.45040529,11665.77632176,15998.17012045,0.00000000,0.00000000,0.00000000,0.00000000,0.00000000,0.00000000,0.09641669,0.12485759,0.12908432,294077.58794096,297360.97062041,298741.21772315,73795.50850284,74363.52776929,74596.10992209
4.99725275,0.50000000,0.60000000,perfect screening,10583.05712361,11535.27022376,15802.29720982,0.00000000,0.00000000,0.00000000,0.00000000,0.00000000,0.00000000,0.12395945,0.14225363,0.14543712,367912.38443259,371597.78095581,373318.93461879,73834.79649163,74238.45913878,74577.71689563
5.99725275,0.50000000,0.60000000,perfect screening,10803.16501204,11807.22209803,16131.58891684,0.00000000,0.00000000,0.00000000,0.00000000,0.00000000,0.00000000,0.10658761,0.13253254,0.13552309,441838.85440437,445888.63109706,447938.51483769,73926.46997178,74309.95498081,74619.58021891
6.99725275,0.50000000,0.60000000,perfect screening,10806.96672963,11748.33941604,15796.23203939,0.00000000,0.00000000,0.00000000,0.00000000,0.00000000,0.00000000,0.13800812,0.14699920,0.15519043,516019.26298403,520428.19221675,522888.25832665,74180.40857966,74539.56111969,74949.74348896
7.99725275,0.50000000,0.60000000,perfect screening,10876.17048614,11837.29044409,15920.54244798,0.00000000,0.00000000,0.00000000,0.00000000,0.00000000,0.00000000,0.14053699,0.14627950,0.15117414,590465.17365685,595176.93063948,598216.09096595,74409.35170023,74748.73842273,75327.83263930
8.99725275,0.50000000,0.60000000,perfect screening,11019.78052141,12005.45437467,16069.58830494,0.00000000,0.00000000,0.00000000,0.00000000,0.00000000,0.00000000,0.13792268,0.14506647,0.15059374,665288.04746470,670363.54573920,674079.43803405,74756.69430039,75256.24794038,75863.34706811
9.99725275,0.50000000,0.60000000,perfect screening,11081.48807843,12046.62910643,15884.89968209,0.00000000,0.00000000,0.00000000,0.00000000,0.00000000,0.00000000,0.14364812,0.15587308,0.16600442,740518.10300976,746072.36401050,750610.21230444,75138.37519649,75882.92609899,76530.77427039
0.99725275,0.50000000,0.60000000,realistic screening,11457.61945618,12626.25913865,16808.74429972,0.02078259,0.07466575,0.50134422,0.00000148,0.00000614,0.00003930,0.00830476,0.03101106,0.03810372,47882.53400533,53065.21227692,57511.12537757,47882.53400533,53065.21227692,57511.12537757
1.99725275,0.50000000,0.60000000,realistic screening,10946.59056515,12193.58459425,16450.15495220,0.05200090,0.18606703,1.25626164,0.00000390,0.00001611,0.00010240,0.05549149,0.06991405,0.09063085,96061.10218781,106417.78716745,115249.83248016,48178.56818248,53352.57489053,57738.70710260
2.99725275,0.50000000,0.60000000,realistic screening,11251.82850351,12537.51759852,16800.28915569,0.08338252,0.29987880,2.00895309,0.00000607,0.00002515,0.00015934,0.04019417,0.05306063,0.07397835,144317.67509139,159816.32365824,172933.51152483,48256.57290357,53398.53649078,57683.67904467
3.99725275,0.50000000,0.60000000,realistic screening,11201.84902832,12398.79978865,16756.24030130,0.10887343,0.39004841,2.62459962,0.00000800,0.00003319,0.00020993,0.05316922,0.07761377,0.08494915,192779.15423225,213380.08427079,230734.03748520,48461.47914086,53563.76061255,57800.52596038
4.99725275,0.50000000,0.60000000,realistic screening,11187.23869770,12430.47827682,16676.50598658,0.13278136,0.47460208,3.20166464,0.00000976,0.00004049,0.00025580,0.07246356,0.08325216,0.09441571,241327.36095503,267005.72153622,288613.05946625,48548.20672278,53625.63726543,57879.02198104
5.99725275,0.50000000,0.60000000,realistic screening,11379.23720423,12634.97738740,16967.36738106,0.15669669,0.56251800,3.77464784,0.00001132,0.00004701,0.00029666,0.06029315,0.07658785,0.08852933,290032.08123196,320792.71243495,346654.28324335,48704.72027693,53786.99089873,58041.22377710
6.99725275,0.50000000,0.60000000,realistic screening,11409.92909599,12615.74396800,16825.80168660,0.17560761,0.62749809,4.23642122,0.00001272,0.00005275,0.00033275,0.07912123,0.09353770,0.10125307,338965.38115311,374810.76387328,404976.86448544,48933.29992114,54018.05143833,58322.58124209
7.99725275,0.50000000,0.60000000,realistic screening,11520.02687626,12775.13519388,16982.01566625,0.19497648,0.69738421,4.69311375,0.00001398,0.00005783,0.00036473,0.07671396,0.08926085,0.09517336,388159.32225435,429029.75413158,463651.96874655,49193.94110125,54218.99025829,58675.10426111
8.99725275,0.50000000,0.60000000,realistic screening,11649.66685040,12901.09316099,17152.98847054,0.21195747,0.75949051,5.10430607,0.00001509,0.00006227,0.00039259,0.07501073,0.09212878,0.09672407,437678.80638425,483579.17722963,522730.36944807,49519.48412990,54549.42309806,59078.40070152
9.99725275,0.50000000,0.60000000,realistic screening,11719.25822932,12984.40869383,17095.75842935,0.22623307,0.80873625,5.45825726,0.00001607,0.00006612,0.00041683,0.08211195,0.09811511,0.10797227,487570.32616268,538518.61047420,582324.62049848,49891.51977843,54939.43324457,59594.25105041
0.99725275,0.50000000,0.60000000,no vaccine,11901.86216140,13004.18896838,16950.51793737,NaN,NaN,NaN,NaN,NaN,NaN,NaN,NaN,NaN,NaN,NaN,NaN,NaN,NaN,NaN
1.99725275,0.50000000,0.60000000,no vaccine,11998.60200522,13095.29209657,17424.82507727,NaN,NaN,NaN,NaN,NaN,NaN,NaN,NaN,NaN,NaN,NaN,NaN,NaN,NaN,NaN
2.99725275,0.50000000,0.60000000,no vaccine,12115.51951159,13257.88817089,17506.22538637,NaN,NaN,NaN,NaN,NaN,NaN,NaN,NaN,NaN,NaN,NaN,NaN,NaN,NaN,NaN
3.99725275,0.50000000,0.60000000,no vaccine,12241.70308587,13350.52596319,17729.94541275,NaN,NaN,NaN,NaN,NaN,NaN,NaN,NaN,NaN,NaN,NaN,NaN,NaN,NaN,NaN
4.99725275,0.50000000,0.60000000,no vaccine,12353.60209340,13483.40552171,18060.43110882,NaN,NaN,NaN,NaN,NaN,NaN,NaN,NaN,NaN,NaN,NaN,NaN,NaN,NaN,NaN
5.99725275,0.50000000,0.60000000,no vaccine,12484.43983998,13642.04173786,18085.87785764,NaN,NaN,NaN,NaN,NaN,NaN,NaN,NaN,NaN,NaN,NaN,NaN,NaN,NaN,NaN
6.99725275,0.50000000,0.60000000,no vaccine,12618.53571086,13761.27021270,18419.10812004,NaN,NaN,NaN,NaN,NaN,NaN,NaN,NaN,NaN,NaN,NaN,NaN,NaN,NaN,NaN
7.99725275,0.50000000,0.60000000,no vaccine,12731.74914712,13892.29755406,18552.90538736,NaN,NaN,NaN,NaN,NaN,NaN,NaN,NaN,NaN,NaN,NaN,NaN,NaN,NaN,NaN
8.99725275,0.50000000,0.60000000,no vaccine,12865.35219065,14067.21724776,18690.60339010,NaN,NaN,NaN,NaN,NaN,NaN,NaN,NaN,NaN,NaN,NaN,NaN,NaN,NaN,NaN
9.99725275,0.50000000,0.60000000,no vaccine,13002.30578368,14179.21084400,18986.79707795,NaN,NaN,NaN,NaN,NaN,NaN,NaN,NaN,NaN,NaN,NaN,NaN,NaN,NaN,NaN
0.99725275,0.50000000,0.80000000,no screening,11173.32227470,12256.55315745,16531.90268932,160.93232393,175.83031870,240.80708718,0.01389927,0.01429769,0.01465232,0.02422257,0.05635679,0.06280777,126157.93118719,126182.62993675,126201.88731147,126157.93118719,126182.62993675,126201.88731147
1.99725275,0.50000000,0.80000000,no screening,10180.86116049,11258.77208709,15843.70633645,382.32669086,422.17642480,599.01380274,0.03621541,0.03736970,0.03794031,0.08942999,0.13885538,0.15763008,253606.49808411,253652.99351265,253710.69130163,127419.50782238,127474.71982888,127514.47768905
2.99725275,0.50000000,0.80000000,no screening,10667.69949865,11904.93442674,16723.32943205,625.88028836,695.82544002,973.34724659,0.05601777,0.05838844,0.05872183,0.04389336,0.10092460,0.12741572,382014.61297589,382053.96437126,382119.37565055,128364.15288198,128409.59650858,128448.26016246
3.99725275,0.50000000,0.80000000,no screening,10650.91107085,11663.30031935,16395.76130109,824.61822090,901.46636739,1244.92063307,0.07324681,0.07683950,0.07747859,0.07435076,0.12596134,0.13073689,511428.45308143,511473.78185838,511571.49425055,129386.48975435,129422.24410993,129459.45241534
4.99725275,0.50000000,0.80000000,no screening,10418.40933698,11416.08931791,16169.38670042,988.25543066,1080.72238562,1492.37086641,0.08952271,0.09414188,0.09493867,0.10377919,0.15263792,0.15665052,641903.35336149,641960.84028062,642055.27481251,130454.33071275,130476.82834817,130503.03967456
5.99725275,0.50000000,0.80000000,no screening,10705.80586780,11796.77203162,16701.32775653,1187.69739684,1303.71137397,1789.13711164,0.10428443,0.11009094,0.11107528,0.07534519,0.13404120,0.14515281,773424.69631743,773512.96245401,773556.20873999,131492.51672581,131533.05805914,131590.76726593
6.99725275,0.50000000,0.80000000,no screening,10730.18143359,11715.75150552,16269.28531724,1345.95273167,1469.82790172,1962.62638019,0.11776294,0.12451135,0.12564405,0.11652145,0.14790592,0.15099871,906080.31027544,906178.34736571,906258.56932509,132621.43549428,132683.55051155,132714.59824567
7.99725275,0.50000000,0.80000000,no screening,10730.73315968,11698.05323773,16300.03771017,1488.92223221,1625.01982202,2173.61429304,0.13061170,0.13778672,0.13904081,0.12068165,0.15630049,0.15935582,1039887.79473792,1040035.51692878,1040144.06167063,133802.28780269,133863.28374661,133898.73877467
8.99725275,0.50000000,0.80000000,no screening,10894.81654571,11925.38477798,16601.82629844,1643.56718120,1802.24686089,2407.53642289,0.14224100,0.14979945,0.15127024,0.11081249,0.15012290,0.15387850,1174976.60527049,1175150.48723290,1175247.30144544,135031.37742610,135107.73978581,135137.97594891
9.99725275,0.50000000,0.80000000,no screening,10955.37280170,11949.98723232,16271.03072616,1771.92030771,1938.57239450,2535.41855948,0.15296537,0.16055985,0.16229077,0.14285522,0.15820484,0.16392104,1311376.98083882,1311551.03534114,1311650.64293993,136346.20951356,136395.09007118,136443.39220194
0.99725275,0.50000000,0.80000000,perfect screening,11016.61856581,12085.17312774,16300.41869035,0.00000000,0.00000000,0.00000000,0.00000000,0.00000000,0.00000000,0.03775705,0.06956416,0.07540611,73043.44374880,74216.37188939,74669.98015087,73043.44374880,74216.37188939,74669.98015087
1.99725275,0.50000000,0.80000000,perfect screening,9886.97431595,10913.42171307,15327.92721500,0.00000000,0.00000000,0.00000000,0.00000000,0.00000000,0.00000000,0.11869795,0.16528003,0.18089718,146453.86816959,148504.23907301,149339.73473221,73410.42442079,74287.86718363,74669.75458134
2.99725275,0.50000000,0.80000000,perfect screening,10307.49400759,11437.17778277,15909.86377379,0.00000000,0.00000000,0.00000000,0.00000000,0.00000000,0.00000000,0.08991889,0.13626147,0.15399333,219786.96323052,222396.57315013,223481.28888304,73287.51887584,73900.64925964,74141.55415083
3.99725275,0.50000000,0.80000000,perfect screening,10214.06853337,11146.63899031,15426.75947823,0.00000000,0.00000000,0.00000000,0.00000000,0.00000000,0.00000000,0.12858118,0.16168269,0.16709872,293134.86025139,296216.17611175,297390.11161813,73340.98132409,73808.00968326,73937.78937726
4.99725275,0.50000000,0.80000000,perfect screening,10004.75393045,10903.46552951,15094.53429229,0.00000000,0.00000000,0.00000000,0.00000000,0.00000000,0.00000000,0.16222076,0.18835497,0.19311083,366325.91385611,369748.10996309,371101.54950530,73150.76926966,73523.16657665,73711.43788717
5.99725275,0.50000000,0.80000000,perfect screening,10264.77286814,11206.42912606,15489.64415502,0.00000000,0.00000000,0.00000000,0.00000000,0.00000000,0.00000000,0.14208455,0.17628878,0.17869348,439489.26536763,443067.81321517,444712.02083021,73038.71838819,73363.49943239,73610.47132491
6.99725275,0.50000000,0.80000000,perfect screening,10253.21509713,11131.53299330,15010.57829987,0.00000000,0.00000000,0.00000000,0.00000000,0.00000000,0.00000000,0.18090908,0.19079557,0.19999450,512730.44884501,516475.32526586,518496.27370987,73175.73614311,73483.52206432,73784.25287966
7.99725275,0.50000000,0.80000000,perfect screening,10277.09821722,11168.40640059,15040.85673557,0.00000000,0.00000000,0.00000000,0.00000000,0.00000000,0.00000000,0.18666495,0.19341364,0.20105523,586064.00084066,589995.73985135,592602.78734346,73320.96434079,73541.43497180,74106.51363359
8.99725275,0.50000000,0.80000000,perfect screening,10433.06748783,11354.99018500,15261.00281209,0.00000000,0.00000000,0.00000000,0.00000000,0.00000000,0.00000000,0.18167052,0.19011925,0.19480228,659682.31072385,663867.97087422,667162.49965673,73568.37856404,73908.16375278,74559.71231326
9.99725275,0.50000000,0.80000000,perfect screening,10476.01275588,11370.35365618,14947.61364328,0.00000000,0.00000000,0.00000000,0.00000000,0.00000000,0.00000000,0.18848171,0.20385357,0.21728426,733678.21854118,738183.45823544,742350.32372644,73900.70055561,74501.64281558,75198.91395257
0.99725275,0.50000000,0.80000000,realistic screening,11313.14081339,12503.48246281,16676.92033268,0.02734585,0.09832538,0.66030424,0.00000198,0.00000817,0.00005234,0.01608722,0.04072366,0.05022042,47870.31035952,53056.83663482,57499.13509426,47870.31035952,53056.83663482,57499.13509426
1.99725275,0.50000000,0.80000000,realistic screening,10604.34407114,11905.76753914,16150.76688932,0.06767031,0.24275033,1.63794353,0.00000523,0.00002160,0.00013722,0.07267942,0.09197074,0.12015767,95982.56728439,106319.01543971,115134.74203671,48112.25692487,53262.17880488,57635.60694245
2.99725275,0.50000000,0.80000000,realistic screening,10960.12030428,12296.40823279,16578.97549552,0.10978966,0.39494460,2.64644718,0.00000817,0.00003393,0.00021468,0.05306237,0.07121035,0.09896030,144096.52365981,159529.56191937,172555.42210862,48113.95637542,53210.54647966,57420.68007191
3.99725275,0.50000000,0.80000000,realistic screening,10869.38790625,12103.54876918,16389.95745700,0.14318379,0.51337944,3.45758009,0.00001080,0.00004497,0.00028394,0.07347809,0.10001044,0.11210908,192318.42062377,212853.89772056,229994.87011814,48221.89696396,53324.33580119,57439.44800953
4.99725275,0.50000000,0.80000000,realistic screening,10803.46185163,12087.15147948,16264.09682251,0.17458865,0.62435025,4.21830727,0.00001323,0.00005511,0.00034751,0.09614013,0.11034542,0.12548120,240556.97180683,266128.60727729,287382.76170210,48238.55118306,53274.70955673,57387.89158396
5.99725275,0.50000000,0.80000000,realistic screening,11022.60813584,12315.24829224,16568.44171545,0.20761612,0.74437188,5.00154105,0.00001542,0.00006425,0.00040457,0.08195747,0.10184067,0.11709413,288914.70281206,319476.97731791,344846.55017377,48357.73100523,53348.37004063,57463.78847167
6.99725275,0.50000000,0.80000000,realistic screening,11025.23765313,12247.87778921,16346.08907961,0.23267050,0.83312108,5.61286765,0.00001739,0.00007234,0.00045523,0.10391439,0.12199006,0.13086657,337432.47765805,372970.06858531,402515.57492216,48517.77484599,53493.09126740,57669.02474839
7.99725275,0.50000000,0.80000000,realistic screening,11119.64955565,12406.11755623,16480.04724906,0.25881251,0.92438985,6.23657299,0.00001917,0.00007955,0.00050046,0.10212815,0.11990520,0.12662259,386153.07967360,426607.59541360,460484.15552984,48720.60201555,53637.52682829,57968.58060767
8.99725275,0.50000000,0.80000000,realistic screening,11250.66431069,12537.28709768,16630.73060762,0.28245089,1.01084927,6.80485085,0.00002075,0.00008588,0.00054000,0.09999350,0.12175998,0.12719674,435170.80230549,480528.69136531,518819.27279005,49017.72263189,53921.09595171,58335.11726022
9.99725275,0.50000000,0.80000000,realistic screening,11320.82719471,12589.67706912,16536.93576968,0.30185090,1.07948916,7.27414336,0.00002215,0.00009138,0.00057448,0.10876649,0.12850337,0.14101624,484517.76481961,534792.93822189,577644.63827719,49346.96251412,54264.24685658,58825.36548713
0.99725275,0.50000000,0.80000000,no vaccine,11901.86216140,13004.18896838,16950.51793737,NaN,NaN,NaN,NaN,NaN,NaN,NaN,NaN,NaN,NaN,NaN,NaN,NaN,NaN,NaN
1.99725275,0.50000000,0.80000000,no vaccine,11998.60200522,13095.29209657,17424.82507727,NaN,NaN,NaN,NaN,NaN,NaN,NaN,NaN,NaN,NaN,NaN,NaN,NaN,NaN,NaN
2.99725275,0.50000000,0.80000000,no vaccine,12115.51951159,13257.88817089,17506.22538637,NaN,NaN,NaN,NaN,NaN,NaN,NaN,NaN,NaN,NaN,NaN,NaN,NaN,NaN,NaN
3.99725275,0.50000000,0.80000000,no vaccine,12241.70308587,13350.52596319,17729.94541275,NaN,NaN,NaN,NaN,NaN,NaN,NaN,NaN,NaN,NaN,NaN,NaN,NaN,NaN,NaN
4.99725275,0.50000000,0.80000000,no vaccine,12353.60209340,13483.40552171,18060.43110882,NaN,NaN,NaN,NaN,NaN,NaN,NaN,NaN,NaN,NaN,NaN,NaN,NaN,NaN,NaN
5.99725275,0.50000000,0.80000000,no vaccine,12484.43983998,13642.04173786,18085.87785764,NaN,NaN,NaN,NaN,NaN,NaN,NaN,NaN,NaN,NaN,NaN,NaN,NaN,NaN,NaN
6.99725275,0.50000000,0.80000000,no vaccine,12618.53571086,13761.27021270,18419.10812004,NaN,NaN,NaN,NaN,NaN,NaN,NaN,NaN,NaN,NaN,NaN,NaN,NaN,NaN,NaN
7.99725275,0.50000000,0.80000000,no vaccine,12731.74914712,13892.29755406,18552.90538736,NaN,NaN,NaN,NaN,NaN,NaN,NaN,NaN,NaN,NaN,NaN,NaN,NaN,NaN,NaN
8.99725275,0.50000000,0.80000000,no vaccine,12865.35219065,14067.21724776,18690.60339010,NaN,NaN,NaN,NaN,NaN,NaN,NaN,NaN,NaN,NaN,NaN,NaN,NaN,NaN,NaN
9.99725275,0.50000000,0.80000000,no vaccine,13002.30578368,14179.21084400,18986.79707795,NaN,NaN,NaN,NaN,NaN,NaN,NaN,NaN,NaN,NaN,NaN,NaN,NaN,NaN,NaN
0.99725275,0.70000000,0.40000000,no screening,11388.00938302,12470.53381987,16735.48711934,115.65611718,126.21197672,171.73741143,0.00979249,0.01007773,0.01032458,0.01220884,0.03978879,0.04443728,176624.21786768,176658.01503568,176672.73162111,176624.21786768,176658.01503568,176672.73162111
1.99725275,0.70000000,0.40000000,no screening,10720.93435710,11809.70154457,16302.26185706,282.15070053,310.49358526,433.10135166,0.02540895,0.02619341,0.02665085,0.06356680,0.09672986,0.11096344,355018.93409548,355110.85513793,355157.43897861,178385.11730079,178454.26943017,178495.80664811
2.99725275,0.70000000,0.40000000,no screening,11126.43883425,12324.56335143,16977.36846791,454.66210928,502.59094883,693.55087588,0.03921450,0.04070473,0.04102096,0.02974992,0.06925918,0.08696031,534783.22503315,534872.50332315,534967.38132809,179722.81179748,179777.74263890,179816.31593684
3.99725275,0.70000000,0.40000000,no screening,11082.53092521,12125.73373781,16801.00428892,595.47681981,651.47581178,894.92752282,0.05120961,0.05348282,0.05378710,0.05175727,0.09165062,0.09513362,715918.21624519,716036.60329175,716182.09892395,181127.47960750,181170.56378599,181227.88236595
4.99725275,0.70000000,0.40000000,no screening,10990.14028107,12037.97240650,16714.30076682,720.08972048,788.79427176,1078.83754863,0.06234852,0.06506304,0.06562275,0.07390827,0.10649254,0.11201779,898520.94847871,898706.10957757,898860.38595473,182599.50080323,182660.45447467,182720.23033370
5.99725275,0.70000000,0.40000000,no screening,11227.96566071,12326.87362802,17142.67041282,855.67407515,938.67408685,1279.79069149,0.07233025,0.07567915,0.07636217,0.05123897,0.09513968,0.10148894,1082708.46804374,1082910.92520146,1083083.75020877,184109.65720307,184190.51654528,184243.40076350
6.99725275,0.70000000,0.40000000,no screening,11243.53441799,12264.35401198,16846.16347012,964.48364928,1053.82053260,1411.35708570,0.08136658,0.08518546,0.08598675,0.08533632,0.10810908,0.11094698,1268448.22648721,1268700.56687395,1268826.70600148,185697.11438321,185770.80558612,185831.16691041
7.99725275,0.70000000,0.40000000,no screening,11301.64014971,12344.21086164,16974.90169063,1067.46854731,1169.07141297,1565.20851488,0.08980478,0.09375833,0.09475494,0.08421002,0.11143315,0.11289812,1455864.95199080,1456133.02579828,1456270.44560893,187377.78614892,187439.96030295,187501.91765677
8.99725275,0.70000000,0.40000000,no screening,11445.57877659,12515.21971447,17176.54571216,1170.03766865,1283.77460595,1714.79844117,0.09737058,0.10145385,0.10261881,0.08054040,0.10854416,0.11043551,1644985.63300683,1645325.87609116,1645462.31094085,189108.28216932,189188.45472881,189231.37995739
9.99725275,0.70000000,0.40000000,no screening,11517.71431061,12547.27965687,16990.26812812,1257.16116786,1375.23341469,1814.90540052,0.10431659,0.10828423,0.10962998,0.10463613,0.11509162,0.12055583,1835907.31954124,1836251.93276369,1836445.31622582,190861.94402816,190947.98986247,191007.32718628
0.99725275,0.70000000,0.40000000,perfect screening,11274.57038751,12350.43263904,16568.86087749,0.00000000,0.00000000,0.00000000,0.00000000,0.00000000,0.00000000,0.02194092,0.04904111,0.05393575,102265.41656487,103931.84582262,104569.24275369,102265.41656487,103931.84582262,104569.24275369
1.99725275,0.70000000,0.40000000,perfect screening,10506.41888705,11550.11642380,15919.56385670,0.00000000,0.00000000,0.00000000,0.00000000,0.00000000,0.00000000,0.08521309,0.11657904,0.12730699,205275.41540874,208205.83277462,209435.11348203,103009.99884387,104273.98695200,104865.87072834
2.99725275,0.70000000,0.40000000,perfect screening,10867.57584120,11996.96068816,16410.34220111,0.00000000,0.00000000,0.00000000,0.00000000,0.00000000,0.00000000,0.06181136,0.09400031,0.10601115,308437.54905512,312326.30915071,314001.96580845,103131.75277278,104120.47637608,104566.85232642
3.99725275,0.70000000,0.40000000,perfect screening,10780.37425725,11766.10408169,16087.02248631,0.00000000,0.00000000,0.00000000,0.00000000,0.00000000,0.00000000,0.09145669,0.11703996,0.12175368,411905.81518616,416596.35838145,418651.34219410,103411.16623681,104291.95144945,104649.37638565
4.99725275,0.70000000,0.40000000,perfect screening,10700.61843941,11669.62664459,15965.21503117,0.00000000,0.00000000,0.00000000,0.00000000,0.00000000,0.00000000,0.11494343,0.13276816,0.13488604,515484.04765660,520772.28525680,523287.43127166,103578.23247043,104175.92687535,104636.08907756
5.99725275,0.70000000,0.40000000,perfect screening,10917.86363591,11932.41751211,16263.20366835,0.00000000,0.00000000,0.00000000,0.00000000,0.00000000,0.00000000,0.09956362,0.12425488,0.12604000,619250.71890007,625061.43769408,628062.90733604,103766.67124347,104289.15243727,104775.47606438
6.99725275,0.70000000,0.40000000,perfect screening,10923.87787780,11860.71197067,15947.82327272,0.00000000,0.00000000,0.00000000,0.00000000,0.00000000,0.00000000,0.13033242,0.13804159,0.14551195,723368.04304583,729654.97444070,733302.21597991,104117.32414576,104593.53674663,105239.30864387
7.99725275,0.70000000,0.40000000,perfect screening,10998.76573297,11983.62689848,16110.15953453,0.00000000,0.00000000,0.00000000,0.00000000,0.00000000,0.00000000,0.13029604,0.13612049,0.14067341,827869.13961330,834643.98522946,839113.08986455,104459.89397126,104989.01078875,105810.87388464
8.99725275,0.70000000,0.40000000,perfect screening,11145.83537766,12133.19870408,16216.58259797,0.00000000,0.00000000,0.00000000,0.00000000,0.00000000,0.00000000,0.12994486,0.13637811,0.14100144,932902.37711275,940276.64882134,945692.97488640,104945.65903719,105725.76347695,106579.88502185
9.99725275,0.70000000,0.40000000,perfect screening,11200.48727172,12179.13943748,16088.94334622,0.00000000,0.00000000,0.00000000,0.00000000,0.00000000,0.00000000,0.13426067,0.14585073,0.15494967,1038496.25849768,1046631.55620231,1053187.21766213,105538.37769779,106580.72786095,107494.24277573
0.99725275,0.70000000,0.40000000,realistic screening,11484.32542414,12648.93595990,16831.89833617,0.01944591,0.06986479,0.46904962,0.00000139,0.00000573,0.00003669,0.00692671,0.02910911,0.03582633,67039.12196567,74294.35400331,80518.61412245,67039.12196567,74294.35400331,80518.61412245
1.99725275,0.70000000,0.40000000,realistic screening,11018.88400652,12251.71833383,16519.33557945,0.04876287,0.17442226,1.17758117,0.00000364,0.00001502,0.00009549,0.05144917,0.06607170,0.08435418,134498.40071715,149019.56617360,161396.80476893,67459.27875148,74725.21217029,80878.19064648
2.99725275,0.70000000,0.40000000,realistic screening,11306.69783466,12590.12327586,16839.35685552,0.07797305,0.28051175,1.88114021,0.00000566,0.00002342,0.00014844,0.03807619,0.04911275,0.06859499,202110.50677058,223809.14173303,242214.29522440,67612.10605343,74789.57555943,80817.49045547
3.99725275,0.70000000,0.40000000,realistic screening,11262.47805194,12454.65850796,16826.07559788,0.10183908,0.36501994,2.45584309,0.00000744,0.00003089,0.00019538,0.04959321,0.07316192,0.08003015,270002.32773354,298906.64825005,323232.39303881,67891.82096296,75097.50651702,81018.09781441
4.99725275,0.70000000,0.40000000,realistic screening,11265.10937837,12504.82142836,16763.47783790,0.12424780,0.44447610,2.99504551,0.00000907,0.00003764,0.00023789,0.06695290,0.07737077,0.08813880,338064.89945934,374100.10279200,404391.18821228,68062.57172580,75193.45454195,81158.79517347
5.99725275,0.70000000,0.40000000,realistic screening,11459.23980640,12708.00300399,17029.09743385,0.14654206,0.52585773,3.52993529,0.00001052,0.00004366,0.00027565,0.05684503,0.07122899,0.08211848,406367.17069315,449516.51422112,485814.16909623,68302.27123380,75416.41142912,81422.98088396
6.99725275,0.70000000,0.40000000,realistic screening,11488.32730172,12670.90092286,16958.15538697,0.16414428,0.58694518,3.95336520,0.00001182,0.00004896,0.00030896,0.07467041,0.08804425,0.09549157,474982.63976191,525274.26261434,567670.29916558,68615.46906876,75757.74839322,81856.13006934
7.99725275,0.70000000,0.40000000,realistic screening,11591.40350022,12860.59157270,17059.31221106,0.18191807,0.65149957,4.38518586,0.00001298,0.00005365,0.00033849,0.07090581,0.08401280,0.08964686,543982.25456973,601314.15321552,650000.70309097,68999.61480782,76039.89060118,82330.40392540
8.99725275,0.70000000,0.40000000,realistic screening,11730.59039005,12970.64945500,17256.58700170,0.19789751,0.70840041,4.76306598,0.00001400,0.00005774,0.00036413,0.07023823,0.08604107,0.09199440,613450.90147092,677843.29420275,732938.29641493,69468.64690118,76529.14098723,82937.59332395
9.99725275,0.70000000,0.40000000,realistic screening,11815.42603220,13053.16249242,17222.31011112,0.21137942,0.75535423,5.08931614,0.00001489,0.00006128,0.00038645,0.07741238,0.09111984,0.09987363,683447.23703457,754928.20417492,816551.28660521,69996.33556365,77084.90997217,83612.99019029
0.99725275,0.70000000,0.40000000,no vaccine,11901.86216140,13004.18896838,16950.51793737,NaN,NaN,NaN,NaN,NaN,NaN,NaN,NaN,NaN,NaN,NaN,NaN,NaN,NaN,NaN
1.99725275,0.70000000,0.40000000,no vaccine,11998.60200522,13095.29209657,17424.82507727,NaN,NaN,NaN,NaN,NaN,NaN,NaN,NaN,NaN,NaN,NaN,NaN,NaN,NaN,NaN
2.99725275,0.70000000,0.40000000,no vaccine,12115.51951159,13257.88817089,17506.22538637,NaN,NaN,NaN,NaN,NaN,NaN,NaN,NaN,NaN,NaN,NaN,NaN,NaN,NaN,NaN
3.99725275,0.70000000,0.40000000,no vaccine,12241.70308587,13350.52596319,17729.94541275,NaN,NaN,NaN,NaN,NaN,NaN,NaN,NaN,NaN,NaN,NaN,NaN,NaN,NaN,NaN
4.99725275,0.70000000,0.40000000,no vaccine,12353.60209340,13483.40552171,18060.43110882,NaN,NaN,NaN,NaN,NaN,NaN,NaN,NaN,NaN,NaN,NaN,NaN,NaN,NaN,NaN
5.99725275,0.70000000,0.40000000,no vaccine,12484.43983998,13642.04173786,18085.87785764,NaN,NaN,NaN,NaN,NaN,NaN,NaN,NaN,NaN,NaN,NaN,NaN,NaN,NaN,NaN
6.99725275,0.70000000,0.40000000,no vaccine,12618.53571086,13761.27021270,18419.10812004,NaN,NaN,NaN,NaN,NaN,NaN,NaN,NaN,NaN,NaN,NaN,NaN,NaN,NaN,NaN
7.99725275,0.70000000,0.40000000,no vaccine,12731.74914712,13892.29755406,18552.90538736,NaN,NaN,NaN,NaN,NaN,NaN,NaN,NaN,NaN,NaN,NaN,NaN,NaN,NaN,NaN
8.99725275,0.70000000,0.40000000,no vaccine,12865.35219065,14067.21724776,18690.60339010,NaN,NaN,NaN,NaN,NaN,NaN,NaN,NaN,NaN,NaN,NaN,NaN,NaN,NaN,NaN
9.99725275,0.70000000,0.40000000,no vaccine,13002.30578368,14179.21084400,18986.79707795,NaN,NaN,NaN,NaN,NaN,NaN,NaN,NaN,NaN,NaN,NaN,NaN,NaN,NaN,NaN
0.99725275,0.70000000,0.60000000,no screening,11138.73850619,12219.07737540,16503.67375426,168.23911406,183.88485450,252.13576105,0.01457882,0.01499491,0.01536754,0.02589092,0.05923396,0.06549498,176632.10118132,176646.81832784,176673.62817135,176632.10118132,176646.81832784,176673.62817135
1.99725275,0.70000000,0.60000000,no screening,10090.59713385,11173.47359132,15761.74388108,397.75231355,439.85680792,625.39695703,0.03800486,0.03923319,0.03981761,0.09396655,0.14537536,0.16566099,355097.65330928,355117.57867536,355169.13686191,178440.32391683,178471.99207792,178503.54525389
2.99725275,0.70000000,0.60000000,no screening,10582.71212849,11832.30073440,16688.78064640,652.35134621,726.63217242,1019.69223817,0.05881143,0.06133266,0.06169820,0.04623453,0.10638999,0.13463506,534817.38226423,534916.79722114,534998.03565626,179716.20303869,179796.90933444,179829.11858201
3.99725275,0.70000000,0.60000000,no screening,10579.29918936,11583.92307148,16326.29194392,861.15518381,941.36939302,1301.29323057,0.07691381,0.08078742,0.08146291,0.07786697,0.13191186,0.13628062,715966.02056631,716100.23546809,716210.79650234,181148.63830209,181198.14533622,181216.33005709
4.99725275,0.70000000,0.60000000,no screening,10330.46092695,11320.60772672,16066.36893955,1030.95643960,1127.59711042,1557.48938893,0.09404808,0.09905133,0.09988359,0.10965812,0.15972344,0.16379736,898617.24407085,898764.16425919,898910.48110278,182618.03998934,182681.35820498,182739.82596950
5.99725275,0.70000000,0.60000000,no screening,10615.42226580,11711.63485606,16650.13730542,1240.09681918,1362.62331021,1874.24390875,0.10965687,0.11592326,0.11696770,0.07829687,0.14027812,0.15239744,1082780.04596807,1082952.89032215,1083153.49652630,184147.48197727,184192.12636977,184258.77359187
6.99725275,0.70000000,0.60000000,no screening,10657.06525848,11634.31005152,16158.13121766,1408.82212482,1538.01271194,2048.94911543,0.12390485,0.13120092,0.13241289,0.12227844,0.15402067,0.15738073,1268548.09084973,1268706.03996227,1268917.33478129,185705.37062701,185751.84028291,185821.96461007
7.99725275,0.70000000,0.60000000,no screening,10638.53692208,11601.57035925,16185.48885909,1556.71289030,1699.30660627,2270.61740881,0.13751648,0.14529913,0.14662223,0.12681018,0.16323718,0.16676259,1456004.65017183,1456174.60331038,1456341.05625503,187403.38239311,187446.23479592,187503.08650071
8.99725275,0.70000000,0.60000000,no screening,10815.41665767,11831.20111725,16539.64687687,1722.02639310,1885.53249892,2525.01602860,0.14983219,0.15811173,0.15962290,0.11434817,0.15682210,0.16106753,1645191.62570681,1645382.91468194,1645529.69233058,189124.66495674,189195.32735621,189237.56827598
9.99725275,0.70000000,0.60000000,no screening,10872.62584486,11861.12115388,16133.07671434,1857.00487723,2031.54610480,2647.93836226,0.16124053,0.16957625,0.17135393,0.14999564,0.16388811,0.17028759,1836089.03937418,1836284.57916657,1836483.08922192,190866.04615187,190927.00579103,191008.92764991
0.99725275,0.70000000,0.60000000,perfect screening,10974.63634919,12042.03842010,16261.29462203,0.00000000,0.00000000,0.00000000,0.00000000,0.00000000,0.00000000,0.04010075,0.07299279,0.07936099,102245.52359505,103894.87805856,104523.82601772,102245.52359505,103894.87805856,104523.82601772
1.99725275,0.70000000,0.60000000,perfect screening,9786.41820462,10807.22670237,15212.22431796,0.00000000,0.00000000,0.00000000,0.00000000,0.00000000,0.00000000,0.12520160,0.17337908,0.18895607,204950.06025219,207855.48327343,209013.03650496,102704.53665714,103960.60521488,104489.21048724
2.99725275,0.70000000,0.60000000,perfect screening,10201.76670138,11346.30914556,15845.40303191,0.00000000,0.00000000,0.00000000,0.00000000,0.00000000,0.00000000,0.09372148,0.14313722,0.16295623,307548.91631891,311207.98584174,312684.18835963,102518.88226670,103334.70851853,103671.15185467
3.99725275,0.70000000,0.60000000,perfect screening,10133.62181059,11055.24452465,15306.56326086,0.00000000,0.00000000,0.00000000,0.00000000,0.00000000,0.00000000,0.13509275,0.16828877,0.17433212,410094.31295300,414378.21186757,416000.44603064,102531.68050429,103150.39759829,103366.59274711
4.99725275,0.70000000,0.60000000,perfect screening,9898.95417048,10772.66283099,14940.25469638,0.00000000,0.00000000,0.00000000,0.00000000,0.00000000,0.00000000,0.17110780,0.19679055,0.20260898,512357.44033031,517072.91903844,518971.07797916,102156.84511038,102660.56810222,102975.03800436
5.99725275,0.70000000,0.60000000,perfect screening,10140.28878320,11088.15677522,15374.88938998,0.00000000,0.00000000,0.00000000,0.00000000,0.00000000,0.00000000,0.14802619,0.18505878,0.18836705,614552.52450472,619475.18832687,621749.10335258,101960.67829750,102432.59496517,102778.02537342
6.99725275,0.70000000,0.60000000,perfect screening,10153.74239842,11011.49662481,14847.77005373,0.00000000,0.00000000,0.00000000,0.00000000,0.00000000,0.00000000,0.18947199,0.19868947,0.20827706,716865.76841770,721982.58201461,724694.04892041,102115.28791753,102598.88688605,102944.94556783
7.99725275,0.70000000,0.60000000,perfect screening,10155.83726553,11034.22472471,14886.26204297,0.00000000,0.00000000,0.00000000,0.00000000,0.00000000,0.00000000,0.19473502,0.20276741,0.21064292,819286.54119076,824590.16648041,828093.39557972,102390.82619400,102560.45752595,103400.35836503
8.99725275,0.70000000,0.60000000,perfect screening,10309.59672446,11226.47001988,15099.50758676,0.00000000,0.00000000,0.00000000,0.00000000,0.00000000,0.00000000,0.19013070,0.19950296,0.20378474,921993.98811290,927553.23830771,932103.19850371,102633.79101722,103108.91492781,104016.29289151
9.99725275,0.70000000,0.60000000,perfect screening,10365.61627380,11240.87366985,14748.45122399,0.00000000,0.00000000,0.00000000,0.00000000,0.00000000,0.00000000,0.19795400,0.21314844,0.22740123,1025237.49043123,1031223.40784708,1036989.09073585,103103.10291956,103907.79460858,104894.93579333
0.99725275,0.70000000,0.60000000,realistic screening,11287.16818092,12475.94695820,16650.82826164,0.02863822,0.10298049,0.69134182,0.00000207,0.00000858,0.00005493,0.01768190,0.04272796,0.05293842,67027.47735451,74274.48231623,80495.05316964,67027.47735451,74274.48231623,80495.05316964
1.99725275,0.70000000,0.60000000,realistic screening,10527.97514784,11851.55408122,16094.03635321,0.07064390,0.25370828,1.71215782,0.00000549,0.00002270,0.00014422,0.07590808,0.09639293,0.12592742,134360.06978104,148825.21282518,161111.94116732,67332.59242652,74550.73050895,80616.88799767
2.99725275,0.70000000,0.60000000,realistic screening,10900.20245547,12250.65577864,16527.78000097,0.11495273,0.41402603,2.77192770,0.00000860,0.00003571,0.00022589,0.05600526,0.07465998,0.10514257,201692.77750501,223304.27845812,241406.98418038,67332.70772397,74479.06563294,80295.04301306
3.99725275,0.70000000,0.60000000,realistic screening,10806.10247218,12047.40440169,16328.82794917,0.14996361,0.53759795,3.62212771,0.00001137,0.00004737,0.00029897,0.07700575,0.10458929,0.11728208,269157.99051298,297894.03540045,321691.84960114,67465.21300798,74589.75694233,80284.86542077
4.99725275,0.70000000,0.60000000,realistic screening,10733.57939072,12013.02733138,16173.71389424,0.18291487,0.65418593,4.41284677,0.00001394,0.00005811,0.00036622,0.10062970,0.11581843,0.13187641,336637.46219113,372382.34180719,401898.01637534,67479.47167814,74488.30640674,80206.16677420
5.99725275,0.70000000,0.60000000,realistic screening,10943.16193615,12258.16874416,16500.00552558,0.21765296,0.78112396,5.25013239,0.00001626,0.00006780,0.00042672,0.08592563,0.10625051,0.12345708,404224.13634419,446934.45066284,482178.45573237,67586.67415306,74552.10885566,80280.43935703
6.99725275,0.70000000,0.60000000,realistic screening,10957.52107748,12172.80756079,16239.62511096,0.24408352,0.87370254,5.88197782,0.00001835,0.00007639,0.00048039,0.10885970,0.12792341,0.13730343,472052.46242552,521672.31055697,562732.21638476,67828.32608132,74737.85989412,80553.76065239
7.99725275,0.70000000,0.60000000,realistic screening,11040.07144430,12334.53271105,16379.37570649,0.27152624,0.96991214,6.54010354,0.00002025,0.00008406,0.00052848,0.10633320,0.12639322,0.13310696,540125.35370865,596592.41912784,643668.03859880,68072.89128314,74920.10857088,80935.82221404
8.99725275,0.70000000,0.60000000,realistic screening,11170.32387594,12467.30566047,16532.62878672,0.29651792,1.06122142,7.14684647,0.00002192,0.00009079,0.00057049,0.10525781,0.12735053,0.13413849,608617.02130742,671890.16020923,725137.40728075,68491.66759877,75297.74108138,81469.36868195
9.99725275,0.70000000,0.60000000,realistic screening,11245.58220042,12511.46031145,16411.66894106,0.31709055,1.13397849,7.63350672,0.00002342,0.00009664,0.00060716,0.11377354,0.13489164,0.14734294,677581.17319252,747666.69010598,807302.70286977,68964.15188510,75776.52989675,82165.29558902
0.99725275,0.70000000,0.60000000,no vaccine,11901.86216140,13004.18896838,16950.51793737,NaN,NaN,NaN,NaN,NaN,NaN,NaN,NaN,NaN,NaN,NaN,NaN,NaN,NaN,NaN
1.99725275,0.70000000,0.60000000,no vaccine,11998.60200522,13095.29209657,17424.82507727,NaN,NaN,NaN,NaN,NaN,NaN,NaN,NaN,NaN,NaN,NaN,NaN,NaN,NaN,NaN
2.99725275,0.70000000,0.60000000,no vaccine,12115.51951159,13257.88817089,17506.22538637,NaN,NaN,NaN,NaN,NaN,NaN,NaN,NaN,NaN,NaN,NaN,NaN,NaN,NaN,NaN
3.99725275,0.70000000,0.60000000,no vaccine,12241.70308587,13350.52596319,17729.94541275,NaN,NaN,NaN,NaN,NaN,NaN,NaN,NaN,NaN,NaN,NaN,NaN,NaN,NaN,NaN
4.99725275,0.70000000,0.60000000,no vaccine,12353.60209340,13483.40552171,18060.43110882,NaN,NaN,NaN,NaN,NaN,NaN,NaN,NaN,NaN,NaN,NaN,NaN,NaN,NaN,NaN
5.99725275,0.70000000,0.60000000,no vaccine,12484.43983998,13642.04173786,18085.87785764,NaN,NaN,NaN,NaN,NaN,NaN,NaN,NaN,NaN,NaN,NaN,NaN,NaN,NaN,NaN
6.99725275,0.70000000,0.60000000,no vaccine,12618.53571086,13761.27021270,18419.10812004,NaN,NaN,NaN,NaN,NaN,NaN,NaN,NaN,NaN,NaN,NaN,NaN,NaN,NaN,NaN
7.99725275,0.70000000,0.60000000,no vaccine,12731.74914712,13892.29755406,18552.90538736,NaN,NaN,NaN,NaN,NaN,NaN,NaN,NaN,NaN,NaN,NaN,NaN,NaN,NaN,NaN
8.99725275,0.70000000,0.60000000,no vaccine,12865.35219065,14067.21724776,18690.60339010,NaN,NaN,NaN,NaN,NaN,NaN,NaN,NaN,NaN,NaN,NaN,NaN,NaN,NaN,NaN
9.99725275,0.70000000,0.60000000,no vaccine,13002.30578368,14179.21084400,18986.79707795,NaN,NaN,NaN,NaN,NaN,NaN,NaN,NaN,NaN,NaN,NaN,NaN,NaN,NaN,NaN
0.99725275,0.70000000,0.80000000,no screening,10898.88639998,11973.24470093,16271.60013138,217.59088707,238.10054823,328.98819194,0.01928978,0.01982967,0.02033234,0.03968669,0.07818963,0.08610746,176639.49692837,176659.12587678,176692.62652863,176639.49692837,176659.12587678,176692.62652863
1.99725275,0.70000000,0.80000000,no screening,9466.01740135,10543.26673753,15227.36430063,496.63356696,552.18644255,802.12120308,0.05051249,0.05220697,0.05287741,0.12407745,0.19356021,0.21948827,355125.99884626,355162.91106650,355199.04023324,178463.47689402,178494.97673739,178555.84477350
2.99725275,0.70000000,0.80000000,no screening,10011.87325329,11295.54267630,16353.25610317,827.27119802,928.19458620,1328.46740001,0.07839920,0.08201598,0.08268424,0.06490921,0.14691137,0.18510143,534915.49238115,534970.99010364,535008.50380187,179765.72176027,179808.03244211,179835.26449612
3.99725275,0.70000000,0.80000000,no screening,10109.61216888,11110.53377066,15908.92564583,1107.39195929,1211.79514108,1686.47129415,0.10264185,0.10865277,0.10959087,0.10142316,0.16737577,0.17479639,716116.71195897,716168.46713943,716237.88067902,181149.14818817,181216.20961719,181259.32065649
4.99725275,0.70000000,0.80000000,no screening,9706.31167695,10611.17575749,15395.84653545,1308.95548548,1427.26077938,1990.68254536,0.12597694,0.13375850,0.13492662,0.14642492,0.21210879,0.21429449,898747.44179689,898875.28204058,898952.56411330,182622.57114698,182685.29422722,182732.48440358
5.99725275,0.70000000,0.80000000,no screening,9990.75211044,11065.33811829,16125.42263815,1585.98957784,1745.40174629,2430.27235705,0.14757205,0.15742767,0.15883918,0.10684058,0.18772644,0.20354379,1082968.94741231,1083044.38900568,1083216.69435937,184158.35311026,184213.40532225,184272.71715870
6.99725275,0.70000000,0.80000000,no screening,10141.98937815,11076.25345158,15600.23640498,1830.32328545,1995.65240689,2657.13216853,0.16718480,0.17900466,0.18061287,0.15252990,0.19509508,0.19651612,1268772.22590804,1268864.99648367,1269032.26101387,185742.98890114,185807.95384676,185845.01087761
7.99725275,0.70000000,0.80000000,no screening,10035.66239394,10930.73173664,15379.15533648,2012.49939168,2191.01565660,2909.59170425,0.18614759,0.19902015,0.20078611,0.17044957,0.21023796,0.21742922,1456181.15355709,1456289.05098318,1456506.18694167,187368.01873754,187431.31644448,187482.40228683
8.99725275,0.70000000,0.80000000,no screening,10196.25383456,11165.47323686,15886.34064309,2234.60319611,2445.66158573,3285.35345024,0.20378781,0.21760738,0.21951401,0.14885570,0.20427431,0.20934926,1645346.83412637,1645516.75719919,1645683.94678968,189156.63885884,189190.59312541,189227.76679866
9.99725275,0.70000000,0.80000000,no screening,10323.14117448,11263.99380478,15480.77549081,2436.62588725,2662.33035102,3454.96331977,0.22013423,0.23449831,0.23652042,0.18475949,0.20592746,0.20997131,1836270.60952300,1836440.01132733,1836697.88535479,190900.82010967,190929.88166973,191036.72059766
0.99725275,0.70000000,0.80000000,perfect screening,10687.39384228,11739.85802841,15960.23319670,0.00000000,0.00000000,0.00000000,0.00000000,0.00000000,0.00000000,0.05776214,0.09605924,0.10362188,102211.59276521,103859.74011206,104487.91949255,102211.59276521,103859.74011206,104487.91949255
1.99725275,0.70000000,0.80000000,perfect screening,9081.90023090,10087.25234861,14504.81672682,0.00000000,0.00000000,0.00000000,0.00000000,0.00000000,0.00000000,0.16526890,0.22845011,0.24936954,204660.85726992,207473.56287192,208580.51047696,102426.22764292,103613.82275986,104092.59098441
2.99725275,0.70000000,0.80000000,perfect screening,9521.66586854,10660.10677363,15262.66587885,0.00000000,0.00000000,0.00000000,0.00000000,0.00000000,0.00000000,0.12649527,0.19490445,0.22122804,306525.52636640,310021.71387318,311350.83531632,101815.27777637,102561.18261103,102800.62752208
3.99725275,0.70000000,0.80000000,perfect screening,9516.74577266,10392.67930444,14573.26312886,0.00000000,0.00000000,0.00000000,0.00000000,0.00000000,0.00000000,0.17613424,0.21809412,0.22376257,408197.29233385,412043.16868230,413309.92629587,101357.83866382,101880.78356133,102374.01953122
4.99725275,0.70000000,0.80000000,perfect screening,9127.78342975,9920.48337852,13951.96897958,0.00000000,0.00000000,0.00000000,0.00000000,0.00000000,0.00000000,0.22511107,0.25784306,0.26672964,509244.16298716,513190.29475438,514593.79157682,100594.25124289,101173.68963029,101505.57966029
5.99725275,0.70000000,0.80000000,perfect screening,9372.21799957,10245.69530272,14473.49124213,0.00000000,0.00000000,0.00000000,0.00000000,0.00000000,0.00000000,0.19750245,0.24696215,0.25015531,609761.68591143,613804.53542515,615321.11164902,99906.00407831,100564.71962071,100861.46994764
6.99725275,0.70000000,0.80000000,perfect screening,9430.21066308,10219.08871421,13843.44952622,0.00000000,0.00000000,0.00000000,0.00000000,0.00000000,0.00000000,0.24435295,0.25563302,0.26602207,710202.60145553,714073.83515776,715928.70733771,99809.90546154,100464.70101577,100704.15342852
7.99725275,0.70000000,0.80000000,perfect screening,9350.63142138,10128.59848246,13667.45755844,0.00000000,0.00000000,0.00000000,0.00000000,0.00000000,0.00000000,0.25693602,0.26728371,0.27989070,810283.34185370,814330.12127034,816707.09590770,99942.22499102,100275.28013604,100882.48088817
8.99725275,0.70000000,0.80000000,perfect screening,9497.22389244,10321.62387339,14013.17249865,0.00000000,0.00000000,0.00000000,0.00000000,0.00000000,0.00000000,0.24834075,0.26266302,0.26785536,910642.04954064,915059.79477867,918084.86162629,100126.75566784,100406.85038465,101403.90263026
9.99725275,0.70000000,0.80000000,perfect screening,9569.77818932,10361.13291619,13558.08071427,0.00000000,0.00000000,0.00000000,0.00000000,0.00000000,0.00000000,0.25823411,0.27608334,0.29176442,1011582.07455580,1016014.61030354,1020291.49845578,100556.45820313,101170.26156162,102235.09712213
0.99725275,0.70000000,0.80000000,realistic screening,11089.42034727,12309.82860768,16464.53867245,0.03747960,0.13496801,0.90629782,0.00000276,0.00001142,0.00007311,0.02862115,0.05571903,0.06972120,67008.95817095,74266.94702496,80472.53638321,67008.95817095,74266.94702496,80472.53638321
1.99725275,0.70000000,0.80000000,realistic screening,10066.96150199,11454.34723138,15677.74573387,0.09107330,0.32758869,2.21036775,0.00000737,0.00003051,0.00019364,0.09972121,0.12702368,0.16669011,134196.45964969,148630.65874713,160899.48306118,67187.50147874,74363.71172218,80426.94667797
2.99725275,0.70000000,0.80000000,realistic screening,10464.67943073,11904.69172597,16214.31879869,0.15017752,0.54162272,3.62611144,0.00001161,0.00004841,0.00030563,0.07398609,0.10068755,0.14099602,201208.17952284,222691.45165360,240680.78436919,67011.71987315,74060.79290647,79781.30130801
3.99725275,0.70000000,0.80000000,realistic screening,10379.60610701,11639.85742815,15829.83158493,0.19652126,0.70409143,4.74623176,0.00001543,0.00006461,0.00040672,0.10458702,0.13547511,0.15211916,268235.30629384,296764.24895332,320235.15460147,67027.12677100,74072.79729972,79554.37023227
4.99725275,0.70000000,0.80000000,realistic screening,10203.31332024,11537.01354191,15607.30201934,0.23887872,0.85318988,5.77773581,0.00001905,0.00007975,0.00050126,0.13300468,0.15433325,0.17406258,335131.67639782,370544.16532957,399533.21527292,66896.37010398,73779.91637625,79298.06067145
5.99725275,0.70000000,0.80000000,realistic screening,10446.32557418,11802.70391824,15969.06039206,0.28752384,1.02976166,6.92399393,0.00002234,0.00009363,0.00058740,0.11500480,0.14149292,0.16386049,402021.45769256,444207.24580024,478643.31192887,66889.78129475,73663.08047066,79110.09665596
6.99725275,0.70000000,0.80000000,realistic screening,10442.82854732,11696.18421826,15563.64885645,0.32255057,1.15745241,7.79082615,0.00002533,0.00010601,0.00066440,0.14240164,0.16732399,0.17779594,469039.05529630,517959.85830465,557914.07768537,67017.59760374,73752.61250441,79270.76575649
7.99725275,0.70000000,0.80000000,realistic screening,10488.89906548,11815.07598422,15690.95436586,0.35960587,1.28344052,8.67319809,0.00002810,0.00011716,0.00073393,0.14222287,0.16798095,0.17616245,536192.62295680,591732.59035515,637475.73907140,67153.56766049,73772.73205050,79561.66138603
8.99725275,0.70000000,0.80000000,realistic screening,10633.48035665,11969.88402034,15835.84837663,0.39530332,1.41305234,9.51524589,0.00003055,0.00012701,0.00079514,0.13836354,0.16714227,0.17410815,603699.57089121,665799.88507064,717482.47888764,67506.94793442,74067.29471550,80006.73981623
9.99725275,0.70000000,0.80000000,realistic screening,10684.34012079,11982.63524919,15623.40562255,0.42220987,1.51508555,10.18509500,0.00003275,0.00013560,0.00084866,0.15003242,0.17606180,0.19454512,671610.05193064,740262.23904442,798118.12229782,67910.48103943,74462.35397378,80635.64341019
0.99725275,0.70000000,0.80000000,no vaccine,11901.86216140,13004.18896838,16950.51793737,NaN,NaN,NaN,NaN,NaN,NaN,NaN,NaN,NaN,NaN,NaN,NaN,NaN,NaN,NaN
1.99725275,0.70000000,0.80000000,no vaccine,11998.60200522,13095.29209657,17424.82507727,NaN,NaN,NaN,NaN,NaN,NaN,NaN,NaN,NaN,NaN,NaN,NaN,NaN,NaN,NaN
2.99725275,0.70000000,0.80000000,no vaccine,12115.51951159,13257.88817089,17506.22538637,NaN,NaN,NaN,NaN,NaN,NaN,NaN,NaN,NaN,NaN,NaN,NaN,NaN,NaN,NaN
3.99725275,0.70000000,0.80000000,no vaccine,12241.70308587,13350.52596319,17729.94541275,NaN,NaN,NaN,NaN,NaN,NaN,NaN,NaN,NaN,NaN,NaN,NaN,NaN,NaN,NaN
4.99725275,0.70000000,0.80000000,no vaccine,12353.60209340,13483.40552171,18060.43110882,NaN,NaN,NaN,NaN,NaN,NaN,NaN,NaN,NaN,NaN,NaN,NaN,NaN,NaN,NaN
5.99725275,0.70000000,0.80000000,no vaccine,12484.43983998,13642.04173786,18085.87785764,NaN,NaN,NaN,NaN,NaN,NaN,NaN,NaN,NaN,NaN,NaN,NaN,NaN,NaN,NaN
6.99725275,0.70000000,0.80000000,no vaccine,12618.53571086,13761.27021270,18419.10812004,NaN,NaN,NaN,NaN,NaN,NaN,NaN,NaN,NaN,NaN,NaN,NaN,NaN,NaN,NaN
7.99725275,0.70000000,0.80000000,no vaccine,12731.74914712,13892.29755406,18552.90538736,NaN,NaN,NaN,NaN,NaN,NaN,NaN,NaN,NaN,NaN,NaN,NaN,NaN,NaN,NaN
8.99725275,0.70000000,0.80000000,no vaccine,12865.35219065,14067.21724776,18690.60339010,NaN,NaN,NaN,NaN,NaN,NaN,NaN,NaN,NaN,NaN,NaN,NaN,NaN,NaN,NaN
9.99725275,0.70000000,0.80000000,no vaccine,13002.30578368,14179.21084400,18986.79707795,NaN,NaN,NaN,NaN,NaN,NaN,NaN,NaN,NaN,NaN,NaN,NaN,NaN,NaN,NaN
0.99725275,0.90000000,0.40000000,no screening,11242.51495885,12328.29036909,16598.89135130,146.09222604,159.63208839,218.06434083,0.01253770,0.01289916,0.01321582,0.02021954,0.05076524,0.05652607,227112.57442100,227127.71915893,227157.43189625,227112.57442100,227127.71915893,227157.43189625
1.99725275,0.90000000,0.40000000,no screening,10361.95357769,11440.13649403,16006.12327950,350.39599623,386.34002104,545.45655074,0.03261826,0.03365224,0.03419314,0.08040823,0.12498937,0.14195456,456550.15621900,456625.01510473,456647.92154958,229400.43384201,229486.62159857,229517.22172049
2.99725275,0.90000000,0.40000000,no screening,10826.09930406,12055.29792402,16801.85686416,570.76503757,633.59188999,881.02672327,0.05042033,0.05247825,0.05277324,0.03935439,0.08957354,0.11373021,687670.97775124,687766.87378175,687845.66703378,231116.65356948,231150.53431772,231198.71147951
3.99725275,0.90000000,0.40000000,no screening,10786.51647814,11809.20914634,16532.86583111,749.51981105,819.68929225,1130.93126265,0.06589608,0.06897680,0.06954487,0.06680912,0.11525198,0.11935370,920637.68991744,920695.29849755,920819.78139272,232862.80674795,232950.87278143,233027.23493432
4.99725275,0.90000000,0.40000000,no screening,10604.70608835,11619.24756591,16356.52756278,901.44012885,986.17608629,1358.59904123,0.08043899,0.08438118,0.08509858,0.09351361,0.13755638,0.14212915,1155378.86205745,1155500.12806871,1155706.91730964,234731.26389232,234820.13195644,234901.20360167
5.99725275,0.90000000,0.40000000,no screening,10882.98659582,11975.88959274,16846.53751999,1080.06985409,1184.76703659,1622.21485938,0.09357597,0.09849982,0.09939613,0.06746222,0.12089677,0.13081887,1392124.60285004,1392293.18093475,1392529.33913586,236733.09824704,236789.40649510,236859.69831623
6.99725275,0.90000000,0.40000000,no screening,10900.23955405,11894.98506136,16456.04336149,1221.35891968,1333.73958267,1782.44528111,0.10554649,0.11123988,0.11226887,0.10652510,0.13437510,0.13817360,1630896.67803988,1631146.85231214,1631410.01696554,238759.40081319,238865.43975532,238919.79754652
7.99725275,0.90000000,0.40000000,no screening,10910.54254945,11910.39850376,16534.86017541,1350.30913460,1476.59238475,1977.07281809,0.11687176,0.12290607,0.12406362,0.10811232,0.14219045,0.14365642,1871803.91373048,1872142.01342244,1872425.15817763,240904.40083778,240993.86158854,241025.60347470
8.99725275,0.90000000,0.40000000,no screening,11077.37486416,12114.30273715,16784.89212829,1488.54596048,1632.07380941,2179.41510287,0.12713512,0.13340569,0.13480009,0.10115846,0.13667586,0.13976536,2114973.56592778,2115339.63826608,2115676.95503815,243157.06296065,243206.73504291,243273.63232165
9.99725275,0.90000000,0.40000000,no screening,11145.70536138,12145.64688359,16504.60642266,1603.68714176,1753.43213295,2299.67455857,0.13659942,0.14280355,0.14442488,0.13015020,0.14357659,0.14989572,2360460.12952453,2360886.59455399,2361254.29181029,245469.14164585,245509.23067466,245596.64899087
0.99725275,0.90000000,0.40000000,perfect screening,11102.92508547,12170.48608878,16392.55641618,0.00000000,0.00000000,0.00000000,0.00000000,0.00000000,0.00000000,0.03237104,0.06273317,0.06829210,131469.26122272,133596.00671148,134422.72655423,131469.26122272,133596.00671148,134422.72655423
1.99725275,0.90000000,0.40000000,perfect screening,10092.19407023,11131.70598142,15513.86733351,0.00000000,0.00000000,0.00000000,0.00000000,0.00000000,0.00000000,0.10806218,0.14858168,0.16299277,263678.61463729,267467.24569972,268959.45337587,132209.35341457,133871.23898823,134536.72682164
2.99725275,0.90000000,0.40000000,perfect screening,10493.60752092,11618.82494136,16088.49229836,0.00000000,0.00000000,0.00000000,0.00000000,0.00000000,0.00000000,0.08016437,0.12254847,0.13765558,395908.93307009,400763.80957055,402746.50725209,132163.45807376,133293.72854989,133787.05387622
3.99725275,0.90000000,0.40000000,perfect screening,10403.43916594,11359.20067810,15641.80933937,0.00000000,0.00000000,0.00000000,0.00000000,0.00000000,0.00000000,0.11606300,0.14708749,0.15182102,528292.60190733,534034.53829835,536296.46556218,132339.49342878,133281.69757797,133577.41771232
4.99725275,0.90000000,0.40000000,perfect screening,10228.18561813,11152.52593547,15377.66450149,0.00000000,0.00000000,0.00000000,0.00000000,0.00000000,0.00000000,0.14734910,0.17020378,0.17385810,660566.42057377,666854.73400338,669602.44803686,132270.00656493,132853.40374004,133305.98247467
5.99725275,0.90000000,0.40000000,perfect screening,10476.23164277,11447.19843343,15761.02904108,0.00000000,0.00000000,0.00000000,0.00000000,0.00000000,0.00000000,0.12674829,0.15910745,0.16131972,792794.95738813,799549.16593222,802809.88917445,132161.78422041,132774.31025158,133207.44113759
6.99725275,0.90000000,0.40000000,perfect screening,10481.02158253,11377.12000237,15300.20098612,0.00000000,0.00000000,0.00000000,0.00000000,0.00000000,0.00000000,0.16439297,0.17314942,0.18304495,925383.66555485,932577.58644201,936459.57229752,132530.62643414,133056.95422812,133649.68312307
7.99725275,0.90000000,0.40000000,perfect screening,10509.40660728,11431.15828238,15414.68996851,0.00000000,0.00000000,0.00000000,0.00000000,0.00000000,0.00000000,0.16724192,0.17485120,0.18118922,1058250.41390904,1065796.34140180,1070704.37599438,132811.78696952,133222.76122903,134251.88020641
8.99725275,0.90000000,0.40000000,perfect screening,10671.94984299,11621.39365675,15585.51317102,0.00000000,0.00000000,0.00000000,0.00000000,0.00000000,0.00000000,0.16396900,0.17154719,0.17729108,1191665.87406794,1199691.21014199,1205868.11380383,133304.58086129,134038.72527661,135185.25044121
9.99725275,0.90000000,0.40000000,perfect screening,10721.29353508,11638.68223340,15295.21212430,0.00000000,0.00000000,0.00000000,0.00000000,0.00000000,0.00000000,0.17044022,0.18466847,0.19749570,1325799.91138257,1334449.06662262,1342167.76713696,133934.05664344,135101.24149424,136316.07167082
0.99725275,0.90000000,0.40000000,realistic screening,11369.38551628,12553.65403601,16725.60892027,0.02473925,0.08892390,0.59723544,0.00000178,0.00000736,0.00004713,0.01326404,0.03682411,0.04563925,86173.86933118,95509.94237088,103511.59736730,86173.86933118,95509.94237088,103511.59736730
1.99725275,0.90000000,0.40000000,realistic screening,10743.24025392,12016.11521451,16277.99597074,0.06149350,0.22048102,1.48748053,0.00000469,0.00001940,0.00012326,0.06542190,0.08337138,0.10799869,172792.83963117,191470.79362044,207346.82652028,86618.97030000,95960.85124955,103835.22915298
2.99725275,0.90000000,0.40000000,realistic screening,11071.59693340,12403.95060959,16660.31969034,0.09929744,0.35731982,2.39640056,0.00000733,0.00003039,0.00019247,0.04837172,0.06312073,0.08932978,259498.75440407,287399.94938540,310860.42867392,86705.91477290,95929.15576497,103513.60215365
3.99725275,0.90000000,0.40000000,realistic screening,11003.90030920,12216.95099453,16538.91501853,0.12958717,0.46437045,3.12724965,0.00000967,0.00004022,0.00025413,0.06542496,0.09113973,0.10123222,346475.37886100,383585.84137941,414485.17612029,86976.62445692,96185.89199401,103624.74744637
4.99725275,0.90000000,0.40000000,realistic screening,10963.62046286,12224.07939786,16423.98673471,0.15813253,0.56527645,3.81552837,0.00001183,0.00004919,0.00031050,0.08667195,0.09937383,0.11275507,433530.83242215,479736.58343042,518174.37738278,87055.45356116,96150.74205102,103689.20126249
5.99725275,0.90000000,0.40000000,realistic screening,11162.25531877,12446.79420237,16732.53385836,0.18734539,0.67181751,4.51417398,0.00001376,0.00005725,0.00036091,0.07297638,0.09162085,0.10590710,520833.48880933,576078.05780261,622018.33136225,87302.65638718,96341.47437219,103843.95397948
6.99725275,0.90000000,0.40000000,realistic screening,11178.88180557,12393.99942513,16546.47874189,0.20992729,0.75165340,5.06861364,0.00001550,0.00006438,0.00040556,0.09461403,0.11052177,0.11969370,608484.97476090,672746.09971608,726306.12593519,87651.48595157,96668.04191347,104287.79457293
7.99725275,0.90000000,0.40000000,realistic screening,11277.71255441,12553.99538074,16672.83524510,0.23330587,0.83447986,5.61933839,0.00001706,0.00007071,0.00044528,0.09149650,0.10811457,0.11431018,696516.93793771,769734.31676474,831146.78098322,88031.96317680,96988.21704866,104840.65504803
8.99725275,0.90000000,0.40000000,realistic screening,11411.73447839,12679.27411049,16838.36570806,0.25440446,0.90994641,6.12352212,0.00001844,0.00007625,0.00047999,0.09031695,0.11030220,0.11653820,785087.33974550,867247.29083768,936719.16395277,88570.40180779,97512.97407294,105572.38296955
9.99725275,0.90000000,0.40000000,realistic screening,11483.15937168,12746.86196013,16753.69104143,0.27160384,0.97172987,6.54790019,0.00001967,0.00008107,0.00051020,0.09814069,0.11634846,0.12755115,874320.62986299,965350.76190303,1043159.18142365,89233.29011749,98103.47106535,106440.01747088
0.99725275,0.90000000,0.40000000,no vaccine,11901.86216140,13004.18896838,16950.51793737,NaN,NaN,NaN,NaN,NaN,NaN,NaN,NaN,NaN,NaN,NaN,NaN,NaN,NaN,NaN
1.99725275,0.90000000,0.40000000,no vaccine,11998.60200522,13095.29209657,17424.82507727,NaN,NaN,NaN,NaN,NaN,NaN,NaN,NaN,NaN,NaN,NaN,NaN,NaN,NaN,NaN
2.99725275,0.90000000,0.40000000,no vaccine,12115.51951159,13257.88817089,17506.22538637,NaN,NaN,NaN,NaN,NaN,NaN,NaN,NaN,NaN,NaN,NaN,NaN,NaN,NaN,NaN
3.99725275,0.90000000,0.40000000,no vaccine,12241.70308587,13350.52596319,17729.94541275,NaN,NaN,NaN,NaN,NaN,NaN,NaN,NaN,NaN,NaN,NaN,NaN,NaN,NaN,NaN
4.99725275,0.90000000,0.40000000,no vaccine,12353.60209340,13483.40552171,18060.43110882,NaN,NaN,NaN,NaN,NaN,NaN,NaN,NaN,NaN,NaN,NaN,NaN,NaN,NaN,NaN
5.99725275,0.90000000,0.40000000,no vaccine,12484.43983998,13642.04173786,18085.87785764,NaN,NaN,NaN,NaN,NaN,NaN,NaN,NaN,NaN,NaN,NaN,NaN,NaN,NaN,NaN
6.99725275,0.90000000,0.40000000,no vaccine,12618.53571086,13761.27021270,18419.10812004,NaN,NaN,NaN,NaN,NaN,NaN,NaN,NaN,NaN,NaN,NaN,NaN,NaN,NaN,NaN
7.99725275,0.90000000,0.40000000,no vaccine,12731.74914712,13892.29755406,18552.90538736,NaN,NaN,NaN,NaN,NaN,NaN,NaN,NaN,NaN,NaN,NaN,NaN,NaN,NaN,NaN
8.99725275,0.90000000,0.40000000,no vaccine,12865.35219065,14067.21724776,18690.60339010,NaN,NaN,NaN,NaN,NaN,NaN,NaN,NaN,NaN,NaN,NaN,NaN,NaN,NaN,NaN
9.99725275,0.90000000,0.40000000,no vaccine,13002.30578368,14179.21084400,18986.79707795,NaN,NaN,NaN,NaN,NaN,NaN,NaN,NaN,NaN,NaN,NaN,NaN,NaN,NaN,NaN
0.99725275,0.90000000,0.60000000,no screening,10934.15486366,12007.39070209,16300.25299586,210.79158003,230.59401556,318.16341992,0.01862327,0.01914338,0.01962992,0.03799788,0.07551031,0.08314975,227112.95141828,227134.39293956,227181.68055023,227112.95141828,227134.39293956,227181.68055023
1.99725275,0.90000000,0.60000000,no screening,9554.22496895,10629.14184076,15311.94897302,483.47136387,536.92592326,778.29676066,0.04873447,0.05035650,0.05102046,0.11938564,0.18698633,0.21170350,456532.34474063,456632.87025668,456651.68960940,229400.11158516,229475.68066746,229529.61340602
2.99725275,0.90000000,0.60000000,no screening,10097.07748721,11374.09368697,16403.03047252,804.04793211,900.80763657,1285.36017437,0.07559386,0.07903121,0.07969060,0.06199849,0.14098673,0.17835796,687675.23307214,687792.05786745,687882.76459977,231116.23703508,231183.90534219,231248.80336402
3.99725275,0.90000000,0.60000000,no screening,10179.31217166,11174.74776692,15964.47729543,1073.95878088,1174.44251198,1632.68941732,0.09896357,0.10464908,0.10555983,0.09850336,0.16256134,0.16897812,920664.44764771,920761.58022190,920906.12211548,232919.22629795,232979.11125983,233076.46902801
4.99725275,0.90000000,0.60000000,no screening,9792.53267470,10708.39489995,15488.39203157,1271.27948272,1386.29532412,1931.24705640,0.12140103,0.12875661,0.12989747,0.14114797,0.20478578,0.20731707,1155548.42977563,1155608.66431070,1155781.69748324,234800.96150743,234850.48086786,234911.54056052
5.99725275,0.90000000,0.60000000,no screening,10079.23800528,11161.80502307,16212.76004870,1538.99739165,1693.84376915,2355.19644265,0.14210774,0.15141261,0.15278804,0.10227771,0.18064236,0.19697032,1392290.37753260,1392413.51864107,1392620.56322711,236721.18222449,236805.48941186,236854.49812378
6.99725275,0.90000000,0.60000000,no screening,10205.01637238,11152.58592042,15669.14206243,1770.24511188,1931.86262928,2571.26412348,0.16098876,0.17206609,0.17363657,0.14873247,0.18953826,0.19134277,1631142.67573900,1631287.07223931,1631510.82100203,238819.96403110,238873.99268570,238907.36501701
7.99725275,0.90000000,0.60000000,no screening,10117.88832460,11017.54960793,15495.12062197,1949.44312066,2122.10895163,2823.17684780,0.17915010,0.19122236,0.19292996,0.16402002,0.20293669,0.21008453,1872112.31110981,1872356.93687746,1872588.30193913,240967.57117713,241047.18282356,241098.51135148
8.99725275,0.90000000,0.60000000,no screening,10280.93988513,11268.59034588,15994.41411594,2163.55016012,2369.26453229,3183.39844587,0.19600171,0.20895681,0.21082190,0.14324674,0.19691735,0.20267700,2115325.00494909,2115615.61829679,2115866.02417488,243190.13709558,243262.97667957,243298.27968406
9.99725275,0.90000000,0.60000000,no screening,10395.28238468,11345.42171000,15555.71670204,2355.02381106,2574.20697253,3339.65277018,0.21162695,0.22505260,0.22704944,0.18081798,0.20039345,0.20436791,2360814.10688038,2361111.07083238,2361459.40865683,245461.96362442,245531.83880849,245593.38448195
0.99725275,0.90000000,0.60000000,perfect screening,10727.15335900,11782.67397247,15997.24907148,0.00000000,0.00000000,0.00000000,0.00000000,0.00000000,0.00000000,0.05569731,0.09284433,0.10027076,131427.30125088,133538.26328065,134355.62317637,131427.30125088,133538.26328065,134355.62317637
1.99725275,0.90000000,0.60000000,perfect screening,9181.97018028,10184.05001090,14616.06050522,0.00000000,0.00000000,0.00000000,0.00000000,0.00000000,0.00000000,0.15877742,0.22103843,0.24065036,263206.31923836,266817.16535006,268271.37401233,131764.31730613,133278.90206941,133915.75083596
2.99725275,0.90000000,0.60000000,perfect screening,9619.83523575,10768.43452427,15346.16348002,0.00000000,0.00000000,0.00000000,0.00000000,0.00000000,0.00000000,0.12188475,0.18671837,0.21296900,394367.41072802,398884.02325298,400568.44336343,131083.57994700,132002.17845001,132344.50919738
3.99725275,0.90000000,0.60000000,perfect screening,9609.23175037,10491.70929688,14669.77653488,0.00000000,0.00000000,0.00000000,0.00000000,0.00000000,0.00000000,0.17077540,0.21080413,0.21682407,525213.70115335,530271.64101618,531911.17904488,130566.07856853,131243.42949657,131846.18966505
4.99725275,0.90000000,0.60000000,perfect screening,9231.58916057,10036.96096352,14108.07555194,0.00000000,0.00000000,0.00000000,0.00000000,0.00000000,0.00000000,0.21675031,0.24943463,0.25838239,655363.80755014,660551.79668571,662438.96499768,129606.38627928,130341.50194926,130750.20583883
5.99725275,0.90000000,0.60000000,perfect screening,9479.26495562,10371.15661298,14589.47753502,0.00000000,0.00000000,0.00000000,0.00000000,0.00000000,0.00000000,0.19092125,0.23809672,0.24161308,784952.53632172,790239.27667015,792272.10208202,128839.87137300,129663.59120423,130020.89125683
6.99725275,0.90000000,0.60000000,perfect screening,9529.19812561,10329.23661779,13978.66289920,0.00000000,0.00000000,0.00000000,0.00000000,0.00000000,0.00000000,0.23707942,0.24745179,0.25822376,914446.51587434,919624.24003793,922111.50960541,128764.97328481,129561.58780676,129856.24660561
7.99725275,0.90000000,0.60000000,perfect screening,9464.47355707,10255.01809762,13858.12146959,0.00000000,0.00000000,0.00000000,0.00000000,0.00000000,0.00000000,0.24841802,0.25841367,0.26965783,1043734.22938041,1049083.33246559,1052203.23152701,128971.51327849,129361.97479190,130178.82748344
8.99725275,0.90000000,0.60000000,perfect screening,9620.53707564,10453.49320136,14155.24491942,0.00000000,0.00000000,0.00000000,0.00000000,0.00000000,0.00000000,0.24057485,0.25400059,0.25831928,1173234.79766811,1178923.09759575,1183014.45104235,129210.88541605,129618.65868572,130852.25975835
9.99725275,0.90000000,0.60000000,perfect screening,9670.71367710,10482.36817502,13718.67876430,0.00000000,0.00000000,0.00000000,0.00000000,0.00000000,0.00000000,0.25014230,0.26730509,0.28351599,1303232.93027516,1309224.36609983,1314896.59974026,129725.61215672,130624.47559852,131937.00461317
0.99725275,0.90000000,0.60000000,realistic screening,11118.30901780,12334.02135333,16487.70345841,0.03623656,0.13043249,0.87594297,0.00000266,0.00001101,0.00007051,0.02719123,0.05383564,0.06730249,86159.01083194,95471.85353262,103469.68711084,86159.01083194,95471.85353262,103469.68711084
1.99725275,0.90000000,0.60000000,realistic screening,10128.55781347,11510.47896140,15742.39629780,0.08820057,0.31735772,2.14243069,0.00000710,0.00002939,0.00018657,0.09620844,0.12271918,0.16070448,172540.14378431,191154.11577356,206921.16773952,86381.13295238,95682.26224094,103451.48062868
2.99725275,0.90000000,0.60000000,realistic screening,10526.81644725,11957.82925729,16253.62322698,0.14518701,0.52393247,3.50858326,0.00001118,0.00004657,0.00029418,0.07170761,0.09670244,0.13644652,258767.22677925,286466.57715875,309587.80614853,86227.08299494,95312.46138519,102666.63840901
3.99725275,0.90000000,0.60000000,realistic screening,10442.92952077,11700.65237493,15900.50879802,0.19008213,0.68088876,4.59028825,0.00001485,0.00006210,0.00039115,0.10077362,0.13072049,0.14694304,345043.22236471,381826.54671230,411979.65111704,86275.99558546,95359.96955355,102391.84496851
4.99725275,0.90000000,0.60000000,realistic screening,10273.60495382,11602.22255849,15686.73519366,0.23091991,0.82546089,5.58485050,0.00001831,0.00007659,0.00048162,0.12830355,0.14941587,0.16837332,431188.27016992,476819.04198397,514065.67669532,86145.04780521,94992.49527167,102086.02557829
5.99725275,0.90000000,0.60000000,realistic screening,10513.23023846,11871.69441433,16039.78927312,0.27742952,0.99467993,6.68956307,0.00002146,0.00008983,0.00056390,0.11082292,0.13613760,0.15811419,517307.77574011,571680.79886579,616014.90732974,86119.50557018,94861.75688183,101949.23063441
6.99725275,0.90000000,0.60000000,realistic screening,10520.28461656,11762.67647058,15664.57014713,0.31175507,1.11686661,7.52278698,0.00002431,0.00010164,0.00063738,0.13801148,0.16201656,0.17224953,603599.55811616,666705.12955402,718201.89420729,86291.78237605,95024.33068822,102186.98687755
7.99725275,0.90000000,0.60000000,realistic screening,10558.85049936,11887.28461343,15773.20402894,0.34675298,1.23929654,8.36728356,0.00002694,0.00011225,0.00070366,0.13701506,0.16209678,0.17067023,690112.18055929,761798.00585756,820747.95716156,86512.62244313,95092.87630354,102546.06295427
8.99725275,0.90000000,0.60000000,realistic screening,10711.61235608,12045.14923802,15941.08606687,0.38120968,1.36218097,9.18296685,0.00002928,0.00012163,0.00076196,0.13347147,0.16212684,0.16787018,777065.71008646,857259.66645506,923876.48631898,86953.52952716,95461.66059750,103128.52915742
9.99725275,0.90000000,0.60000000,realistic screening,10765.96877666,12058.66577395,15735.33810462,0.40748333,1.46077126,9.82397035,0.00003137,0.00012980,0.00081286,0.14501472,0.17053832,0.18744747,864566.11745164,953257.35954027,1027790.37127996,87500.40736519,95997.69308521,103913.88496099
0.99725275,0.90000000,0.60000000,no vaccine,11901.86216140,13004.18896838,16950.51793737,NaN,NaN,NaN,NaN,NaN,NaN,NaN,NaN,NaN,NaN,NaN,NaN,NaN,NaN,NaN
1.99725275,0.90000000,0.60000000,no vaccine,11998.60200522,13095.29209657,17424.82507727,NaN,NaN,NaN,NaN,NaN,NaN,NaN,NaN,NaN,NaN,NaN,NaN,NaN,NaN,NaN
2.99725275,0.90000000,0.60000000,no vaccine,12115.51951159,13257.88817089,17506.22538637,NaN,NaN,NaN,NaN,NaN,NaN,NaN,NaN,NaN,NaN,NaN,NaN,NaN,NaN,NaN
3.99725275,0.90000000,0.60000000,no vaccine,12241.70308587,13350.52596319,17729.94541275,NaN,NaN,NaN,NaN,NaN,NaN,NaN,NaN,NaN,NaN,NaN,NaN,NaN,NaN,NaN
4.99725275,0.90000000,0.60000000,no vaccine,12353.60209340,13483.40552171,18060.43110882,NaN,NaN,NaN,NaN,NaN,NaN,NaN,NaN,NaN,NaN,NaN,NaN,NaN,NaN,NaN
5.99725275,0.90000000,0.60000000,no vaccine,12484.43983998,13642.04173786,18085.87785764,NaN,NaN,NaN,NaN,NaN,NaN,NaN,NaN,NaN,NaN,NaN,NaN,NaN,NaN,NaN
6.99725275,0.90000000,0.60000000,no vaccine,12618.53571086,13761.27021270,18419.10812004,NaN,NaN,NaN,NaN,NaN,NaN,NaN,NaN,NaN,NaN,NaN,NaN,NaN,NaN,NaN
7.99725275,0.90000000,0.60000000,no vaccine,12731.74914712,13892.29755406,18552.90538736,NaN,NaN,NaN,NaN,NaN,NaN,NaN,NaN,NaN,NaN,NaN,NaN,NaN,NaN,NaN
8.99725275,0.90000000,0.60000000,no vaccine,12865.35219065,14067.21724776,18690.60339010,NaN,NaN,NaN,NaN,NaN,NaN,NaN,NaN,NaN,NaN,NaN,NaN,NaN,NaN,NaN
9.99725275,0.90000000,0.60000000,no vaccine,13002.30578368,14179.21084400,18986.79707795,NaN,NaN,NaN,NaN,NaN,NaN,NaN,NaN,NaN,NaN,NaN,NaN,NaN,NaN,NaN
0.99725275,0.90000000,0.80000000,no screening,10631.00227365,11695.80119905,16010.48568741,270.12140221,295.99108937,412.62701184,0.02458448,0.02524814,0.02591019,0.05516755,0.09971357,0.10914065,227118.55741422,227145.10172314,227194.05307235,227118.55741422,227145.10172314,227194.05307235
1.99725275,0.90000000,0.80000000,no screening,8767.70692306,9830.63421723,14600.31124442,589.66461355,659.82000564,983.71484719,0.06468651,0.06692727,0.06765171,0.15967752,0.24805328,0.27933289,456596.96911941,456646.84650706,456732.59582422,229459.19751947,229521.32365087,229546.43719756
2.99725275,0.90000000,0.80000000,no screening,9295.49918114,10628.58525198,15962.21887453,992.25643157,1126.72433226,1661.56889723,0.10072685,0.10594905,0.10686331,0.08659788,0.19723030,0.24785072,687783.12644875,687855.66901506,687956.21767099,231130.05706833,231197.96101412,231270.73088195
3.99725275,0.90000000,0.80000000,no screening,9620.24962711,10608.47009513,15442.13546978,1368.11630753,1496.41431610,2097.51463063,0.13203254,0.14066713,0.14224519,0.12787211,0.20498733,0.21566576,920785.30198541,920845.40787994,920986.18617628,232919.26928879,233009.04671647,233049.12931644
4.99725275,0.90000000,0.80000000,no screening,9062.00642624,9887.18931228,14607.63233532,1591.73507263,1729.46642303,2426.86346135,0.16258089,0.17399710,0.17569838,0.18947692,0.26285025,0.26773740,1155627.86148842,1155720.36659931,1155877.38524072,234835.94495065,234885.90469633,234922.54691401
5.99725275,0.90000000,0.80000000,no screening,9259.08894334,10288.35438532,15532.25994875,1924.05607365,2119.52577899,3019.25251129,0.19107848,0.20592719,0.20786918,0.13920259,0.24472876,0.26257742,1392470.46481924,1392536.88106747,1392717.57697688,236766.50233609,236831.85795317,236855.14225197
6.99725275,0.90000000,0.80000000,no screening,9588.49116517,10505.33014424,15022.79140073,2275.34500654,2484.53981148,3309.66094411,0.21704807,0.23520023,0.23737956,0.18415678,0.23563390,0.24282062,1631302.63226625,1631439.78954991,1631627.05610361,238805.60932467,238881.75028168,238931.60660968
7.99725275,0.90000000,0.80000000,no screening,9459.24292991,10276.68815721,14487.27192387,2501.66184662,2712.07514865,3557.70002113,0.24253512,0.26232875,0.26458016,0.21859366,0.25685453,0.26597075,1872285.77159171,1872473.68980944,1872680.04193266,240957.98702652,241038.55281026,241088.49511834
8.99725275,0.90000000,0.80000000,no screening,9521.51274794,10415.90244683,15147.79447161,2761.10065654,3015.85259371,4082.98739738,0.26672210,0.28782523,0.29021712,0.18819292,0.25768795,0.26116024,2115517.67931441,2115719.04782157,2115974.56168492,243220.19151854,243248.17795244,243307.13241942
9.99725275,0.90000000,0.80000000,no screening,9740.81479703,10666.61847478,14871.40780267,3053.08358247,3342.81296721,4340.23956697,0.28909309,0.31125637,0.31378403,0.21682338,0.24774484,0.25341132,2361074.83018338,2361298.58813171,2361588.19983432,245521.18519353,245573.10969486,245651.96532984
0.99725275,0.90000000,0.80000000,perfect screening,10369.96875656,11406.88791539,15618.81652447,0.00000000,0.00000000,0.00000000,0.00000000,0.00000000,0.00000000,0.07802434,0.12195911,0.13114938,131376.91010810,133482.65083383,134290.94765097,131376.91010810,133482.65083383,134290.94765097
1.99725275,0.90000000,0.80000000,perfect screening,8309.75911159,9284.48708952,13720.73791309,0.00000000,0.00000000,0.00000000,0.00000000,0.00000000,0.00000000,0.20953333,0.28983543,0.31448108,262716.28827802,266208.85534049,267628.02149139,131297.71923963,132726.20450666,133337.07384042
2.99725275,0.90000000,0.80000000,perfect screening,8708.22231048,9855.61452575,14581.30336886,0.00000000,0.00000000,0.00000000,0.00000000,0.00000000,0.00000000,0.16478781,0.25563546,0.29139441,392772.19320509,397019.57942684,398394.12031564,129844.92286569,130592.64872747,131066.81957683
3.99725275,0.90000000,0.80000000,perfect screening,8859.68458104,9680.19303159,13778.40016165,0.00000000,0.00000000,0.00000000,0.00000000,0.00000000,0.00000000,0.22078660,0.27238692,0.27677866,522095.39648925,526460.66707604,527676.17833217,128364.54026824,129220.95752113,130184.18540753
4.99725275,0.90000000,0.80000000,perfect screening,8320.53584383,9013.62088471,12853.05272814,0.00000000,0.00000000,0.00000000,0.00000000,0.00000000,0.00000000,0.28558006,0.32297919,0.33628878,650116.11275108,654118.00861346,655827.09381969,126834.34162545,127631.12303658,128588.82835635
5.99725275,0.90000000,0.80000000,perfect screening,8482.83557145,9281.46148147,13437.95506547,0.00000000,0.00000000,0.00000000,0.00000000,0.00000000,0.00000000,0.25375988,0.31739735,0.32155194,775970.83983299,780208.67989285,782746.92098545,125383.14834871,126270.59956066,127292.27398812
6.99725275,0.90000000,0.80000000,perfect screening,8636.07536951,9359.73651111,12788.62532648,0.00000000,0.00000000,0.00000000,0.00000000,0.00000000,0.00000000,0.30278923,0.31614175,0.32489102,901065.70731989,905824.35761973,909140.37214890,124826.07719132,125789.26687915,126757.11028307
7.99725275,0.90000000,0.80000000,perfect screening,8496.05900557,9173.76931305,12356.24394334,0.00000000,0.00000000,0.00000000,0.00000000,0.00000000,0.00000000,0.32269360,0.33835408,0.35577548,1025881.55031104,1031354.77931240,1034599.24878855,124815.84299115,125464.26543019,125998.36564390
8.99725275,0.90000000,0.80000000,perfect screening,8596.45703966,9318.45579659,12765.88161430,0.00000000,0.00000000,0.00000000,0.00000000,0.00000000,0.00000000,0.31403394,0.33247635,0.33984806,1150981.42075405,1156503.92084118,1159891.95723735,124763.21000450,125198.86485411,126487.49210401
9.99725275,0.90000000,0.80000000,perfect screening,8689.66304633,9403.54056477,12327.82766804,0.00000000,0.00000000,0.00000000,0.00000000,0.00000000,0.00000000,0.32511703,0.34371316,0.35787941,1276950.41990007,1282463.26556467,1286958.05253399,125146.92863637,125948.12480041,127406.35650502
0.99725275,0.90000000,0.80000000,realistic screening,10873.30088891,12123.31568725,16258.70740881,0.04717436,0.17005873,1.14258607,0.00000354,0.00001464,0.00009378,0.04068344,0.07039476,0.08820536,86127.02991343,95443.33986526,103435.56041501,86127.02991343,95443.33986526,103435.56041501
1.99725275,0.90000000,0.80000000,realistic screening,9525.57194642,10998.25728762,15205.17645335,0.11213639,0.40523428,2.73412828,0.00000954,0.00003955,0.00025094,0.12704869,0.16194029,0.21252906,172327.02087708,190849.05526074,206514.94409404,86199.99096365,95405.71539548,103079.38367903
2.99725275,0.90000000,0.80000000,realistic screening,9963.67699995,11516.88323051,15823.96276590,0.18808761,0.68022890,4.55759118,0.00001516,0.00006342,0.00039980,0.09640189,0.12987263,0.18458496,258043.54642850,285534.03097629,308315.25997925,85716.52555141,94684.97571556,101800.31588522
3.99725275,0.90000000,0.80000000,realistic screening,9910.20617767,11210.87153289,15319.22220415,0.24795115,0.88717473,5.99520634,0.00002026,0.00008526,0.00053541,0.13324301,0.16954711,0.19046136,343654.70186200,380028.13477242,409455.56256587,85611.15543351,94494.10379612,101140.30258662
4.99725275,0.90000000,0.80000000,realistic screening,9617.91563406,10983.41579487,14933.21063893,0.29948103,1.06888322,7.25078832,0.00002519,0.00010600,0.00066432,0.16927059,0.19821042,0.22144974,428855.99066072,473847.97529672,509992.35041876,85201.28879872,93819.84052430,100536.78785289
5.99725275,0.90000000,0.80000000,realistic screening,9856.46341522,11305.27633200,15358.63709288,0.36388057,1.30576005,8.79319601,0.00002975,0.00012539,0.00078375,0.14777720,0.18057790,0.21052061,513817.25476304,567233.66301468,610023.29850418,84961.26410232,93385.68771797,100030.94808543
6.99725275,0.90000000,0.80000000,realistic screening,9892.51309818,11165.32668479,14850.13599732,0.41158819,1.47789680,9.94081176,0.00003392,0.00014279,0.00089126,0.17962751,0.21021244,0.22219264,598791.69314415,660583.94759645,710011.75083860,84974.43838111,93350.28458177,99988.45233441
7.99725275,0.90000000,0.80000000,realistic screening,9863.00206533,11229.33882809,14863.30163985,0.45729967,1.63630807,11.04715217,0.00003783,0.00015857,0.00098924,0.18155770,0.21642853,0.22542448,683799.88546596,753762.14827366,810205.84472791,85008.19232181,93178.20067721,100194.09388931
8.99725275,0.90000000,0.80000000,realistic screening,10020.73448320,11419.06687049,15098.62601172,0.50694210,1.81181693,12.22461347,0.00004135,0.00017269,0.00107643,0.17587801,0.21168916,0.22114982,769135.07241860,847130.34429430,910884.17824644,85335.18695265,93368.19602064,100678.33351853
9.99725275,0.90000000,0.80000000,realistic screening,10071.31563837,11398.39314283,14749.24041275,0.54296188,1.95102823,13.10187546,0.00004451,0.00018501,0.00115270,0.18972415,0.22299569,0.24372637,854932.03762421,940948.82326100,1012305.15858897,85796.96520561,93818.47896670,101420.98034253
0.99725275,0.90000000,0.80000000,no vaccine,11901.86216140,13004.18896838,16950.51793737,NaN,NaN,NaN,NaN,NaN,NaN,NaN,NaN,NaN,NaN,NaN,NaN,NaN,NaN,NaN
1.99725275,0.90000000,0.80000000,no vaccine,11998.60200522,13095.29209657,17424.82507727,NaN,NaN,NaN,NaN,NaN,NaN,NaN,NaN,NaN,NaN,NaN,NaN,NaN,NaN,NaN
2.99725275,0.90000000,0.80000000,no vaccine,12115.51951159,13257.88817089,17506.22538637,NaN,NaN,NaN,NaN,NaN,NaN,NaN,NaN,NaN,NaN,NaN,NaN,NaN,NaN,NaN
3.99725275,0.90000000,0.80000000,no vaccine,12241.70308587,13350.52596319,17729.94541275,NaN,NaN,NaN,NaN,NaN,NaN,NaN,NaN,NaN,NaN,NaN,NaN,NaN,NaN,NaN
4.99725275,0.90000000,0.80000000,no vaccine,12353.60209340,13483.40552171,18060.43110882,NaN,NaN,NaN,NaN,NaN,NaN,NaN,NaN,NaN,NaN,NaN,NaN,NaN,NaN,NaN
5.99725275,0.90000000,0.80000000,no vaccine,12484.43983998,13642.04173786,18085.87785764,NaN,NaN,NaN,NaN,NaN,NaN,NaN,NaN,NaN,NaN,NaN,NaN,NaN,NaN,NaN
6.99725275,0.90000000,0.80000000,no vaccine,12618.53571086,13761.27021270,18419.10812004,NaN,NaN,NaN,NaN,NaN,NaN,NaN,NaN,NaN,NaN,NaN,NaN,NaN,NaN,NaN
7.99725275,0.90000000,0.80000000,no vaccine,12731.74914712,13892.29755406,18552.90538736,NaN,NaN,NaN,NaN,NaN,NaN,NaN,NaN,NaN,NaN,NaN,NaN,NaN,NaN,NaN
8.99725275,0.90000000,0.80000000,no vaccine,12865.35219065,14067.21724776,18690.60339010,NaN,NaN,NaN,NaN,NaN,NaN,NaN,NaN,NaN,NaN,NaN,NaN,NaN,NaN,NaN
9.99725275,0.90000000,0.80000000,no vaccine,13002.30578368,14179.21084400,18986.79707795,NaN,NaN,NaN,NaN,NaN,NaN,NaN,NaN,NaN,NaN,NaN,NaN,NaN,NaN,NaN
